0.150003571207	0.690636644816	CrowdGO	0.0	409.899972708	37.4715998029	411.609169502	0.0
0.150003571207	0.690636644816	CrowdGO	0.0	409.899972708	37.4715998029	411.609169502	0.001
0.150003571207	0.690636644816	CrowdGO	0.0	409.899972708	37.4715998029	411.609169502	0.002
0.150003571207	0.690636644816	CrowdGO	0.0	409.899972708	37.4715998029	411.609169502	0.003
0.150003571207	0.690636644816	CrowdGO	0.0	409.899972708	37.4715998029	411.609169502	0.004
0.150003571207	0.690636644816	CrowdGO	0.0	409.899972708	37.4715998029	411.609169502	0.005
0.150003571207	0.690636644816	CrowdGO	0.0	409.899972708	37.4715998029	411.609169502	0.006
0.150003571207	0.690636644816	CrowdGO	0.0	409.899972708	37.4715998029	411.609169502	0.007
0.150003571207	0.690636644816	CrowdGO	0.0	409.899972708	37.4715998029	411.609169502	0.008
0.150003571207	0.690636644816	CrowdGO	0.0	409.899972708	37.4715998029	411.609169502	0.009
0.150003571207	0.690636644816	CrowdGO	0.0	409.899972708	37.4715998029	411.609169502	0.01
0.150003571207	0.690636644816	CrowdGO	0.0	409.899972708	37.4715998029	411.609169502	0.011
0.150003571207	0.690636644816	CrowdGO	0.0	409.899972708	37.4715998029	411.609169502	0.012
0.150003571207	0.690636644816	CrowdGO	0.0	409.899972708	37.4715998029	411.609169502	0.013
0.150003571207	0.690636644816	CrowdGO	0.0	409.899972708	37.4715998029	411.609169502	0.014
0.150003571207	0.690636644816	CrowdGO	0.0	409.899972708	37.4715998029	411.609169502	0.015
0.150003571207	0.690636644816	CrowdGO	0.0	409.899972708	37.4715998029	411.609169502	0.016
0.150003571207	0.690636644816	CrowdGO	0.0	409.899972708	37.4715998029	411.609169502	0.017
0.150003571207	0.690636644816	CrowdGO	0.0	409.899972708	37.4715998029	411.609169502	0.018
0.150003571207	0.690636644816	CrowdGO	0.0	409.899972708	37.4715998029	411.609169502	0.019
0.150003571207	0.690636644816	CrowdGO	0.0	409.899972708	37.4715998029	411.609169502	0.02
0.150003571207	0.690636644816	CrowdGO	0.0	409.899972708	37.4715998029	411.609169502	0.021
0.150003571207	0.690636644816	CrowdGO	0.0	409.899972708	37.4715998029	411.609169502	0.022
0.150003571207	0.690636644816	CrowdGO	0.0	409.899972708	37.4715998029	411.609169502	0.023
0.150003571207	0.690636644816	CrowdGO	0.0	409.899972708	37.4715998029	411.609169502	0.024
0.150003571207	0.690636644816	CrowdGO	0.0	409.899972708	37.4715998029	411.609169502	0.025
0.150003571207	0.690636644816	CrowdGO	0.0	409.899972708	37.4715998029	411.609169502	0.026
0.150003571207	0.690636644816	CrowdGO	0.0	409.899972708	37.4715998029	411.609169502	0.027
0.150003571207	0.690636644816	CrowdGO	0.0	409.899972708	37.4715998029	411.609169502	0.028
0.150003571207	0.690636644816	CrowdGO	0.0	409.899972708	37.4715998029	411.609169502	0.029
0.150003571207	0.690636644816	CrowdGO	0.0	409.899972708	37.4715998029	411.609169502	0.03
0.150003571207	0.690636644816	CrowdGO	0.0	409.899972708	37.4715998029	411.609169502	0.031
0.150003571207	0.690636644816	CrowdGO	0.0	409.899972708	37.4715998029	411.609169502	0.032
0.150003571207	0.690636644816	CrowdGO	0.0	409.899972708	37.4715998029	411.609169502	0.033
0.15006159069	0.690636644816	CrowdGO	0.034	409.702347912	37.4715998029	411.412365731	0.034
0.150062493014	0.690636644816	CrowdGO	0.035	409.644804985	37.4715998029	411.355062012	0.035
0.150063206729	0.690636644816	CrowdGO	0.036	409.615208348	37.4715998029	411.325588436	0.036
0.150063206729	0.690636644816	CrowdGO	0.036	409.615208348	37.4715998029	411.325588436	0.037
0.150052767576	0.69058681755	CrowdGO	0.036	409.615208348	37.48902999	411.327176685	0.038
0.150061496382	0.69058681755	CrowdGO	0.036	409.525690611	37.48902999	411.238031607	0.039
0.150063807329	0.69058681755	CrowdGO	0.036	409.489861577	37.48902999	411.202351773	0.04
0.150063807329	0.69058681755	CrowdGO	0.036	409.480851981	37.48902999	411.193379699	0.041
0.150070730764	0.69058681755	CrowdGO	0.042	409.151565265	37.48902999	410.865465485	0.042
0.150072069006	0.69058681755	CrowdGO	0.043	409.049199545	37.48902999	410.763526884	0.043
0.15007761044	0.69058681755	CrowdGO	0.044	408.884508412	37.48902999	410.599523366	0.044
0.150080024147	0.69058681755	CrowdGO	0.045	408.741946182	37.48902999	410.457556805	0.045
0.150086325051	0.69058681755	CrowdGO	0.046	408.659383424	37.48902999	410.375339208	0.046
0.150098256473	0.69058681755	CrowdGO	0.047	408.473456696	37.48902999	410.190190271	0.047
0.150100463483	0.69058681755	CrowdGO	0.048	408.389309407	37.48902999	410.106395229	0.048
0.15010059642	0.69058681755	CrowdGO	0.049	408.380414091	37.48902999	410.097537158	0.049
0.150101133973	0.69058681755	CrowdGO	0.05	408.347425325	37.48902999	410.064686531	0.05
0.150105198509	0.69058681755	CrowdGO	0.051	408.31680742	37.48902999	410.034196855	0.051
0.150105675282	0.69058681755	CrowdGO	0.052	408.307442835	37.48902999	410.024871494	0.052
0.150105675282	0.69058681755	CrowdGO	0.052	408.307442835	37.48902999	410.024871494	0.053
0.150105675282	0.69058681755	CrowdGO	0.052	408.307442835	37.48902999	410.024871494	0.054
0.150131910608	0.69058681755	CrowdGO	0.055	408.189323526	37.48902999	409.907247081	0.055
0.150131910608	0.69058681755	CrowdGO	0.055	408.189323526	37.48902999	409.907247081	0.056
0.150131910608	0.69058681755	CrowdGO	0.055	408.189323526	37.48902999	409.907247081	0.057
0.150131910608	0.69058681755	CrowdGO	0.055	408.189323526	37.48902999	409.907247081	0.058
0.150132245584	0.69058681755	CrowdGO	0.059	408.077262462	37.48902999	409.795655795	0.059
0.150132245584	0.69058681755	CrowdGO	0.059	408.077262462	37.48902999	409.795655795	0.06
0.150132245584	0.69058681755	CrowdGO	0.059	408.077262462	37.48902999	409.795655795	0.061
0.150157962914	0.69058681755	CrowdGO	0.062	408.067439293	37.48902999	409.785873818	0.062
0.150186189252	0.69058681755	CrowdGO	0.063	408.05826646	37.48902999	409.776739452	0.063
0.150186189252	0.69058681755	CrowdGO	0.063	408.05826646	37.48902999	409.776739452	0.064
0.150193472215	0.69058681755	CrowdGO	0.065	407.949828427	37.48902999	409.668756293	0.065
0.150193472215	0.69058681755	CrowdGO	0.065	407.949828427	37.48902999	409.668756293	0.066
0.150193472215	0.69058681755	CrowdGO	0.065	407.949828427	37.48902999	409.668756293	0.067
0.150195202742	0.69058681755	CrowdGO	0.068	407.931596827	37.48902999	409.650601195	0.068
0.150200652772	0.69058681755	CrowdGO	0.069	407.827234274	37.48902999	409.546676687	0.069
0.150089885104	0.690101245963	CrowdGO	0.069	407.740346841	37.5341223734	409.464285114	0.07
0.150089885104	0.690101245963	CrowdGO	0.069	407.740346841	37.5341223734	409.464285114	0.071
0.150101005657	0.690101245963	CrowdGO	0.069	407.583979004	37.5341223734	409.308575873	0.072
0.150103712271	0.690101245963	CrowdGO	0.069	407.548700451	37.5341223734	409.273445977	0.073
0.150104952525	0.690101245963	CrowdGO	0.069	407.530681258	37.5341223734	409.255502723	0.074
0.150110752412	0.690101245963	CrowdGO	0.069	407.464684892	37.5341223734	409.189784546	0.075
0.150117169346	0.690101245963	CrowdGO	0.069	407.430397792	37.5341223734	409.155642008	0.076
0.150123442021	0.690101245963	CrowdGO	0.069	407.359868644	37.5341223734	409.085410305	0.077
0.150118063251	0.690087533809	CrowdGO	0.069	407.359868644	37.5481185538	409.08669471	0.078
0.150118660178	0.690087533809	CrowdGO	0.069	407.337416265	37.5481185538	409.064337112	0.079
0.150111756837	0.690048225633	CrowdGO	0.069	407.328875938	37.5526724419	409.056250876	0.08
0.150075109729	0.68961146812	CrowdGO	0.069	407.138475463	37.6174966487	408.872613727	0.081
0.150078824629	0.689428625544	CrowdGO	0.069	406.711129341	37.6519549068	408.450256993	0.082
0.150118662744	0.689372471006	CrowdGO	0.069	406.012197222	37.6616744795	407.755203545	0.083
0.150194417235	0.689372471006	CrowdGO	0.069	405.028784328	37.6616744795	406.776004527	0.084
0.150243413087	0.689355129164	CrowdGO	0.069	403.770520235	37.6713940523	405.524064564	0.085
0.15025659595	0.689355129164	CrowdGO	0.069	403.516566919	37.6713940523	405.271210066	0.086
0.150262225139	0.689322372351	CrowdGO	0.087	403.433344143	37.6759102716	405.188767591	0.087
0.150198139413	0.688855713747	CrowdGO	0.087	403.151489023	37.6946595874	404.909879433	0.088
0.150103991498	0.688228930664	CrowdGO	0.087	402.807129624	37.7809144132	404.575062466	0.089
0.150080552767	0.688123326609	CrowdGO	0.087	402.782254206	37.8022622317	404.552289986	0.09
0.150096368718	0.688123326609	CrowdGO	0.087	402.714963403	37.8022622317	404.485293649	0.091
0.150113485157	0.688123326609	CrowdGO	0.087	402.593815847	37.8022622317	404.364676484	0.092
0.150143700271	0.688123326609	CrowdGO	0.087	402.527903034	37.8022622317	404.299052374	0.093
0.150201057902	0.68810671752	CrowdGO	0.087	402.244429239	37.8052142512	404.017097507	0.094
0.150141904376	0.687840972104	CrowdGO	0.087	402.227127839	37.9127450253	404.009948646	0.095
0.150158070433	0.687840972104	CrowdGO	0.087	402.101149237	37.9127450253	403.884526137	0.096
0.150159880062	0.687840972104	CrowdGO	0.087	402.066540763	37.9127450253	403.850070492	0.097
0.150131138869	0.687738130946	CrowdGO	0.087	401.916161218	37.983148396	403.7069732	0.098
0.150146334402	0.687580898242	CrowdGO	0.087	401.602975597	37.9928811795	403.396094464	0.099
0.150167522385	0.687564289153	CrowdGO	0.087	401.415167678	37.9944727375	403.209271719	0.1
0.150203294101	0.687564289153	CrowdGO	0.087	401.114230261	37.9944727375	402.90967434	0.101
0.150207675061	0.687490586323	CrowdGO	0.087	400.893700705	38.0006835463	402.690714091	0.102
0.150243434668	0.687490586323	CrowdGO	0.087	400.46985625	38.0006835463	402.268763037	0.103
0.15022702636	0.687309163972	CrowdGO	0.087	400.049212153	38.0032215626	401.850241997	0.104
0.150322241355	0.687309163972	CrowdGO	0.087	399.731443844	38.0032215626	401.533899	0.105
0.150355248524	0.687309163972	CrowdGO	0.087	399.321202719	38.0032215626	401.125501296	0.106
0.150357289432	0.687309163972	CrowdGO	0.087	399.207699276	38.0032215626	401.012508546	0.107
0.150369388096	0.687309163972	CrowdGO	0.108	399.029678865	38.0032215626	400.835289694	0.108
0.150275922587	0.686655954575	CrowdGO	0.108	398.859367502	38.0565442268	400.670807026	0.109
0.150284221335	0.686655954575	CrowdGO	0.108	398.72959033	38.0565442268	400.541616768	0.11
0.150308897628	0.686655954575	CrowdGO	0.108	398.485383335	38.0565442268	400.298515223	0.111
0.150386252088	0.686655954575	CrowdGO	0.108	398.141364692	38.0565442268	399.956056133	0.112
0.150406475338	0.686655954575	CrowdGO	0.113	397.919374346	38.0565442268	399.735073566	0.113
0.150436018476	0.686655954575	CrowdGO	0.114	397.449820956	38.0565442268	399.26765551	0.114
0.150529457592	0.686628845488	CrowdGO	0.115	397.259712289	38.0623630799	399.078967738	0.115
0.150557079414	0.686612236399	CrowdGO	0.116	397.048810098	38.0674749196	398.869515314	0.116
0.150584299285	0.686612236399	CrowdGO	0.117	396.742903432	38.0674749196	398.565006079	0.117
0.150615870369	0.686612236399	CrowdGO	0.118	396.56827954	38.0674749196	398.391180856	0.118
0.150688106258	0.686494311871	CrowdGO	0.119	396.228589259	38.0747135918	398.053738534	0.119
0.150764386358	0.686494311871	CrowdGO	0.12	396.064513047	38.0747135918	397.890414952	0.12
0.150894782655	0.686494311871	CrowdGO	0.121	395.676821512	38.0747135918	397.504504247	0.121
0.150875853238	0.685939372914	CrowdGO	0.121	395.069248233	38.1248039947	396.90453711	0.122
0.150800139521	0.685592536066	CrowdGO	0.121	394.872748379	38.1409569196	396.710498988	0.123
0.150840881111	0.685577221193	CrowdGO	0.121	394.651310236	38.1482554093	396.490789378	0.124
0.150874755203	0.685577221193	CrowdGO	0.121	394.587825577	38.1482554093	396.427599297	0.125
0.150893614847	0.685577221193	CrowdGO	0.121	394.389194794	38.1482554093	396.229890797	0.126
0.151015780456	0.685577221193	CrowdGO	0.127	393.926463599	38.1482554093	395.769311739	0.127
0.15105146682	0.685350570761	CrowdGO	0.128	393.535890208	38.164553476	395.382131645	0.128
0.151084640717	0.685350570761	CrowdGO	0.129	393.271465087	38.164553476	395.118942084	0.129
0.151178600039	0.685293018768	CrowdGO	0.13	392.930062888	38.1797306187	394.780605085	0.13
0.151207592094	0.685293018768	CrowdGO	0.131	392.735087229	38.1797306187	394.586543829	0.131
0.151326709971	0.685278810994	CrowdGO	0.132	392.435439859	38.185963012	394.288907057	0.132
0.151308654419	0.685196125514	CrowdGO	0.132	392.167702295	38.1955345689	394.023356648	0.133
0.15141194147	0.684844079761	CrowdGO	0.134	391.826336706	38.2377201322	393.687695232	0.134
0.151477290974	0.684736875644	CrowdGO	0.135	391.595784558	38.239928392	393.458448387	0.135
0.151532969225	0.684310101161	CrowdGO	0.136	391.366873611	38.2591247791	393.23248898	0.136
0.151658260976	0.683932903424	CrowdGO	0.137	390.866208658	38.395270051	392.74748864	0.137
0.151795309517	0.683910653513	CrowdGO	0.138	390.454347761	38.3977219169	392.337842597	0.138
0.152181090635	0.683910653513	CrowdGO	0.139	390.10562306	38.3977219169	391.990793503	0.139
0.152357784097	0.683899092285	CrowdGO	0.14	389.282304654	38.4042193272	391.172080776	0.14
0.152548823841	0.683868855226	CrowdGO	0.141	388.720060698	38.4058175649	390.612714094	0.141
0.152554344081	0.683803341599	CrowdGO	0.142	388.611496143	38.4124131582	390.505324444	0.142
0.152664446827	0.683803341599	CrowdGO	0.143	388.159916751	38.4124131582	390.055937599	0.143
0.153097378648	0.683737827973	CrowdGO	0.144	387.306258576	38.4143012273	389.206624392	0.144
0.153161746607	0.683363125704	CrowdGO	0.145	386.703726376	38.4376932583	388.609351735	0.145
0.153255873808	0.683301060163	CrowdGO	0.146	386.441769865	38.4426655252	388.349172819	0.146
0.153229677226	0.682568920329	CrowdGO	0.146	385.707421981	38.5348867622	387.627595598	0.147
0.153371249851	0.682513010166	CrowdGO	0.148	385.103236868	38.5498844304	387.027901624	0.148
0.153427467018	0.682473035749	CrowdGO	0.149	384.699585048	38.562231919	386.627490573	0.149
0.153840311792	0.682461474521	CrowdGO	0.15	384.323050143	38.5681318584	386.253424149	0.15
0.153831421523	0.681515332023	CrowdGO	0.15	383.873695711	38.643758211	385.813885582	0.151
0.153994212659	0.681515332023	CrowdGO	0.152	383.471077705	38.643758211	385.41329438	0.152
0.154206518542	0.68145060653	CrowdGO	0.153	382.893449801	38.645872737	384.838794017	0.153
0.154345107234	0.681116341912	CrowdGO	0.154	382.363591908	38.6766144529	384.31471078	0.154
0.154601056253	0.680867775505	CrowdGO	0.155	381.705356278	38.7038127717	383.662565459	0.155
0.1549181367	0.680751238324	CrowdGO	0.156	381.175207972	38.7139296965	383.136147505	0.156
0.155016872935	0.680348329519	CrowdGO	0.157	380.43255474	38.7514503113	382.401103041	0.157
0.155999615102	0.680223113958	CrowdGO	0.158	379.236660455	38.755903094	381.211836985	0.158
0.156078403274	0.680003719487	CrowdGO	0.159	378.503071099	38.9142237605	380.498215032	0.159
0.156196705788	0.67905384389	CrowdGO	0.16	377.914385412	38.9501568344	379.916303175	0.16
0.156322175034	0.67845748272	CrowdGO	0.161	377.230611439	38.9661426124	379.237780919	0.161
0.156439936813	0.678427245662	CrowdGO	0.162	376.403222251	38.9731914094	378.415506249	0.162
0.156708472358	0.678261840874	CrowdGO	0.163	375.697403513	39.0113203785	377.717383932	0.163
0.157117681259	0.678185176053	CrowdGO	0.164	374.81212067	39.0190883378	376.837650794	0.164
0.157278852068	0.678025119085	CrowdGO	0.165	374.160941717	39.0316743861	376.191283674	0.165
0.157568918631	0.677642776568	CrowdGO	0.166	373.389514936	39.0485799823	375.425786891	0.166
0.15768314607	0.67754623017	CrowdGO	0.167	372.875942293	39.0520079286	374.915360667	0.167
0.157897234652	0.677456031487	CrowdGO	0.168	371.235170728	39.0737342313	373.285827071	0.168
0.158073723906	0.676313321037	CrowdGO	0.169	370.6124496	39.1249811001	372.671909251	0.169
0.158168997215	0.675258029326	CrowdGO	0.17	369.352216547	39.1838817565	371.424873235	0.17
0.158550745938	0.67516683216	CrowdGO	0.171	368.546224542	39.1947885915	370.624541925	0.171
0.158653201664	0.674985819997	CrowdGO	0.172	367.760719655	39.2390245713	369.84814177	0.172
0.159031379351	0.674811324119	CrowdGO	0.173	365.806964664	39.2609737837	367.907813805	0.173
0.159057654682	0.673725244198	CrowdGO	0.173	365.089411324	39.3325397388	367.202024699	0.174
0.159244710983	0.672877522589	CrowdGO	0.175	364.129697395	39.3640666901	366.251233815	0.175
0.159441752699	0.672687400078	CrowdGO	0.176	363.292559913	39.3733296899	365.419954545	0.176
0.15978851898	0.672553789994	CrowdGO	0.177	362.488063585	39.3934086825	364.622320887	0.177
0.159856401989	0.672553789994	CrowdGO	0.178	362.177531064	39.3934086825	364.313607563	0.178
0.159829656726	0.672445702327	CrowdGO	0.178	361.748957857	39.4022124356	363.88850333	0.179
0.16002378787	0.671190984275	CrowdGO	0.18	360.230729135	39.4610752182	362.385643577	0.18
0.160760133482	0.670975222941	CrowdGO	0.181	359.347487526	39.4762475155	361.509323405	0.181
0.160808293883	0.670846203661	CrowdGO	0.182	358.788942042	39.494968136	360.956171079	0.182
0.16092320446	0.670642764477	CrowdGO	0.183	357.661704891	39.5331236629	359.839913033	0.183
0.1611545194	0.670589162419	CrowdGO	0.184	356.790234218	39.5342164627	358.973850725	0.184
0.161457544135	0.670383710499	CrowdGO	0.185	356.066104473	39.5454854781	358.255378433	0.185
0.161837341583	0.669829536743	CrowdGO	0.186	354.527414749	39.6101007901	356.733300791	0.186
0.161889580281	0.669750495437	CrowdGO	0.187	354.033277206	39.6175548152	356.243051888	0.187
0.163008043452	0.669085875285	CrowdGO	0.188	352.561886265	39.6535241539	354.78484413	0.188
0.163220614713	0.669035694635	CrowdGO	0.189	351.637654606	39.6635283522	353.867539651	0.189
0.164197070318	0.668746536125	CrowdGO	0.19	350.772150507	39.6734219609	353.0086146	0.19
0.16439649324	0.668581067421	CrowdGO	0.191	349.958980574	39.6831450045	352.20170369	0.191
0.164405247423	0.668301487405	CrowdGO	0.191	349.36364316	39.7016823093	351.612256243	0.192
0.164603064196	0.668275329342	CrowdGO	0.193	348.771076545	39.7104521981	351.024477563	0.193
0.165074319014	0.668114068941	CrowdGO	0.194	347.908534536	39.726780751	350.169338338	0.194
0.165188085866	0.667878219885	CrowdGO	0.195	347.316013019	39.7333074344	349.58139055	0.195
0.16648757735	0.667542878466	CrowdGO	0.196	345.45760057	39.763551522	347.738542329	0.196
0.166786654401	0.667298336408	CrowdGO	0.197	344.452505225	39.806380335	346.744972957	0.197
0.16723099665	0.66663561533	CrowdGO	0.198	343.360905383	39.8960850669	345.670954737	0.198
0.167517477446	0.666025113954	CrowdGO	0.199	342.132159487	39.947192946	344.456372824	0.199
0.167870999266	0.665813120104	CrowdGO	0.2	340.639706502	39.9801423722	342.977873091	0.2
0.168163652863	0.665444422422	CrowdGO	0.201	339.553161529	40.0472308774	341.906610356	0.201
0.168431692409	0.665311212471	CrowdGO	0.202	338.777267405	40.0559429118	341.137091904	0.202
0.168601753542	0.665125268066	CrowdGO	0.203	337.764140846	40.0975271559	340.135894203	0.203
0.168874298975	0.664867578239	CrowdGO	0.204	335.30171512	40.1431072728	337.696178871	0.204
0.16913707898	0.664805470245	CrowdGO	0.205	333.95937051	40.1518739397	336.364436485	0.205
0.16972527983	0.664644136049	CrowdGO	0.206	331.939107309	40.1693104218	334.360799827	0.206
0.170293976949	0.664400554399	CrowdGO	0.207	330.656580806	40.2049005251	333.09189191	0.207
0.170670856785	0.6639676453	CrowdGO	0.208	329.535316097	40.2319751026	331.982132616	0.208
0.170719914228	0.663813191136	CrowdGO	0.209	329.023644213	40.2437613787	331.47566846	0.209
0.171209873867	0.663716328248	CrowdGO	0.21	327.933243467	40.2578694395	330.395078993	0.21
0.171577901954	0.662843561904	CrowdGO	0.211	325.882355835	40.308684842	328.365801993	0.211
0.171747666858	0.662707793533	CrowdGO	0.212	325.081232543	40.3190730227	327.572030859	0.212
0.172021881571	0.662320036522	CrowdGO	0.213	324.633728024	40.3696728426	327.134174088	0.213
0.172334187935	0.661273356284	CrowdGO	0.214	323.275890767	40.4587436726	325.797807683	0.214
0.172623814073	0.660442529135	CrowdGO	0.215	321.882552629	40.5327883447	324.424543798	0.215
0.172608075734	0.659538756054	CrowdGO	0.215	321.404086978	40.5990072674	323.958124636	0.216
0.173153094967	0.659347660462	CrowdGO	0.217	320.8277572	40.6102201064	323.38775451	0.217
0.173364494018	0.658977609948	CrowdGO	0.218	319.806826767	40.647292378	322.379603611	0.218
0.173953857811	0.658821882466	CrowdGO	0.219	318.623008674	40.6631173321	321.207270727	0.219
0.174052066833	0.658776694135	CrowdGO	0.22	317.950177926	40.6799667082	320.542002449	0.22
0.175623283251	0.657180043841	CrowdGO	0.221	315.636657555	40.7835321284	318.260578906	0.221
0.176070564322	0.656580641543	CrowdGO	0.222	314.92568684	40.8092381903	317.55878535	0.222
0.17679234174	0.655207162296	CrowdGO	0.223	313.310151437	40.8818360306	315.966098673	0.223
0.176899354732	0.65509009003	CrowdGO	0.224	312.847635174	40.8940473039	315.50905841	0.224
0.177285951313	0.65500504093	CrowdGO	0.225	311.944062672	40.9050787167	314.614563714	0.225
0.177472978463	0.654791300907	CrowdGO	0.226	311.541952069	40.9188558096	314.217664462	0.226
0.177707684311	0.654671762983	CrowdGO	0.227	310.910579208	40.9316103115	313.593343338	0.227
0.178288966276	0.653654802012	CrowdGO	0.228	309.386418017	41.0256290531	312.094629708	0.228
0.179209577397	0.653411925337	CrowdGO	0.229	308.671788657	41.0509050342	311.389546898	0.229
0.180948690109	0.651433315342	CrowdGO	0.23	305.697514928	41.2986871616	308.474556803	0.23
0.182370059092	0.650802940073	CrowdGO	0.231	303.882584533	41.3423263846	306.681941323	0.231
0.182343764897	0.650125314052	CrowdGO	0.231	303.361496378	41.3865186815	306.171588187	0.232
0.182806596285	0.649904976214	CrowdGO	0.233	302.182118015	41.4161766776	305.007101784	0.233
0.182895871259	0.649479142373	CrowdGO	0.234	301.615814045	41.4447678008	304.449943439	0.234
0.183267416975	0.649189477965	CrowdGO	0.235	300.629843703	41.4773488573	303.477632443	0.235
0.184654203953	0.6476955305	CrowdGO	0.236	299.080981004	41.5441335204	301.952559566	0.236
0.184848731689	0.647588432896	CrowdGO	0.237	298.204396797	41.5653024466	301.087257513	0.237
0.185242158505	0.646556615276	CrowdGO	0.238	296.951221015	41.6438465897	299.857028634	0.238
0.18550040896	0.646334876847	CrowdGO	0.239	296.36920896	41.6621166304	299.283210324	0.239
0.187312239161	0.645351267064	CrowdGO	0.24	292.801572912	41.7427153712	295.762092545	0.24
0.187696304591	0.644845503458	CrowdGO	0.241	291.612323724	41.843908477	294.599151431	0.241
0.188596360344	0.64437323164	CrowdGO	0.242	290.589215671	41.8696884478	293.590127687	0.242
0.188971432491	0.644167445337	CrowdGO	0.243	289.765117302	41.8949660648	292.778092396	0.243
0.189240160619	0.643790921444	CrowdGO	0.244	288.094787389	41.9498470384	291.132952768	0.244
0.189824539382	0.643733723009	CrowdGO	0.245	287.592164587	41.9666151252	290.638004942	0.245
0.190251377813	0.642518798984	CrowdGO	0.246	286.077713421	42.0451210222	289.150912705	0.246
0.190612650607	0.642314132139	CrowdGO	0.247	284.743616488	42.0640509493	287.833826214	0.247
0.191102553725	0.641022250067	CrowdGO	0.248	282.442338952	42.1812510937	285.574741139	0.248
0.191432841941	0.640719555514	CrowdGO	0.249	281.512247678	42.1890650614	284.656042977	0.249
0.192036309169	0.640150342448	CrowdGO	0.25	279.099035695	42.2632588457	282.28080837	0.25
0.192207832781	0.639496237557	CrowdGO	0.251	278.622457022	42.3013839847	281.815330747	0.251
0.192254284055	0.639201654478	CrowdGO	0.252	278.044036545	42.3253024369	281.247075513	0.252
0.192445005288	0.639105840799	CrowdGO	0.253	277.0411964	42.333732459	280.256970309	0.253
0.193293128156	0.637316239591	CrowdGO	0.254	275.0091479	42.4538854223	278.266713454	0.254
0.193459563393	0.637044154289	CrowdGO	0.255	274.075692373	42.5077675423	277.352475112	0.255
0.193905918045	0.636453725947	CrowdGO	0.256	272.770436682	42.5583493742	276.070505903	0.256
0.194060797455	0.635761247809	CrowdGO	0.257	272.255881335	42.6640946926	275.57846414	0.257
0.194488225107	0.635561538624	CrowdGO	0.258	271.724483163	42.6763736292	275.055390088	0.258
0.194932136061	0.634692002857	CrowdGO	0.259	270.811322642	42.7229160908	274.160573443	0.259
0.195277989434	0.634361966524	CrowdGO	0.26	269.567466051	42.7358187738	272.934001106	0.26
0.195412973016	0.634204745212	CrowdGO	0.261	269.012111304	42.7568044974	272.38880366	0.261
0.195440990075	0.633649979396	CrowdGO	0.261	268.684283968	42.7764048804	272.068126148	0.262
0.19557927707	0.633394655468	CrowdGO	0.263	268.324911033	42.8091486718	271.718385633	0.263
0.196321456374	0.631721161265	CrowdGO	0.264	266.472000488	42.904241156	269.903873543	0.264
0.196616657876	0.631066828657	CrowdGO	0.265	265.24518916	42.9446265943	268.699183709	0.265
0.196758034986	0.630781564966	CrowdGO	0.266	264.654420939	42.9712108735	268.120285481	0.266
0.197739164787	0.630350265165	CrowdGO	0.267	263.651459204	42.9993301203	267.134861692	0.267
0.197923517627	0.630196272811	CrowdGO	0.268	263.147289682	43.0106456108	266.639103852	0.268
0.198448151313	0.629983117456	CrowdGO	0.269	262.56910369	43.0368015252	266.072735352	0.269
0.198791558027	0.628997516651	CrowdGO	0.27	261.438846579	43.1068881522	264.968817612	0.27
0.198829999989	0.628848682197	CrowdGO	0.271	261.110314075	43.1247168514	264.647571913	0.271
0.199608135118	0.628287085083	CrowdGO	0.272	260.069822284	43.1593838676	263.626715032	0.272
0.19971522867	0.628164502413	CrowdGO	0.273	259.687874745	43.1699295029	263.25165736	0.273
0.199837666892	0.628026504981	CrowdGO	0.274	258.972647118	43.1820077575	262.548124635	0.274
0.201171611223	0.625687129276	CrowdGO	0.275	256.549789378	43.3280123138	260.182841634	0.275
0.201361384655	0.625649474842	CrowdGO	0.276	255.455253283	43.3445975503	259.106427104	0.276
0.20209920156	0.62533798357	CrowdGO	0.277	254.947942864	43.3525218704	258.607607628	0.277
0.202378231505	0.624366301127	CrowdGO	0.278	254.266822054	43.4280019853	257.948847941	0.278
0.203337588735	0.624094671552	CrowdGO	0.279	253.580558491	43.4365951226	257.273856893	0.279
0.203685801283	0.623948881659	CrowdGO	0.28	253.077147748	43.4601600542	256.781674237	0.28
0.204150465701	0.62338931252	CrowdGO	0.281	252.137543795	43.485282138	255.859943628	0.281
0.20510534183	0.623269769817	CrowdGO	0.282	250.987106556	43.5132453848	254.731093865	0.282
0.205893898027	0.622397800021	CrowdGO	0.283	248.939258286	43.6021904166	252.728916678	0.283
0.206205428294	0.62209945467	CrowdGO	0.284	247.754180787	43.6322287908	251.566900618	0.284
0.207363441866	0.620392711205	CrowdGO	0.285	246.789796379	43.7353840982	250.635167961	0.285
0.207956366213	0.619270103369	CrowdGO	0.286	245.204344469	43.8002417299	249.085591157	0.286
0.208547060379	0.619100165156	CrowdGO	0.287	243.72597487	43.8225127441	247.63433415	0.287
0.208798648011	0.619065481472	CrowdGO	0.288	242.97056409	43.8369032378	246.893436729	0.288
0.208905811797	0.618494001065	CrowdGO	0.289	242.635170048	43.8586708795	246.567249966	0.289
0.209168950613	0.618256190189	CrowdGO	0.29	241.815239851	43.868426598	245.762179915	0.29
0.209422634507	0.618080923984	CrowdGO	0.291	241.166932501	43.8935684752	245.128812434	0.291
0.212912048298	0.616088227165	CrowdGO	0.292	238.728702174	43.9938499388	242.748536709	0.292
0.213923604513	0.615063489891	CrowdGO	0.293	237.368989933	44.0735688091	241.426006987	0.293
0.21424703947	0.615011595353	CrowdGO	0.294	236.921582845	44.0783621674	240.987008839	0.294
0.21409754608	0.613353295659	CrowdGO	0.294	236.371994242	44.1395434395	240.457935941	0.295
0.214324288763	0.613296786631	CrowdGO	0.294	236.092155092	44.1558818104	240.185860521	0.296
0.215440817657	0.612615911623	CrowdGO	0.297	233.250451658	44.2260783339	237.406232445	0.297
0.215988970753	0.612121751695	CrowdGO	0.298	231.90622472	44.2377968516	236.087864437	0.298
0.217497176283	0.611599310084	CrowdGO	0.299	230.76601314	44.2798667807	234.975869873	0.299
0.217802976423	0.611242730578	CrowdGO	0.3	229.925400652	44.3290885724	234.159684743	0.3
0.217894886909	0.611152019403	CrowdGO	0.301	229.710210941	44.3329938274	233.949129838	0.301
0.218711582859	0.610697173113	CrowdGO	0.302	227.651529199	44.3823123632	231.937509681	0.302
0.218923749085	0.609948535948	CrowdGO	0.303	226.718342424	44.4137057941	231.027669456	0.303
0.219824554305	0.609149965403	CrowdGO	0.304	224.936934287	44.482886934	229.29315654	0.304
0.220049937786	0.608649500491	CrowdGO	0.305	224.011273143	44.5469799756	228.397644296	0.305
0.220813180547	0.607857122318	CrowdGO	0.306	221.122331539	44.6220202227	225.579720263	0.306
0.22289028845	0.605578474167	CrowdGO	0.307	220.583026745	44.6925781705	225.065097764	0.307
0.223882200654	0.605049836954	CrowdGO	0.308	219.735746947	44.7385635869	224.243924239	0.308
0.224129807986	0.604868740547	CrowdGO	0.309	219.006857619	44.76176864	223.534381284	0.309
0.22457134794	0.604747123247	CrowdGO	0.31	218.176455065	44.7761329741	222.723747339	0.31
0.224747996375	0.604747123247	CrowdGO	0.311	217.963767498	44.7761329741	222.515406267	0.311
0.225092175558	0.604485834621	CrowdGO	0.312	217.41791482	44.7955810452	221.984670114	0.312
0.225544561153	0.603383219327	CrowdGO	0.313	216.473166249	44.9265885777	221.086024133	0.313
0.225931417828	0.601744496056	CrowdGO	0.314	215.550428495	44.9997484846	220.197558088	0.314
0.226075758166	0.600746933124	CrowdGO	0.315	215.136748267	45.0533390622	219.803602827	0.315
0.226816512803	0.600146363338	CrowdGO	0.316	213.94798841	45.0983808742	218.649504235	0.316
0.227696798736	0.599871460418	CrowdGO	0.317	213.442324925	45.1145030909	218.158072183	0.317
0.228861589461	0.598838412003	CrowdGO	0.318	212.697338577	45.1695187611	217.440666074	0.318
0.228809162397	0.597965389137	CrowdGO	0.318	212.24775137	45.2171271829	217.010821279	0.319
0.229417424837	0.596870778286	CrowdGO	0.32	211.427381202	45.3355840174	216.2333293	0.32
0.229515317136	0.596525017149	CrowdGO	0.321	210.996308006	45.3840202519	215.822036146	0.321
0.229764019952	0.596131828981	CrowdGO	0.322	210.135121205	45.402780294	214.984142723	0.322
0.230127082878	0.595716413029	CrowdGO	0.323	209.328520279	45.4280446827	214.201159301	0.323
0.230302861132	0.595453228038	CrowdGO	0.324	208.862048818	45.4462779221	213.749197925	0.324
0.23063608015	0.595324890006	CrowdGO	0.325	208.33143173	45.4627645789	213.234257121	0.325
0.232067936625	0.593514476149	CrowdGO	0.326	205.635995765	45.6375261131	210.639375578	0.326
0.232569688993	0.592888010405	CrowdGO	0.327	205.277631093	45.7322208599	210.310108772	0.327
0.232674823928	0.592559397396	CrowdGO	0.328	205.055568634	45.7625331361	210.09996589	0.328
0.233334498527	0.591429813165	CrowdGO	0.329	203.852344807	45.8296697761	208.940510948	0.329
0.233613822028	0.591066805278	CrowdGO	0.33	203.270272748	45.8522033263	208.377609961	0.33
0.23419311603	0.590406633728	CrowdGO	0.331	202.341771313	45.8974319509	207.481967115	0.331
0.234738823313	0.588918652615	CrowdGO	0.332	201.161137626	45.9815896715	206.349484806	0.332
0.234836397882	0.588633080395	CrowdGO	0.333	200.882760975	45.9977392581	206.081720863	0.333
0.235443932946	0.587415583263	CrowdGO	0.334	200.144764047	46.0525119856	205.374683044	0.334
0.235674766403	0.587147386067	CrowdGO	0.335	199.518710341	46.094326844	204.774028488	0.335
0.236113785307	0.587128365982	CrowdGO	0.336	198.73056423	46.0968463882	204.006755785	0.336
0.236056400573	0.586386755278	CrowdGO	0.336	198.486967504	46.1388264888	203.778967459	0.337
0.236107267629	0.585657978689	CrowdGO	0.336	198.280344552	46.1931135897	203.590026226	0.338
0.237458205317	0.584395516148	CrowdGO	0.339	196.943127799	46.2494946952	202.300794232	0.339
0.237562703469	0.584027347623	CrowdGO	0.34	196.523693152	46.2750173242	201.898338771	0.34
0.237799119429	0.583589466103	CrowdGO	0.341	195.670578412	46.2915370485	201.071832085	0.341
0.238008234973	0.582779354823	CrowdGO	0.342	195.06090417	46.3338882448	200.488367582	0.342
0.238101441557	0.581678686147	CrowdGO	0.342	194.467929146	46.3789257843	199.921935323	0.343
0.239152603335	0.581128403888	CrowdGO	0.344	193.840233709	46.4063920162	199.317810103	0.344
0.239465948703	0.579683230023	CrowdGO	0.345	192.841600043	46.4757516338	198.362996038	0.345
0.240375084236	0.578789663122	CrowdGO	0.346	192.078821983	46.5297761989	197.634242801	0.346
0.240509888102	0.57858064345	CrowdGO	0.347	191.800982083	46.5576664657	197.370800866	0.347
0.240484644745	0.577435854608	CrowdGO	0.347	191.41034385	46.6161225713	197.005031957	0.348
0.240792621066	0.577102626743	CrowdGO	0.349	190.670396036	46.6576982863	196.296053791	0.349
0.240378416108	0.57604932878	CrowdGO	0.349	190.42339253	46.7072896207	196.067945688	0.35
0.240995185	0.575933904134	CrowdGO	0.349	189.701716681	46.7290903688	195.372334783	0.351
0.243065682226	0.573616931777	CrowdGO	0.352	186.91695504	46.8616109708	192.70173498	0.352
0.243256248862	0.57321923268	CrowdGO	0.353	186.46850243	46.9231568978	192.281785543	0.353
0.244675922927	0.570737056811	CrowdGO	0.354	185.162569836	47.0046787959	191.035643525	0.354
0.245325140852	0.570382382885	CrowdGO	0.355	184.288514982	47.0328455418	190.195544937	0.355
0.246220588827	0.569543762888	CrowdGO	0.356	183.538837562	47.1014934551	189.486293909	0.356
0.246382289234	0.569543762888	CrowdGO	0.357	182.97645016	47.1014934551	188.941610025	0.357
0.246559526473	0.568919656963	CrowdGO	0.358	182.267606557	47.1705900012	188.272528429	0.358
0.248312385697	0.56800690523	CrowdGO	0.359	181.368563617	47.214930686	187.413461492	0.359
0.24885368727	0.567412743964	CrowdGO	0.36	180.194515189	47.2763289921	186.293087867	0.36
0.249082910286	0.565883977437	CrowdGO	0.36	178.693267073	47.3484437078	184.859835602	0.361
0.249242111288	0.565657199498	CrowdGO	0.362	178.489799759	47.3688317386	184.668391552	0.362
0.249638616421	0.56531800433	CrowdGO	0.363	177.662805197	47.3999397221	183.87720532	0.363
0.250218076149	0.565245469205	CrowdGO	0.364	177.240925561	47.4056434063	183.471089604	0.364
0.250394146325	0.565069620483	CrowdGO	0.365	176.78845108	47.4187891495	183.037422402	0.365
0.253883846461	0.563038226779	CrowdGO	0.366	175.158092827	47.5092891614	181.486886687	0.366
0.254773529258	0.562461036801	CrowdGO	0.367	174.301803506	47.5474395183	180.670633226	0.367
0.255059259904	0.562258539064	CrowdGO	0.368	173.728577485	47.5743342671	180.124778739	0.368
0.255389556248	0.561653448314	CrowdGO	0.369	173.626358984	47.5876438169	180.02970971	0.369
0.255582426239	0.561197553644	CrowdGO	0.37	173.04899033	47.6185169719	179.48113052	0.37
0.257369616114	0.560023725664	CrowdGO	0.371	171.458263478	47.6991218849	177.969498351	0.371
0.258026019867	0.559825819916	CrowdGO	0.372	170.7310806	47.709661538	177.271863777	0.372
0.258502788847	0.558091125569	CrowdGO	0.373	169.038299971	47.8401097284	175.677610856	0.373
0.259005621596	0.557805127497	CrowdGO	0.374	168.662219158	47.8573852143	175.320487938	0.374
0.259016751363	0.557551475887	CrowdGO	0.374	168.436872387	47.8822283106	175.110501591	0.375
0.260673686736	0.556722967496	CrowdGO	0.376	167.120205291	47.9548139424	173.864393125	0.376
0.261961081852	0.555048479448	CrowdGO	0.377	166.169138512	48.0411399201	172.974373012	0.377
0.262305208458	0.55461849759	CrowdGO	0.378	165.437105668	48.0769320542	172.281244852	0.378
0.262587553558	0.554409097329	CrowdGO	0.379	165.037137827	48.0902300018	171.900922289	0.379
0.263134792252	0.553906530497	CrowdGO	0.38	164.447787054	48.115614291	171.342309444	0.38
0.263567069912	0.553765848604	CrowdGO	0.381	163.994225328	48.1222597355	170.908916745	0.381
0.263753217816	0.552832696786	CrowdGO	0.381	163.73442113	48.1594291905	170.670124165	0.382
0.264189186529	0.5512118644	CrowdGO	0.383	163.093491756	48.2439206532	170.079284257	0.383
0.264322662412	0.551146350774	CrowdGO	0.384	162.873772983	48.2537653518	169.871397817	0.384
0.26481857629	0.55039307229	CrowdGO	0.385	162.087114856	48.3414416686	169.142329962	0.385
0.264712090926	0.549632369745	CrowdGO	0.385	161.75522449	48.4180320347	168.84625692	0.386
0.264921744859	0.549541561282	CrowdGO	0.385	161.31440502	48.4349642735	168.428866384	0.387
0.266594743642	0.548260541752	CrowdGO	0.388	160.172223246	48.5582351017	167.37097507	0.388
0.267161743687	0.547296898751	CrowdGO	0.389	159.729360461	48.6248275766	166.966590821	0.389
0.267246631086	0.546783724522	CrowdGO	0.389	159.394153229	48.6431063874	166.651276271	0.39
0.268172602265	0.546287344873	CrowdGO	0.391	158.801744448	48.6870023056	166.097616579	0.391
0.268259808056	0.545764689177	CrowdGO	0.391	158.637052047	48.7070860657	165.946059053	0.392
0.268425333827	0.545353960726	CrowdGO	0.393	158.188812158	48.7357916052	165.526063432	0.393
0.269789594601	0.543659161587	CrowdGO	0.394	156.737954527	48.9050371253	164.190404853	0.394
0.269903048272	0.543443877277	CrowdGO	0.395	156.555971215	48.9210071485	164.021453059	0.395
0.269940123167	0.542861695112	CrowdGO	0.395	156.216234561	48.9739993936	163.713055549	0.396
0.270212268104	0.541010146416	CrowdGO	0.395	155.523812033	49.0791876775	163.08409724	0.397
0.270394136975	0.539901964696	CrowdGO	0.395	154.994110888	49.1293768753	162.594188341	0.398
0.271977282817	0.538896526158	CrowdGO	0.399	153.812868151	49.1827682359	161.484807645	0.399
0.272068255178	0.538896526158	CrowdGO	0.4	153.642451359	49.1827682359	161.32249549	0.4
0.272452291409	0.537535836375	CrowdGO	0.401	153.128079548	49.311251969	160.872024656	0.401
0.272626504722	0.53736740714	CrowdGO	0.402	152.661049726	49.3566149855	160.441489479	0.402
0.272898473572	0.536485380897	CrowdGO	0.403	152.340772575	49.3914326652	160.147508908	0.403
0.273063293119	0.535865613109	CrowdGO	0.404	151.948779952	49.4235898937	159.7846143	0.404
0.27366711989	0.535373617635	CrowdGO	0.405	151.120868483	49.4854038124	159.016735225	0.405
0.274427189038	0.534795528503	CrowdGO	0.406	150.264378821	49.5294999721	158.21679718	0.406
0.274914794952	0.534713080045	CrowdGO	0.407	149.667142027	49.538176527	157.652416208	0.407
0.274736469418	0.533091812904	CrowdGO	0.407	149.362963238	49.7337037783	157.425334933	0.408
0.274765461563	0.533006645189	CrowdGO	0.407	149.274906266	49.7462182404	157.345746272	0.409
0.274786561971	0.532680073343	CrowdGO	0.407	149.07782639	49.7757313284	157.168132109	0.41
0.27440054595	0.531834774407	CrowdGO	0.407	148.781573544	49.8267035411	156.903336523	0.411
0.274720117765	0.531554208819	CrowdGO	0.407	148.134194437	49.8476371825	156.296277928	0.412
0.274761272377	0.53149745047	CrowdGO	0.407	147.864795595	49.8534908299	156.042841311	0.413
0.274178428781	0.530640660062	CrowdGO	0.407	147.664160291	49.8583955766	155.854303257	0.414
0.274430822847	0.529940706738	CrowdGO	0.407	147.316040904	49.9004975145	155.53801966	0.415
0.274381584841	0.529112819796	CrowdGO	0.407	146.898257387	49.9531551946	155.15932372	0.416
0.274620359649	0.529072156166	CrowdGO	0.407	146.339390005	49.9554400301	154.631054629	0.417
0.274614529718	0.528941128912	CrowdGO	0.407	146.018989868	49.9728344885	154.333501188	0.418
0.276320678922	0.528547531756	CrowdGO	0.407	145.678708978	49.998212361	154.019828233	0.419
0.276771116654	0.528203007154	CrowdGO	0.42	144.967160107	50.0448734573	153.362208086	0.42
0.277181366051	0.528180757243	CrowdGO	0.421	144.725968731	50.049186406	153.135649295	0.421
0.278094609655	0.52722594437	CrowdGO	0.422	144.17475403	50.0834002148	152.626035383	0.422
0.278395511798	0.526848261728	CrowdGO	0.423	143.62403111	50.1465000238	152.126703037	0.423
0.278416053464	0.526222855841	CrowdGO	0.423	143.120348791	50.1982792334	151.668393134	0.424
0.278898791262	0.526197765516	CrowdGO	0.425	142.724179008	50.2003181258	151.295284835	0.425
0.279819985794	0.522948971002	CrowdGO	0.425	142.165440579	50.2838785077	150.79615689	0.426
0.27993421869	0.522608575161	CrowdGO	0.427	141.826745726	50.3225294393	150.48980953	0.427
0.280869423171	0.522186460475	CrowdGO	0.428	141.280995799	50.3404688664	149.981607471	0.428
0.281081208011	0.521630330458	CrowdGO	0.429	141.050474168	50.3802192101	149.777844659	0.429
0.282055910365	0.520615456245	CrowdGO	0.43	140.812141704	50.4330045695	149.571211137	0.43
0.282934034896	0.518989822825	CrowdGO	0.431	139.852313124	50.4915496115	148.687814122	0.431
0.284555674439	0.518186283054	CrowdGO	0.432	139.128490608	50.5489140939	148.026786816	0.432
0.285275381636	0.51807611114	CrowdGO	0.433	138.52332869	50.5746026121	147.466955691	0.433
0.286304511841	0.517600045452	CrowdGO	0.434	137.992145672	50.6031423024	146.977924458	0.434
0.28754476919	0.517280025407	CrowdGO	0.435	137.593451702	50.6262796611	146.611657598	0.435
0.287763044668	0.516394627586	CrowdGO	0.435	137.068244002	50.6731888817	146.135127828	0.436
0.288015845198	0.516107820192	CrowdGO	0.437	136.84553082	50.7080037181	145.938346388	0.437
0.288738898661	0.515222837301	CrowdGO	0.438	135.907294934	50.7913942854	145.088106162	0.438
0.289077960796	0.51514151004	CrowdGO	0.439	135.314709143	50.8019143542	144.536863853	0.439
0.289208386058	0.514853482882	CrowdGO	0.44	135.026268334	50.8341999242	144.278234749	0.44
0.289702443472	0.514667947255	CrowdGO	0.441	134.515878568	50.8472030524	143.805283787	0.441
0.294170389999	0.51162014325	CrowdGO	0.442	133.254764588	50.94055913	142.659639877	0.442
0.294876302082	0.511221474023	CrowdGO	0.443	132.384788329	50.9791811723	141.861231822	0.443
0.29512227964	0.511085151576	CrowdGO	0.444	131.960342286	50.9966677737	141.47152385	0.444
0.29524096733	0.510672185663	CrowdGO	0.444	131.455400099	51.0157192516	141.007538189	0.445
0.295798612298	0.50949293424	CrowdGO	0.446	130.728537617	51.0926200002	140.358136088	0.446
0.296231668333	0.509228683406	CrowdGO	0.447	130.372141451	51.1155197831	140.034608684	0.447
0.296593903306	0.508854611115	CrowdGO	0.448	130.021154063	51.1308999261	139.7135263	0.448
0.298617347752	0.507926936161	CrowdGO	0.449	129.19788463	51.1792727828	138.965504192	0.449
0.299887458572	0.506682654987	CrowdGO	0.45	128.736520568	51.2292343151	138.555137676	0.45
0.300575374428	0.50590486235	CrowdGO	0.451	127.488474821	51.297637613	137.421828094	0.451
0.300783182423	0.505521607633	CrowdGO	0.452	126.985348298	51.3067604941	136.958615482	0.452
0.301086998926	0.50547212881	CrowdGO	0.453	126.013653491	51.3141446823	136.06095072	0.453
0.301137625822	0.504648120195	CrowdGO	0.453	125.707232353	51.4475700242	135.827687631	0.454
0.301581000602	0.504060545707	CrowdGO	0.453	125.201999338	51.5079229859	135.383184955	0.455
0.302265858948	0.503798703849	CrowdGO	0.456	125.022014351	51.5211761586	135.221801738	0.456
0.302149425673	0.503697625681	CrowdGO	0.456	124.847142238	51.5258912907	135.061935416	0.457
0.3024408953	0.50363556014	CrowdGO	0.458	124.567763691	51.528618705	134.804771046	0.458
0.303382476913	0.502794956541	CrowdGO	0.459	123.993153802	51.5713971782	134.29039875	0.459
0.303635639565	0.502764719483	CrowdGO	0.46	123.689754125	51.5751761923	134.011768419	0.46
0.303883190655	0.502727868068	CrowdGO	0.461	123.588163731	51.5790551829	133.919502493	0.461
0.304538066805	0.501584791848	CrowdGO	0.462	123.123967505	51.6292127012	133.510624964	0.462
0.305313155498	0.499728725089	CrowdGO	0.463	122.719854543	51.7090813244	133.169034653	0.463
0.305665463546	0.498900871078	CrowdGO	0.464	122.591948976	51.7483288138	133.066432615	0.464
0.305683179306	0.498531374222	CrowdGO	0.464	122.395728286	51.7690160455	132.893736967	0.465
0.305741076067	0.497971800418	CrowdGO	0.464	122.214716127	51.8190557122	132.746568215	0.466
0.306446785176	0.497492205603	CrowdGO	0.467	121.614651447	51.8588588387	132.209926581	0.467
0.307160946769	0.496805609565	CrowdGO	0.468	121.359830164	51.8980468097	131.990968025	0.468
0.307062311237	0.496576311871	CrowdGO	0.468	121.033428315	51.9052600727	131.693761405	0.469
0.307508183176	0.496485721829	CrowdGO	0.47	120.607057715	51.9182543301	131.307149476	0.47
0.307532780604	0.495541238706	CrowdGO	0.47	120.13531599	51.9906267821	130.902709755	0.471
0.307979180733	0.495530518294	CrowdGO	0.472	119.823180278	51.9916290349	130.616706518	0.472
0.30857778022	0.495420214793	CrowdGO	0.473	119.146827267	52.0135420173	130.005288358	0.473
0.308765775547	0.495361252529	CrowdGO	0.474	118.917005883	52.0164551392	129.79586239	0.474
0.308863580016	0.494775373523	CrowdGO	0.474	118.467173501	52.0565105852	129.399967124	0.475
0.308915748279	0.494775373523	CrowdGO	0.474	118.380240467	52.0565105852	129.32038365	0.476
0.309160680906	0.494430676826	CrowdGO	0.477	117.832128985	52.0851433337	128.830403156	0.477
0.311196104836	0.493197990849	CrowdGO	0.478	117.235664058	52.1470479318	128.310231608	0.478
0.31138636702	0.492844573897	CrowdGO	0.479	116.974484952	52.1904302007	128.089309212	0.479
0.312687084715	0.492702873279	CrowdGO	0.48	116.824161285	52.2022213061	127.956854327	0.48
0.313894420482	0.490928251405	CrowdGO	0.481	116.147746616	52.2512574347	127.359699071	0.481
0.31415856545	0.490906001494	CrowdGO	0.482	115.495304634	52.2540795928	126.766139905	0.482
0.314224818755	0.490803800236	CrowdGO	0.483	115.264816853	52.2768016016	126.565563997	0.483
0.314402315562	0.490675471347	CrowdGO	0.484	115.195675383	52.2872892449	126.506933579	0.484
0.314684302889	0.490131941004	CrowdGO	0.485	114.624260277	52.3826765164	126.026448983	0.485
0.315509903974	0.489913470298	CrowdGO	0.486	114.061549851	52.3898171186	125.517847703	0.486
0.315287689671	0.48912261634	CrowdGO	0.486	113.476073768	52.4721286336	125.020572712	0.487
0.315150339248	0.488080087963	CrowdGO	0.486	112.817994814	52.5325670719	124.449068124	0.488
0.315772370758	0.487998848889	CrowdGO	0.486	112.636607549	52.5365021687	124.286320327	0.489
0.317148004089	0.487747931223	CrowdGO	0.49	111.800620267	52.5730712862	123.544755116	0.49
0.317232703872	0.487590698518	CrowdGO	0.491	111.500900444	52.5814582919	123.277169646	0.491
0.318279646171	0.486427075715	CrowdGO	0.492	110.854851451	52.6092261051	122.705047825	0.492
0.318665076702	0.48538349934	CrowdGO	0.492	110.463272766	52.6456485973	122.367066429	0.493
0.318864596669	0.485259167693	CrowdGO	0.494	110.268950575	52.6628597251	122.199092695	0.494
0.318990117103	0.485222028244	CrowdGO	0.495	110.10683538	52.6680610758	122.055068944	0.495
0.319158597066	0.485202696354	CrowdGO	0.496	109.908142056	52.6723200105	121.877696833	0.496
0.319393389807	0.484915444298	CrowdGO	0.497	109.695869611	52.6752824588	121.687588487	0.497
0.319164850545	0.483596307758	CrowdGO	0.497	109.317668233	52.7970433153	121.399672037	0.498
0.319438130026	0.483562615035	CrowdGO	0.497	109.119726679	52.8003508091	121.222901285	0.499
0.321346329249	0.482586625625	CrowdGO	0.5	108.609026036	52.8755670253	120.796300128	0.5
0.321649356993	0.482512348487	CrowdGO	0.501	108.218257081	52.8844466838	120.448976196	0.501
0.322774856792	0.480608300349	CrowdGO	0.502	107.464777614	53.0072324332	119.826729563	0.502
0.322771676069	0.480215218588	CrowdGO	0.502	107.228757956	53.0473180562	119.632873767	0.503
0.322877373667	0.479232270564	CrowdGO	0.502	106.963493722	53.0786735001	119.409105891	0.504
0.323470173346	0.478447911865	CrowdGO	0.502	106.019876583	53.1153034592	118.580983687	0.505
0.323537026702	0.478089472847	CrowdGO	0.502	105.747473362	53.1406127516	118.348860772	0.506
0.324321837795	0.477564804016	CrowdGO	0.507	105.452428793	53.1736069125	118.100157538	0.507
0.32555822518	0.477453498955	CrowdGO	0.508	104.927196617	53.1912984647	117.639410157	0.508
0.325792077971	0.477211142736	CrowdGO	0.509	104.673611623	53.205739546	117.419826651	0.509
0.326196267625	0.47653879209	CrowdGO	0.51	104.162511345	53.2715797172	116.994401469	0.51
0.325992067528	0.475781151699	CrowdGO	0.51	104.095867584	53.3577703507	116.974361742	0.511
0.326535677842	0.47497126397	CrowdGO	0.51	103.683472909	53.4167535555	116.634523683	0.512
0.326594928707	0.474545973169	CrowdGO	0.51	103.386196586	53.4277966781	116.375405917	0.513
0.32686945397	0.474266675101	CrowdGO	0.51	103.136555905	53.4597424926	116.168383096	0.514
0.327351314092	0.473814018557	CrowdGO	0.51	102.667829371	53.4860680227	115.764600204	0.515
0.331654461099	0.472078141996	CrowdGO	0.516	102.107742218	53.5437154686	115.29492828	0.516
0.331297822869	0.471383885387	CrowdGO	0.516	101.811009799	53.6021879563	115.059446678	0.517
0.331571813735	0.471124540435	CrowdGO	0.516	101.441590926	53.6370196381	114.748970563	0.518
0.333379683292	0.469938634739	CrowdGO	0.519	100.936488749	53.6959125144	114.330336226	0.519
0.333393967088	0.469294144708	CrowdGO	0.519	100.715420769	53.7567398963	114.163843072	0.52
0.333701425012	0.469176524336	CrowdGO	0.519	100.366343396	53.7896257895	113.87153608	0.521
0.333860747577	0.468273662113	CrowdGO	0.519	99.8086028392	53.8460944864	113.407050452	0.522
0.334474134176	0.468054759176	CrowdGO	0.523	99.5791423685	53.8555014219	113.209631341	0.523
0.335258500072	0.466272022236	CrowdGO	0.523	99.2457813012	53.9090615387	112.942073746	0.524
0.335500118857	0.465871435588	CrowdGO	0.523	99.0494293572	53.9437497855	112.786158712	0.525
0.335498100959	0.465415984554	CrowdGO	0.523	98.8493485331	53.9666727655	112.621469866	0.526
0.336520386713	0.46455249463	CrowdGO	0.527	98.4027608689	54.0022132066	112.246792283	0.527
0.336853849173	0.464292823254	CrowdGO	0.528	97.9771290767	54.0133230219	111.879206674	0.528
0.336988904578	0.464269238348	CrowdGO	0.529	97.7907520147	54.0176708499	111.718127194	0.529
0.33800582932	0.464109385098	CrowdGO	0.53	97.4641977446	54.024783648	111.435842933	0.53
0.342690602217	0.462824700685	CrowdGO	0.531	96.2269693558	54.1237621684	110.403855289	0.531
0.34270421062	0.462428811197	CrowdGO	0.531	96.001422673	54.1297547735	110.210269517	0.532
0.342748373256	0.462376400295	CrowdGO	0.531	95.8958553328	54.1369582534	110.121865762	0.533
0.342712212439	0.46070891978	CrowdGO	0.531	95.4777591649	54.2753223258	109.826286055	0.534
0.34576043588	0.459334792462	CrowdGO	0.535	94.514962083	54.3528605554	109.028948028	0.535
0.345823505646	0.45931745062	CrowdGO	0.536	94.3795681424	54.354125994	108.912230238	0.536
0.346066638724	0.45913991589	CrowdGO	0.537	94.1441430219	54.3885816619	108.725514395	0.537
0.347784539214	0.458088275791	CrowdGO	0.538	93.9276218649	54.4380728278	108.562893856	0.538
0.348575388089	0.457211413807	CrowdGO	0.539	93.468632662	54.475744337	108.184989776	0.539
0.348352663197	0.455955430021	CrowdGO	0.539	93.1924258335	54.5488620959	107.983362555	0.54
0.348688953733	0.455569992762	CrowdGO	0.539	92.9847729639	54.5641394598	107.811934952	0.541
0.34887509272	0.455476084585	CrowdGO	0.539	92.7721771879	54.5751089635	107.634192423	0.542
0.349010715242	0.455464745688	CrowdGO	0.539	92.6034267025	54.5784175771	107.490456796	0.543
0.353252335347	0.454050810016	CrowdGO	0.544	91.8958285261	54.6722777436	106.929421836	0.544
0.353543551328	0.453894969259	CrowdGO	0.545	91.6925506083	54.6823249121	106.75991989	0.545
0.35372559957	0.453519268664	CrowdGO	0.545	91.4333622098	54.6939378987	106.543355344	0.546
0.353821747101	0.453016866279	CrowdGO	0.545	91.2390608792	54.7169881947	106.388509846	0.547
0.353575322417	0.451607969398	CrowdGO	0.545	90.9757123213	54.8206613867	106.216218852	0.548
0.353677770653	0.451578488266	CrowdGO	0.545	90.8152588316	54.8249932652	106.08105921	0.549
0.354245290561	0.451123131031	CrowdGO	0.545	90.4870454688	54.8498052414	105.813073543	0.55
0.354602532811	0.450352634546	CrowdGO	0.545	90.2729479728	54.8911462703	105.651517143	0.551
0.35599121756	0.449162085111	CrowdGO	0.545	90.0068089071	54.9620864365	105.461161548	0.552
0.357025166585	0.44846478714	CrowdGO	0.553	89.4783361817	55.0265887108	105.044267388	0.553
0.359982329269	0.446589765169	CrowdGO	0.554	88.6673219366	55.0999503545	104.393000285	0.554
0.359989683458	0.445588469332	CrowdGO	0.554	88.4245864479	55.176145414	104.227225384	0.555
0.361276092919	0.44470341093	CrowdGO	0.556	88.0382869147	55.2016533142	103.913245024	0.556
0.363350429835	0.443931459987	CrowdGO	0.557	87.491051083	55.2278458329	103.463998449	0.557
0.364256380959	0.443862092617	CrowdGO	0.558	87.20927208	55.2347779213	103.229539516	0.558
0.364972557625	0.443136369993	CrowdGO	0.559	86.6842633156	55.2995022763	102.821186818	0.559
0.364852360162	0.442578649153	CrowdGO	0.559	86.4336337274	55.3446448513	102.63431567	0.56
0.364980362674	0.442201586398	CrowdGO	0.559	86.308504007	55.3726289181	102.544068074	0.561
0.365089166625	0.442201586398	CrowdGO	0.559	86.1816387708	55.3726289181	102.437312023	0.562
0.365259660597	0.44219035549	CrowdGO	0.559	85.9317145567	55.3756063318	102.228750082	0.563
0.365332348413	0.441769056459	CrowdGO	0.559	85.7229022227	55.4155398511	102.07496276	0.564
0.365976982824	0.441187650233	CrowdGO	0.559	85.3523210603	55.4396156703	101.777058791	0.565
0.366515604345	0.440221747384	CrowdGO	0.559	85.1429276011	55.4708945884	101.618592132	0.566
0.366718167178	0.43905486095	CrowdGO	0.559	84.6432475818	55.5280369992	101.231626749	0.567
0.366987549986	0.438863972659	CrowdGO	0.559	84.3965565515	55.5601316279	101.043094689	0.568
0.369814886676	0.437925694698	CrowdGO	0.569	84.0252548667	55.5936606611	100.751667783	0.569
0.369773677639	0.437551249961	CrowdGO	0.569	83.9196137503	55.6303469956	100.68384716	0.57
0.36953198015	0.435347025406	CrowdGO	0.569	83.5201341002	55.7016983449	100.390696773	0.571
0.370298295634	0.43486703251	CrowdGO	0.569	82.4793083782	55.749596203	99.5532711031	0.572
0.371493094704	0.434070000899	CrowdGO	0.569	81.4092837284	55.8294646971	98.7137305827	0.573
0.371723476047	0.43390536686	CrowdGO	0.569	81.2608584058	55.8456103867	98.6005035905	0.574
0.37221812962	0.432549386305	CrowdGO	0.569	80.9102931686	55.9160139267	98.3517979199	0.575
0.371236863603	0.428437729848	CrowdGO	0.569	80.7556344954	56.0547170226	98.3036306717	0.576
0.37161146177	0.428437729848	CrowdGO	0.569	80.4819813605	56.0547170226	98.0789509742	0.577
0.371669000556	0.42693242909	CrowdGO	0.569	79.609823565	56.1916036484	97.4434211665	0.578
0.371743389368	0.426819036885	CrowdGO	0.569	79.4383871076	56.204364023	97.3107798833	0.579
0.371323876845	0.425662791067	CrowdGO	0.569	79.2694906344	56.2415000158	97.1944364121	0.58
0.372011177481	0.425242908276	CrowdGO	0.569	78.8571704587	56.2516756469	96.8643605555	0.581
0.372970423613	0.424672939723	CrowdGO	0.569	78.5562894104	56.264631268	96.6271149194	0.582
0.373811765685	0.422667020578	CrowdGO	0.569	77.3366920844	56.4120519738	95.725041397	0.583
0.374470499506	0.422667020578	CrowdGO	0.569	77.0932977456	56.4120519738	95.5285096984	0.584
0.374565588171	0.422599932105	CrowdGO	0.569	76.9946292507	56.4203528914	95.4538063874	0.585
0.3746785471	0.422277796808	CrowdGO	0.569	76.8374727638	56.4355682627	95.3360927763	0.586
0.37498550029	0.422237822392	CrowdGO	0.569	76.5712126549	56.445288862	95.1273948038	0.587
0.376798894628	0.421344555983	CrowdGO	0.569	76.1777656708	56.5253135447	94.858647755	0.588
0.377143654121	0.420989206745	CrowdGO	0.569	75.9159533357	56.5420922362	94.6585451257	0.589
0.377716657954	0.420201963823	CrowdGO	0.569	75.624773824	56.5857776024	94.4513453731	0.59
0.378037824663	0.41833391997	CrowdGO	0.569	75.1528294333	56.6442012405	94.1090500749	0.591
0.378432849115	0.418170234075	CrowdGO	0.569	75.0203494788	56.6567831484	94.0108712472	0.592
0.378658336309	0.418138362581	CrowdGO	0.569	74.9235316696	56.6572906423	93.9339351926	0.593
0.37858076376	0.417269225489	CrowdGO	0.569	74.7073668683	56.710673277	93.7938757485	0.594
0.378664259067	0.416391396066	CrowdGO	0.569	74.4553211983	56.7519122127	93.6182375103	0.595
0.378655637865	0.416185867553	CrowdGO	0.569	74.3746027467	56.7627191794	93.5606104211	0.596
0.379583346967	0.415784060931	CrowdGO	0.569	74.0616510852	56.79508613	93.3317200634	0.597
0.380343139872	0.415581904597	CrowdGO	0.569	73.8125850887	56.8069588824	93.1414424139	0.598
0.380542188491	0.415319850089	CrowdGO	0.569	73.7231619161	56.8362575787	93.0884782261	0.599
0.38123962533	0.415187621589	CrowdGO	0.569	73.4530692105	56.8493667007	92.8827425882	0.6
0.381215445279	0.414595002483	CrowdGO	0.569	73.3964458186	56.9595042745	92.9054540165	0.601
0.381829595225	0.413898828339	CrowdGO	0.569	73.0299133366	57.0234589057	92.6555077021	0.602
0.383043420796	0.413392463001	CrowdGO	0.569	72.7672314027	57.1075776869	92.5005156487	0.603
0.387435761872	0.411940823767	CrowdGO	0.569	72.6217734675	57.1411285399	92.4068750277	0.604
0.387755951554	0.411780676863	CrowdGO	0.569	72.5135008546	57.1512468608	92.3280717005	0.605
0.391287470628	0.409164063408	CrowdGO	0.569	71.8727640763	57.2354552207	91.8781342338	0.606
0.393897507622	0.406928262577	CrowdGO	0.569	70.9488240781	57.4097504981	91.2667249896	0.607
0.393894720618	0.40678840543	CrowdGO	0.569	70.7126864665	57.4225776823	91.0913632294	0.608
0.39385931557	0.406435808259	CrowdGO	0.569	70.5994285468	57.4442669458	91.0171583608	0.609
0.393755521495	0.403743432624	CrowdGO	0.569	70.3523382388	57.5304190286	90.8801441971	0.61
0.395021143006	0.401841065786	CrowdGO	0.569	69.6981483145	57.6752850841	90.4669574375	0.611
0.395187720351	0.401571524007	CrowdGO	0.569	69.4265044671	57.7040997695	90.2762574143	0.612
0.395909226447	0.399602314867	CrowdGO	0.569	68.9605143695	57.8226406355	89.9945015663	0.613
0.396291806229	0.399602314867	CrowdGO	0.569	68.8661828934	57.8226406355	89.9222381637	0.614
0.397440540169	0.398366712412	CrowdGO	0.569	68.6159385666	57.8785849824	89.7667957818	0.615
0.398557504632	0.397832702736	CrowdGO	0.569	68.2801359205	57.9409137404	89.5506920486	0.616
0.399818670863	0.396733201939	CrowdGO	0.569	67.9842738435	57.9659910645	89.3415782831	0.617
0.399947086378	0.395637730467	CrowdGO	0.569	67.5983880236	58.0366308993	89.094290443	0.618
0.404361342142	0.392693291838	CrowdGO	0.569	66.6874177282	58.1530165607	88.4815518533	0.619
0.404253436027	0.39145220278	CrowdGO	0.569	66.5562590039	58.3027523936	88.4813344681	0.62
0.404677782039	0.39145220278	CrowdGO	0.569	66.3578559824	58.3027523936	88.3321911154	0.621
0.404617466525	0.390809727572	CrowdGO	0.569	66.25325355	58.3615747428	88.2925082463	0.622
0.404862602447	0.390809727572	CrowdGO	0.569	65.9897570589	58.3615747428	88.0949569678	0.623
0.405329799463	0.390066084043	CrowdGO	0.569	65.6868387631	58.3894294273	87.8867808919	0.624
0.40605154654	0.39002396814	CrowdGO	0.569	65.4828034616	58.3944274467	87.7377154137	0.625
0.406321047076	0.389469062351	CrowdGO	0.569	65.2607355668	58.4080629318	87.5811933132	0.626
0.406455469866	0.389434378666	CrowdGO	0.569	65.17299365	58.4110200671	87.5178059973	0.627
0.406591694418	0.388468264986	CrowdGO	0.569	64.9471759362	58.4829678862	87.3979015473	0.628
0.406923250552	0.387055816389	CrowdGO	0.569	64.6101732832	58.4997294504	87.1590089288	0.629
0.407260541734	0.386300462174	CrowdGO	0.569	64.3348679198	58.5332354141	86.9776688484	0.63
0.407813136191	0.386020947377	CrowdGO	0.569	64.1710190265	58.5709111781	86.8819389697	0.631
0.408338361759	0.384568029258	CrowdGO	0.569	63.7469570266	58.6273531632	86.6073961569	0.632
0.408529202139	0.384364976997	CrowdGO	0.569	63.4953495384	58.6727627325	86.453180969	0.633
0.408593782235	0.383281527174	CrowdGO	0.569	63.2191976654	58.7294688928	86.2891503602	0.634
0.409357043811	0.382106467048	CrowdGO	0.569	62.7988601835	58.7881366699	86.0217522111	0.635
0.410593279687	0.380614728326	CrowdGO	0.569	61.9572798385	58.8847962033	85.4758664705	0.636
0.410662767551	0.378688964221	CrowdGO	0.569	61.6808200415	59.0723298599	85.4052909138	0.637
0.410950443948	0.37772426879	CrowdGO	0.569	61.3806990255	59.154492965	85.2457872906	0.638
0.411257342848	0.377357941641	CrowdGO	0.569	61.2074963561	59.1782087031	85.1376414725	0.639
0.411516550855	0.37641099157	CrowdGO	0.569	60.9460490627	59.2212695732	84.9798780078	0.64
0.412141381379	0.374869290217	CrowdGO	0.569	60.6163329289	59.3046813933	84.8020344857	0.641
0.414048188666	0.374539663404	CrowdGO	0.569	60.3170494017	59.3294466528	84.6057308263	0.642
0.414649382677	0.373988466699	CrowdGO	0.569	59.9998899973	59.3914866532	84.4235481757	0.643
0.414950427156	0.373064220609	CrowdGO	0.569	59.5302991186	59.4191394626	84.1099913662	0.644
0.415584579342	0.372545893063	CrowdGO	0.569	59.189980817	59.4381123862	83.8829126411	0.645
0.41594192058	0.372323439454	CrowdGO	0.569	58.9885064147	59.476959621	83.7684464151	0.646
0.416477455917	0.371089733877	CrowdGO	0.569	58.6785267789	59.5439424622	83.5981494346	0.647
0.417191883224	0.36986231268	CrowdGO	0.569	58.0915094962	59.6084907094	83.2333805645	0.648
0.418913834085	0.368502670911	CrowdGO	0.569	57.2910379526	59.6764809933	82.7257240127	0.649
0.419997669112	0.367636102224	CrowdGO	0.569	56.8506174027	59.6935516141	82.433687309	0.65
0.422245093133	0.366732983658	CrowdGO	0.569	56.5131291726	59.7584647532	82.2484521346	0.651
0.423337592331	0.365198335637	CrowdGO	0.569	56.2746585263	59.8295781433	82.1365668448	0.652
0.423590869082	0.364357200434	CrowdGO	0.569	55.9739112315	59.8601361591	81.9531246478	0.653
0.423191005759	0.362025556066	CrowdGO	0.569	55.6441629478	59.9994681721	81.8303675361	0.654
0.426260422219	0.359768962769	CrowdGO	0.569	54.9393391806	60.1060688957	81.4313852743	0.655
0.426294179767	0.359163497517	CrowdGO	0.569	54.7987078069	60.1163664821	81.3441816992	0.656
0.427055426626	0.358000728014	CrowdGO	0.569	54.1289951328	60.2424818757	80.9882999984	0.657
0.427713596831	0.356745900369	CrowdGO	0.569	53.5563189994	60.3283002789	80.6708318991	0.658
0.42858779301	0.35631208845	CrowdGO	0.569	53.1322144946	60.409142186	80.4505853102	0.659
0.43116206297	0.355417907045	CrowdGO	0.569	52.4814542219	60.4914570613	80.084451766	0.66
0.434367058775	0.353592886512	CrowdGO	0.569	52.1024320822	60.5539493913	79.8839421646	0.661
0.434823843772	0.352728676322	CrowdGO	0.569	51.7976262687	60.5992795773	79.719927072	0.662
0.438851439082	0.351116270522	CrowdGO	0.569	51.4458568183	60.6765886007	79.5507673627	0.663
0.439525420409	0.348247886045	CrowdGO	0.569	51.1797185969	60.7863222214	79.4628250496	0.664
0.439750982243	0.347459887251	CrowdGO	0.569	50.7679844066	60.8165092354	79.2214367219	0.665
0.440550787958	0.346217532469	CrowdGO	0.569	50.5767168822	60.8389757775	79.1162768604	0.666
0.440740435587	0.345319868339	CrowdGO	0.569	50.181137837	60.899347347	78.9105639437	0.667
0.441568482869	0.344465448291	CrowdGO	0.569	49.9108764978	60.9418606724	78.7718602992	0.668
0.442653049838	0.341830779249	CrowdGO	0.569	49.5317761004	61.0212369282	78.5938178225	0.669
0.444288594883	0.341367501469	CrowdGO	0.569	49.061459765	61.0629036738	78.330741343	0.67
0.443818267044	0.339680613279	CrowdGO	0.569	48.7426312843	61.142466292	78.1936396952	0.671
0.444774640333	0.339469029513	CrowdGO	0.569	48.441371205	61.1580912004	78.018450148	0.672
0.445250761785	0.339206975006	CrowdGO	0.569	48.2962587965	61.1823709758	77.9474895809	0.673
0.445891032127	0.339146500889	CrowdGO	0.569	47.874608026	61.1893509954	77.6924370121	0.674
0.445992502415	0.337332107954	CrowdGO	0.569	47.4455895879	61.272491185	77.4945297899	0.675
0.446671659592	0.335738527435	CrowdGO	0.569	47.1891873195	61.3705996498	77.4155662722	0.676
0.446860091904	0.335443071913	CrowdGO	0.569	47.0530055572	61.39924016	77.3553619615	0.677
0.447722846999	0.334955518823	CrowdGO	0.569	46.858638942	61.4336124151	77.2646153026	0.678
0.448440208789	0.333428356845	CrowdGO	0.569	46.3302888092	61.5256995428	77.0188766821	0.679
0.448936926219	0.332954599343	CrowdGO	0.569	46.2563516582	61.5420111631	76.9874613604	0.68
0.449118384256	0.330304258934	CrowdGO	0.569	44.9456349048	61.7066237028	76.3401434751	0.681
0.450424109492	0.329152445703	CrowdGO	0.569	44.5163339621	61.8186731866	76.1790807504	0.682
0.451099974084	0.328216118655	CrowdGO	0.569	44.251867427	61.8837395469	76.0777562175	0.683
0.450594233472	0.325060382012	CrowdGO	0.569	44.0687079228	62.0740471817	76.1264628858	0.684
0.451448150419	0.323038893158	CrowdGO	0.569	43.4513959621	62.1771432805	75.8552632161	0.685
0.458045864565	0.320139699407	CrowdGO	0.569	42.9025665759	62.3238982823	75.6630591233	0.686
0.45825882911	0.318614665436	CrowdGO	0.569	42.4615871889	62.5064222394	75.5648013811	0.687
0.458857366106	0.317895745122	CrowdGO	0.569	42.2049206968	62.5834965301	75.4847624952	0.688
0.460504336595	0.316996780388	CrowdGO	0.569	41.8372794443	62.6480776318	75.3335223009	0.689
0.461159182614	0.314227732338	CrowdGO	0.569	41.4714591663	62.8246450682	75.2782701271	0.69
0.46157463147	0.313184843924	CrowdGO	0.569	41.2073100743	62.8923536383	75.1896970982	0.691
0.461716779688	0.313002341677	CrowdGO	0.569	40.9083591247	62.9133432527	75.0438712055	0.692
0.461290603493	0.310167482756	CrowdGO	0.569	40.6115805334	63.0583209201	75.0043486118	0.693
0.461707233294	0.308830966005	CrowdGO	0.569	40.4504110133	63.1685448795	75.010004755	0.694
0.462222139528	0.307612521109	CrowdGO	0.569	40.1984505649	63.2144756119	74.9131854529	0.695
0.465520295038	0.305494231126	CrowdGO	0.569	39.5936355191	63.3496094736	74.7049462491	0.696
0.466755272798	0.303097815688	CrowdGO	0.569	39.2624951883	63.4866218313	74.646464618	0.697
0.467841705241	0.302823271717	CrowdGO	0.569	39.0208922064	63.4997309878	74.5308383429	0.698
0.467611126794	0.300282190553	CrowdGO	0.569	38.8537273474	63.6557032179	74.5765424309	0.699
0.467964562076	0.299750540935	CrowdGO	0.569	38.6045231983	63.717419329	74.499790183	0.7
0.468685611526	0.29928178568	CrowdGO	0.569	38.5261690324	63.749076727	74.4863107145	0.701
0.469064917456	0.29762381005	CrowdGO	0.569	38.2796253877	63.869674882	74.4625079443	0.702
0.469405741084	0.297522943786	CrowdGO	0.569	38.0208808005	63.8884180582	74.3459302102	0.703
0.469643731479	0.296411708733	CrowdGO	0.569	37.7841794932	63.9615248284	74.2880937859	0.704
0.470270633702	0.295093746598	CrowdGO	0.569	37.489797391	64.0344338522	74.2017090584	0.705
0.470315121869	0.293887507494	CrowdGO	0.569	37.2614176123	64.1155638424	74.1567176276	0.706
0.471162430054	0.293073170935	CrowdGO	0.569	37.0606913962	64.1745733206	74.1071569259	0.707
0.472790884021	0.290425857127	CrowdGO	0.569	36.4302375513	64.32533686	73.9250375056	0.708
0.473785697732	0.289151925471	CrowdGO	0.569	36.0779286758	64.4211516669	73.8356399012	0.709
0.475629453627	0.287788028549	CrowdGO	0.569	35.6249985178	64.5277288964	73.7086719181	0.71
0.476279802701	0.287399355126	CrowdGO	0.569	35.4595792082	64.5524195007	73.6505031959	0.711
0.476689558306	0.28618379876	CrowdGO	0.569	35.196828541	64.6819472218	73.6381085835	0.712
0.477217522498	0.285647502315	CrowdGO	0.569	34.9548540795	64.8043862706	73.6304984611	0.713
0.478039699918	0.284966993936	CrowdGO	0.569	34.4241101394	64.8995684033	73.4640955693	0.714
0.478208801729	0.283477223941	CrowdGO	0.569	34.2513234112	65.0169985651	73.4871638984	0.715
0.478520442999	0.283215341838	CrowdGO	0.569	34.1321248323	65.0346441767	73.4473068857	0.716
0.48096216737	0.282148969968	CrowdGO	0.569	33.8592876303	65.078484595	73.3598017719	0.717
0.48036257998	0.279126679969	CrowdGO	0.569	33.6074497584	65.323398862	73.4616030192	0.718
0.480215098862	0.278916100454	CrowdGO	0.569	33.4518507844	65.3283379049	73.3949457001	0.719
0.479700342148	0.276473152983	CrowdGO	0.569	33.1846703915	65.4804890485	73.4092418911	0.72
0.480344372572	0.275520264203	CrowdGO	0.569	32.854889	65.5908555373	73.3594169914	0.721
0.480715140419	0.275246978789	CrowdGO	0.569	32.6381652651	65.6326803974	73.3000584448	0.722
0.48108352763	0.274559532448	CrowdGO	0.569	32.3069145773	65.7033339228	73.2165610916	0.723
0.48226308457	0.272610543182	CrowdGO	0.569	32.0022083939	65.8410133946	73.206423126	0.724
0.483035746175	0.271384026217	CrowdGO	0.569	31.8774269745	65.926300291	73.2287335721	0.725
0.483787718908	0.269833255641	CrowdGO	0.569	31.5676103847	66.0009983986	73.1617783751	0.726
0.485875537282	0.265005298991	CrowdGO	0.569	31.2109360467	66.2032500905	73.19148073	0.727
0.489276109347	0.261037539637	CrowdGO	0.569	30.5850630318	66.3657579269	73.0743450595	0.728
0.487854564065	0.2549465019	CrowdGO	0.569	29.9276331855	66.6952193732	73.1020896782	0.729
0.492583853167	0.252990504198	CrowdGO	0.569	29.5324792921	66.7961415754	73.0334982217	0.73
0.492000339775	0.251195382132	CrowdGO	0.569	29.4053092314	66.9097623063	73.0861717624	0.731
0.492812388027	0.250716239116	CrowdGO	0.569	29.2050356822	66.9452212809	73.0383239234	0.732
0.493140641743	0.250244541003	CrowdGO	0.569	29.1428402589	66.9853785763	73.0502982975	0.733
0.494549512811	0.249541805857	CrowdGO	0.569	29.0360459234	67.0268378979	73.0458004368	0.734
0.494617781954	0.248638863136	CrowdGO	0.569	28.7780962083	67.0742480147	72.9872151005	0.735
0.502370065736	0.244866251315	CrowdGO	0.569	28.3135221889	67.3081050096	73.0207952485	0.736
0.50294811079	0.242594962147	CrowdGO	0.569	28.076611417	67.4669376666	73.0758769141	0.737
0.503934073545	0.240442048447	CrowdGO	0.569	27.7313222614	67.5879923101	73.0558891457	0.738
0.504070378175	0.238012530706	CrowdGO	0.569	27.4160294631	67.7827232313	73.1172773028	0.739
0.505165547267	0.237706880137	CrowdGO	0.569	27.0642913503	67.7994143207	73.0016194925	0.74
0.504683317985	0.235359841213	CrowdGO	0.569	26.7154340333	67.9388547481	73.0027561128	0.741
0.50530545372	0.234174086278	CrowdGO	0.569	26.5558366579	68.0503627621	73.0483698152	0.742
0.506569064442	0.23412857559	CrowdGO	0.569	26.3697919236	68.0679626127	72.9973524201	0.743
0.506803823083	0.233786477804	CrowdGO	0.569	26.2286333144	68.0831052957	72.9606087711	0.744
0.507433171258	0.233601405104	CrowdGO	0.569	26.1619721328	68.0880012034	72.9412413779	0.745
0.508666310767	0.233144923059	CrowdGO	0.569	25.9958793978	68.1190943826	72.9108823508	0.746
0.508399980461	0.231408250429	CrowdGO	0.569	25.8034869725	68.1881962318	72.9071330206	0.747
0.510835596064	0.228355094584	CrowdGO	0.569	25.6879206505	68.3390942366	73.0075411751	0.748
0.513308056945	0.226022931393	CrowdGO	0.569	25.6071836012	68.3976140335	73.0339746793	0.749
0.514657469665	0.224857673247	CrowdGO	0.569	25.3171789582	68.4480675932	72.9801172077	0.75
0.51557700476	0.222549462399	CrowdGO	0.569	25.0568488143	68.6038801089	73.0365527561	0.751
0.518275027244	0.220308464495	CrowdGO	0.569	24.3710754319	68.8007836054	72.9897057291	0.752
0.518241514983	0.219691447131	CrowdGO	0.569	24.2201446716	68.8520132792	72.9877739112	0.753
0.519903720365	0.219193610996	CrowdGO	0.569	24.0438887341	68.8849120603	72.9605351886	0.754
0.521168760961	0.217420883613	CrowdGO	0.569	23.7193605217	68.9796181404	72.9437850838	0.755
0.522830898491	0.216484161776	CrowdGO	0.569	23.4755991891	69.0378280094	72.9199935103	0.756
0.522337748248	0.213263146917	CrowdGO	0.569	23.118438051	69.1709460996	72.9320365973	0.757
0.522739207345	0.213263146917	CrowdGO	0.569	22.8477307913	69.1709460996	72.8466786245	0.758
0.524162117497	0.211152438307	CrowdGO	0.569	22.6263462376	69.2275728689	72.8313695421	0.759
0.526750258427	0.209910066383	CrowdGO	0.569	22.1335747928	69.3489293836	72.7953922976	0.76
0.528954221466	0.208178529461	CrowdGO	0.569	21.911806563	69.3752396979	72.7533583417	0.761
0.528947009292	0.207095446194	CrowdGO	0.569	21.7632617601	69.4570005056	72.7867740848	0.762
0.530962291603	0.206847895773	CrowdGO	0.569	21.4721585914	69.4652161644	72.7081140681	0.763
0.533195811251	0.204737661809	CrowdGO	0.569	21.0484092835	69.6195864837	72.7318524137	0.764
0.550122865621	0.197791591595	CrowdGO	0.569	20.4990759135	69.8142898222	72.7615776126	0.765
0.552447197583	0.196096257237	CrowdGO	0.569	20.1980167971	69.8482165518	72.709925306	0.766
0.553169038006	0.193020990222	CrowdGO	0.569	19.8099917721	70.0396544941	72.7872858105	0.767
0.555485647695	0.190089863644	CrowdGO	0.569	19.6701657586	70.2060721244	72.9095877379	0.768
0.555818777858	0.189412208434	CrowdGO	0.569	19.5389656025	70.2581808773	72.9245031317	0.769
0.557062379165	0.187656931577	CrowdGO	0.569	19.1306872445	70.3569178189	72.911446834	0.77
0.558581159037	0.18754219184	CrowdGO	0.569	19.0524302964	70.3681422306	72.9017869547	0.771
0.562238578204	0.18642776168	CrowdGO	0.569	18.7054557999	70.4187670078	72.8608044396	0.772
0.563478592135	0.186038450691	CrowdGO	0.569	18.4289746652	70.4363785698	72.8073521922	0.773
0.563507799737	0.185697297099	CrowdGO	0.569	18.2902280873	70.4554407969	72.790806984	0.774
0.564805898403	0.184725137553	CrowdGO	0.569	18.02645648	70.4811908297	72.7499236701	0.775
0.564886225258	0.18188045586	CrowdGO	0.569	17.8452559459	70.6013453572	72.8217215261	0.776
0.576975972404	0.179272127471	CrowdGO	0.569	17.2578748717	70.7541136732	72.8284205978	0.777
0.57718221051	0.178176106091	CrowdGO	0.569	17.1227425435	70.781974138	72.8235962795	0.778
0.579923640704	0.176265040997	CrowdGO	0.569	16.8075306104	70.8500249581	72.8163382888	0.779
0.57960153838	0.17391377139	CrowdGO	0.569	16.7023976844	70.9294704339	72.869471416	0.78
0.580811923952	0.172298479221	CrowdGO	0.569	16.4555485185	70.9871307272	72.8694572913	0.781
0.581340425592	0.171565945772	CrowdGO	0.569	16.3013851689	71.0688699297	72.9144665448	0.782
0.583052168341	0.169523550739	CrowdGO	0.569	15.9924907505	71.2592636763	73.0317904757	0.783
0.584304149946	0.167491626081	CrowdGO	0.569	15.6946720902	71.3815044874	73.0865371659	0.784
0.585748976735	0.166140407528	CrowdGO	0.569	15.6318007375	71.4120304802	73.1028815547	0.785
0.588770799413	0.162762511118	CrowdGO	0.569	15.2557419129	71.5606315156	73.1687203949	0.786
0.588689764807	0.161595073441	CrowdGO	0.569	15.1128918954	71.6161816312	73.1934216503	0.787
0.589661092843	0.160106624317	CrowdGO	0.569	14.9541209488	71.6940330341	73.2370132245	0.788
0.590129818324	0.160086749397	CrowdGO	0.569	14.8844382801	71.7053574016	73.2339046003	0.789
0.591803924517	0.159834053979	CrowdGO	0.569	14.7856903684	71.7176976317	73.225984413	0.79
0.593488528311	0.156808738957	CrowdGO	0.569	14.6320419395	71.7878831336	73.2638848009	0.791
0.603418852079	0.152805944636	CrowdGO	0.569	14.3867516763	71.9253790847	73.3501109765	0.792
0.604380729822	0.151951349877	CrowdGO	0.569	14.2657454322	71.9758088542	73.3759398778	0.793
0.604860788908	0.151923666952	CrowdGO	0.569	14.20652374	71.9802253739	73.3687819283	0.794
0.608130753102	0.150862287919	CrowdGO	0.569	14.0298454479	72.0483242684	73.4016184642	0.795
0.614303792878	0.148295327845	CrowdGO	0.569	13.831893962	72.0873318113	73.4023480432	0.796
0.618640582741	0.148008566059	CrowdGO	0.569	13.6441299236	72.1252007168	73.4044062697	0.797
0.620416847474	0.147536889349	CrowdGO	0.569	13.4261106585	72.1295851107	73.3685047936	0.798
0.625295082555	0.145126402584	CrowdGO	0.569	13.1738742871	72.2478555387	73.4391148753	0.799
0.626772210842	0.144106914159	CrowdGO	0.569	12.9333739592	72.3061830222	73.4537695779	0.8
0.626516151047	0.142277091757	CrowdGO	0.569	12.6848374628	72.3773934731	73.4805565263	0.801
0.637849868292	0.138176262759	CrowdGO	0.569	12.5789139501	72.4761834779	73.5596781374	0.802
0.638665072129	0.136426340702	CrowdGO	0.569	12.5063228096	72.5717591171	73.641485126	0.803
0.639611244955	0.134855468365	CrowdGO	0.569	12.3621929592	72.6413824769	73.6857806019	0.804
0.640362929766	0.133970436408	CrowdGO	0.569	12.272545122	72.684022875	73.7128384006	0.805
0.640348801926	0.133465258705	CrowdGO	0.569	12.1576763626	72.7024238969	73.7119497438	0.806
0.640664270389	0.133430231618	CrowdGO	0.569	12.0457088409	72.7090237915	73.7000762699	0.807
0.644252288563	0.132516981511	CrowdGO	0.569	11.907446118	72.7569519751	73.7249030773	0.808
0.64902104469	0.130710806449	CrowdGO	0.569	11.7844026563	72.7951851945	73.7428717468	0.809
0.6521333572	0.129768935785	CrowdGO	0.569	11.4622697778	72.8794545333	73.7753246115	0.81
0.654810613301	0.129098956255	CrowdGO	0.569	10.5443233419	72.9754756099	73.7333221497	0.811
0.660183832429	0.128349217835	CrowdGO	0.569	10.4416763351	73.0027226088	73.7456853855	0.812
0.663412594816	0.126611549058	CrowdGO	0.569	10.3185437467	73.021598998	73.7470424171	0.813
0.665422452899	0.123825154398	CrowdGO	0.569	10.2093732507	73.1283776169	73.8375982481	0.814
0.666251073362	0.122046423949	CrowdGO	0.569	10.15711441	73.1675893103	73.8692297146	0.815
0.669283442436	0.120942742701	CrowdGO	0.569	9.85955900458	73.2062083236	73.8671770198	0.816
0.669296909344	0.120715385306	CrowdGO	0.569	9.69693913879	73.2189677852	73.8582958928	0.817
0.670443706764	0.119903799853	CrowdGO	0.569	9.41922235587	73.2785347999	73.8814280602	0.818
0.670635301074	0.119903799853	CrowdGO	0.569	9.39331809158	73.2785347999	73.8781299655	0.819
0.671691447718	0.119825753185	CrowdGO	0.569	9.34966928512	73.2848046949	73.8788123545	0.82
0.676085838541	0.117372190742	CrowdGO	0.569	9.06291334469	73.4700420759	74.0269105186	0.821
0.675880827887	0.116997606946	CrowdGO	0.569	8.94363401813	73.5682595052	74.1099007966	0.822
0.684908415068	0.113847390587	CrowdGO	0.569	8.91183764309	73.6280176617	74.1653951312	0.823
0.686674215979	0.113450442773	CrowdGO	0.569	8.72715840764	73.6508091891	74.1660635876	0.824
0.687076657845	0.113133257654	CrowdGO	0.569	8.72177270049	73.6544964231	74.1690916917	0.825
0.690171277822	0.112704172506	CrowdGO	0.569	8.62961920615	73.677866201	74.1815226022	0.826
0.691308106823	0.112264580139	CrowdGO	0.569	8.42520338569	73.7259361911	74.2057795549	0.827
0.695540433093	0.110323686434	CrowdGO	0.569	8.09932998274	73.8810252753	74.3236506228	0.828
0.691131608438	0.108501674252	CrowdGO	0.569	7.94644497822	73.9429841779	74.3687494646	0.829
0.6898180272	0.105848850764	CrowdGO	0.569	7.76221744764	74.024667711	74.4305276713	0.83
0.695654997638	0.103418685708	CrowdGO	0.569	7.46521424961	74.1927751526	74.5674011123	0.831
0.69690621241	0.103340069356	CrowdGO	0.569	7.42979930303	74.1938478973	74.564931325	0.832
0.697147786312	0.103053225909	CrowdGO	0.569	7.40391077903	74.2178119698	74.5862018634	0.833
0.6963202295	0.101006014261	CrowdGO	0.569	7.25413813462	74.2495782232	74.6030990401	0.834
0.724502795978	0.0907138212067	CrowdGO	0.569	6.95234955371	74.5185767252	74.8421902503	0.835
0.726453512167	0.0899224165945	CrowdGO	0.569	6.91352683576	74.5605543223	74.8803920539	0.836
0.733081016264	0.0895803661578	CrowdGO	0.569	6.74482490875	74.5900826946	74.8944130055	0.837
0.733361266235	0.0867105710921	CrowdGO	0.569	6.70106775983	74.7221201959	75.0219938131	0.838
0.737266079357	0.0860064058175	CrowdGO	0.569	6.52504098596	74.7617576515	75.0459630294	0.839
0.740321453445	0.0847077879255	CrowdGO	0.569	6.39031346579	74.8077933309	75.0802374079	0.84
0.740408902417	0.0846606181142	CrowdGO	0.569	6.3193928244	74.8170747044	75.0834828241	0.841
0.740479332752	0.0845845377733	CrowdGO	0.569	6.27852531246	74.8264199759	75.0893668006	0.842
0.740479332752	0.0834446006664	CrowdGO	0.569	6.2485114153	74.9201440217	75.1802625371	0.843
0.740524862398	0.0821548228486	CrowdGO	0.569	6.22588383568	75.0040827628	75.2620359851	0.844
0.742979633566	0.0815509113995	CrowdGO	0.569	6.07833050801	75.041040296	75.2868104682	0.845
0.745891968441	0.0810304181325	CrowdGO	0.569	5.85615497987	75.0715518527	75.2996178524	0.846
0.749592400864	0.0786286075459	CrowdGO	0.569	5.66382418951	75.1929662565	75.4059750875	0.847
0.761349100678	0.0752435626011	CrowdGO	0.569	5.3586657559	75.3886913089	75.5788996741	0.848
0.762176132815	0.0752435626011	CrowdGO	0.569	5.29524703416	75.3886913089	75.5744296599	0.849
0.759658514406	0.0739605616356	CrowdGO	0.569	5.14384076578	75.4168538603	75.5920693196	0.85
0.75973957796	0.0739605616356	CrowdGO	0.569	5.13088362028	75.4168538603	75.5911887254	0.851
0.7619385702	0.0696138415906	CrowdGO	0.569	5.04370302569	75.5340659222	75.7022724557	0.852
0.765865358319	0.0694031105116	CrowdGO	0.569	4.9339412921	75.550990005	75.7119268505	0.853
0.760894413511	0.0642640399479	CrowdGO	0.569	4.6033181681	75.6999461111	75.8397809819	0.854
0.761899519183	0.0634571879122	CrowdGO	0.569	4.51273733374	75.7322323587	75.8665658658	0.855
0.763714955209	0.063413512161	CrowdGO	0.569	4.44630732295	75.7333051034	75.8637143218	0.856
0.763714955209	0.0622866777794	CrowdGO	0.569	4.43045719025	75.8052495577	75.9346087856	0.857
0.763714955209	0.0622866777794	CrowdGO	0.569	4.43045719025	75.8052495577	75.9346087856	0.858
0.772514215854	0.0608953763161	CrowdGO	0.569	4.32076386648	75.8241223933	75.9471298806	0.859
0.772755331876	0.0602604439874	CrowdGO	0.569	4.16591481117	75.9175144864	76.0317292452	0.86
0.775723458252	0.0598159592269	CrowdGO	0.569	3.9323454615	75.9325916693	76.0343463077	0.861
0.773685969262	0.0579321050658	CrowdGO	0.569	3.87764447109	75.95418061	76.0530977593	0.862
0.776635205526	0.0569819702949	CrowdGO	0.569	3.76717026137	75.9731458996	76.0664871653	0.863
0.777674466496	0.0569638280598	CrowdGO	0.569	3.75272219685	75.9750993916	76.0677241111	0.864
0.777590720322	0.0565707462988	CrowdGO	0.569	3.73054590765	76.0066648207	76.0981607527	0.865
0.777074689511	0.0564865144929	CrowdGO	0.569	3.73054590765	76.0074485645	76.0989435541	0.866
0.777074689511	0.0564865144929	CrowdGO	0.569	3.73054590765	76.0074485645	76.0989435541	0.867
0.792677469775	0.0546100630673	CrowdGO	0.569	3.66127780019	76.0921049822	76.1801378035	0.868
0.794112163254	0.0544276328141	CrowdGO	0.569	3.65618013631	76.0944562135	76.1822414978	0.869
0.794112163254	0.0540133033903	CrowdGO	0.569	3.65618013631	76.1218033459	76.2095571292	0.87
0.796195496587	0.0537923530174	CrowdGO	0.569	3.60261674549	76.1386881684	76.2238721361	0.871
0.795954351374	0.0525353552981	CrowdGO	0.569	3.30850853362	76.1617506161	76.2335784653	0.872
0.800282241859	0.0520300150426	CrowdGO	0.569	3.1542592934	76.2310359208	76.2962658933	0.873
0.80326645537	0.0515440230472	CrowdGO	0.569	3.08516682029	76.2531728861	76.3155595505	0.874
0.819658844616	0.0432210803294	CrowdGO	0.569	2.99815339125	76.3794920282	76.438313209	0.875
0.822274214026	0.041974651127	CrowdGO	0.569	2.93619532974	76.4200485759	76.4764347192	0.876
0.822576454382	0.0404623207728	CrowdGO	0.569	2.91399756895	76.5078579509	76.5633313674	0.877
0.824901579864	0.0393761738016	CrowdGO	0.569	2.75765956645	76.6532497889	76.7028382101	0.878
0.832154998759	0.037466048014	CrowdGO	0.569	2.6808777246	76.8627174082	76.9094560685	0.879
0.834602513461	0.0361500852868	CrowdGO	0.569	2.66454213311	76.9619193926	77.0080308888	0.88
0.83396825976	0.0358606643277	CrowdGO	0.569	2.64284660422	77.0026680208	77.0480078944	0.881
0.833492069284	0.0357711013949	CrowdGO	0.569	2.5963466854	77.0176655088	77.0614158742	0.882
0.834342565815	0.0341820733747	CrowdGO	0.569	2.52995992151	77.118013133	77.1595013384	0.883
0.835606788318	0.0341820733747	CrowdGO	0.569	2.49048371905	77.118013133	77.1582170526	0.884
0.835630371841	0.0341820733747	CrowdGO	0.569	2.39090457715	77.118013133	77.1550670681	0.885
0.836584735887	0.033101098532	CrowdGO	0.569	2.35551824238	77.1632786711	77.1992230626	0.886
0.900460119138	0.0240970675066	CrowdGO	0.569	2.29596360523	77.253615903	77.2877261858	0.887
0.910180612022	0.0238663389448	CrowdGO	0.569	2.23954693975	77.2717776356	77.3042249134	0.888
0.915639301761	0.0234732571838	CrowdGO	0.569	2.12462058332	77.3003717961	77.3295641553	0.889
0.915639301761	0.0233345224446	CrowdGO	0.569	2.12462058332	77.3062774706	77.3354676005	0.89
0.928550062008	0.0226375395566	CrowdGO	0.569	1.88545256799	77.3324674601	77.3554487729	0.891
0.923669282701	0.0208128225691	CrowdGO	0.569	1.8253337925	77.3575465449	77.3790788967	0.892
0.923596030869	0.0196335772861	CrowdGO	0.569	1.8253337925	77.3866556356	77.4081798902	0.893
0.925389216762	0.0191531440227	CrowdGO	0.569	1.78280021726	77.4171333202	77.4376582041	0.894
0.935083691967	0.0187700798597	CrowdGO	0.569	1.65602909928	77.4504600367	77.4681624428	0.895
0.936717678895	0.0187700798597	CrowdGO	0.569	1.63188818718	77.4504600367	77.4676501447	0.896
0.944688559196	0.0186649777846	CrowdGO	0.569	1.60681411363	77.4567285551	77.473393175	0.897
0.951778643889	0.0185927790938	CrowdGO	0.569	1.51623700526	77.4585643479	77.4734029554	0.898
0.959561418016	0.0184501923377	CrowdGO	0.569	1.21223391942	77.4672372671	77.4767214127	0.899
0.96351926789	0.0148677560863	CrowdGO	0.569	1.08180808353	77.6592956971	77.6668302231	0.9
0.970813209122	0.013703851972	CrowdGO	0.569	0.975918222566	77.6813110982	77.6874411363	0.901
0.949144228016	0.00854202839299	CrowdGO	0.569	0.893090645211	77.7581179879	77.7632466138	0.902
0.956106878328	0.00842410386469	CrowdGO	0.569	0.766320350664	77.7593891839	77.7631651435	0.903
0.95316485387	0.00787555576545	CrowdGO	0.569	0.702227263253	77.7664428778	77.7696133525	0.904
0.952384268101	0.00775452796009	CrowdGO	0.569	0.700659775708	77.7680103654	77.7711666385	0.905
0.952384268101	0.00775452796009	CrowdGO	0.569	0.700659775708	77.7680103654	77.7711666385	0.906
0.952384268101	0.00775452796009	CrowdGO	0.569	0.658318499992	77.7680103654	77.7707967005	0.907
0.960222725454	0.00764732384345	CrowdGO	0.569	0.543976032812	77.7686249044	77.7705273831	0.908
0.255753968254	0.00120947229602	CrowdGO	0.569	0.328871646442	77.8579716944	77.8586662674	0.909
0.255753968254	0.00120947229602	CrowdGO	0.569	0.328871646442	77.8579716944	77.8586662674	0.91
0.255753968254	0.00120947229602	CrowdGO	0.569	0.328871646442	77.8579716944	77.8586662674	0.911
0.298859126984	0.00104100868416	CrowdGO	0.569	0.282214885734	77.8587554382	77.8592669091	0.912
0.320165945166	0.00104100868416	CrowdGO	0.569	0.224897839926	77.8587554382	77.8590802503	0.913
0.236411736412	0.000986160066349	CrowdGO	0.569	0.200729403672	77.8752143203	77.8754730177	0.914
0.236411736412	0.000986160066349	CrowdGO	0.569	0.152422083421	77.8752143203	77.875363485	0.915
0.243506493506	0.000623315363881	CrowdGO	0.569	0.104228013234	77.8880663239	77.8881360616	0.916
0.243506493506	0.000623315363881	CrowdGO	0.569	0.104228013234	77.8880663239	77.8881360616	0.917
0.243506493506	0.000623315363881	CrowdGO	0.569	0.104228013234	77.8880663239	77.8881360616	0.918
0.214285714286	0.000117924528302	CrowdGO	0.569	0.0715703998982	77.8919453145	77.8919781954	0.919
0.214285714286	0.000117924528302	CrowdGO	0.569	0.0309430815343	77.8919453145	77.8919514606	0.92
0.214285714286	0.000117924528302	CrowdGO	0.569	0.0309430815343	77.8919453145	77.8919514606	0.921
0.214285714286	0.000117924528302	CrowdGO	0.569	0.0309430815343	77.8919453145	77.8919514606	0.922
0.214285714286	0.000117924528302	CrowdGO	0.569	0.0309430815343	77.8919453145	77.8919514606	0.923
0.0	0.0	CrowdGO	0.569	0	77.894416342	77.894416342	0.924
0.0	0.0	CrowdGO	0.569	0	77.894416342	77.894416342	0.925
0.0	0.0	CrowdGO	0.569	0	77.894416342	77.894416342	0.926
0.0	0.0	CrowdGO	0.569	0	77.894416342	77.894416342	0.927
0.0	0.0	CrowdGO	0.569	0	77.894416342	77.894416342	0.928
0.0	0.0	CrowdGO	0.569	0	77.894416342	77.894416342	0.929
0.0	0.0	CrowdGO	0.569	0	77.894416342	77.894416342	0.93
0.0	0.0	CrowdGO	0.569	0	77.894416342	77.894416342	0.931
0.0	0.0	CrowdGO	0.569	0	77.894416342	77.894416342	0.932
0.0	0.0	CrowdGO	0.569	0	77.894416342	77.894416342	0.933
0.0	0.0	CrowdGO	0.569	0	77.894416342	77.894416342	0.934
0.0	0.0	CrowdGO	0.569	0	77.894416342	77.894416342	0.935
0.0	0.0	CrowdGO	0.569	0	77.894416342	77.894416342	0.936
0.0	0.0	CrowdGO	0.569	0	77.894416342	77.894416342	0.937
0.0	0.0	CrowdGO	0.569	0	77.894416342	77.894416342	0.938
0.0	0.0	CrowdGO	0.569	0	77.894416342	77.894416342	0.939
0.0	0.0	CrowdGO	0.569	0	77.894416342	77.894416342	0.94
0.0	0.0	CrowdGO	0.569	0	77.894416342	77.894416342	0.941
0.0	0.0	CrowdGO	0.569	0	77.894416342	77.894416342	0.942
0.0	0.0	CrowdGO	0.569	0	77.894416342	77.894416342	0.943
0.0	0.0	CrowdGO	0.569	0	77.894416342	77.894416342	0.944
0.0	0.0	CrowdGO	0.569	0	77.894416342	77.894416342	0.945
0.0	0.0	CrowdGO	0.569	0	77.894416342	77.894416342	0.946
0.0	0.0	CrowdGO	0.569	0	77.894416342	77.894416342	0.947
0.0	0.0	CrowdGO	0.569	0	77.894416342	77.894416342	0.948
0.0	0.0	CrowdGO	0.569	0	77.894416342	77.894416342	0.949
0.0	0.0	CrowdGO	0.569	0	77.894416342	77.894416342	0.95
0.0	0.0	CrowdGO	0.569	0	77.894416342	77.894416342	0.951
0.0	0.0	CrowdGO	0.569	0	77.894416342	77.894416342	0.952
0.0	0.0	CrowdGO	0.569	0	77.894416342	77.894416342	0.953
0.0	0.0	CrowdGO	0.569	0	77.894416342	77.894416342	0.954
0.0	0.0	CrowdGO	0.569	0	77.894416342	77.894416342	0.955
0.0	0.0	CrowdGO	0.569	0	77.894416342	77.894416342	0.956
0.0	0.0	CrowdGO	0.569	0	77.894416342	77.894416342	0.957
0.0	0.0	CrowdGO	0.569	0	77.894416342	77.894416342	0.958
0.0	0.0	CrowdGO	0.569	0	77.894416342	77.894416342	0.959
0.0	0.0	CrowdGO	0.569	0	77.894416342	77.894416342	0.96
0.0	0.0	CrowdGO	0.569	0	77.894416342	77.894416342	0.961
0.0	0.0	CrowdGO	0.569	0	77.894416342	77.894416342	0.962
0.0	0.0	CrowdGO	0.569	0	77.894416342	77.894416342	0.963
0.0	0.0	CrowdGO	0.569	0	77.894416342	77.894416342	0.964
0.0	0.0	CrowdGO	0.569	0	77.894416342	77.894416342	0.965
0.0	0.0	CrowdGO	0.569	0	77.894416342	77.894416342	0.966
0.0	0.0	CrowdGO	0.569	0	77.894416342	77.894416342	0.967
0.0	0.0	CrowdGO	0.569	0	77.894416342	77.894416342	0.968
0.0	0.0	CrowdGO	0.569	0	77.894416342	77.894416342	0.969
0.0	0.0	CrowdGO	0.569	0	77.894416342	77.894416342	0.97
0.0	0.0	CrowdGO	0.569	0	77.894416342	77.894416342	0.971
0.0	0.0	CrowdGO	0.569	0	77.894416342	77.894416342	0.972
0.0	0.0	CrowdGO	0.569	0	77.894416342	77.894416342	0.973
0.0	0.0	CrowdGO	0.569	0	77.894416342	77.894416342	0.974
0.0	0.0	CrowdGO	0.569	0	77.894416342	77.894416342	0.975
0.0	0.0	CrowdGO	0.569	0	77.894416342	77.894416342	0.976
0.0	0.0	CrowdGO	0.569	0	77.894416342	77.894416342	0.977
0.0	0.0	CrowdGO	0.569	0	77.894416342	77.894416342	0.978
0.0	0.0	CrowdGO	0.569	0	77.894416342	77.894416342	0.979
0.0	0.0	CrowdGO	0.569	0	77.894416342	77.894416342	0.98
0.0	0.0	CrowdGO	0.569	0	77.894416342	77.894416342	0.981
0.0	0.0	CrowdGO	0.569	0	77.894416342	77.894416342	0.982
0.0	0.0	CrowdGO	0.569	0	77.894416342	77.894416342	0.983
0.0	0.0	CrowdGO	0.569	0	77.894416342	77.894416342	0.984
0.0	0.0	CrowdGO	0.569	0	77.894416342	77.894416342	0.985
0.0	0.0	CrowdGO	0.569	0	77.894416342	77.894416342	0.986
0.0	0.0	CrowdGO	0.569	0	77.894416342	77.894416342	0.987
0.0	0.0	CrowdGO	0.569	0	77.894416342	77.894416342	0.988
0.0	0.0	CrowdGO	0.569	0	77.894416342	77.894416342	0.989
0.0	0.0	CrowdGO	0.569	0	77.894416342	77.894416342	0.99
0.0	0.0	CrowdGO	0.569	0	77.894416342	77.894416342	0.991
0.0	0.0	CrowdGO	0.569	0	77.894416342	77.894416342	0.992
0.0	0.0	CrowdGO	0.569	0	77.894416342	77.894416342	0.993
0.0	0.0	CrowdGO	0.569	0	77.894416342	77.894416342	0.994
0.0	0.0	CrowdGO	0.569	0	77.894416342	77.894416342	0.995
0.0	0.0	CrowdGO	0.569	0	77.894416342	77.894416342	0.996
0.0	0.0	CrowdGO	0.569	0	77.894416342	77.894416342	0.997
0.0	0.0	CrowdGO	0.569	0	77.894416342	77.894416342	0.998
0.0	0.0	CrowdGO	0.569	0	77.894416342	77.894416342	0.999
