0.04300808521866059	0.8208096070086521	DeepGOPlus	0.0
0.04300808521866059	0.8208096070086521	DeepGOPlus	0.0
0.04300808521866059	0.8208096070086521	DeepGOPlus	0.0
0.0430221987520595	0.8208096070086521	DeepGOPlus	0.003
0.043027743634657445	0.8208096070086521	DeepGOPlus	0.004
0.04306768455493845	0.8207948664426145	DeepGOPlus	0.005
0.045402212048970374	0.8137526767997779	DeepGOPlus	0.006
0.049847035875149964	0.8031387409185479	DeepGOPlus	0.007
0.053849665592303225	0.792654640420927	DeepGOPlus	0.008
0.05754535165125397	0.7830029968205507	DeepGOPlus	0.009
0.06109558213727187	0.7752632742376603	DeepGOPlus	0.01
0.06440080569822772	0.7682003884218921	DeepGOPlus	0.011
0.06748774199800234	0.7609962253320772	DeepGOPlus	0.012
0.07071612360127708	0.7547746215785351	DeepGOPlus	0.013
0.07383594191021257	0.74950347847314	DeepGOPlus	0.014
0.07680366255935325	0.7438470787479357	DeepGOPlus	0.015
0.07974129578960105	0.7385508470650701	DeepGOPlus	0.016
0.08251566561188563	0.7339298362799294	DeepGOPlus	0.017
0.08541590066053462	0.728007311638568	DeepGOPlus	0.018
0.08807844434770187	0.7213151843694542	DeepGOPlus	0.019
0.09092764803647192	0.7166288455804989	DeepGOPlus	0.02
0.0937123534214069	0.710651951711102	DeepGOPlus	0.021
0.0961572754356569	0.70593164479326	DeepGOPlus	0.022
0.09871384334448907	0.7019305447137445	DeepGOPlus	0.023
0.10111759278065413	0.6967312393548306	DeepGOPlus	0.024
0.10368708659204655	0.6936069437504206	DeepGOPlus	0.025
0.10601288805817125	0.6905004671000262	DeepGOPlus	0.026
0.10835897103174351	0.6860908852004152	DeepGOPlus	0.027
0.1106687891053403	0.6822329252116873	DeepGOPlus	0.028
0.11297843475146038	0.6777631966748465	DeepGOPlus	0.029
0.11521173165043952	0.6741374934896964	DeepGOPlus	0.03
0.11762382373108966	0.6707116143272426	DeepGOPlus	0.031
0.11983326290398022	0.6671687089731992	DeepGOPlus	0.032
0.12203280273651228	0.6641693482849875	DeepGOPlus	0.033
0.1243761563491595	0.6610701079993703	DeepGOPlus	0.034
0.12677314498335643	0.6585245091682128	DeepGOPlus	0.035
0.12885950434630924	0.6557416851516182	DeepGOPlus	0.036
0.1311225077722545	0.6528616065748561	DeepGOPlus	0.037
0.1333415471057756	0.6485757093140495	DeepGOPlus	0.038
0.13563809442729613	0.6466458787910555	DeepGOPlus	0.039
0.1379237585621414	0.6438515749032461	DeepGOPlus	0.04
0.14015046904063194	0.6418635652352763	DeepGOPlus	0.041
0.14253074742649208	0.6380779840290678	DeepGOPlus	0.042
0.14466414930084456	0.6357572420374358	DeepGOPlus	0.043
0.14660344007678086	0.6328102982500279	DeepGOPlus	0.044
0.1486766527721395	0.6309679033670902	DeepGOPlus	0.045
0.15052954834188564	0.6278156726974589	DeepGOPlus	0.046
0.15290031349113495	0.6261498213751598	DeepGOPlus	0.047
0.15481314492846232	0.6235492030306067	DeepGOPlus	0.048
0.15708421696171304	0.6215131129990618	DeepGOPlus	0.049
0.15921232902163734	0.6180974552970805	DeepGOPlus	0.05
0.16129067725420998	0.6152065634994136	DeepGOPlus	0.051
0.1632676652346729	0.6134658970111134	DeepGOPlus	0.052
0.1656781212890871	0.6113171099339721	DeepGOPlus	0.053
0.16777867873420693	0.608585845550142	DeepGOPlus	0.054
0.1694792955071164	0.6065812995465889	DeepGOPlus	0.055
0.17121027298863975	0.6039610700804969	DeepGOPlus	0.056
0.1736013994379737	0.6016992843739858	DeepGOPlus	0.057
0.17579885448619037	0.5988415188326843	DeepGOPlus	0.058
0.17755158529167248	0.5965342644978489	DeepGOPlus	0.059
0.17960189825078038	0.5945221349950902	DeepGOPlus	0.06
0.18185262836250218	0.5927840742284084	DeepGOPlus	0.061
0.18414057237957604	0.5912901694547144	DeepGOPlus	0.062
0.18608532775362563	0.5895648395222004	DeepGOPlus	0.063
0.18773606585837316	0.5875537871861983	DeepGOPlus	0.064
0.19000301235709174	0.5859791288964452	DeepGOPlus	0.065
0.19198167563951182	0.5844627497725755	DeepGOPlus	0.066
0.19418158858944817	0.5823716801171669	DeepGOPlus	0.067
0.19643958551521395	0.5806099949158797	DeepGOPlus	0.068
0.19825457228176754	0.5787442551481541	DeepGOPlus	0.069
0.20049553849809398	0.5774310926546503	DeepGOPlus	0.07
0.20268892201585229	0.5750158738896236	DeepGOPlus	0.071
0.20392405759607843	0.572974358390858	DeepGOPlus	0.072
0.20623383179829125	0.5719457509857797	DeepGOPlus	0.073
0.2080794780186432	0.5686443242323553	DeepGOPlus	0.074
0.20928940979022026	0.5666189599008237	DeepGOPlus	0.075
0.21085895067169674	0.5652669540018924	DeepGOPlus	0.076
0.21302077705124953	0.5634018898723037	DeepGOPlus	0.077
0.214725103436528	0.5610168593574822	DeepGOPlus	0.078
0.21643359117923006	0.5591143334048974	DeepGOPlus	0.079
0.21805912160281177	0.5565487988146539	DeepGOPlus	0.08
0.21997455303456137	0.5534123806493558	DeepGOPlus	0.081
0.22139927904574097	0.551346381415786	DeepGOPlus	0.082
0.22311485940328388	0.549963202888643	DeepGOPlus	0.083
0.22523765180510988	0.5488661059096175	DeepGOPlus	0.084
0.22686109100416493	0.5477939089310216	DeepGOPlus	0.085
0.22852517881011047	0.5454375235436698	DeepGOPlus	0.086
0.23085378063682468	0.5440786949245003	DeepGOPlus	0.087
0.2325250302763984	0.5434226037096287	DeepGOPlus	0.088
0.23444784156122891	0.5420005804360082	DeepGOPlus	0.089
0.2367257866224139	0.5407996486101913	DeepGOPlus	0.09
0.23862993054147658	0.5401756850626223	DeepGOPlus	0.091
0.24007812994038183	0.5387649090209458	DeepGOPlus	0.092
0.24173430531751874	0.5375316442969247	DeepGOPlus	0.093
0.24385980549197814	0.5362261887921308	DeepGOPlus	0.094
0.24580716497206787	0.5344385912020732	DeepGOPlus	0.095
0.24770911749386176	0.5329389768233967	DeepGOPlus	0.096
0.24965350857787547	0.531916711820943	DeepGOPlus	0.097
0.25129809788806085	0.5305646003454192	DeepGOPlus	0.098
0.2527508127413692	0.529018244038468	DeepGOPlus	0.099
0.2546550323967167	0.5273478460725902	DeepGOPlus	0.1
0.25615995699439753	0.5258530374076923	DeepGOPlus	0.101
0.2585998250727625	0.5249293017623814	DeepGOPlus	0.102
0.2598371698556603	0.5232024915963704	DeepGOPlus	0.103
0.2620362441959241	0.5217418140815286	DeepGOPlus	0.104
0.2636825417162566	0.5201050535705498	DeepGOPlus	0.105
0.2655103818912399	0.5186263747270048	DeepGOPlus	0.106
0.26709517247089304	0.5178618581170146	DeepGOPlus	0.107
0.26880874404814037	0.516100924879916	DeepGOPlus	0.108
0.2704219471040978	0.5144144219070617	DeepGOPlus	0.109
0.2729055479995247	0.5126536640207504	DeepGOPlus	0.11
0.27483978396361003	0.5116403800374881	DeepGOPlus	0.111
0.27684735029015045	0.5098391615121498	DeepGOPlus	0.112
0.2781875025457469	0.5087182854120526	DeepGOPlus	0.113
0.2796940459555083	0.5071273913430022	DeepGOPlus	0.114
0.2820686573861685	0.5061924730502184	DeepGOPlus	0.115
0.283579979031786	0.5049447121089644	DeepGOPlus	0.116
0.2851639304318865	0.5039090175921228	DeepGOPlus	0.117
0.28709039355723603	0.5027513589369915	DeepGOPlus	0.118
0.28826659349725825	0.5016029961906462	DeepGOPlus	0.119
0.2893701709419561	0.49974701693590656	DeepGOPlus	0.12
0.29090773119175384	0.4982848796239123	DeepGOPlus	0.121
0.29236269269192	0.4974899692357517	DeepGOPlus	0.122
0.29322244117994317	0.4958586083212171	DeepGOPlus	0.123
0.29516596179630444	0.49482913149374724	DeepGOPlus	0.124
0.2967793222716689	0.4933739092693311	DeepGOPlus	0.125
0.2984655844588655	0.4924600428020404	DeepGOPlus	0.126
0.2994785108933908	0.49115747156227396	DeepGOPlus	0.127
0.30041502563453676	0.490342851335137	DeepGOPlus	0.128
0.30246559471989054	0.4890916326724501	DeepGOPlus	0.129
0.3039230451764633	0.48747723749817945	DeepGOPlus	0.13
0.30530342942069416	0.48640342898899547	DeepGOPlus	0.131
0.30745623862911275	0.48535541748457783	DeepGOPlus	0.132
0.30884428774196593	0.4843891849593675	DeepGOPlus	0.133
0.3102552670823322	0.4833182537725232	DeepGOPlus	0.134
0.31131700898187864	0.48222436841421235	DeepGOPlus	0.135
0.31309775438803555	0.4813436737451203	DeepGOPlus	0.136
0.31371022656828157	0.47982648313185877	DeepGOPlus	0.136
0.3155233001939389	0.4791473073584495	DeepGOPlus	0.138
0.3158047278985412	0.4772714433697649	DeepGOPlus	0.138
0.31718192688291336	0.47577013570248616	DeepGOPlus	0.14
0.317604063249375	0.47302456692137784	DeepGOPlus	0.14
0.31968091301830426	0.47244689528650535	DeepGOPlus	0.142
0.32091769623299776	0.47162466186601026	DeepGOPlus	0.143
0.3230394116036753	0.4704602468144236	DeepGOPlus	0.144
0.32452159242325324	0.46933454702535565	DeepGOPlus	0.145
0.32555855434418757	0.4679954330949672	DeepGOPlus	0.146
0.3271043782986569	0.46715660230492884	DeepGOPlus	0.147
0.3285355375184465	0.4656656120844999	DeepGOPlus	0.148
0.3302747607730037	0.4647095087237287	DeepGOPlus	0.149
0.33134054810738617	0.4641619736036417	DeepGOPlus	0.15
0.3325404757974376	0.46318124873992994	DeepGOPlus	0.151
0.33446796470611656	0.4616615999278428	DeepGOPlus	0.152
0.3365681576571333	0.46105516287414067	DeepGOPlus	0.153
0.3376960563779935	0.4598736323888791	DeepGOPlus	0.154
0.33866916776563405	0.4591604308448957	DeepGOPlus	0.155
0.34021453817400066	0.45819402896532135	DeepGOPlus	0.156
0.3415066176706354	0.4572952901835084	DeepGOPlus	0.157
0.34235327138396576	0.45627870726106334	DeepGOPlus	0.158
0.3435660266771885	0.45543660886952286	DeepGOPlus	0.159
0.34514827339207593	0.4542364112661338	DeepGOPlus	0.16
0.34610186973175067	0.453231033927718	DeepGOPlus	0.161
0.3472912451475478	0.45183400652625433	DeepGOPlus	0.162
0.34807805198644004	0.45097737638809704	DeepGOPlus	0.163
0.34935771687745937	0.4498674468665648	DeepGOPlus	0.164
0.35016772592664946	0.44884652377177575	DeepGOPlus	0.165
0.3518511416399738	0.4481284775283984	DeepGOPlus	0.166
0.3544702264459248	0.4471598330317691	DeepGOPlus	0.167
0.35525433102284787	0.4458902789162352	DeepGOPlus	0.167
0.3566551072800206	0.4448205237863154	DeepGOPlus	0.169
0.35736164176842367	0.44338644705142716	DeepGOPlus	0.169
0.3582085710682705	0.4420609182330011	DeepGOPlus	0.169
0.3591388982875803	0.4405212767689972	DeepGOPlus	0.169
0.36063831155988246	0.4389770792773656	DeepGOPlus	0.173
0.3608738681148393	0.43735767451274504	DeepGOPlus	0.173
0.36169291550907356	0.43630722829316415	DeepGOPlus	0.173
0.3628902847591523	0.43540471486707266	DeepGOPlus	0.173
0.36500602172992413	0.43466786080088915	DeepGOPlus	0.177
0.3658586266716055	0.4337558165627315	DeepGOPlus	0.178
0.36777713953110186	0.43257791737537865	DeepGOPlus	0.179
0.3689017002541144	0.4319523082189244	DeepGOPlus	0.18
0.37024958128850793	0.43106071106045496	DeepGOPlus	0.181
0.37099754460408546	0.43008699250277743	DeepGOPlus	0.182
0.3725012899254556	0.42924159107402776	DeepGOPlus	0.183
0.37379076989566684	0.4282971005289904	DeepGOPlus	0.184
0.37444503969230086	0.4267297832734982	DeepGOPlus	0.184
0.3758605090179316	0.42576834146967524	DeepGOPlus	0.186
0.37652023316078115	0.42448826333362144	DeepGOPlus	0.186
0.3770947445281583	0.42330780813357627	DeepGOPlus	0.186
0.37794284686068086	0.42230995771777985	DeepGOPlus	0.186
0.37890306433884813	0.4210870816526513	DeepGOPlus	0.186
0.3798648360104797	0.42019454605032025	DeepGOPlus	0.186
0.3799912014285031	0.41852469440408546	DeepGOPlus	0.186
0.3808662054025659	0.41743849257434784	DeepGOPlus	0.186
0.3814563129391678	0.4166488070354743	DeepGOPlus	0.186
0.3824841750592682	0.41572714067936806	DeepGOPlus	0.186
0.384618197844041	0.41517376097527975	DeepGOPlus	0.196
0.38596767970068036	0.4137523403655979	DeepGOPlus	0.197
0.3872016649617716	0.41255869633599407	DeepGOPlus	0.198
0.38825194422492526	0.4118545480674074	DeepGOPlus	0.199
0.3900296151883337	0.41146308221264694	DeepGOPlus	0.2
0.3908811021701588	0.41062447397689705	DeepGOPlus	0.201
0.3912772122354642	0.40960984728807137	DeepGOPlus	0.201
0.39147599563468655	0.4087396656452753	DeepGOPlus	0.201
0.3915655032333096	0.407085862588072	DeepGOPlus	0.201
0.3929453669723191	0.40633230393064773	DeepGOPlus	0.201
0.3935370113073839	0.40541811269148614	DeepGOPlus	0.201
0.3931374954249617	0.40363295095611174	DeepGOPlus	0.201
0.3951794614719383	0.40258556544305263	DeepGOPlus	0.201
0.39659096505705443	0.40168317331870274	DeepGOPlus	0.201
0.3974219204854226	0.40098960541148887	DeepGOPlus	0.201
0.39695453778145945	0.3997430885523866	DeepGOPlus	0.201
0.39811690367518815	0.3989109572161619	DeepGOPlus	0.201
0.39925741019427463	0.39825877337241444	DeepGOPlus	0.201
0.4001722693615717	0.3976097576909065	DeepGOPlus	0.201
0.4003913782032428	0.3968635603732726	DeepGOPlus	0.201
0.4006015048639134	0.3951128744001107	DeepGOPlus	0.201
0.4013653521314383	0.39429250637958485	DeepGOPlus	0.201
0.40257068033013593	0.3933299128835695	DeepGOPlus	0.201
0.40456922626287767	0.39251533195275523	DeepGOPlus	0.201
0.40561379321395546	0.3916516795419242	DeepGOPlus	0.201
0.4071607233359947	0.39074386424442475	DeepGOPlus	0.201
0.40761120113434046	0.3894471459440715	DeepGOPlus	0.201
0.40835363088042465	0.38805759398775286	DeepGOPlus	0.201
0.40839959460663067	0.3870418198412635	DeepGOPlus	0.201
0.4086745369707711	0.3858697339783598	DeepGOPlus	0.201
0.4088860036723609	0.38545422146221553	DeepGOPlus	0.201
0.41057667900328776	0.38517265467628825	DeepGOPlus	0.201
0.4118147612954284	0.3841151483896661	DeepGOPlus	0.201
0.41288799014842054	0.38364539729339786	DeepGOPlus	0.201
0.414412666355374	0.38240137506105876	DeepGOPlus	0.201
0.41627610829807044	0.38113893669354915	DeepGOPlus	0.201
0.41635440207298335	0.38050680467600617	DeepGOPlus	0.201
0.417298560787743	0.3800413010530778	DeepGOPlus	0.201
0.41829952382770014	0.3783590167626265	DeepGOPlus	0.201
0.41945478845740436	0.37759930443638895	DeepGOPlus	0.201
0.42034412990725767	0.3764384477599091	DeepGOPlus	0.201
0.42037895388458957	0.37556034914325437	DeepGOPlus	0.201
0.4198295648771257	0.374240934026463	DeepGOPlus	0.201
0.4186573923358332	0.3731663312358774	DeepGOPlus	0.201
0.4202885256897721	0.3727304721505863	DeepGOPlus	0.201
0.4208816145106805	0.3715193334488597	DeepGOPlus	0.201
0.42162237151915183	0.37066317138302907	DeepGOPlus	0.201
0.4225875225541414	0.37006120945651677	DeepGOPlus	0.201
0.42363564842503987	0.36944223746372395	DeepGOPlus	0.201
0.4233483119376319	0.36844185790978956	DeepGOPlus	0.201
0.4240869215065207	0.3676581901721375	DeepGOPlus	0.201
0.425046025757865	0.3665369136887222	DeepGOPlus	0.201
0.4264280527360006	0.3661167972870436	DeepGOPlus	0.201
0.42762079447127155	0.3646034858403177	DeepGOPlus	0.201
0.428681251500569	0.3637492904804767	DeepGOPlus	0.201
0.42902271631411865	0.3626079348594459	DeepGOPlus	0.201
0.4311078073384136	0.3618870355333147	DeepGOPlus	0.201
0.43240180628733216	0.3609590294894341	DeepGOPlus	0.201
0.43323605627979206	0.3602710430071078	DeepGOPlus	0.201
0.43375759515171736	0.3592990387180861	DeepGOPlus	0.201
0.4348617228822798	0.3587634950424909	DeepGOPlus	0.201
0.4364064530444898	0.35785723549488424	DeepGOPlus	0.201
0.4372519947938386	0.3573097883113092	DeepGOPlus	0.201
0.4378296745758953	0.35679453422098406	DeepGOPlus	0.201
0.43779911209111366	0.3559234034920898	DeepGOPlus	0.201
0.4387337859182373	0.3550529020449121	DeepGOPlus	0.201
0.43854399757412404	0.3536046962370243	DeepGOPlus	0.201
0.438354149739227	0.3526810736566875	DeepGOPlus	0.201
0.4391158281945174	0.35175164054654257	DeepGOPlus	0.201
0.4397279123705875	0.3508887712314609	DeepGOPlus	0.201
0.44059744929698347	0.35016226407658735	DeepGOPlus	0.201
0.44137834130235815	0.34977429767551943	DeepGOPlus	0.201
0.4425849776147138	0.3490133321705823	DeepGOPlus	0.201
0.44147050220631107	0.34779690934218904	DeepGOPlus	0.201
0.4437267609585961	0.3474674970089042	DeepGOPlus	0.201
0.44469192366788524	0.3453663069508796	DeepGOPlus	0.201
0.4449759355923992	0.3442437556003294	DeepGOPlus	0.201
0.44632057182654644	0.34301787923593663	DeepGOPlus	0.201
0.44753255910437995	0.34223317250168145	DeepGOPlus	0.201
0.44818905734459924	0.34116552070520806	DeepGOPlus	0.201
0.4482978773269728	0.34037402128923366	DeepGOPlus	0.201
0.44980461807144156	0.3395712085176499	DeepGOPlus	0.201
0.4511156034177776	0.3390748250227353	DeepGOPlus	0.201
0.4514054931681801	0.3383569655977012	DeepGOPlus	0.201
0.4507234018940313	0.33764589358883745	DeepGOPlus	0.201
0.45197019601907806	0.33698322076770787	DeepGOPlus	0.201
0.4510496181109877	0.3360996360397558	DeepGOPlus	0.201
0.45112079575583575	0.3347598646319783	DeepGOPlus	0.201
0.45158286960535354	0.3336908379863295	DeepGOPlus	0.201
0.4517906796522288	0.33294968468224795	DeepGOPlus	0.201
0.45248814665453396	0.3323131923403589	DeepGOPlus	0.201
0.45412174849454884	0.3313804632409886	DeepGOPlus	0.201
0.4536881331649637	0.3306737948551716	DeepGOPlus	0.201
0.4546388461357062	0.3298467100334606	DeepGOPlus	0.201
0.4565857250768024	0.3289051887068135	DeepGOPlus	0.201
0.4569052327163618	0.32805776768012823	DeepGOPlus	0.201
0.45742279809459385	0.32723496702427524	DeepGOPlus	0.201
0.45798491862903074	0.32602207720524645	DeepGOPlus	0.201
0.4598033227900736	0.3252241191131248	DeepGOPlus	0.201
0.4601336755040961	0.3241446273523319	DeepGOPlus	0.201
0.4618062469266007	0.3232473622420424	DeepGOPlus	0.201
0.46130240959174634	0.3225136924503805	DeepGOPlus	0.201
0.4608121480039021	0.3216229329424269	DeepGOPlus	0.201
0.461276231829215	0.3207752750925921	DeepGOPlus	0.201
0.46107067280372577	0.32040332480061934	DeepGOPlus	0.201
0.4613614483498907	0.31977809548512137	DeepGOPlus	0.201
0.46213655273626175	0.31835875439509026	DeepGOPlus	0.201
0.46376905936577417	0.3169493337977305	DeepGOPlus	0.201
0.4658369239248374	0.3161599020481357	DeepGOPlus	0.201
0.464584658692843	0.31517845640271597	DeepGOPlus	0.201
0.46529447138196106	0.31465013993219454	DeepGOPlus	0.201
0.466847424160497	0.31350776631041744	DeepGOPlus	0.201
0.4669576015199456	0.3119829528050021	DeepGOPlus	0.201
0.46729494127309185	0.3111113484826728	DeepGOPlus	0.201
0.4669775286247204	0.31010990382192594	DeepGOPlus	0.201
0.4675640145825594	0.3089322944482202	DeepGOPlus	0.201
0.46787323229759986	0.30840481870135	DeepGOPlus	0.201
0.4685341796198532	0.30728169031994645	DeepGOPlus	0.201
0.4690121978553111	0.30642250296797735	DeepGOPlus	0.201
0.46921262540465297	0.30549645868225134	DeepGOPlus	0.201
0.46970252802809975	0.3047751352713006	DeepGOPlus	0.201
0.46875950762806906	0.30417264353756873	DeepGOPlus	0.201
0.4694916611598195	0.30364567319247476	DeepGOPlus	0.201
0.4714664087240417	0.303031626986759	DeepGOPlus	0.201
0.4721796231459675	0.30261421480948386	DeepGOPlus	0.201
0.4723820768256426	0.30185380671104983	DeepGOPlus	0.201
0.4727755079942729	0.30132279367394693	DeepGOPlus	0.201
0.4730454372023104	0.3005843612738534	DeepGOPlus	0.201
0.47218979469229944	0.29991047867420323	DeepGOPlus	0.201
0.472702605928739	0.29939179285757256	DeepGOPlus	0.201
0.4732319281908759	0.2987340939043225	DeepGOPlus	0.201
0.4731485759539337	0.2975944639615981	DeepGOPlus	0.201
0.47224086505967094	0.2965318257249689	DeepGOPlus	0.201
0.47241924103913374	0.295858536337185	DeepGOPlus	0.201
0.4727130663664698	0.29477855903041905	DeepGOPlus	0.201
0.4728804509919753	0.29383627712291505	DeepGOPlus	0.201
0.47565757504281825	0.29290913637332794	DeepGOPlus	0.201
0.47608510618458333	0.2920375369625186	DeepGOPlus	0.201
0.4765808170271203	0.2911510216153132	DeepGOPlus	0.201
0.47767873523899435	0.28988655422287396	DeepGOPlus	0.201
0.479281507206621	0.2892635758185341	DeepGOPlus	0.201
0.4794735849901668	0.2884894730956146	DeepGOPlus	0.201
0.4794276379597516	0.28765652090198507	DeepGOPlus	0.201
0.4789542160237771	0.28685010057082655	DeepGOPlus	0.201
0.47997012300982705	0.286291615868984	DeepGOPlus	0.201
0.48054439947452127	0.28590322398862505	DeepGOPlus	0.201
0.48133748468213644	0.2851595312188607	DeepGOPlus	0.201
0.48127176494654283	0.28419116241818515	DeepGOPlus	0.201
0.4809551294116402	0.28328107725569196	DeepGOPlus	0.201
0.48108734409966974	0.2825826831598826	DeepGOPlus	0.201
0.4808204534441761	0.28166992762052356	DeepGOPlus	0.201
0.48153972906621667	0.2810025698704569	DeepGOPlus	0.201
0.48181647045643666	0.2797207803711287	DeepGOPlus	0.201
0.48090388508222676	0.27873576721641424	DeepGOPlus	0.201
0.481876186874575	0.27813192880611926	DeepGOPlus	0.201
0.48175528755685626	0.27773765480696855	DeepGOPlus	0.201
0.4822506722932676	0.2769303328532938	DeepGOPlus	0.201
0.48281782656741074	0.2761934957766682	DeepGOPlus	0.201
0.4832427168688679	0.27537966505669487	DeepGOPlus	0.201
0.48512740468058013	0.274666392909701	DeepGOPlus	0.201
0.4840083998255998	0.2741828932103345	DeepGOPlus	0.201
0.48486110262262183	0.27357481791528776	DeepGOPlus	0.201
0.4850998765128267	0.27298701321514646	DeepGOPlus	0.201
0.4865871867659717	0.27206729496325216	DeepGOPlus	0.201
0.4882890350143076	0.27154464119382604	DeepGOPlus	0.201
0.48824423059329175	0.2708945093851224	DeepGOPlus	0.201
0.4900665882663926	0.27041633332314235	DeepGOPlus	0.201
0.49182587585412557	0.26997016114620903	DeepGOPlus	0.201
0.4914056949392485	0.26951373947143786	DeepGOPlus	0.201
0.49041369322288153	0.2685439213934407	DeepGOPlus	0.201
0.4891446648477304	0.2677546693643601	DeepGOPlus	0.201
0.48989762246061824	0.267116202012372	DeepGOPlus	0.201
0.4901100254074585	0.26620173695608196	DeepGOPlus	0.201
0.4898421106669066	0.26547157864911025	DeepGOPlus	0.201
0.49002435010238743	0.26471508754703255	DeepGOPlus	0.201
0.4913619754501276	0.26390040942592213	DeepGOPlus	0.201
0.4928032840275923	0.263664415683775	DeepGOPlus	0.201
0.49377089947174035	0.2629506606976376	DeepGOPlus	0.201
0.4932310380876221	0.2625172335206037	DeepGOPlus	0.201
0.4943210208149669	0.2619197606897863	DeepGOPlus	0.201
0.49437357894888956	0.2611742360060318	DeepGOPlus	0.201
0.49461606717006973	0.26066679637379125	DeepGOPlus	0.201
0.49470621120359903	0.2602828888726011	DeepGOPlus	0.201
0.49530844250817335	0.2590849495331921	DeepGOPlus	0.201
0.49561972172875757	0.25807383429980935	DeepGOPlus	0.201
0.49507171812711587	0.25755875428037556	DeepGOPlus	0.201
0.49551684984258587	0.2572166475372383	DeepGOPlus	0.201
0.4960711283426261	0.2563228746270171	DeepGOPlus	0.201
0.4964368167217667	0.25525360419056	DeepGOPlus	0.201
0.4974114723755687	0.2542110985902437	DeepGOPlus	0.201
0.49718753402724153	0.2538326855152038	DeepGOPlus	0.201
0.49790327855739874	0.2531242628679661	DeepGOPlus	0.201
0.4982203865218797	0.2528379777926262	DeepGOPlus	0.201
0.49941753540687683	0.25213037051678105	DeepGOPlus	0.201
0.5003512240386238	0.25167149400592065	DeepGOPlus	0.201
0.5015515440711061	0.2511481252083793	DeepGOPlus	0.201
0.5017690174021344	0.250312924844479	DeepGOPlus	0.201
0.5020447110473535	0.24879909835326716	DeepGOPlus	0.201
0.50245398634271	0.2481650327057691	DeepGOPlus	0.201
0.5027637136509271	0.24754524435364153	DeepGOPlus	0.201
0.5021600337564514	0.2464673727456084	DeepGOPlus	0.201
0.5032552894135898	0.24606273468074005	DeepGOPlus	0.201
0.502459343154496	0.24539161142036292	DeepGOPlus	0.201
0.5032137434458036	0.24425961809803545	DeepGOPlus	0.201
0.5038685517999266	0.2441124644131459	DeepGOPlus	0.201
0.5052648157168125	0.24353588174382698	DeepGOPlus	0.201
0.5059695713074088	0.24276220600355355	DeepGOPlus	0.201
0.5067288101497635	0.24173355991946854	DeepGOPlus	0.201
0.5073776468583394	0.2410483417560835	DeepGOPlus	0.201
0.5077624363708598	0.24048405338477108	DeepGOPlus	0.201
0.5090319090266152	0.23966003049915646	DeepGOPlus	0.201
0.5099735697497944	0.23913484813127145	DeepGOPlus	0.201
0.5110502950502188	0.2387212254387696	DeepGOPlus	0.201
0.5118849556404588	0.2381530729318278	DeepGOPlus	0.201
0.5126869996919257	0.23716477966839938	DeepGOPlus	0.201
0.5129815076371391	0.2364335393794118	DeepGOPlus	0.201
0.5136562494596647	0.23584778599429354	DeepGOPlus	0.201
0.5140826352294461	0.2345903933072505	DeepGOPlus	0.201
0.5141131280572295	0.23324231112926647	DeepGOPlus	0.201
0.5143734169678218	0.2327133261279079	DeepGOPlus	0.201
0.5146513507527755	0.23205831945247724	DeepGOPlus	0.201
0.5156049116526765	0.23163619282508774	DeepGOPlus	0.201
0.5170265573706083	0.23095398756038063	DeepGOPlus	0.201
0.5174354247953277	0.22995714264546155	DeepGOPlus	0.201
0.5179338750200628	0.22935113186434597	DeepGOPlus	0.201
0.5184847486756978	0.2291710919847305	DeepGOPlus	0.201
0.5187919544855648	0.22864723542384183	DeepGOPlus	0.201
0.5194335759792392	0.22825434832952307	DeepGOPlus	0.201
0.5199403065635712	0.22734011418648453	DeepGOPlus	0.201
0.5193532216614961	0.22638348585149845	DeepGOPlus	0.201
0.5195952823376112	0.2253807675385224	DeepGOPlus	0.201
0.5205411931577213	0.22498270145795662	DeepGOPlus	0.201
0.5212185405867288	0.22457213144208696	DeepGOPlus	0.201
0.5226052842602324	0.22351824661354658	DeepGOPlus	0.201
0.5229114403778171	0.22279682349575483	DeepGOPlus	0.201
0.5231214571479981	0.22193599119742524	DeepGOPlus	0.201
0.5239424503544855	0.22073650799784578	DeepGOPlus	0.201
0.524180991521486	0.2193853997577843	DeepGOPlus	0.201
0.5243789058113574	0.2182230124030561	DeepGOPlus	0.201
0.5248922680121946	0.21761409027283105	DeepGOPlus	0.201
0.524816824002011	0.21716379422037368	DeepGOPlus	0.201
0.5249052286795188	0.21643268223622672	DeepGOPlus	0.201
0.5257862248092278	0.21594958255150404	DeepGOPlus	0.201
0.5260762555036983	0.2154603249740674	DeepGOPlus	0.201
0.5254292897221121	0.2148501370998068	DeepGOPlus	0.201
0.5244881196932982	0.21425493362822332	DeepGOPlus	0.201
0.5249635889142508	0.21371505330186485	DeepGOPlus	0.201
0.524783709076319	0.21314560532133578	DeepGOPlus	0.201
0.5267812765915998	0.21291569572567257	DeepGOPlus	0.201
0.5284201175325921	0.21184825264992815	DeepGOPlus	0.201
0.5290519662821406	0.2107890267029678	DeepGOPlus	0.201
0.5298116566293627	0.20986868993587243	DeepGOPlus	0.201
0.5302833191985018	0.20917937973516484	DeepGOPlus	0.201
0.5325090757176234	0.20858370542923738	DeepGOPlus	0.201
0.5332999550384117	0.20793639515747658	DeepGOPlus	0.201
0.5342085723074222	0.2072119733069713	DeepGOPlus	0.201
0.5343346034243199	0.20653926297259256	DeepGOPlus	0.201
0.5351869159193438	0.20594354024550915	DeepGOPlus	0.201
0.5361860828058521	0.20507157956049954	DeepGOPlus	0.201
0.536232404205852	0.2032973013418901	DeepGOPlus	0.201
0.5353173946182469	0.20276866158743415	DeepGOPlus	0.201
0.5353555181973735	0.20176984334598813	DeepGOPlus	0.201
0.5375076164239808	0.20102667069247607	DeepGOPlus	0.201
0.5365609145388593	0.2000890907414771	DeepGOPlus	0.201
0.536979306992378	0.19951512376617986	DeepGOPlus	0.201
0.5385407968603849	0.1989585045046704	DeepGOPlus	0.201
0.5387988352364798	0.19792036166120167	DeepGOPlus	0.201
0.5399897339029253	0.19670146698275895	DeepGOPlus	0.201
0.5402877623116127	0.196350115157356	DeepGOPlus	0.201
0.5407126594521817	0.19577242691464666	DeepGOPlus	0.201
0.5405620036075743	0.1950601557960066	DeepGOPlus	0.201
0.5416187672264614	0.1947889830895584	DeepGOPlus	0.201
0.5417519687504122	0.19452993138963892	DeepGOPlus	0.201
0.54326526268732	0.19376133547556354	DeepGOPlus	0.201
0.5438831253445826	0.19303184216078315	DeepGOPlus	0.201
0.5454903983433141	0.19253186011590617	DeepGOPlus	0.201
0.5463147344302357	0.19219627945483372	DeepGOPlus	0.201
0.5460913866198094	0.19196184587217419	DeepGOPlus	0.201
0.5467026597473948	0.19163400509525585	DeepGOPlus	0.201
0.5470263025224306	0.19081614910875372	DeepGOPlus	0.201
0.5469647474990067	0.1902485046902494	DeepGOPlus	0.201
0.5477139948836036	0.18921656983756976	DeepGOPlus	0.201
0.5484370890957406	0.18855384536281775	DeepGOPlus	0.201
0.5496819551672918	0.18834577568607816	DeepGOPlus	0.201
0.5490835477900462	0.18777003975341997	DeepGOPlus	0.201
0.5498131961987386	0.18725962409715735	DeepGOPlus	0.201
0.5497385785626363	0.1863380261120544	DeepGOPlus	0.201
0.5513072559478925	0.18581285441044867	DeepGOPlus	0.201
0.5519900534903892	0.18496724966020034	DeepGOPlus	0.201
0.5541576393621329	0.18429558950816632	DeepGOPlus	0.201
0.5554245032749904	0.18371537528966297	DeepGOPlus	0.201
0.5563371332317913	0.182794260902907	DeepGOPlus	0.201
0.556996839085852	0.18236998025210568	DeepGOPlus	0.201
0.5578977002878047	0.18184891119268728	DeepGOPlus	0.201
0.5595742702838706	0.18105213077340665	DeepGOPlus	0.201
0.5601739350613948	0.18029395575612994	DeepGOPlus	0.201
0.5607241071059541	0.17979188959980985	DeepGOPlus	0.201
0.5609226454352028	0.17908297982397958	DeepGOPlus	0.201
0.5616866978370046	0.1785692187737921	DeepGOPlus	0.201
0.5615224864972912	0.17807788476111236	DeepGOPlus	0.201
0.5621796655657028	0.177646125853528	DeepGOPlus	0.201
0.5608877195401151	0.17710826798327933	DeepGOPlus	0.201
0.5606616246729209	0.17673515465692566	DeepGOPlus	0.201
0.5620102396724103	0.17597315047839376	DeepGOPlus	0.201
0.5639849043744417	0.17522116679271754	DeepGOPlus	0.201
0.5728134002754658	0.16948554906652674	DeepGOPlus	0.201
0.5737936249778423	0.16922803824621158	DeepGOPlus	0.201
0.5737319407096012	0.16862463295504593	DeepGOPlus	0.201
0.5749210581866073	0.16800335966021734	DeepGOPlus	0.201
0.5762682692073198	0.16740582257321018	DeepGOPlus	0.201
0.5770194495570237	0.1665404630100614	DeepGOPlus	0.201
0.5784927256846305	0.16496730274528817	DeepGOPlus	0.201
0.5798558399100245	0.1645912848978429	DeepGOPlus	0.201
0.5813166612671451	0.16323703190192237	DeepGOPlus	0.201
0.5845791007582243	0.16259738477065191	DeepGOPlus	0.201
0.5863498731683698	0.16119847192210118	DeepGOPlus	0.201
0.5871621002769705	0.16040581381975755	DeepGOPlus	0.201
0.5874828650203786	0.1599875236885705	DeepGOPlus	0.201
0.5879607304691686	0.15895369619196262	DeepGOPlus	0.201
0.5908707357241086	0.15840471984533336	DeepGOPlus	0.201
0.5921930574828631	0.15752992850135664	DeepGOPlus	0.201
0.5913343671555841	0.15600521486907812	DeepGOPlus	0.201
0.5934789274922534	0.15529299721596024	DeepGOPlus	0.201
0.5957455993355558	0.1547277036008265	DeepGOPlus	0.201
0.5968777450572198	0.15358768780824275	DeepGOPlus	0.201
0.5969691026794389	0.15270341416691785	DeepGOPlus	0.201
0.5972967893179255	0.1516963742968846	DeepGOPlus	0.201
0.5990565440777711	0.15094229577660973	DeepGOPlus	0.201
0.5998251908281949	0.15003807599208466	DeepGOPlus	0.201
0.6018400621756038	0.14912328251298973	DeepGOPlus	0.201
0.6031403125621053	0.1483422305285939	DeepGOPlus	0.201
0.6025891582382465	0.14769265501256496	DeepGOPlus	0.201
0.6034809607091643	0.1470834746390196	DeepGOPlus	0.201
0.6051808753725144	0.1465868853166742	DeepGOPlus	0.201
0.6062142613594825	0.1457841605911495	DeepGOPlus	0.201
0.6066863186212147	0.1448386154523257	DeepGOPlus	0.201
0.6070398492502682	0.1441818790627337	DeepGOPlus	0.201
0.6087859597836413	0.1430402848263528	DeepGOPlus	0.201
0.6100912087127626	0.14251781083057244	DeepGOPlus	0.201
0.6103894957773373	0.1417505411970224	DeepGOPlus	0.201
0.6094830460625678	0.14112951055206002	DeepGOPlus	0.201
0.6094219630904565	0.1402331177133332	DeepGOPlus	0.201
0.6104889519813383	0.13947161511762277	DeepGOPlus	0.201
0.6111422655450712	0.13890995772880496	DeepGOPlus	0.201
0.6115111308281419	0.1380842300595527	DeepGOPlus	0.201
0.6101117282877377	0.13697611257080425	DeepGOPlus	0.201
0.6101529487930603	0.1365637565093865	DeepGOPlus	0.201
0.6125730565977655	0.1358184018641941	DeepGOPlus	0.201
0.6148557396529918	0.13522756546961304	DeepGOPlus	0.201
0.6145729158508287	0.13465454508258734	DeepGOPlus	0.201
0.6150553122995517	0.13383523794238963	DeepGOPlus	0.201
0.6154634029175251	0.1331864213763256	DeepGOPlus	0.201
0.6165154568571071	0.13234323855325222	DeepGOPlus	0.201
0.6163719758135127	0.1315307878349763	DeepGOPlus	0.201
0.6180762493538825	0.13078603992469354	DeepGOPlus	0.201
0.618504390718272	0.13014783751081205	DeepGOPlus	0.201
0.6208868858153669	0.1295107180145508	DeepGOPlus	0.201
0.6223093614085106	0.12852821017260224	DeepGOPlus	0.201
0.622453776685842	0.12732628031828094	DeepGOPlus	0.201
0.6227895948421314	0.12667791737495807	DeepGOPlus	0.201
0.6232714312408405	0.12597508068860724	DeepGOPlus	0.201
0.6251146287058059	0.12509708235950795	DeepGOPlus	0.201
0.627293045324928	0.12482232685138621	DeepGOPlus	0.201
0.6322451904583236	0.12398034065497335	DeepGOPlus	0.201
0.633678388266049	0.12352433191269252	DeepGOPlus	0.201
0.6341510570493879	0.12277832791016438	DeepGOPlus	0.201
0.6360118206849258	0.12241089957464549	DeepGOPlus	0.201
0.6367800415540815	0.1220746207317577	DeepGOPlus	0.201
0.6374800539621083	0.12171227014345207	DeepGOPlus	0.201
0.6405544233046885	0.12076906151401608	DeepGOPlus	0.201
0.6418170778074139	0.12017482183958399	DeepGOPlus	0.201
0.642648763901184	0.11964314919517616	DeepGOPlus	0.201
0.6431486085933102	0.11858390797138939	DeepGOPlus	0.201
0.6445970318865178	0.1182279009673871	DeepGOPlus	0.201
0.6463353352715293	0.11769499916046709	DeepGOPlus	0.201
0.6471053065142857	0.11734012301622268	DeepGOPlus	0.201
0.6481374672974637	0.11624749793140844	DeepGOPlus	0.201
0.6479794485653685	0.11571407766620008	DeepGOPlus	0.201
0.6490566476738028	0.11511079880630579	DeepGOPlus	0.201
0.6498475474106244	0.11467015594319238	DeepGOPlus	0.201
0.6512465048330011	0.11355624131688939	DeepGOPlus	0.201
0.6537563435335414	0.1131166538216522	DeepGOPlus	0.201
0.6537143180338827	0.11249169432081396	DeepGOPlus	0.201
0.6541142315166116	0.11185926301571807	DeepGOPlus	0.201
0.6538738937730494	0.11125613907174277	DeepGOPlus	0.201
0.6540471020564891	0.11087377711713767	DeepGOPlus	0.201
0.6548914372908891	0.11046920643229056	DeepGOPlus	0.201
0.6553775096609203	0.10941370053420979	DeepGOPlus	0.201
0.6568549807111355	0.1083321996154253	DeepGOPlus	0.201
0.6564800922991421	0.10779406059739784	DeepGOPlus	0.201
0.6564761140071119	0.10715362133134783	DeepGOPlus	0.201
0.6582695411603929	0.10646519675682087	DeepGOPlus	0.201
0.6584387649087331	0.10582987592663326	DeepGOPlus	0.201
0.6610536452606892	0.1056337614590774	DeepGOPlus	0.201
0.6626433550667336	0.10542300577967324	DeepGOPlus	0.201
0.6651202165589873	0.10466573732833974	DeepGOPlus	0.201
0.6636346441436037	0.10400532442543158	DeepGOPlus	0.201
0.6641335737451577	0.10284282603282312	DeepGOPlus	0.201
0.6643261026518863	0.10239706145992847	DeepGOPlus	0.201
0.6640130172269427	0.10198259855390154	DeepGOPlus	0.201
0.6634508874215276	0.1013294119672694	DeepGOPlus	0.201
0.664305243593372	0.10069201796557024	DeepGOPlus	0.201
0.6649006625257472	0.10036085111051415	DeepGOPlus	0.201
0.6652097684293604	0.10023425639129396	DeepGOPlus	0.201
0.6652501743133235	0.09942934912191564	DeepGOPlus	0.201
0.6642644206614636	0.09908997774961309	DeepGOPlus	0.201
0.6652358629302567	0.0983014820285028	DeepGOPlus	0.201
0.6657582521844609	0.09761022568502559	DeepGOPlus	0.201
0.6671970936316229	0.09739039361299968	DeepGOPlus	0.201
0.6684664952634476	0.09715318736873005	DeepGOPlus	0.201
0.6716633463000445	0.09662312080134346	DeepGOPlus	0.201
0.6704713507503676	0.09605932924698588	DeepGOPlus	0.201
0.6714882545620693	0.09568720265586222	DeepGOPlus	0.201
0.6725142990022807	0.09499982678296193	DeepGOPlus	0.201
0.6726732975244913	0.09453516801257635	DeepGOPlus	0.201
0.6717910686087624	0.09414484545769855	DeepGOPlus	0.201
0.6734394283882711	0.09377367814274262	DeepGOPlus	0.201
0.6735980435072341	0.09321338288046101	DeepGOPlus	0.201
0.6731254832879007	0.09274158158761646	DeepGOPlus	0.201
0.6740915348598528	0.09198250534272528	DeepGOPlus	0.201
0.6750546439400558	0.09129112892270745	DeepGOPlus	0.201
0.6768427243881582	0.0903530762527069	DeepGOPlus	0.201
0.6774126247774173	0.08993123292324519	DeepGOPlus	0.201
0.6760265530667214	0.0893748919377159	DeepGOPlus	0.201
0.6758725706659047	0.08877671806457618	DeepGOPlus	0.201
0.6750193349442734	0.08820966159757718	DeepGOPlus	0.201
0.6753982645597131	0.08763526211781435	DeepGOPlus	0.201
0.6747989372280883	0.08713715736369818	DeepGOPlus	0.201
0.6745545545704738	0.0867081154328742	DeepGOPlus	0.201
0.6770765627834952	0.08648219773134042	DeepGOPlus	0.201
0.6783110309433777	0.08549369774992154	DeepGOPlus	0.201
0.6809650326616586	0.08483870941033385	DeepGOPlus	0.201
0.679563747999326	0.08424356164002021	DeepGOPlus	0.201
0.6798581556908481	0.0833796807229247	DeepGOPlus	0.201
0.6792227579625194	0.08298309957827596	DeepGOPlus	0.201
0.6806393578917898	0.08249508762857512	DeepGOPlus	0.201
0.6808242204495328	0.08224662899766844	DeepGOPlus	0.201
0.6828686611082219	0.08185861886524533	DeepGOPlus	0.201
0.6841741402029963	0.08130133764916649	DeepGOPlus	0.201
0.6844088503128901	0.08094231506173367	DeepGOPlus	0.201
0.685043468376872	0.07995792776306317	DeepGOPlus	0.201
0.6849885279847409	0.07957121280943907	DeepGOPlus	0.201
0.6887966579420474	0.07913427702883752	DeepGOPlus	0.201
0.6917724399505457	0.07894272392029052	DeepGOPlus	0.201
0.6935841457225921	0.07852698879028874	DeepGOPlus	0.201
0.6947981873036037	0.07816506113483397	DeepGOPlus	0.201
0.6935397589379156	0.07774758656957184	DeepGOPlus	0.201
0.6978565550257231	0.07684136271389927	DeepGOPlus	0.201
0.6985918725891382	0.07631815361168075	DeepGOPlus	0.201
0.6985964654721902	0.07606509544524803	DeepGOPlus	0.201
0.7001073622939314	0.07584983731459123	DeepGOPlus	0.201
0.6986716508756691	0.07529052750015612	DeepGOPlus	0.201
0.6987775655276885	0.0748890522401903	DeepGOPlus	0.201
0.6999801289202389	0.07437252982438929	DeepGOPlus	0.201
0.7017586142053703	0.07392059902954874	DeepGOPlus	0.201
0.7045310971242729	0.07358768689924261	DeepGOPlus	0.201
0.7044540435767335	0.07317896678519013	DeepGOPlus	0.201
0.7056781825791494	0.07225620441894849	DeepGOPlus	0.201
0.7043016115506918	0.07197270841123322	DeepGOPlus	0.201
0.7068734601549265	0.07124261796432577	DeepGOPlus	0.201
0.7081632076585053	0.07075727984943052	DeepGOPlus	0.201
0.7078315416608019	0.07049019501194748	DeepGOPlus	0.201
0.7099626346926456	0.07009711325094119	DeepGOPlus	0.201
0.7092947771845889	0.0698648876234209	DeepGOPlus	0.201
0.710587838652887	0.06912960427373638	DeepGOPlus	0.201
0.7104762036200397	0.06876436201502963	DeepGOPlus	0.201
0.7113347278317078	0.06828115001398653	DeepGOPlus	0.201
0.7114633019162176	0.06783807194021771	DeepGOPlus	0.201
0.7109816770330807	0.06742344432170408	DeepGOPlus	0.201
0.7116286909509713	0.06712027777478771	DeepGOPlus	0.201
0.7119263359384382	0.0665742991296903	DeepGOPlus	0.201
0.7136734937807886	0.06581188789488081	DeepGOPlus	0.201
0.7132299770656796	0.0652507888785931	DeepGOPlus	0.201
0.7123031461891739	0.06473573293595468	DeepGOPlus	0.201
0.7136287415644879	0.06414876302851881	DeepGOPlus	0.201
0.7135285722368214	0.06382930115966923	DeepGOPlus	0.201
0.7154609450746154	0.06362668508068771	DeepGOPlus	0.201
0.7185384234908818	0.06301984102946398	DeepGOPlus	0.201
0.7201187967482509	0.06265866737558487	DeepGOPlus	0.201
0.7233052648818694	0.06213534163103402	DeepGOPlus	0.201
0.7231569368657407	0.06193004607708724	DeepGOPlus	0.201
0.7220843547028489	0.06133024520106084	DeepGOPlus	0.201
0.7217221402344447	0.060988978087068456	DeepGOPlus	0.201
0.7210833863661935	0.060553600905548996	DeepGOPlus	0.201
0.7231324717918922	0.060332057841075565	DeepGOPlus	0.201
0.7234426785192112	0.059975579889935335	DeepGOPlus	0.201
0.72310315882044	0.059564339464503846	DeepGOPlus	0.201
0.7228946908178543	0.05945841169477938	DeepGOPlus	0.201
0.7259109601092782	0.05931976995526425	DeepGOPlus	0.201
0.7270364513039735	0.059135948182797354	DeepGOPlus	0.201
0.7311469347094619	0.05830908391613629	DeepGOPlus	0.201
0.7336003254130377	0.05815149612897416	DeepGOPlus	0.201
0.7370793318189377	0.057688303846015	DeepGOPlus	0.201
0.7404928594419881	0.05697049661547886	DeepGOPlus	0.201
0.7409240018971233	0.056642186208687655	DeepGOPlus	0.201
0.7397177467419814	0.0560771671563833	DeepGOPlus	0.201
0.739406625213215	0.055578462528642104	DeepGOPlus	0.201
0.7401569936455403	0.055211696369883136	DeepGOPlus	0.201
0.7411810481448308	0.05496502049554444	DeepGOPlus	0.201
0.7421605566363869	0.054784712672253134	DeepGOPlus	0.201
0.7428478149566599	0.054537475916924205	DeepGOPlus	0.201
0.7436936728025177	0.054172171986604345	DeepGOPlus	0.201
0.7430735793877968	0.05387842558534254	DeepGOPlus	0.201
0.7450316992644874	0.05341616231035536	DeepGOPlus	0.201
0.7445614049375878	0.05321859572549629	DeepGOPlus	0.201
0.7424065878663217	0.05233912640149451	DeepGOPlus	0.201
0.7474668608913065	0.05202795610778233	DeepGOPlus	0.201
0.7498355095296255	0.05171397193890928	DeepGOPlus	0.201
0.7502972031520853	0.051458458054316356	DeepGOPlus	0.201
0.7563579558830855	0.050721284676254204	DeepGOPlus	0.201
0.7582406355061688	0.050152928542435575	DeepGOPlus	0.201
0.7612350752967877	0.0493441382739854	DeepGOPlus	0.201
0.759244242952464	0.048962158585892986	DeepGOPlus	0.201
0.7580502364417082	0.048567410290776526	DeepGOPlus	0.201
0.7591357063902537	0.04840523658893545	DeepGOPlus	0.201
0.7584910740285756	0.04727428878935556	DeepGOPlus	0.201
0.7601087129124592	0.04601712653064036	DeepGOPlus	0.201
0.7603019169929494	0.045442539004812856	DeepGOPlus	0.201
0.7584297367362599	0.044772399325870946	DeepGOPlus	0.201
0.7588949320104144	0.044622616154842344	DeepGOPlus	0.201
0.7615334017656343	0.04449722448197654	DeepGOPlus	0.201
0.7616230715704535	0.043960611183718176	DeepGOPlus	0.201
0.7609982415865407	0.04327045322741373	DeepGOPlus	0.201
0.7616404552025633	0.04278190561475219	DeepGOPlus	0.201
0.7669491161145424	0.04218730242390434	DeepGOPlus	0.201
0.7661196922156118	0.041902621377981224	DeepGOPlus	0.201
0.7638557519752345	0.041653675463778315	DeepGOPlus	0.201
0.7657726937249618	0.041416647747230535	DeepGOPlus	0.201
0.7648404963958243	0.0412444644972171	DeepGOPlus	0.201
0.7654815669357173	0.04095611295826698	DeepGOPlus	0.201
0.7685025837781015	0.04041505022155814	DeepGOPlus	0.201
0.7711481886081688	0.04030841482702425	DeepGOPlus	0.201
0.7714205221783051	0.039881322982598236	DeepGOPlus	0.201
0.7703690861388072	0.039224188802728904	DeepGOPlus	0.201
0.7731154028372339	0.0387318849609592	DeepGOPlus	0.201
0.771879947905447	0.03819657329358471	DeepGOPlus	0.201
0.7714183174545622	0.03784152416019181	DeepGOPlus	0.201
0.7705491207695513	0.03764473760358804	DeepGOPlus	0.201
0.7714750736168113	0.037240178639330886	DeepGOPlus	0.201
0.7743232155348331	0.036966830639499994	DeepGOPlus	0.201
0.7752088053739677	0.036643707893063746	DeepGOPlus	0.201
0.7750892765298155	0.03655551446934036	DeepGOPlus	0.201
0.7749291575761775	0.03612790620769899	DeepGOPlus	0.201
0.7769271211186307	0.03557368522610738	DeepGOPlus	0.201
0.7786972376011287	0.03534746803524982	DeepGOPlus	0.201
0.7750494508082381	0.035037894075132955	DeepGOPlus	0.201
0.7760479454441878	0.03460472500200538	DeepGOPlus	0.201
0.7760311489820132	0.03439426075614589	DeepGOPlus	0.201
0.77415400848986	0.034064518414975806	DeepGOPlus	0.201
0.7762411082984557	0.03381458845719435	DeepGOPlus	0.201
0.7770017059597492	0.033650044514185865	DeepGOPlus	0.201
0.7770997723786728	0.033316424113985436	DeepGOPlus	0.201
0.7773955412422117	0.03314301390949856	DeepGOPlus	0.201
0.7774979573532464	0.03301653034285218	DeepGOPlus	0.201
0.7772107474906074	0.03268080728017871	DeepGOPlus	0.201
0.772780550733223	0.03213751014086657	DeepGOPlus	0.201
0.7716525229114777	0.03183577887813002	DeepGOPlus	0.201
0.7718158029999932	0.03167629999223604	DeepGOPlus	0.201
0.7725579278109869	0.03143003195872938	DeepGOPlus	0.201
0.7730451033890804	0.031063400028413263	DeepGOPlus	0.201
0.7724792786054882	0.03075738568818995	DeepGOPlus	0.201
0.7720879191232196	0.030208277164483533	DeepGOPlus	0.201
0.7732665575444028	0.030071966553811995	DeepGOPlus	0.201
0.7735335338128627	0.029364253446980574	DeepGOPlus	0.201
0.7772471528736569	0.028967659019403718	DeepGOPlus	0.201
0.7779862959481996	0.028515772442106964	DeepGOPlus	0.201
0.7761939119008306	0.028230684675444897	DeepGOPlus	0.201
0.7783466406856183	0.027883658692197062	DeepGOPlus	0.201
0.7803973932540622	0.027636227762277924	DeepGOPlus	0.201
0.7808489278811575	0.027305000037001887	DeepGOPlus	0.201
0.7783526484700877	0.026897206046477544	DeepGOPlus	0.201
0.7797961335514847	0.026897206046477544	DeepGOPlus	0.201
0.7862632350063493	0.02624993617360591	DeepGOPlus	0.201
0.7887023077583574	0.025877326601760134	DeepGOPlus	0.201
0.7910661996150956	0.025693888446623868	DeepGOPlus	0.201
0.788021231807728	0.02534273540679158	DeepGOPlus	0.201
0.7907331586764524	0.024934468009337275	DeepGOPlus	0.201
0.7892441595582774	0.024443967708558365	DeepGOPlus	0.201
0.7899679119267665	0.024388025075186042	DeepGOPlus	0.201
0.7889896196399615	0.023900161261850527	DeepGOPlus	0.201
0.7894980570714757	0.023824573851357455	DeepGOPlus	0.201
0.7873166897872425	0.023601470173065103	DeepGOPlus	0.201
0.7857228340307747	0.023448323759672783	DeepGOPlus	0.201
0.7838817831743247	0.022868758345201714	DeepGOPlus	0.201
0.7836639691604668	0.02218451951671997	DeepGOPlus	0.201
0.7826465844999131	0.022004683522793368	DeepGOPlus	0.201
0.7822611233908288	0.02185004256626562	DeepGOPlus	0.201
0.7845848260246665	0.021496912767956348	DeepGOPlus	0.201
0.7849358229330404	0.02147466285695599	DeepGOPlus	0.201
0.7901052457682387	0.021316067495639055	DeepGOPlus	0.201
0.7968168640144008	0.020976481357513708	DeepGOPlus	0.201
0.7977588945191632	0.020713568739186814	DeepGOPlus	0.201
0.7994942530807295	0.02054770411966433	DeepGOPlus	0.201
0.8014975778058158	0.020429017332567325	DeepGOPlus	0.201
0.8043875146037984	0.020429017332567325	DeepGOPlus	0.201
0.8068411567103577	0.019759010307089007	DeepGOPlus	0.201
0.8068280091951089	0.019135925238986246	DeepGOPlus	0.201
0.8094686851757676	0.01877567228439367	DeepGOPlus	0.201
0.8073993893574606	0.01843277935298558	DeepGOPlus	0.201
0.806405265077088	0.018302606591990806	DeepGOPlus	0.201
0.8044073037336611	0.01780504368835616	DeepGOPlus	0.201
0.804499743744379	0.017750994946217794	DeepGOPlus	0.201
0.8006514708183997	0.017358459274913262	DeepGOPlus	0.201
0.7972443684835044	0.01705331808982347	DeepGOPlus	0.201
0.7995447213728909	0.0168746057165893	DeepGOPlus	0.201
0.7979392388175889	0.016704011877883774	DeepGOPlus	0.201
0.7953150730879472	0.01636014332941617	DeepGOPlus	0.201
0.7906908134681134	0.016144545172370107	DeepGOPlus	0.201
0.794117154685867	0.015698759078574348	DeepGOPlus	0.201
0.7957086030698232	0.015425824528698265	DeepGOPlus	0.201
0.7920651709696025	0.015113895131254565	DeepGOPlus	0.201
0.7864276519359563	0.014716509802692433	DeepGOPlus	0.201
0.7887517734970404	0.014506544146612892	DeepGOPlus	0.201
0.7854101052251554	0.014316737453462323	DeepGOPlus	0.201
0.7938200741901529	0.014179380051953978	DeepGOPlus	0.201
0.792309844003226	0.014125978188063767	DeepGOPlus	0.201
0.7919464505264046	0.013962266113974334	DeepGOPlus	0.201
0.7935090485563938	0.013962266113974334	DeepGOPlus	0.201
0.7926050579485662	0.013888563283785656	DeepGOPlus	0.201
0.7912854920316917	0.01368437548370668	DeepGOPlus	0.201
0.7904140957054813	0.013581446908475988	DeepGOPlus	0.201
0.7910607212367691	0.013488898741423649	DeepGOPlus	0.201
0.7928509940046925	0.013398187565806813	DeepGOPlus	0.201
0.7936632158332976	0.013159957964369664	DeepGOPlus	0.201
0.7931937426319084	0.013101317898383482	DeepGOPlus	0.201
0.7943657740604535	0.012984780717473382	DeepGOPlus	0.201
0.797544989765506	0.012829009751514103	DeepGOPlus	0.201
0.801813219549612	0.012732563961346779	DeepGOPlus	0.201
0.805466172572176	0.012468259672867962	DeepGOPlus	0.201
0.8044597828792328	0.011995447251638014	DeepGOPlus	0.201
0.8032076146582886	0.011799559330870759	DeepGOPlus	0.201
0.8106444567242874	0.011618489475827542	DeepGOPlus	0.201
0.8133868908206229	0.011162379087625416	DeepGOPlus	0.201
0.8098981788840223	0.011005716066934505	DeepGOPlus	0.201
0.8173426193630474	0.01096457960357338	DeepGOPlus	0.201
0.8155341304458499	0.01086211469331107	DeepGOPlus	0.201
0.8126968137767618	0.010487205941558076	DeepGOPlus	0.201
0.8079757858821248	0.010416399059159791	DeepGOPlus	0.201
0.8064963669850634	0.010324270521423942	DeepGOPlus	0.201
0.818406550001804	0.010267040226718047	DeepGOPlus	0.201
0.8136563347536154	0.009946316555749018	DeepGOPlus	0.201
0.8118446517171719	0.009854388465591744	DeepGOPlus	0.201
0.8090217867759961	0.009662952543023746	DeepGOPlus	0.201
0.8043509927104592	0.009323355033614915	DeepGOPlus	0.201
0.8119267502862169	0.009323355033614915	DeepGOPlus	0.201
0.8164212422819418	0.009019610036473691	DeepGOPlus	0.201
0.8123432144148831	0.008896882697340461	DeepGOPlus	0.201
0.8057375198462382	0.008750228888351301	DeepGOPlus	0.201
0.8081726245090607	0.008665347048569296	DeepGOPlus	0.201
0.803253973855447	0.00857409592547855	DeepGOPlus	0.201
0.8013801606816726	0.008456171397176663	DeepGOPlus	0.201
0.798546710972243	0.008413854773620057	DeepGOPlus	0.201
0.7974610249876208	0.008311932324999495	DeepGOPlus	0.201
0.7924174400500443	0.008187180232301328	DeepGOPlus	0.201
0.8037376891936164	0.007934659237578207	DeepGOPlus	0.201
0.8042839076810113	0.007906581968934902	DeepGOPlus	0.201
0.7985275520245705	0.007757345780748936	DeepGOPlus	0.201
0.8002456576810885	0.0077023518300835085	DeepGOPlus	0.201
0.8002456576810885	0.0077023518300835085	DeepGOPlus	0.201
0.7965309080130343	0.00744189987914876	DeepGOPlus	0.201
0.8000437703210638	0.0072006906167130826	DeepGOPlus	0.201
0.8000646981201568	0.0071775681601833	DeepGOPlus	0.201
0.8000646981201568	0.0071775681601833	DeepGOPlus	0.201
0.8017618065310095	0.006859392994616349	DeepGOPlus	0.201
0.8017618065310095	0.006859392994616349	DeepGOPlus	0.201
0.810236382802196	0.0067611225543647785	DeepGOPlus	0.201
0.810236382802196	0.0067611225543647785	DeepGOPlus	0.201
0.8116488121807272	0.006698762685248974	DeepGOPlus	0.201
0.8116488121807272	0.006698762685248974	DeepGOPlus	0.201
0.8112749411263719	0.006630197738808609	DeepGOPlus	0.201
0.8112749411263719	0.006630197738808609	DeepGOPlus	0.201
0.8009808470059921	0.006418341984500024	DeepGOPlus	0.201
0.7957520972591895	0.006246368714059772	DeepGOPlus	0.201
0.791898363245212	0.006155657538442936	DeepGOPlus	0.201
0.7749104745305352	0.005954762425382269	DeepGOPlus	0.201
0.7771655538610326	0.005885395055792925	DeepGOPlus	0.201
0.7678394185216572	0.005808046709272333	DeepGOPlus	0.201
0.7678394185216572	0.005791892664299471	DeepGOPlus	0.201
0.7647966966052072	0.00572637903746509	DeepGOPlus	0.201
0.7647966966052072	0.005608454509163203	DeepGOPlus	0.201
0.7693608840442092	0.005436027411903482	DeepGOPlus	0.201
0.7638694765214521	0.005408603102996067	DeepGOPlus	0.201
0.7678377304897059	0.005408603102996067	DeepGOPlus	0.201
0.7678377304897059	0.005408603102996067	DeepGOPlus	0.201
0.765224016599211	0.005395644363622233	DeepGOPlus	0.201
0.7658892050692775	0.0052110267067895346	DeepGOPlus	0.201
0.7600364351960095	0.005090269156786701	DeepGOPlus	0.201
0.7798629142414135	0.004840126217964517	DeepGOPlus	0.201
0.8045438939055959	0.0045382530387328476	DeepGOPlus	0.201
0.8097015041695892	0.004401843331819042	DeepGOPlus	0.201
0.8041044895863418	0.004361179701370115	DeepGOPlus	0.201
0.7983005174494535	0.004243255173068229	DeepGOPlus	0.201
0.791997408619749	0.004205014187268974	DeepGOPlus	0.201
0.7867092770533058	0.00416697401684901	DeepGOPlus	0.201
0.7883893845801876	0.0041382119367753805	DeepGOPlus	0.201
0.7937657286662091	0.004115089480245598	DeepGOPlus	0.201
0.7785579196217494	0.0038894503395121177	DeepGOPlus	0.201
0.7785579196217494	0.0038894503395121177	DeepGOPlus	0.201
0.7766691122523844	0.0038501421634114887	DeepGOPlus	0.201
0.7686930091185411	0.00378186493445258	DeepGOPlus	0.201
0.7786446020488574	0.0036701219338439372	DeepGOPlus	0.201
0.7701309328968904	0.0035719924841809613	DeepGOPlus	0.201
0.7701309328968904	0.0035719924841809613	DeepGOPlus	0.201
0.771913317572892	0.003061427151976478	DeepGOPlus	0.201
0.7624097058050959	0.00289296354011664	DeepGOPlus	0.201
0.7630626022913257	0.002794693099865067	DeepGOPlus	0.201
0.7850909651557201	0.0026219753563926067	DeepGOPlus	0.201
0.798049645390071	0.002573881386433421	DeepGOPlus	0.201
0.798049645390071	0.0025554556788862513	DeepGOPlus	0.201
0.7968968127154991	0.0024899420520518695	DeepGOPlus	0.201
0.7872252323686181	0.002461864783408563	DeepGOPlus	0.201
0.7696715192235909	0.002332996991703449	DeepGOPlus	0.201
0.7709180566197128	0.0023139769064934672	DeepGOPlus	0.201
0.7709180566197128	0.0023139769064934672	DeepGOPlus	0.201
0.7731110390758531	0.0023139769064934672	DeepGOPlus	0.201
0.7731110390758531	0.0023139769064934672	DeepGOPlus	0.201
0.7411788774429576	0.0019156117884844056	DeepGOPlus	0.201
0.7250025572831424	0.0018894063377506531	DeepGOPlus	0.201
0.7096185320407907	0.0015762089346262871	DeepGOPlus	0.201
0.7096185320407907	0.0015762089346262871	DeepGOPlus	0.201
0.7480800705023292	0.0015762089346262871	DeepGOPlus	0.201
0.7480800705023292	0.0015762089346262871	DeepGOPlus	0.201
0.72708674304419	0.0015600548896534258	DeepGOPlus	0.201
0.7704582651391163	0.0014863520594647465	DeepGOPlus	0.201
0.7809477756286267	0.0014863520594647465	DeepGOPlus	0.201
0.8090425531914894	0.0011587839252928387	DeepGOPlus	0.201
0.8090425531914894	0.0011587839252928387	DeepGOPlus	0.201
0.8090888066604996	0.0011587839252928387	DeepGOPlus	0.201
0.7878764518449995	0.0010515798086547599	DeepGOPlus	0.201
0.7780564845782237	0.0008653831850202017	DeepGOPlus	0.201
0.7781101614434948	0.0008469574774730319	DeepGOPlus	0.201
0.7548611111111111	0.0007969046216572905	DeepGOPlus	0.201
0.6731481481481482	0.000655857636825622	DeepGOPlus	0.201
0.6731481481481482	0.000655857636825622	DeepGOPlus	0.201
0.7544444444444445	0.00040759547197954455	DeepGOPlus	0.201
0.7544444444444445	0.00040759547197954455	DeepGOPlus	0.201
0.7544444444444445	0.00040759547197954455	DeepGOPlus	0.201
0.7546511627906977	0.00040759547197954455	DeepGOPlus	0.201
0.7546511627906977	0.00040759547197954455	DeepGOPlus	0.201
0.7547619047619047	0.00040759547197954455	DeepGOPlus	0.201
0.6934523809523809	0.00039449274661266826	DeepGOPlus	0.201
0.694078947368421	0.00039449274661266826	DeepGOPlus	0.201
0.694078947368421	0.00039449274661266826	DeepGOPlus	0.201
0.6946428571428571	0.00039449274661266826	DeepGOPlus	0.201
0.6948529411764706	0.00039449274661266826	DeepGOPlus	0.201
0.6948529411764706	0.00039449274661266826	DeepGOPlus	0.201
0.6948529411764706	0.00039449274661266826	DeepGOPlus	0.201
0.6983695652173914	0.00033696858646540634	DeepGOPlus	0.201
0.7274436090225563	0.0003082065063917754	DeepGOPlus	0.201
0.7274436090225563	0.0003082065063917754	DeepGOPlus	0.201
0.7274436090225563	0.0003082065063917754	DeepGOPlus	0.201
0.7274436090225563	0.0003082065063917754	DeepGOPlus	0.201
0.7274436090225563	0.0003082065063917754	DeepGOPlus	0.201
0.7214912280701754	0.0002825707393696261	DeepGOPlus	0.201
0.7310606060606061	0.0002825707393696261	DeepGOPlus	0.201
0.7310606060606061	0.0002825707393696261	DeepGOPlus	0.201
0.7310606060606061	0.0002825707393696261	DeepGOPlus	0.201
0.7310606060606061	0.0002825707393696261	DeepGOPlus	0.201
0.7310606060606061	0.0002825707393696261	DeepGOPlus	0.201
0.7310606060606061	0.0002825707393696261	DeepGOPlus	0.201
0.7395833333333334	0.0002825707393696261	DeepGOPlus	0.201
0.9444444444444445	0.00017536662273154725	DeepGOPlus	0.201
0.9444444444444445	0.00017536662273154725	DeepGOPlus	0.201
0.8888888888888888	9.845932166509933e-05	DeepGOPlus	0.201
0.8888888888888888	9.845932166509933e-05	DeepGOPlus	0.201
0.8888888888888888	9.845932166509933e-05	DeepGOPlus	0.201
0.8888888888888888	9.845932166509933e-05	DeepGOPlus	0.201
1.0	9.845932166509933e-05	DeepGOPlus	0.201
1.0	5.12715340442986e-05	DeepGOPlus	0.201
1.0	5.12715340442986e-05	DeepGOPlus	0.201
1.0	5.12715340442986e-05	DeepGOPlus	0.201
1.0	5.12715340442986e-05	DeepGOPlus	0.201
1.0	5.12715340442986e-05	DeepGOPlus	0.201
1.0	5.12715340442986e-05	DeepGOPlus	0.201
1.0	5.12715340442986e-05	DeepGOPlus	0.201
1.0	5.12715340442986e-05	DeepGOPlus	0.201
1.0	5.12715340442986e-05	DeepGOPlus	0.201
1.0	5.12715340442986e-05	DeepGOPlus	0.201
1.0	2.56357670221493e-05	DeepGOPlus	0.201
1.0	2.56357670221493e-05	DeepGOPlus	0.201
1.0	2.56357670221493e-05	DeepGOPlus	0.201
1.0	2.56357670221493e-05	DeepGOPlus	0.201
0.0	0.0	DeepGOPlus	0.201
0.0	0.0	DeepGOPlus	0.201
0.0	0.0	DeepGOPlus	0.201
0.0	0.0	DeepGOPlus	0.201
0.0	0.0	DeepGOPlus	0.201
0.0	0.0	DeepGOPlus	0.201
0.0	0.0	DeepGOPlus	0.201
0.0	0.0	DeepGOPlus	0.201
0.0	0.0	DeepGOPlus	0.201
0.0	0.0	DeepGOPlus	0.201
0.0	0.0	DeepGOPlus	0.201
0.0	0.0	DeepGOPlus	0.201
0.0	0.0	DeepGOPlus	0.201
0.0	0.0	DeepGOPlus	0.201
0.0	0.0	DeepGOPlus	0.201
0.0	0.0	DeepGOPlus	0.201
0.0	0.0	DeepGOPlus	0.201
0.0	0.0	DeepGOPlus	0.201
0.0	0.0	DeepGOPlus	0.201
0.0	0.0	DeepGOPlus	0.201
0.0	0.0	DeepGOPlus	0.201
0.0	0.0	DeepGOPlus	0.201
