A0A023ZUP0	GO:0097159
A0A023ZUP0	GO:1901363
A0A023ZUP0	GO:0005488
A0A023ZUP0	GO:0097367
A0A023ZUP0	GO:0001882
A0A023ZUP0	GO:0003674
A0A023ZUP0	GO:0036094
A0A023ZUP0	GO:0032549
A0A0F7RDM3	GO:0016810
A0A0F7RDM3	GO:0016787
A0A0F7RDM3	GO:0008745
A0A0F7RDM3	GO:0016811
A0A0F7RDM3	GO:0003674
A0A0F7RDM3	GO:0003824
A0A0G2K7U7	GO:0005488
A0A0G2K7U7	GO:0003674
A0A0G2K7U7	GO:0000149
A0A0G2K7U7	GO:0005515
A0A0H2VZ51	GO:0016407
A0A0H2VZ51	GO:0016747
A0A0H2VZ51	GO:0008080
A0A0H2VZ51	GO:0016740
A0A0H2VZ51	GO:0003824
A0A0H2VZ51	GO:0003674
A0A0H2VZ51	GO:0016410
A0A0H2VZ51	GO:0034212
A0A0H2VZ51	GO:0016746
A0A0H2W778	GO:0046872
A0A0H2W778	GO:0005488
A0A0H2W778	GO:0005509
A0A0H2W778	GO:0003674
A0A0H2W778	GO:0043167
A0A0H2W778	GO:0043169
A0A0H3L116	GO:0016491
A0A0H3L116	GO:0003674
A0A0H3L116	GO:0003824
A0A0H3L116	GO:0051213
A0A0N4STT3	GO:0019955
A0A0N4STT3	GO:0019838
A0A0N4STT3	GO:0005488
A0A0N4STT3	GO:0003674
A0A0N4STT3	GO:0019979
A0A0N4STT3	GO:0005515
A0A0R4IH26	GO:0016787
A0A0R4IH26	GO:0003674
A0A0R4IH26	GO:0003824
A0A0R4IH26	GO:0016791
A0A0R4IH26	GO:0016788
A0A0R4IH26	GO:0042578
A0A0R4IJ49	GO:0003674
A0A0R4IJ49	GO:0005198
A0A0R4IJ49	GO:0003735
A0A0R4IM09	GO:0008324
A0A0R4IM09	GO:1905030
A0A0R4IM09	GO:0022803
A0A0R4IM09	GO:0015075
A0A0R4IM09	GO:0005216
A0A0R4IM09	GO:0015081
A0A0R4IM09	GO:0015077
A0A0R4IM09	GO:0015267
A0A0R4IM09	GO:0022838
A0A0R4IM09	GO:0003674
A0A0R4IM09	GO:0022857
A0A0R4IM09	GO:0005261
A0A0R4IM09	GO:0022891
A0A0R4IM09	GO:0005215
A0A0R4IM09	GO:0005248
A0A0R4IM09	GO:0022890
A0A0R4IM09	GO:0046873
A0A0R4IM09	GO:0022836
A0A0R4IM09	GO:0005272
A0A0R4IM09	GO:0022832
A0A0R4IM09	GO:0022892
A0A0R4IM09	GO:0005244
A0A0R4IWB3	GO:0005102
A0A0R4IWB3	GO:0005488
A0A0R4IWB3	GO:0003674
A0A0R4IWB3	GO:0038191
A0A0R4IWB3	GO:0005515
A0A0R4IYK8	GO:0005488
A0A0R4IYK8	GO:0005515
A0A0R4IYK8	GO:0003674
A0A0R4IZ74	GO:0003674
A0A0R4IZ74	GO:0005488
A0A0R4IZ74	GO:0042802
A0A0R4IZ74	GO:0005515
A0A140LG37	GO:0016787
A0A140LG37	GO:0016298
A0A140LG37	GO:0003674
A0A140LG37	GO:0003824
A0A140LG37	GO:0052689
A0A140LG37	GO:0016788
A0A140LG37	GO:0004806
A0A140LG37	GO:0004465
A0A192EZE4	GO:0003796
A0A192EZE4	GO:0016798
A0A192EZE4	GO:0016787
A0A192EZE4	GO:0003674
A0A192EZE4	GO:0004553
A0A192EZE4	GO:0003824
A0A1D8PD78	GO:0016491
A0A1D8PD78	GO:0003674
A0A1D8PD78	GO:0003824
A0A1D8PFR4	GO:0016407
A0A1D8PFR4	GO:0034212
A0A1D8PFR4	GO:0003674
A0A1D8PFR4	GO:0003824
A0A1D8PFR4	GO:0016410
A0A1D8PFR4	GO:0016747
A0A1D8PFR4	GO:0008080
A0A1D8PFR4	GO:0010485
A0A1D8PFR4	GO:0016740
A0A1D8PFR4	GO:0016746
A0A1D8PFR4	GO:0004402
A0A1D8PFR4	GO:0061733
A0A1D8PIB5	GO:0051087
A0A1D8PIB5	GO:0005488
A0A1D8PIB5	GO:0003674
A0A1D8PIB5	GO:0005515
A0A1D8PIB5	GO:0051082
A0A1D8PIF7	GO:0016758
A0A1D8PIF7	GO:0003674
A0A1D8PIF7	GO:0003824
A0A1D8PIF7	GO:0016740
A0A1D8PIF7	GO:0016757
A0A1D8PIF7	GO:0000030
A0A1D8PJR1	GO:0046982
A0A1D8PJR1	GO:0046983
A0A1D8PJR1	GO:0005488
A0A1D8PJR1	GO:0003674
A0A1D8PJR1	GO:0005515
A0A1D8PJR2	GO:0016765
A0A1D8PJR2	GO:0003674
A0A1D8PJR2	GO:0003824
A0A1D8PJR2	GO:0016740
A0A1D8PJR2	GO:0004364
A0A1D8PNZ4	GO:0043169
A0A1D8PNZ4	GO:0046872
A0A1D8PNZ4	GO:0005488
A0A1D8PNZ4	GO:0003674
A0A1D8PNZ4	GO:0043167
A0A1D8PNZ4	GO:0046914
A0A1D8PNZ4	GO:0005507
A0A1D8PR81	GO:0019208
A0A1D8PR81	GO:0005488
A0A1D8PR81	GO:0003674
A0A1D8PR81	GO:0019899
A0A1D8PR81	GO:0030234
A0A1D8PR81	GO:0019888
A0A1D8PR81	GO:0005515
A0A1D8PR81	GO:0098772
A0A1D8PR81	GO:0019903
A0A1D8PR81	GO:0019902
A0A1D8PSY8	GO:0016741
A0A1D8PSY8	GO:0008168
A0A1D8PSY8	GO:0003674
A0A1D8PSY8	GO:0016740
A0A1D8PSY8	GO:0008757
A0A1D8PSY8	GO:0003824
A0A1L1QZL3	GO:0003674
A0A1L1QZL3	GO:1901363
A0A1L1QZL3	GO:0003723
A0A1L1QZL3	GO:0005488
A0A1L1QZL3	GO:0003676
A0A1L1QZL3	GO:0003729
A0A1L1QZL3	GO:0005515
A0A1L1QZL3	GO:0097159
A0A1L1QZL3	GO:0044822
A0A1L1SQU7	GO:0005488
A0A1L1SQU7	GO:0003674
A0A1L1SQU7	GO:0005515
A0A1P6BU67	GO:0005515
A0A1P6BU67	GO:0003674
A0A1P6BU67	GO:0005102
A0A1P6BU67	GO:0005488
A0A1S4NYG1	GO:0008324
A0A1S4NYG1	GO:0016818
A0A1S4NYG1	GO:0016787
A0A1S4NYG1	GO:0022853
A0A1S4NYG1	GO:0015399
A0A1S4NYG1	GO:0015075
A0A1S4NYG1	GO:0017111
A0A1S4NYG1	GO:0016462
A0A1S4NYG1	GO:0015405
A0A1S4NYG1	GO:0003674
A0A1S4NYG1	GO:0003824
A0A1S4NYG1	GO:0022857
A0A1S4NYG1	GO:0016817
A0A1S4NYG1	GO:0022891
A0A1S4NYG1	GO:0005215
A0A1S4NYG1	GO:0043492
A0A1S4NYG1	GO:0042623
A0A1S4NYG1	GO:0016820
A0A1S4NYG1	GO:0042625
A0A1S4NYG1	GO:0016887
A0A1S4NYG1	GO:0019829
A0A1S4NYG1	GO:0042626
A0A1S4NYG1	GO:0022804
A0A1S4NYG1	GO:0022892
A0A1U7R319	GO:0008324
A0A1U7R319	GO:0016818
A0A1U7R319	GO:0016787
A0A1U7R319	GO:0022853
A0A1U7R319	GO:0015399
A0A1U7R319	GO:0015075
A0A1U7R319	GO:0017111
A0A1U7R319	GO:0016462
A0A1U7R319	GO:0015405
A0A1U7R319	GO:0003674
A0A1U7R319	GO:0003824
A0A1U7R319	GO:0022857
A0A1U7R319	GO:0016817
A0A1U7R319	GO:0022891
A0A1U7R319	GO:0005215
A0A1U7R319	GO:0043492
A0A1U7R319	GO:0042623
A0A1U7R319	GO:0016820
A0A1U7R319	GO:0042625
A0A1U7R319	GO:0016887
A0A1U7R319	GO:0019829
A0A1U7R319	GO:0042626
A0A1U7R319	GO:0022804
A0A1U7R319	GO:0022892
A0A1W2P6L4	GO:0005488
A0A1W2P6L4	GO:0003674
A0A1W2P6L4	GO:0005515
A0A1W2P7C0	GO:0005488
A0A1W2P7C0	GO:0003674
A0A1W2P7C0	GO:0005515
A0A1W2P872	GO:0097159
A0A1W2P872	GO:1901363
A0A1W2P872	GO:0005488
A0A1W2P872	GO:0003723
A0A1W2P872	GO:0003674
A0A1W2P872	GO:0003676
A0A1W2P8G5	GO:0005488
A0A1W2P8G5	GO:0003674
A0A1W2P8G5	GO:0005515
A0A1W2Q6C3	GO:0005488
A0A1W2Q6C3	GO:0003674
A0A1W2Q6C3	GO:0044877
A0A1W2Q6C3	GO:0003682
A0A1W2Q6F3	GO:0008046
A0A1W2Q6F3	GO:0004872
A0A1W2Q6F3	GO:0003674
A0A1W2Q6F3	GO:0038023
A0A1W2Q6F3	GO:0099600
A0A1W2Q6F3	GO:0060089
A0A1W2Q6F3	GO:0004888
A0A1W2Q6F3	GO:0004871
A0A1Y7AKU3	GO:0005488
A0A1Y7AKU3	GO:0003674
A0A1Y7AKU3	GO:0005515
A0A1Y7VMP7	GO:0003674
A0A1Y7VMP7	GO:0044877
A0A1Y7VMP7	GO:1901363
A0A1Y7VMP7	GO:0003677
A0A1Y7VMP7	GO:0019237
A0A1Y7VMP7	GO:0003682
A0A1Y7VMP7	GO:0005488
A0A1Y7VMP7	GO:0003690
A0A1Y7VMP7	GO:0003676
A0A1Y7VMP7	GO:1990837
A0A1Y7VMP7	GO:0043565
A0A1Y7VMP7	GO:0097159
A0A1Y7VNR1	GO:0016229
A0A1Y7VNR1	GO:0047023
A0A1Y7VNR1	GO:0016491
A0A1Y7VNR1	GO:0003674
A0A1Y7VNR1	GO:0003824
A0A1Y7VNR1	GO:0016614
A0A1Y7VNR1	GO:0033764
A0A1Y7VNR1	GO:0016616
A0A286Y9F7	GO:0016787
A0A286Y9F7	GO:0003674
A0A286Y9F7	GO:0016740
A0A286Y9F7	GO:0003824
A0A286Y9F7	GO:0004518
A0A286Y9F7	GO:0004527
A0A286Y9F7	GO:0016779
A0A286Y9F7	GO:0016772
A0A286Y9F7	GO:0016788
A0A286Y9F7	GO:0034061
A0A286Y9P5	GO:0003674
A0A286Y9P5	GO:0030234
A0A286Y9P5	GO:0030414
A0A286Y9P5	GO:0043027
A0A286Y9P5	GO:0061135
A0A286Y9P5	GO:0004866
A0A286Y9P5	GO:0005488
A0A286Y9P5	GO:0061134
A0A286Y9P5	GO:0043028
A0A286Y9P5	GO:0005520
A0A286Y9P5	GO:0019838
A0A286Y9P5	GO:0004857
A0A286Y9P5	GO:0004869
A0A286Y9P5	GO:0005515
A0A286Y9P5	GO:0098772
A0A286YA13	GO:0005488
A0A286YA13	GO:0003674
A0A286YA13	GO:0005515
A0A286YBI0	GO:0015081
A0A286YBI0	GO:0003674
A0A286YBI0	GO:0015491
A0A286YBI0	GO:0022804
A0A286YBI0	GO:0015298
A0A286YBI0	GO:0015291
A0A286YBI0	GO:0008324
A0A286YBI0	GO:0015297
A0A286YBI0	GO:0022890
A0A286YBI0	GO:0072509
A0A286YBI0	GO:0005432
A0A286YBI0	GO:0022891
A0A286YBI0	GO:0015085
A0A286YBI0	GO:0015368
A0A286YBI0	GO:0022892
A0A286YBI0	GO:0022853
A0A286YBI0	GO:0015075
A0A286YBI0	GO:0015077
A0A286YBI0	GO:0022857
A0A286YBI0	GO:0005215
A0A286YBI0	GO:0046873
A0A286YBI0	GO:0099516
A0A286YDB9	GO:0000976
A0A286YDB9	GO:0001159
A0A286YDB9	GO:0005488
A0A286YDB9	GO:0000975
A0A286YDB9	GO:0003674
A0A286YDB9	GO:0000987
A0A286YDB9	GO:0003690
A0A286YDB9	GO:1901363
A0A286YDB9	GO:0003677
A0A286YDB9	GO:1990837
A0A286YDB9	GO:0043565
A0A286YDB9	GO:0044212
A0A286YDB9	GO:0001067
A0A286YDB9	GO:0097159
A0A286YDB9	GO:0003676
A0A286YDG8	GO:0000976
A0A286YDG8	GO:0001159
A0A286YDG8	GO:0005488
A0A286YDG8	GO:0000975
A0A286YDG8	GO:0003674
A0A286YDG8	GO:0000987
A0A286YDG8	GO:0003690
A0A286YDG8	GO:1901363
A0A286YDG8	GO:0003677
A0A286YDG8	GO:1990837
A0A286YDG8	GO:0043565
A0A286YDG8	GO:0044212
A0A286YDG8	GO:0001067
A0A286YDG8	GO:0097159
A0A286YDG8	GO:0003676
A0A288CG34	GO:0003674
A0A288CG34	GO:0005488
A0A288CG34	GO:0008013
A0A288CG34	GO:0005515
A0A2A8YGH2	GO:0016491
A0A2A8YGH2	GO:0005488
A0A2A8YGH2	GO:0003674
A0A2A8YGH2	GO:0047100
A0A2A8YGH2	GO:0003824
A0A2A8YGH2	GO:0002020
A0A2A8YGH2	GO:0019899
A0A2A8YGH2	GO:0016620
A0A2A8YGH2	GO:0005515
A0A2A8YGH2	GO:0016903
A0A2A8YGH2	GO:0043891
A0A2I3BPN6	GO:0003674
A0A2I3BPN6	GO:0005488
A0A2I3BPN6	GO:1901363
A0A2I3BPN6	GO:0003677
A0A2I3BPN6	GO:0005515
A0A2I3BPN6	GO:0097159
A0A2I3BPN6	GO:0003676
A0A2R8PVB4	GO:0005488
A0A2R8PVB4	GO:0003674
A0A2R8PVB4	GO:0005515
A0A2R8PVB4	GO:0098772
A0A2R8PVM0	GO:0046943
A0A2R8PVM0	GO:0022853
A0A2R8PVM0	GO:0015301
A0A2R8PVM0	GO:0015075
A0A2R8PVM0	GO:0015297
A0A2R8PVM0	GO:1901682
A0A2R8PVM0	GO:0005342
A0A2R8PVM0	GO:0008509
A0A2R8PVM0	GO:0003674
A0A2R8PVM0	GO:0022857
A0A2R8PVM0	GO:0022891
A0A2R8PVM0	GO:0005215
A0A2R8PVM0	GO:0015103
A0A2R8PVM0	GO:0008514
A0A2R8PVM0	GO:0015116
A0A2R8PVM0	GO:0008271
A0A2R8PVM0	GO:0019531
A0A2R8PVM0	GO:0005310
A0A2R8PVM0	GO:0022804
A0A2R8PVM0	GO:0022892
A0A2R8PVM0	GO:0099516
A0A2R8PVM0	GO:0015291
A0A2R8PW40	GO:0005488
A0A2R8PW40	GO:0003674
A0A2R8PW40	GO:0005515
A0A2R8PWU9	GO:0005102
A0A2R8PWU9	GO:0031779
A0A2R8PWU9	GO:0001664
A0A2R8PWU9	GO:0031782
A0A2R8PWU9	GO:0005184
A0A2R8PWU9	GO:0070996
A0A2R8PWU9	GO:0005488
A0A2R8PWU9	GO:0005179
A0A2R8PWU9	GO:0003674
A0A2R8PWU9	GO:0071855
A0A2R8PWU9	GO:0031781
A0A2R8PWU9	GO:0005515
A0A2R8PXY1	GO:0005488
A0A2R8PXY1	GO:0003674
A0A2R8PXY1	GO:0005515
A0A2R8PY11	GO:0003674
A0A2R8PY11	GO:0003824
A0A2R8PY11	GO:0042578
A0A2R8PY11	GO:0016787
A0A2R8PY11	GO:0016788
A0A2R8PY11	GO:0042577
A0A2R8PY11	GO:0016791
A0A2R8PYB9	GO:0008324
A0A2R8PYB9	GO:0022853
A0A2R8PYB9	GO:0015294
A0A2R8PYB9	GO:0015075
A0A2R8PYB9	GO:0015293
A0A2R8PYB9	GO:0015081
A0A2R8PYB9	GO:0015077
A0A2R8PYB9	GO:0008509
A0A2R8PYB9	GO:0003674
A0A2R8PYB9	GO:0022857
A0A2R8PYB9	GO:0022891
A0A2R8PYB9	GO:0005215
A0A2R8PYB9	GO:0022890
A0A2R8PYB9	GO:0015103
A0A2R8PYB9	GO:0046873
A0A2R8PYB9	GO:0015296
A0A2R8PYB9	GO:0008514
A0A2R8PYB9	GO:0015106
A0A2R8PYB9	GO:0008510
A0A2R8PYB9	GO:0022804
A0A2R8PYB9	GO:0022892
A0A2R8PYB9	GO:0015291
A0A2R8PYQ0	GO:0015267
A0A2R8PYQ0	GO:0005215
A0A2R8PYQ0	GO:0005243
A0A2R8PYQ0	GO:0022803
A0A2R8PYQ0	GO:0003674
A0A2R8PYQ0	GO:0022857
A0A2R8PYQ0	GO:0022829
A0A2R8PZT4	GO:0047173
A0A2R8PZT4	GO:0008374
A0A2R8PZT4	GO:0003674
A0A2R8PZT4	GO:0016740
A0A2R8PZT4	GO:0003824
A0A2R8PZT4	GO:0016746
A0A2R8PZT4	GO:0016747
A0A2R8Q022	GO:0005488
A0A2R8Q022	GO:0003674
A0A2R8Q022	GO:0005515
A0A2R8Q0R2	GO:0005102
A0A2R8Q0R2	GO:0003674
A0A2R8Q0R2	GO:0044877
A0A2R8Q0R2	GO:0005488
A0A2R8Q0R2	GO:0050839
A0A2R8Q0R2	GO:0005178
A0A2R8Q0R2	GO:0032403
A0A2R8Q0R2	GO:0005515
A0A2R8Q1Q9	GO:0015276
A0A2R8Q1Q9	GO:0022824
A0A2R8Q1Q9	GO:0005254
A0A2R8Q1Q9	GO:0022803
A0A2R8Q1Q9	GO:0015108
A0A2R8Q1Q9	GO:0015075
A0A2R8Q1Q9	GO:0005216
A0A2R8Q1Q9	GO:0005253
A0A2R8Q1Q9	GO:0015267
A0A2R8Q1Q9	GO:0016917
A0A2R8Q1Q9	GO:0022838
A0A2R8Q1Q9	GO:0004872
A0A2R8Q1Q9	GO:0008509
A0A2R8Q1Q9	GO:0003674
A0A2R8Q1Q9	GO:0022857
A0A2R8Q1Q9	GO:0038023
A0A2R8Q1Q9	GO:0022891
A0A2R8Q1Q9	GO:0005215
A0A2R8Q1Q9	GO:0022834
A0A2R8Q1Q9	GO:0099600
A0A2R8Q1Q9	GO:0015103
A0A2R8Q1Q9	GO:0022836
A0A2R8Q1Q9	GO:0060089
A0A2R8Q1Q9	GO:0005230
A0A2R8Q1Q9	GO:0022835
A0A2R8Q1Q9	GO:0004871
A0A2R8Q1Q9	GO:0004888
A0A2R8Q1Q9	GO:0022851
A0A2R8Q1Q9	GO:0022892
A0A2R8Q1Q9	GO:0030594
A0A2R8Q1U8	GO:0016787
A0A2R8Q1U8	GO:0008233
A0A2R8Q1U8	GO:0003674
A0A2R8Q1U8	GO:0003824
A0A2R8Q1W6	GO:0005102
A0A2R8Q1W6	GO:0005488
A0A2R8Q1W6	GO:0016608
A0A2R8Q1W6	GO:0005179
A0A2R8Q1W6	GO:0003674
A0A2R8Q1W6	GO:0005515
A0A2R8Q1Z4	GO:0005488
A0A2R8Q1Z4	GO:0003674
A0A2R8Q1Z4	GO:0005515
A0A2R8Q206	GO:0003674
A0A2R8Q206	GO:0030234
A0A2R8Q206	GO:0030414
A0A2R8Q206	GO:0043027
A0A2R8Q206	GO:0061135
A0A2R8Q206	GO:0004866
A0A2R8Q206	GO:0005488
A0A2R8Q206	GO:0061134
A0A2R8Q206	GO:0043028
A0A2R8Q206	GO:0005520
A0A2R8Q206	GO:0019838
A0A2R8Q206	GO:0004857
A0A2R8Q206	GO:0004869
A0A2R8Q206	GO:0005515
A0A2R8Q206	GO:0098772
A0A2R8Q212	GO:0003674
A0A2R8Q212	GO:0016209
A0A2R8Q2M0	GO:0022803
A0A2R8Q2M0	GO:0022829
A0A2R8Q2M0	GO:0015267
A0A2R8Q2M0	GO:0003674
A0A2R8Q2M0	GO:0022857
A0A2R8Q2M0	GO:0005215
A0A2R8Q2M0	GO:0022836
A0A2R8Q2M0	GO:0022832
A0A2R8Q2N0	GO:0016787
A0A2R8Q2N0	GO:0016491
A0A2R8Q2N0	GO:0016645
A0A2R8Q2N0	GO:0016155
A0A2R8Q2N0	GO:0003674
A0A2R8Q2N0	GO:0003824
A0A2R8Q2N0	GO:0016646
A0A2R8Q2T6	GO:0008324
A0A2R8Q2T6	GO:0022803
A0A2R8Q2T6	GO:0005262
A0A2R8Q2T6	GO:0005261
A0A2R8Q2T6	GO:0015075
A0A2R8Q2T6	GO:0005216
A0A2R8Q2T6	GO:0015267
A0A2R8Q2T6	GO:0022838
A0A2R8Q2T6	GO:0003674
A0A2R8Q2T6	GO:0022857
A0A2R8Q2T6	GO:0022891
A0A2R8Q2T6	GO:0015085
A0A2R8Q2T6	GO:0005215
A0A2R8Q2T6	GO:0022890
A0A2R8Q2T6	GO:0046873
A0A2R8Q2T6	GO:0072509
A0A2R8Q2T6	GO:0022892
A0A2R8Q3D5	GO:0022891
A0A2R8Q3D5	GO:0016933
A0A2R8Q3D5	GO:0015276
A0A2R8Q3D5	GO:0015267
A0A2R8Q3D5	GO:0005215
A0A2R8Q3D5	GO:0022834
A0A2R8Q3D5	GO:0022838
A0A2R8Q3D5	GO:0004872
A0A2R8Q3D5	GO:0022803
A0A2R8Q3D5	GO:0099600
A0A2R8Q3D5	GO:0003674
A0A2R8Q3D5	GO:0005231
A0A2R8Q3D5	GO:0022892
A0A2R8Q3D5	GO:0015075
A0A2R8Q3D5	GO:0060089
A0A2R8Q3D5	GO:0022857
A0A2R8Q3D5	GO:0022836
A0A2R8Q3D5	GO:0005216
A0A2R8Q3D5	GO:0005230
A0A2R8Q3U7	GO:0003674
A0A2R8Q3U7	GO:0005488
A0A2R8Q3U7	GO:0008013
A0A2R8Q3U7	GO:0005515
A0A2R8Q406	GO:0005102
A0A2R8Q406	GO:0005488
A0A2R8Q406	GO:0003674
A0A2R8Q406	GO:0038191
A0A2R8Q406	GO:0005515
A0A2R8Q454	GO:0005488
A0A2R8Q454	GO:0003674
A0A2R8Q454	GO:0044877
A0A2R8Q454	GO:0003682
A0A2R8Q4I5	GO:0008324
A0A2R8Q4I5	GO:1905030
A0A2R8Q4I5	GO:0022803
A0A2R8Q4I5	GO:0015075
A0A2R8Q4I5	GO:0005216
A0A2R8Q4I5	GO:0015081
A0A2R8Q4I5	GO:0015077
A0A2R8Q4I5	GO:0015267
A0A2R8Q4I5	GO:0022838
A0A2R8Q4I5	GO:0003674
A0A2R8Q4I5	GO:0022857
A0A2R8Q4I5	GO:0005261
A0A2R8Q4I5	GO:0022891
A0A2R8Q4I5	GO:0005215
A0A2R8Q4I5	GO:0005248
A0A2R8Q4I5	GO:0022890
A0A2R8Q4I5	GO:0046873
A0A2R8Q4I5	GO:0022836
A0A2R8Q4I5	GO:0005272
A0A2R8Q4I5	GO:0022832
A0A2R8Q4I5	GO:0022892
A0A2R8Q4I5	GO:0005244
A0A2R8Q5J0	GO:0008484
A0A2R8Q5J0	GO:0016787
A0A2R8Q5J0	GO:0016788
A0A2R8Q5J0	GO:0003674
A0A2R8Q5J0	GO:0003824
A0A2R8Q5J0	GO:0004773
A0A2R8Q5P4	GO:0005102
A0A2R8Q5P4	GO:0005488
A0A2R8Q5P4	GO:0003674
A0A2R8Q5P4	GO:0038191
A0A2R8Q5P4	GO:0005515
A0A2R8Q5T8	GO:0005102
A0A2R8Q5T8	GO:0005488
A0A2R8Q5T8	GO:0003674
A0A2R8Q5T8	GO:0038191
A0A2R8Q5T8	GO:0005515
A0A2R8Q6E0	GO:0003674
A0A2R8Q6E0	GO:0022857
A0A2R8Q6E0	GO:0005215
A0A2R8Q6E0	GO:0015562
A0A2R8Q731	GO:0005488
A0A2R8Q731	GO:0003674
A0A2R8Q731	GO:1901363
A0A2R8Q731	GO:0097159
A0A2R8Q731	GO:0003723
A0A2R8Q731	GO:0003676
A0A2R8Q758	GO:0015276
A0A2R8Q758	GO:0008324
A0A2R8Q758	GO:0035381
A0A2R8Q758	GO:0022803
A0A2R8Q758	GO:0015075
A0A2R8Q758	GO:0005216
A0A2R8Q758	GO:0015267
A0A2R8Q758	GO:0022838
A0A2R8Q758	GO:0004872
A0A2R8Q758	GO:0003674
A0A2R8Q758	GO:0022857
A0A2R8Q758	GO:0004931
A0A2R8Q758	GO:0005261
A0A2R8Q758	GO:0022891
A0A2R8Q758	GO:0005215
A0A2R8Q758	GO:0022834
A0A2R8Q758	GO:0099600
A0A2R8Q758	GO:0005231
A0A2R8Q758	GO:0022836
A0A2R8Q758	GO:0060089
A0A2R8Q758	GO:0005230
A0A2R8Q758	GO:0022892
A0A2R8Q772	GO:0004954
A0A2R8Q772	GO:0004953
A0A2R8Q772	GO:0004958
A0A2R8Q772	GO:0004888
A0A2R8Q772	GO:0004871
A0A2R8Q772	GO:0004872
A0A2R8Q772	GO:0099600
A0A2R8Q772	GO:0004930
A0A2R8Q772	GO:0003674
A0A2R8Q772	GO:0060089
A0A2R8Q772	GO:0038023
A0A2R8Q772	GO:0004955
A0A2R8Q784	GO:0016787
A0A2R8Q784	GO:0003674
A0A2R8Q784	GO:0003824
A0A2R8Q784	GO:0004112
A0A2R8Q784	GO:0008081
A0A2R8Q784	GO:0016788
A0A2R8Q784	GO:0042578
A0A2R8Q784	GO:0004113
A0A2R8Q7H7	GO:0005488
A0A2R8Q7H7	GO:0003674
A0A2R8Q7H7	GO:1901363
A0A2R8Q7H7	GO:0003677
A0A2R8Q7H7	GO:0043565
A0A2R8Q7H7	GO:0097159
A0A2R8Q7H7	GO:0003676
A0A2R8Q839	GO:0003700
A0A2R8Q839	GO:0000981
A0A2R8Q839	GO:0003674
A0A2R8Q839	GO:0001071
A0A2R8Q991	GO:0005102
A0A2R8Q991	GO:0005488
A0A2R8Q991	GO:0003674
A0A2R8Q991	GO:0038191
A0A2R8Q991	GO:0005515
A0A2R8Q9H4	GO:0003674
A0A2R8Q9H4	GO:0005488
A0A2R8Q9H4	GO:0005515
A0A2R8QAV0	GO:0000976
A0A2R8QAV0	GO:0005488
A0A2R8QAV0	GO:0000975
A0A2R8QAV0	GO:0003674
A0A2R8QAV0	GO:0003690
A0A2R8QAV0	GO:1901363
A0A2R8QAV0	GO:0003677
A0A2R8QAV0	GO:1990837
A0A2R8QAV0	GO:0044212
A0A2R8QAV0	GO:0043565
A0A2R8QAV0	GO:0001067
A0A2R8QAV0	GO:0097159
A0A2R8QAV0	GO:0003676
A0A2R8QBE2	GO:0022891
A0A2R8QBE2	GO:0016933
A0A2R8QBE2	GO:0015276
A0A2R8QBE2	GO:0015267
A0A2R8QBE2	GO:0005215
A0A2R8QBE2	GO:0022834
A0A2R8QBE2	GO:0022838
A0A2R8QBE2	GO:0004872
A0A2R8QBE2	GO:0022803
A0A2R8QBE2	GO:0099600
A0A2R8QBE2	GO:0003674
A0A2R8QBE2	GO:0005231
A0A2R8QBE2	GO:0022892
A0A2R8QBE2	GO:0015075
A0A2R8QBE2	GO:0060089
A0A2R8QBE2	GO:0022857
A0A2R8QBE2	GO:0022836
A0A2R8QBE2	GO:0005216
A0A2R8QBE2	GO:0005230
A0A2R8QBF0	GO:0005102
A0A2R8QBF0	GO:0005488
A0A2R8QBF0	GO:0003674
A0A2R8QBF0	GO:0038191
A0A2R8QBF0	GO:0005515
A0A2R8QBT1	GO:0003700
A0A2R8QBT1	GO:0005488
A0A2R8QBT1	GO:0003674
A0A2R8QBT1	GO:1901363
A0A2R8QBT1	GO:0003677
A0A2R8QBT1	GO:0097159
A0A2R8QBT1	GO:0001071
A0A2R8QBT1	GO:0003676
A0A2R8QC01	GO:0005488
A0A2R8QC01	GO:0003674
A0A2R8QC01	GO:1901363
A0A2R8QC01	GO:0003677
A0A2R8QC01	GO:0043565
A0A2R8QC01	GO:0097159
A0A2R8QC01	GO:0003676
A0A2R8QCE4	GO:0004857
A0A2R8QCE4	GO:0003674
A0A2R8QCE4	GO:0030234
A0A2R8QCE4	GO:0030414
A0A2R8QCE4	GO:0098772
A0A2R8QCE4	GO:0061134
A0A2R8QCJ2	GO:0003674
A0A2R8QCJ2	GO:0003824
A0A2R8QCJ2	GO:0042578
A0A2R8QCJ2	GO:0052866
A0A2R8QCJ2	GO:0034593
A0A2R8QCJ2	GO:0004439
A0A2R8QCJ2	GO:0016787
A0A2R8QCJ2	GO:0034595
A0A2R8QCJ2	GO:0016788
A0A2R8QCJ2	GO:0016791
A0A2R8QCK8	GO:0005488
A0A2R8QCK8	GO:0003674
A0A2R8QCK8	GO:1901363
A0A2R8QCK8	GO:0003677
A0A2R8QCK8	GO:0043565
A0A2R8QCK8	GO:0097159
A0A2R8QCK8	GO:0003676
A0A2R8QD45	GO:0008324
A0A2R8QD45	GO:0022853
A0A2R8QD45	GO:0015294
A0A2R8QD45	GO:0015075
A0A2R8QD45	GO:0015293
A0A2R8QD45	GO:0015081
A0A2R8QD45	GO:0015077
A0A2R8QD45	GO:0008509
A0A2R8QD45	GO:0003674
A0A2R8QD45	GO:0022857
A0A2R8QD45	GO:0022891
A0A2R8QD45	GO:0005215
A0A2R8QD45	GO:0022890
A0A2R8QD45	GO:0015103
A0A2R8QD45	GO:0046873
A0A2R8QD45	GO:0015296
A0A2R8QD45	GO:0008514
A0A2R8QD45	GO:0015106
A0A2R8QD45	GO:0008510
A0A2R8QD45	GO:0022804
A0A2R8QD45	GO:0022892
A0A2R8QD45	GO:0015291
A0A2R8QE67	GO:0016229
A0A2R8QE67	GO:0016491
A0A2R8QE67	GO:0003674
A0A2R8QE67	GO:0003824
A0A2R8QE67	GO:0047045
A0A2R8QE67	GO:0016614
A0A2R8QE67	GO:0016616
A0A2R8QE67	GO:0033764
A0A2R8QE72	GO:0008194
A0A2R8QE72	GO:0016758
A0A2R8QE72	GO:0003674
A0A2R8QE72	GO:0016757
A0A2R8QE72	GO:0003824
A0A2R8QE72	GO:0016740
A0A2R8QE72	GO:0015020
A0A2R8QEH1	GO:0003674
A0A2R8QEH1	GO:0016209
A0A2R8QEK0	GO:0016810
A0A2R8QEK0	GO:0016787
A0A2R8QEK0	GO:0017040
A0A2R8QEK0	GO:0016811
A0A2R8QEK0	GO:0005488
A0A2R8QEK0	GO:0003674
A0A2R8QEK0	GO:0003824
A0A2R8QEK0	GO:0005515
A0A2R8QEK5	GO:0016787
A0A2R8QEK5	GO:0005488
A0A2R8QEK5	GO:0003824
A0A2R8QEK5	GO:0003674
A0A2R8QEK5	GO:0008233
A0A2R8QEK5	GO:0005515
A0A2R8QES4	GO:0030594
A0A2R8QES4	GO:0004872
A0A2R8QES4	GO:0003674
A0A2R8QES4	GO:0038023
A0A2R8QES4	GO:0099600
A0A2R8QES4	GO:0060089
A0A2R8QES4	GO:0004888
A0A2R8QES4	GO:0004871
A0A2R8QES4	GO:0015464
A0A2R8QEW4	GO:0005488
A0A2R8QEW4	GO:0030246
A0A2R8QEW4	GO:0097367
A0A2R8QEW4	GO:0042834
A0A2R8QEW4	GO:0005539
A0A2R8QEW4	GO:0003674
A0A2R8QH31	GO:0005488
A0A2R8QH31	GO:0003674
A0A2R8QH31	GO:0008092
A0A2R8QH31	GO:0005515
A0A2R8QH31	GO:0003779
A0A2R8QHF0	GO:0008324
A0A2R8QHF0	GO:0022853
A0A2R8QHF0	GO:0015294
A0A2R8QHF0	GO:0015075
A0A2R8QHF0	GO:0015293
A0A2R8QHF0	GO:0015081
A0A2R8QHF0	GO:1901682
A0A2R8QHF0	GO:0015077
A0A2R8QHF0	GO:0008509
A0A2R8QHF0	GO:0003674
A0A2R8QHF0	GO:0022857
A0A2R8QHF0	GO:0022891
A0A2R8QHF0	GO:0005215
A0A2R8QHF0	GO:0022890
A0A2R8QHF0	GO:0015103
A0A2R8QHF0	GO:0046873
A0A2R8QHF0	GO:0015296
A0A2R8QHF0	GO:0015116
A0A2R8QHF0	GO:0008271
A0A2R8QHF0	GO:0022804
A0A2R8QHF0	GO:0015382
A0A2R8QHF0	GO:0022892
A0A2R8QHF0	GO:0015291
A0A2R8QHK0	GO:0017016
A0A2R8QHK0	GO:0017048
A0A2R8QHK0	GO:0031267
A0A2R8QHK0	GO:0003779
A0A2R8QHK0	GO:0005488
A0A2R8QHK0	GO:0003674
A0A2R8QHK0	GO:0008092
A0A2R8QHK0	GO:0019899
A0A2R8QHK0	GO:0051020
A0A2R8QHK0	GO:0005515
A0A2R8QHX7	GO:0005488
A0A2R8QHX7	GO:0003674
A0A2R8QHX7	GO:0005515
A0A2R8QI05	GO:0003674
A0A2R8QI05	GO:0005488
A0A2R8QI05	GO:0005515
A0A2R8QIE4	GO:0003674
A0A2R8QIE4	GO:1901363
A0A2R8QIE4	GO:0003677
A0A2R8QIE4	GO:0005488
A0A2R8QIE4	GO:0000975
A0A2R8QIE4	GO:0003690
A0A2R8QIE4	GO:0003676
A0A2R8QIE4	GO:0000976
A0A2R8QIE4	GO:1990837
A0A2R8QIE4	GO:0044212
A0A2R8QIE4	GO:0043565
A0A2R8QIE4	GO:0001067
A0A2R8QIE4	GO:0097159
A0A2R8QIF9	GO:0003674
A0A2R8QIF9	GO:0022857
A0A2R8QIF9	GO:0005215
A0A2R8QIL9	GO:0003674
A0A2R8QIL9	GO:0003824
A0A2R8QIL9	GO:0042578
A0A2R8QIL9	GO:0052866
A0A2R8QIL9	GO:0016787
A0A2R8QIL9	GO:0034595
A0A2R8QIL9	GO:0016788
A0A2R8QIL9	GO:0034596
A0A2R8QIL9	GO:0016791
A0A2R8QIZ3	GO:0003674
A0A2R8QIZ3	GO:0005488
A0A2R8QIZ3	GO:0005515
A0A2R8QJH3	GO:0008324
A0A2R8QJH3	GO:0015199
A0A2R8QJH3	GO:0015075
A0A2R8QJH3	GO:0015077
A0A2R8QJH3	GO:0003674
A0A2R8QJH3	GO:0022857
A0A2R8QJH3	GO:0008519
A0A2R8QJH3	GO:0022891
A0A2R8QJH3	GO:0005215
A0A2R8QJH3	GO:0022890
A0A2R8QJH3	GO:0015651
A0A2R8QJH3	GO:0072349
A0A2R8QJH3	GO:0015101
A0A2R8QJH3	GO:0022892
A0A2R8QJP1	GO:0008324
A0A2R8QJP1	GO:0022803
A0A2R8QJP1	GO:0022843
A0A2R8QJP1	GO:0015075
A0A2R8QJP1	GO:0005216
A0A2R8QJP1	GO:0005267
A0A2R8QJP1	GO:0015077
A0A2R8QJP1	GO:0015267
A0A2R8QJP1	GO:0022838
A0A2R8QJP1	GO:0015079
A0A2R8QJP1	GO:0003674
A0A2R8QJP1	GO:0022857
A0A2R8QJP1	GO:0005261
A0A2R8QJP1	GO:0022891
A0A2R8QJP1	GO:0005249
A0A2R8QJP1	GO:0005215
A0A2R8QJP1	GO:0022890
A0A2R8QJP1	GO:0046873
A0A2R8QJP1	GO:0022836
A0A2R8QJP1	GO:0015271
A0A2R8QJP1	GO:0022832
A0A2R8QJP1	GO:0022892
A0A2R8QJP1	GO:0005244
A0A2R8QJU6	GO:0016684
A0A2R8QJU6	GO:0016491
A0A2R8QJU6	GO:0004601
A0A2R8QJU6	GO:0003674
A0A2R8QJU6	GO:0003824
A0A2R8QJU6	GO:0016209
A0A2R8QJU6	GO:0004666
A0A2R8QJU6	GO:0016705
A0A2R8QL14	GO:0008324
A0A2R8QL14	GO:1905030
A0A2R8QL14	GO:0022803
A0A2R8QL14	GO:0015075
A0A2R8QL14	GO:0005216
A0A2R8QL14	GO:0015081
A0A2R8QL14	GO:0015077
A0A2R8QL14	GO:0015267
A0A2R8QL14	GO:0022838
A0A2R8QL14	GO:0003674
A0A2R8QL14	GO:0022857
A0A2R8QL14	GO:0005261
A0A2R8QL14	GO:0022891
A0A2R8QL14	GO:0005215
A0A2R8QL14	GO:0005248
A0A2R8QL14	GO:0022890
A0A2R8QL14	GO:0046873
A0A2R8QL14	GO:0022836
A0A2R8QL14	GO:0005272
A0A2R8QL14	GO:0022832
A0A2R8QL14	GO:0022892
A0A2R8QL14	GO:0005244
A0A2R8QLE0	GO:0005488
A0A2R8QLE0	GO:0003674
A0A2R8QLE0	GO:0005515
A0A2R8QLU2	GO:0005488
A0A2R8QLU2	GO:0003674
A0A2R8QLU2	GO:0005515
A0A2R8QLW2	GO:0005372
A0A2R8QLW2	GO:0022891
A0A2R8QLW2	GO:0005215
A0A2R8QLW2	GO:0042887
A0A2R8QLW2	GO:0003674
A0A2R8QLW2	GO:0022857
A0A2R8QLW2	GO:0022892
A0A2R8QLW2	GO:0015204
A0A2R8QMK4	GO:0005319
A0A2R8QMK4	GO:0008525
A0A2R8QMK4	GO:0003674
A0A2R8QMK4	GO:0008526
A0A2R8QMK4	GO:0005215
A0A2R8QMK4	GO:0022892
A0A2R8QMK4	GO:0005548
A0A2R8QMK8	GO:0005488
A0A2R8QMK8	GO:0003674
A0A2R8QMK8	GO:0005515
A0A2R8QMK9	GO:0005488
A0A2R8QMK9	GO:0003674
A0A2R8QMK9	GO:0005515
A0A2R8QMX9	GO:0003674
A0A2R8QMX9	GO:1901363
A0A2R8QMX9	GO:0003677
A0A2R8QMX9	GO:0005488
A0A2R8QMX9	GO:0003676
A0A2R8QMX9	GO:0043565
A0A2R8QMX9	GO:0097159
A0A2R8QMY9	GO:0022891
A0A2R8QMY9	GO:0016933
A0A2R8QMY9	GO:0015276
A0A2R8QMY9	GO:0015267
A0A2R8QMY9	GO:0005215
A0A2R8QMY9	GO:0022834
A0A2R8QMY9	GO:0022838
A0A2R8QMY9	GO:0004872
A0A2R8QMY9	GO:0022803
A0A2R8QMY9	GO:0099600
A0A2R8QMY9	GO:0003674
A0A2R8QMY9	GO:0005231
A0A2R8QMY9	GO:0022892
A0A2R8QMY9	GO:0015075
A0A2R8QMY9	GO:0060089
A0A2R8QMY9	GO:0022857
A0A2R8QMY9	GO:0022836
A0A2R8QMY9	GO:0005216
A0A2R8QMY9	GO:0005230
A0A2R8QMZ5	GO:0003674
A0A2R8QMZ5	GO:1901363
A0A2R8QMZ5	GO:0003677
A0A2R8QMZ5	GO:0005488
A0A2R8QMZ5	GO:0000975
A0A2R8QMZ5	GO:0003690
A0A2R8QMZ5	GO:0003676
A0A2R8QMZ5	GO:0000976
A0A2R8QMZ5	GO:1990837
A0A2R8QMZ5	GO:0044212
A0A2R8QMZ5	GO:0043565
A0A2R8QMZ5	GO:0001067
A0A2R8QMZ5	GO:0097159
A0A2R8QN32	GO:0005488
A0A2R8QN32	GO:0003674
A0A2R8QN32	GO:0005515
A0A2R8QN75	GO:0003674
A0A2R8QN75	GO:0004872
A0A2R8QN75	GO:0038023
A0A2R8QN75	GO:0003707
A0A2R8QN75	GO:0004871
A0A2R8QN75	GO:0004883
A0A2R8QN75	GO:0060089
A0A2R8QNI0	GO:0019787
A0A2R8QNI0	GO:0003674
A0A2R8QNI0	GO:0016740
A0A2R8QNI0	GO:0003824
A0A2R8QNI0	GO:0004842
A0A2R8QNU6	GO:0047617
A0A2R8QNU6	GO:0016787
A0A2R8QNU6	GO:0016289
A0A2R8QNU6	GO:0016788
A0A2R8QNU6	GO:0003674
A0A2R8QNU6	GO:0003824
A0A2R8QNU6	GO:0016790
A0A2R8QNU6	GO:0016290
A0A2R8QPB8	GO:0016301
A0A2R8QPB8	GO:0004672
A0A2R8QPB8	GO:0003674
A0A2R8QPB8	GO:0003824
A0A2R8QPB8	GO:0016740
A0A2R8QPB8	GO:0016772
A0A2R8QPB8	GO:0016773
A0A2R8QQD9	GO:0004968
A0A2R8QQD9	GO:0004872
A0A2R8QQD9	GO:0003674
A0A2R8QQD9	GO:0038023
A0A2R8QQD9	GO:0099600
A0A2R8QQD9	GO:0060089
A0A2R8QQD9	GO:0016500
A0A2R8QQD9	GO:0004888
A0A2R8QQD9	GO:0004871
A0A2R8QQD9	GO:0004930
A0A2R8QRB6	GO:0003674
A0A2R8QRB6	GO:0016757
A0A2R8QRB6	GO:0016740
A0A2R8QRB6	GO:0003824
A0A2R8QRD7	GO:0016861
A0A2R8QRD7	GO:0003674
A0A2R8QRD7	GO:0003824
A0A2R8QRD7	GO:0004476
A0A2R8QRD7	GO:0016853
A0A2R8QRD7	GO:0016860
A0A2R8QSD2	GO:0005488
A0A2R8QSD2	GO:0003674
A0A2R8QSD2	GO:0005515
A0A2R8QT48	GO:0008194
A0A2R8QT48	GO:0016758
A0A2R8QT48	GO:0003674
A0A2R8QT48	GO:0016757
A0A2R8QT48	GO:0003824
A0A2R8QT48	GO:0016740
A0A2R8QT48	GO:0015020
A0A2R8QU09	GO:0003674
A0A2R8QU09	GO:1901363
A0A2R8QU09	GO:0003677
A0A2R8QU09	GO:0005488
A0A2R8QU09	GO:0000975
A0A2R8QU09	GO:0003690
A0A2R8QU09	GO:0003676
A0A2R8QU09	GO:0000976
A0A2R8QU09	GO:1990837
A0A2R8QU09	GO:0044212
A0A2R8QU09	GO:0043565
A0A2R8QU09	GO:0001067
A0A2R8QU09	GO:0097159
A0A2R8QUQ3	GO:0016301
A0A2R8QUQ3	GO:0032549
A0A2R8QUQ3	GO:0004672
A0A2R8QUQ3	GO:0030554
A0A2R8QUQ3	GO:0032553
A0A2R8QUQ3	GO:0032555
A0A2R8QUQ3	GO:0005524
A0A2R8QUQ3	GO:0032550
A0A2R8QUQ3	GO:0043168
A0A2R8QUQ3	GO:0035639
A0A2R8QUQ3	GO:0005488
A0A2R8QUQ3	GO:0097367
A0A2R8QUQ3	GO:0001882
A0A2R8QUQ3	GO:0003674
A0A2R8QUQ3	GO:0003824
A0A2R8QUQ3	GO:0016740
A0A2R8QUQ3	GO:0000166
A0A2R8QUQ3	GO:0016772
A0A2R8QUQ3	GO:1901363
A0A2R8QUQ3	GO:0036094
A0A2R8QUQ3	GO:0043167
A0A2R8QUQ3	GO:1901265
A0A2R8QUQ3	GO:0097159
A0A2R8QUQ3	GO:0004674
A0A2R8QUQ3	GO:0001883
A0A2R8QUQ3	GO:0017076
A0A2R8QUQ3	GO:0032559
A0A2R8QUQ3	GO:0016773
A0A2R8QV67	GO:0005488
A0A2R8QV67	GO:0003674
A0A2R8QV67	GO:0005515
A0A2R8RIU9	GO:0005488
A0A2R8RIU9	GO:0097367
A0A2R8RIU9	GO:0003674
A0A2R8RIU9	GO:0008289
A0A2R8RIU9	GO:0001530
A0A2R8RIU9	GO:0070891
A0A2R8RKU6	GO:0005488
A0A2R8RKU6	GO:0003674
A0A2R8RKU6	GO:1901363
A0A2R8RKU6	GO:0003677
A0A2R8RKU6	GO:0043565
A0A2R8RKU6	GO:0097159
A0A2R8RKU6	GO:0003676
A0A2R8RKV0	GO:0005509
A0A2R8RKV0	GO:0016818
A0A2R8RKV0	GO:0016787
A0A2R8RKV0	GO:0043169
A0A2R8RKV0	GO:0046872
A0A2R8RKV0	GO:0005488
A0A2R8RKV0	GO:0017111
A0A2R8RKV0	GO:0042802
A0A2R8RKV0	GO:0016462
A0A2R8RKV0	GO:0003674
A0A2R8RKV0	GO:0003824
A0A2R8RKV0	GO:0016817
A0A2R8RKV0	GO:0000287
A0A2R8RKV0	GO:0005515
A0A2R8RKV0	GO:0043167
A0A2R8RKV0	GO:0016887
A0A2R8RL91	GO:0004954
A0A2R8RL91	GO:0004953
A0A2R8RL91	GO:0004888
A0A2R8RL91	GO:0038023
A0A2R8RL91	GO:0004871
A0A2R8RL91	GO:0004872
A0A2R8RL91	GO:0099600
A0A2R8RL91	GO:0004930
A0A2R8RL91	GO:0003674
A0A2R8RL91	GO:0060089
A0A2R8RL91	GO:0004957
A0A2R8RL91	GO:0004955
A0A2R8RMH2	GO:0005488
A0A2R8RMH2	GO:0003674
A0A2R8RMH2	GO:0005515
A0A2R8RP73	GO:0046943
A0A2R8RP73	GO:0008324
A0A2R8RP73	GO:0015175
A0A2R8RP73	GO:0015075
A0A2R8RP73	GO:0015179
A0A2R8RP73	GO:0005342
A0A2R8RP73	GO:0015187
A0A2R8RP73	GO:0008509
A0A2R8RP73	GO:0022857
A0A2R8RP73	GO:0003674
A0A2R8RP73	GO:0022891
A0A2R8RP73	GO:0005215
A0A2R8RP73	GO:0008514
A0A2R8RP73	GO:0015171
A0A2R8RP73	GO:0022892
A0A2R8RPJ0	GO:0016714
A0A2R8RPJ0	GO:0016491
A0A2R8RPJ0	GO:0004497
A0A2R8RPJ0	GO:0003674
A0A2R8RPJ0	GO:0003824
A0A2R8RPJ0	GO:0004511
A0A2R8RPJ0	GO:0016705
A0A2R8RRG1	GO:0016301
A0A2R8RRG1	GO:0004672
A0A2R8RRG1	GO:0016740
A0A2R8RRG1	GO:0003674
A0A2R8RRG1	GO:0004683
A0A2R8RRG1	GO:0003824
A0A2R8RRG1	GO:0016772
A0A2R8RRG1	GO:0004674
A0A2R8RRG1	GO:0016773
A0A2R8RRK7	GO:0008324
A0A2R8RRK7	GO:1905030
A0A2R8RRK7	GO:0022803
A0A2R8RRK7	GO:0015075
A0A2R8RRK7	GO:0005216
A0A2R8RRK7	GO:0015081
A0A2R8RRK7	GO:0015077
A0A2R8RRK7	GO:0015267
A0A2R8RRK7	GO:0022838
A0A2R8RRK7	GO:0003674
A0A2R8RRK7	GO:0022857
A0A2R8RRK7	GO:0005261
A0A2R8RRK7	GO:0022891
A0A2R8RRK7	GO:0005215
A0A2R8RRK7	GO:0005248
A0A2R8RRK7	GO:0022890
A0A2R8RRK7	GO:0046873
A0A2R8RRK7	GO:0022836
A0A2R8RRK7	GO:0005272
A0A2R8RRK7	GO:0022832
A0A2R8RRK7	GO:0022892
A0A2R8RRK7	GO:0005244
A0A2R8RSR3	GO:0004963
A0A2R8RSR3	GO:0004872
A0A2R8RSR3	GO:0003674
A0A2R8RSR3	GO:0038023
A0A2R8RSR3	GO:0099600
A0A2R8RSR3	GO:0060089
A0A2R8RSR3	GO:0016500
A0A2R8RSR3	GO:0004888
A0A2R8RSR3	GO:0004871
A0A2R8RSR3	GO:0004930
A0A2R8RT62	GO:0003674
A0A2R8RT62	GO:0016757
A0A2R8RT62	GO:0016740
A0A2R8RT62	GO:0003824
A0A2R8RTA3	GO:0005102
A0A2R8RTA3	GO:0005488
A0A2R8RTA3	GO:0003674
A0A2R8RTA3	GO:0038191
A0A2R8RTA3	GO:0005515
A0A2R8RTM6	GO:0005488
A0A2R8RTM6	GO:0003674
A0A2R8RTM6	GO:0005515
A0A2R8RUW5	GO:0005488
A0A2R8RUW5	GO:0003674
A0A2R8RUW5	GO:0005515
A0A2R8RUW5	GO:0042802
A0A2R8RVP2	GO:0005102
A0A2R8RVP2	GO:0005488
A0A2R8RVP2	GO:0003674
A0A2R8RVP2	GO:0038191
A0A2R8RVP2	GO:0005515
A0A2R8RVT1	GO:0005488
A0A2R8RVT1	GO:0003674
A0A2R8RVT1	GO:0005515
A0A2R8RW07	GO:0003674
A0A2R8RW07	GO:0003824
A0A2R8RW07	GO:0042578
A0A2R8RW07	GO:0052866
A0A2R8RW07	GO:0016787
A0A2R8RW07	GO:0034595
A0A2R8RW07	GO:0016788
A0A2R8RW07	GO:0034596
A0A2R8RW07	GO:0016791
A0A2R8RZW5	GO:0005488
A0A2R8RZW5	GO:0003674
A0A2R8RZW5	GO:0005515
A0A2R8RZZ3	GO:0008194
A0A2R8RZZ3	GO:0016758
A0A2R8RZZ3	GO:0003674
A0A2R8RZZ3	GO:0016757
A0A2R8RZZ3	GO:0003824
A0A2R8RZZ3	GO:0016740
A0A2R8RZZ3	GO:0015020
A0A2R8VI80	GO:0001159
A0A2R8VI80	GO:0000978
A0A2R8VI80	GO:0003674
A0A2R8VI80	GO:1901363
A0A2R8VI80	GO:0003677
A0A2R8VI80	GO:0000977
A0A2R8VI80	GO:0005488
A0A2R8VI80	GO:0000975
A0A2R8VI80	GO:0003690
A0A2R8VI80	GO:0003676
A0A2R8VI80	GO:0000976
A0A2R8VI80	GO:0003700
A0A2R8VI80	GO:0000981
A0A2R8VI80	GO:0000987
A0A2R8VI80	GO:1990837
A0A2R8VI80	GO:0001012
A0A2R8VI80	GO:0001228
A0A2R8VI80	GO:0043565
A0A2R8VI80	GO:0044212
A0A2R8VI80	GO:0001067
A0A2R8VI80	GO:0001071
A0A2R8VI80	GO:0097159
A0A2R9YJG3	GO:0005488
A0A2R9YJG3	GO:0003674
A0A2R9YJG3	GO:0005515
A0A2S1XYZ5	GO:0001653
A0A2S1XYZ5	GO:0060182
A0A2S1XYZ5	GO:0004888
A0A2S1XYZ5	GO:0004871
A0A2S1XYZ5	GO:0004872
A0A2S1XYZ5	GO:0099600
A0A2S1XYZ5	GO:0004930
A0A2S1XYZ5	GO:0003674
A0A2S1XYZ5	GO:0060089
A0A2S1XYZ5	GO:0038023
A0A2S1XYZ5	GO:0008528
A0A338P6S8	GO:0005488
A0A338P6S8	GO:0097367
A0A338P6S8	GO:0005539
A0A338P6S8	GO:0003674
A0A338P6S8	GO:0044877
A0A338P6S8	GO:1901681
A0A338P6S8	GO:0005518
A0A338P6S8	GO:0043167
A0A338P6S8	GO:0005515
A0A338P6S8	GO:0032403
A0A338P6S8	GO:0008201
A0A338P6S8	GO:0043168
A0A385NIA3	GO:0004089
A0A385NIA3	GO:0016836
A0A385NIA3	GO:0003674
A0A385NIA3	GO:0003824
A0A385NIA3	GO:0016835
A0A385NIA3	GO:0016829
A0A3B2WBG2	GO:0004984
A0A3B2WBG2	GO:0004872
A0A3B2WBG2	GO:0003674
A0A3B2WBG2	GO:0038023
A0A3B2WBG2	GO:0099600
A0A3B2WBG2	GO:0060089
A0A3B2WBG2	GO:0038022
A0A3B2WBG2	GO:0004888
A0A3B2WBG2	GO:0004871
A0A3B2WBG2	GO:0004930
A0A3B2WCD4	GO:0004984
A0A3B2WCD4	GO:0004872
A0A3B2WCD4	GO:0003674
A0A3B2WCD4	GO:0038023
A0A3B2WCD4	GO:0099600
A0A3B2WCD4	GO:0060089
A0A3B2WCD4	GO:0038022
A0A3B2WCD4	GO:0004888
A0A3B2WCD4	GO:0004871
A0A3B2WCD4	GO:0004930
A0A3B2WCZ2	GO:0042162
A0A3B2WCZ2	GO:0003674
A0A3B2WCZ2	GO:0098847
A0A3B2WCZ2	GO:0019899
A0A3B2WCZ2	GO:1901363
A0A3B2WCZ2	GO:0003677
A0A3B2WCZ2	GO:0017016
A0A3B2WCZ2	GO:0005488
A0A3B2WCZ2	GO:0003676
A0A3B2WCZ2	GO:0051020
A0A3B2WCZ2	GO:0043047
A0A3B2WCZ2	GO:0003697
A0A3B2WCZ2	GO:0031267
A0A3B2WCZ2	GO:0043565
A0A3B2WCZ2	GO:0005515
A0A3B2WCZ2	GO:0097159
A0A3B2WCZ2	GO:0017137
A0A3B2WD03	GO:0004984
A0A3B2WD03	GO:0004872
A0A3B2WD03	GO:0003674
A0A3B2WD03	GO:0038023
A0A3B2WD03	GO:0099600
A0A3B2WD03	GO:0060089
A0A3B2WD03	GO:0038022
A0A3B2WD03	GO:0004888
A0A3B2WD03	GO:0004871
A0A3B2WD03	GO:0004930
A0A3B2WD20	GO:0005186
A0A3B2WD20	GO:0005102
A0A3B2WD20	GO:0005488
A0A3B2WD20	GO:0003674
A0A3B2WD20	GO:0005515
A0A3B2WD32	GO:0004984
A0A3B2WD32	GO:0004872
A0A3B2WD32	GO:0003674
A0A3B2WD32	GO:0038023
A0A3B2WD32	GO:0099600
A0A3B2WD32	GO:0060089
A0A3B2WD32	GO:0038022
A0A3B2WD32	GO:0004888
A0A3B2WD32	GO:0004871
A0A3B2WD32	GO:0004930
A0A3B2WD64	GO:0004984
A0A3B2WD64	GO:0004872
A0A3B2WD64	GO:0003674
A0A3B2WD64	GO:0038023
A0A3B2WD64	GO:0099600
A0A3B2WD64	GO:0060089
A0A3B2WD64	GO:0038022
A0A3B2WD64	GO:0004888
A0A3B2WD64	GO:0004871
A0A3B2WD64	GO:0004930
A0A3B2WDB0	GO:0004984
A0A3B2WDB0	GO:0004872
A0A3B2WDB0	GO:0003674
A0A3B2WDB0	GO:0038023
A0A3B2WDB0	GO:0099600
A0A3B2WDB0	GO:0060089
A0A3B2WDB0	GO:0038022
A0A3B2WDB0	GO:0004888
A0A3B2WDB0	GO:0004871
A0A3B2WDB0	GO:0004930
A0A3G2M3D9	GO:0003674
A0A3G2M3D9	GO:1901363
A0A3G2M3D9	GO:0003677
A0A3G2M3D9	GO:0005488
A0A3G2M3D9	GO:0000975
A0A3G2M3D9	GO:0003690
A0A3G2M3D9	GO:0003676
A0A3G2M3D9	GO:0000976
A0A3G2M3D9	GO:1990837
A0A3G2M3D9	GO:0044212
A0A3G2M3D9	GO:0043565
A0A3G2M3D9	GO:0005515
A0A3G2M3D9	GO:0001067
A0A3G2M3D9	GO:0097159
A0A3G2M3D9	GO:0098772
A0A3G2M3E1	GO:0003674
A0A3G2M3E1	GO:1901363
A0A3G2M3E1	GO:0003677
A0A3G2M3E1	GO:0005488
A0A3G2M3E1	GO:0000975
A0A3G2M3E1	GO:0003690
A0A3G2M3E1	GO:0003676
A0A3G2M3E1	GO:0000976
A0A3G2M3E1	GO:1990837
A0A3G2M3E1	GO:0044212
A0A3G2M3E1	GO:0043565
A0A3G2M3E1	GO:0005515
A0A3G2M3E1	GO:0001067
A0A3G2M3E1	GO:0097159
A0A3G2M3E1	GO:0098772
A0A3G3LK92	GO:0003700
A0A3G3LK92	GO:0098531
A0A3G3LK92	GO:0004872
A0A3G3LK92	GO:0003674
A0A3G3LK92	GO:0000981
A0A3G3LK92	GO:0038023
A0A3G3LK92	GO:0003707
A0A3G3LK92	GO:0004879
A0A3G3LK92	GO:0060089
A0A3G3LK92	GO:0001071
A0A3G3LK92	GO:0004871
A0A3Q0L222	GO:0005488
A0A3Q0L222	GO:0003674
A0A3Q0L222	GO:0005515
A0A3Q0L222	GO:0042802
A0A3Q4EC09	GO:0017016
A0A3Q4EC09	GO:0031267
A0A3Q4EC09	GO:0005488
A0A3Q4EC09	GO:0003674
A0A3Q4EC09	GO:0019899
A0A3Q4EC09	GO:0005085
A0A3Q4EC09	GO:0051020
A0A3Q4EC09	GO:0005515
A0A3Q4EC09	GO:0005088
A0A3Q4EC09	GO:0019900
A0A3Q4EC09	GO:0098772
A0A3Q4EC41	GO:0004984
A0A3Q4EC41	GO:0004872
A0A3Q4EC41	GO:0003674
A0A3Q4EC41	GO:0038023
A0A3Q4EC41	GO:0099600
A0A3Q4EC41	GO:0060089
A0A3Q4EC41	GO:0038022
A0A3Q4EC41	GO:0004888
A0A3Q4EC41	GO:0004871
A0A3Q4EC41	GO:0004930
A0A3Q4EG47	GO:0004984
A0A3Q4EG47	GO:0004872
A0A3Q4EG47	GO:0003674
A0A3Q4EG47	GO:0038023
A0A3Q4EG47	GO:0099600
A0A3Q4EG47	GO:0060089
A0A3Q4EG47	GO:0038022
A0A3Q4EG47	GO:0004888
A0A3Q4EG47	GO:0004871
A0A3Q4EG47	GO:0004930
A0A3Q4EG75	GO:0004984
A0A3Q4EG75	GO:0004872
A0A3Q4EG75	GO:0003674
A0A3Q4EG75	GO:0038023
A0A3Q4EG75	GO:0099600
A0A3Q4EG75	GO:0060089
A0A3Q4EG75	GO:0038022
A0A3Q4EG75	GO:0004888
A0A3Q4EG75	GO:0004871
A0A3Q4EG75	GO:0004930
A0A3Q4EGA5	GO:0004984
A0A3Q4EGA5	GO:0004872
A0A3Q4EGA5	GO:0003674
A0A3Q4EGA5	GO:0038023
A0A3Q4EGA5	GO:0099600
A0A3Q4EGA5	GO:0060089
A0A3Q4EGA5	GO:0038022
A0A3Q4EGA5	GO:0004888
A0A3Q4EGA5	GO:0004871
A0A3Q4EGA5	GO:0004930
A0A3Q4EGT3	GO:0004984
A0A3Q4EGT3	GO:0004872
A0A3Q4EGT3	GO:0003674
A0A3Q4EGT3	GO:0038023
A0A3Q4EGT3	GO:0099600
A0A3Q4EGT3	GO:0060089
A0A3Q4EGT3	GO:0038022
A0A3Q4EGT3	GO:0004888
A0A3Q4EGT3	GO:0004871
A0A3Q4EGT3	GO:0004930
A0A3Q4EHE9	GO:0004984
A0A3Q4EHE9	GO:0004872
A0A3Q4EHE9	GO:0003674
A0A3Q4EHE9	GO:0038023
A0A3Q4EHE9	GO:0099600
A0A3Q4EHE9	GO:0060089
A0A3Q4EHE9	GO:0038022
A0A3Q4EHE9	GO:0004888
A0A3Q4EHE9	GO:0004871
A0A3Q4EHE9	GO:0004930
A0A494B9E3	GO:0003674
A0A494B9E3	GO:0005488
A0A494B9E3	GO:0005515
A0A571BF02	GO:0008022
A0A571BF02	GO:0002046
A0A571BF02	GO:0003779
A0A571BF02	GO:0005488
A0A571BF02	GO:0030507
A0A571BF02	GO:0003674
A0A571BF02	GO:0008092
A0A571BF02	GO:0044877
A0A571BF02	GO:0005515
A0A571BF02	GO:0051015
A0A571BF02	GO:0032403
A0A571BF69	GO:0090599
A0A571BF69	GO:0016798
A0A571BF69	GO:0016787
A0A571BF69	GO:0003674
A0A571BF69	GO:0004553
A0A571BF69	GO:0004558
A0A571BF69	GO:0015926
A0A571BF69	GO:0003824
A0A571BF69	GO:0016160
A0A5F8MPH8	GO:0097367
A0A5F8MPH8	GO:0003674
A0A5F8MPH8	GO:0044877
A0A5F8MPH8	GO:0008201
A0A5F8MPH8	GO:0005488
A0A5F8MPH8	GO:1901681
A0A5F8MPH8	GO:0005539
A0A5F8MPH8	GO:0005518
A0A5F8MPH8	GO:0032403
A0A5F8MPH8	GO:0043168
A0A5F8MPH8	GO:0043167
A0A5F8MPH8	GO:0005515
A0A5F8MPI9	GO:0003674
A0A5F8MPI9	GO:0005085
A0A5F8MPI9	GO:0005488
A0A5F8MPI9	GO:0005515
A0A5F8MPI9	GO:0098772
A0A5F8MPJ0	GO:0005102
A0A5F8MPJ0	GO:0003674
A0A5F8MPJ0	GO:0005488
A0A5F8MPJ0	GO:0045499
A0A5F8MPJ0	GO:0005176
A0A5F8MPJ0	GO:0005515
A0A5F8MPL7	GO:0005102
A0A5F8MPL7	GO:0003674
A0A5F8MPL7	GO:0005488
A0A5F8MPL7	GO:0045499
A0A5F8MPL7	GO:0005176
A0A5F8MPL7	GO:0005515
A0A5F8MPM6	GO:0005102
A0A5F8MPM6	GO:0003674
A0A5F8MPM6	GO:0005488
A0A5F8MPM6	GO:0045499
A0A5F8MPM6	GO:0005176
A0A5F8MPM6	GO:0005515
A0A5F8MPN0	GO:0005102
A0A5F8MPN0	GO:0003674
A0A5F8MPN0	GO:0005488
A0A5F8MPN0	GO:0045499
A0A5F8MPN0	GO:0005176
A0A5F8MPN0	GO:0005515
A0A5F8MPT0	GO:0005102
A0A5F8MPT0	GO:0003674
A0A5F8MPT0	GO:0005488
A0A5F8MPT0	GO:0045499
A0A5F8MPT0	GO:0005176
A0A5F8MPT0	GO:0005515
A0A5F8MPT8	GO:0005102
A0A5F8MPT8	GO:0003674
A0A5F8MPT8	GO:0005488
A0A5F8MPT8	GO:0045499
A0A5F8MPT8	GO:0005176
A0A5F8MPT8	GO:0005515
A0A5F8MPU1	GO:0005102
A0A5F8MPU1	GO:0003674
A0A5F8MPU1	GO:0005488
A0A5F8MPU1	GO:0045499
A0A5F8MPU1	GO:0005176
A0A5F8MPU1	GO:0005515
A0A5F8MPU8	GO:0005102
A0A5F8MPU8	GO:0003674
A0A5F8MPU8	GO:0005488
A0A5F8MPU8	GO:0045499
A0A5F8MPU8	GO:0005176
A0A5F8MPU8	GO:0005515
A0A5F8MQ03	GO:0005102
A0A5F8MQ03	GO:0003674
A0A5F8MQ03	GO:0005488
A0A5F8MQ03	GO:0045499
A0A5F8MQ03	GO:0005176
A0A5F8MQ03	GO:0005515
A0A5F8MQ49	GO:0005102
A0A5F8MQ49	GO:0003674
A0A5F8MQ49	GO:0005488
A0A5F8MQ49	GO:0045499
A0A5F8MQ49	GO:0005176
A0A5F8MQ49	GO:0005515
A0AV58	GO:0019900
A0AV58	GO:0019901
A0AV58	GO:0005488
A0AV58	GO:0003674
A0AV58	GO:0005515
A0AV58	GO:0019899
A0JC82	GO:0005488
A0JC82	GO:0003674
A0JC82	GO:0005515
A0JC82	GO:0042802
A0QNK4	GO:0005488
A0QNK4	GO:0003674
A0QNK4	GO:0005515
A0QNK4	GO:0042802
A2BDD9	GO:0005488
A2BDD9	GO:0003674
A2BDD9	GO:0005515
A2BDD9	GO:0042802
A4K8J3	GO:0005488
A4K8J3	GO:0019838
A4K8J3	GO:0005520
A4K8J3	GO:0031995
A4K8J3	GO:0003674
A4K8J3	GO:0031994
A4K8J3	GO:0005515
A4QDE6	GO:0000976
A4QDE6	GO:0003700
A4QDE6	GO:0001217
A4QDE6	GO:0005488
A4QDE6	GO:0000975
A4QDE6	GO:0003674
A4QDE6	GO:0003690
A4QDE6	GO:1901363
A4QDE6	GO:0003677
A4QDE6	GO:1990837
A4QDE6	GO:0044212
A4QDE6	GO:0043565
A4QDE6	GO:0001067
A4QDE6	GO:0001071
A4QDE6	GO:0097159
A4QDE6	GO:0003676
A4QDE6	GO:0001130
B0CM08	GO:0005102
B0CM08	GO:0005488
B0CM08	GO:0003674
B0CM08	GO:0038191
B0CM08	GO:0005515
B2CXA1	GO:1990782
B2CXA1	GO:0005488
B2CXA1	GO:0003674
B2CXA1	GO:0019899
B2CXA1	GO:0019901
B2CXA1	GO:0005515
B2CXA1	GO:0019900
B4EH86	GO:0005488
B4EH86	GO:0003674
B4EH86	GO:0005515
B4EH86	GO:0042802
B6SBL8	GO:0005488
B6SBL8	GO:0005515
B6SBL8	GO:0003674
B6SBL9	GO:0097159
B6SBL9	GO:1901363
B6SBL9	GO:0005488
B6SBL9	GO:0003723
B6SBL9	GO:0003674
B6SBL9	GO:0003676
B6SBL9	GO:0005515
C0Z2Z7	GO:0000976
C0Z2Z7	GO:0005488
C0Z2Z7	GO:0000975
C0Z2Z7	GO:0003674
C0Z2Z7	GO:0003690
C0Z2Z7	GO:1901363
C0Z2Z7	GO:0003677
C0Z2Z7	GO:1990837
C0Z2Z7	GO:0044212
C0Z2Z7	GO:0043565
C0Z2Z7	GO:0005515
C0Z2Z7	GO:0001067
C0Z2Z7	GO:0097159
C0Z2Z7	GO:0003676
C8CHL4	GO:0005488
C8CHL4	GO:0003674
C8CHL4	GO:0005515
C8CHL4	GO:0042802
E5FYG5	GO:0005488
E5FYG5	GO:0003674
E5FYG5	GO:0005515
E5LC01	GO:0003682
E5LC01	GO:0032403
E5LC01	GO:0005488
E5LC01	GO:0044877
E5LC01	GO:0003674
E5LC01	GO:0031491
E5LC01	GO:0005515
E7FDA3	GO:0005488
E7FDA3	GO:0003823
E7FDA3	GO:0097367
E7FDA3	GO:0030882
E7FDA3	GO:0003674
E7FDA3	GO:0001530
E7FDA3	GO:0008289
E7FDR0	GO:0005488
E7FDR0	GO:0003674
E7FDR0	GO:0005515
E9QEX1	GO:0005488
E9QEX1	GO:0003674
E9QEX1	GO:0005515
F1QXQ9	GO:0047617
F1QXQ9	GO:0016787
F1QXQ9	GO:0016289
F1QXQ9	GO:0016788
F1QXQ9	GO:0003674
F1QXQ9	GO:0003824
F1QXQ9	GO:0016790
F1QXQ9	GO:0016290
F4HQB9	GO:0005488
F4HQB9	GO:0005515
F4HQB9	GO:0003674
F4I5G3	GO:0008324
F4I5G3	GO:0022803
F4I5G3	GO:0015075
F4I5G3	GO:0015267
F4I5G3	GO:0022838
F4I5G3	GO:0003674
F4I5G3	GO:0005216
F4I5G3	GO:0022857
F4I5G3	GO:0005261
F4I5G3	GO:0022891
F4I5G3	GO:0005215
F4I5G3	GO:0022892
F4IFU5	GO:0005488
F4IFU5	GO:0005515
F4IFU5	GO:0003674
F4IGM4	GO:0005488
F4IGM4	GO:0003674
F4IGM4	GO:0005515
F4IY86	GO:0005488
F4IY86	GO:0005515
F4IY86	GO:0003674
F4J6P6	GO:0005488
F4J6P6	GO:0005515
F4J6P6	GO:0003674
F4JAY0	GO:0005488
F4JAY0	GO:0005515
F4JAY0	GO:0003674
F4JUD2	GO:0046982
F4JUD2	GO:0046983
F4JUD2	GO:0005488
F4JUD2	GO:0003674
F4JUD2	GO:0005515
F4K2T3	GO:0005488
F4K2T3	GO:0003674
F4K2T3	GO:0005515
F4K452	GO:0020037
F4K452	GO:0046906
F4K452	GO:0005488
F4K452	GO:0003674
F4K452	GO:1901363
F4K452	GO:0005515
F4K452	GO:0097159
F4K6Q7	GO:0005488
F4K6Q7	GO:0003674
F4K6Q7	GO:0005515
F4K802	GO:0016787
F4K802	GO:0003674
F4K802	GO:0003824
F4K802	GO:0016791
F4K802	GO:0016788
F4K802	GO:0042578
F4KAQ2	GO:0005488
F4KAQ2	GO:0003674
F4KAQ2	GO:0005515
F6N9H6	GO:0070569
F6N9H6	GO:0003674
F6N9H6	GO:0016740
F6N9H6	GO:0003824
F6N9H6	GO:0016779
F6N9H6	GO:0016772
F6NLT1	GO:0005488
F6NLT1	GO:0003674
F6NLT1	GO:1901363
F6NLT1	GO:0003677
F6NLT1	GO:0043565
F6NLT1	GO:0097159
F6NLT1	GO:0003676
F6NM25	GO:0003674
F6NM25	GO:0003824
F6NM25	GO:0042578
F6NM25	GO:0016787
F6NM25	GO:0016788
F6NM25	GO:0042577
F6NM25	GO:0016791
F6NRQ1	GO:0000976
F6NRQ1	GO:0001159
F6NRQ1	GO:0005488
F6NRQ1	GO:0000975
F6NRQ1	GO:0003674
F6NRQ1	GO:0000987
F6NRQ1	GO:0003690
F6NRQ1	GO:1901363
F6NRQ1	GO:0003677
F6NRQ1	GO:1990837
F6NRQ1	GO:0044212
F6NRQ1	GO:0043565
F6NRQ1	GO:0001067
F6NRQ1	GO:0097159
F6NRQ1	GO:0003676
F6NVB9	GO:0003674
F6NVB9	GO:1901363
F6NVB9	GO:0003723
F6NVB9	GO:0005488
F6NVB9	GO:0003676
F6NVB9	GO:0097159
F9UPX5	GO:0005488
F9UPX5	GO:0001968
F9UPX5	GO:0003674
F9UPX5	GO:0005515
H0WEF2	GO:0005488
H0WEF2	GO:0008047
H0WEF2	GO:0019209
H0WEF2	GO:0003674
H0WEF2	GO:0030234
H0WEF2	GO:0005085
H0WEF2	GO:0019207
H0WEF2	GO:0019887
H0WEF2	GO:0005515
H0WEF2	GO:0098772
H0WEF2	GO:0030295
H9L4T0	GO:0000976
H9L4T0	GO:0003700
H9L4T0	GO:0001216
H9L4T0	GO:0001217
H9L4T0	GO:0005488
H9L4T0	GO:0000975
H9L4T0	GO:0003674
H9L4T0	GO:0003690
H9L4T0	GO:1901363
H9L4T0	GO:0003677
H9L4T0	GO:1990837
H9L4T0	GO:0044212
H9L4T0	GO:0043565
H9L4T0	GO:0001067
H9L4T0	GO:0001071
H9L4T0	GO:0097159
H9L4T0	GO:0003676
H9L4T0	GO:0001130
I1HB13	GO:0005488
I1HB13	GO:0003674
I1HB13	GO:0005515
I1HB13	GO:0042802
K4MTL7	GO:0005488
K4MTL7	GO:0003674
K4MTL7	GO:0005515
K4MTL7	GO:0042802
O04342	GO:0080115
O04342	GO:0005488
O04342	GO:0032029
O04342	GO:0003674
O04342	GO:0008092
O04342	GO:0017022
O04342	GO:0005515
O04342	GO:0032036
O06499	GO:0016706
O06499	GO:0051213
O06499	GO:0016705
O06499	GO:0016491
O06499	GO:0003674
O06499	GO:0003824
O30554	GO:0016757
O30554	GO:0016740
O30554	GO:0003674
O30554	GO:0003824
O30554	GO:0008933
O35328	GO:0005488
O35328	GO:0003674
O35328	GO:0005515
O50835	GO:0005515
O50835	GO:0001968
O50835	GO:0003674
O50835	GO:0005488
O54635	GO:0005488
O54635	GO:0003674
O54635	GO:0005515
O54635	GO:0042802
O68704	GO:0005488
O68704	GO:0003674
O68704	GO:0005515
O93707	GO:0005488
O93707	GO:0003674
O93707	GO:0005515
O93707	GO:0042802
P73124	GO:0005488
P73124	GO:0003674
P73124	GO:0005515
P73124	GO:0019899
Q05705	GO:0005515
Q05705	GO:0003674
Q05705	GO:0008092
Q05705	GO:0005488
Q05H60	GO:0005488
Q05H60	GO:0003674
Q05H60	GO:0005515
Q05H60	GO:0042802
Q0WQM3	GO:0001071
Q0WQM3	GO:0003700
Q0WQM3	GO:0001228
Q0WQM3	GO:0003674
Q0WQM3	GO:0000981
Q1I128	GO:0005488
Q1I128	GO:0003674
Q1I128	GO:0005515
Q1I128	GO:0042802
Q1LWU4	GO:0047617
Q1LWU4	GO:0016787
Q1LWU4	GO:0016289
Q1LWU4	GO:0016788
Q1LWU4	GO:0003674
Q1LWU4	GO:0003824
Q1LWU4	GO:0016790
Q1LWU4	GO:0016290
Q28HK0	GO:0001792
Q28HK0	GO:0004888
Q28HK0	GO:0019763
Q28HK0	GO:0004871
Q28HK0	GO:0004872
Q28HK0	GO:0099600
Q28HK0	GO:0003674
Q28HK0	GO:0060089
Q28HK0	GO:0038023
Q2F862	GO:0005488
Q2F862	GO:0003674
Q2F862	GO:0005515
Q2F862	GO:0042802
Q381H4	GO:0097159
Q381H4	GO:1901363
Q381H4	GO:0005488
Q381H4	GO:0042162
Q381H4	GO:0003677
Q381H4	GO:0003674
Q381H4	GO:0043565
Q381H4	GO:0003676
Q381K6	GO:0005488
Q381K6	GO:0003674
Q381K6	GO:0005515
Q381M8	GO:0005488
Q381M8	GO:0003674
Q381M8	GO:0005515
Q381S1	GO:0044877
Q381S1	GO:0003674
Q381S1	GO:0005488
Q382S8	GO:0005488
Q382S8	GO:0003674
Q382S8	GO:0071889
Q382S8	GO:0005515
Q385F2	GO:0005488
Q385F2	GO:0003674
Q385F2	GO:0005515
Q386I1	GO:0005488
Q386I1	GO:0003674
Q386I1	GO:0005515
Q387E6	GO:0005488
Q387E6	GO:0005515
Q387E6	GO:0003674
Q388A3	GO:0005488
Q388A3	GO:0003674
Q388A3	GO:0005515
Q388D4	GO:0003729
Q388D4	GO:0044822
Q388D4	GO:0005488
Q388D4	GO:0003674
Q388D4	GO:1901363
Q388D4	GO:0097159
Q388D4	GO:0003723
Q388D4	GO:0003676
Q388J6	GO:0005488
Q388J6	GO:0005515
Q388J6	GO:0003674
Q388T7	GO:0005488
Q388T7	GO:0003674
Q388T7	GO:0005515
Q38A41	GO:0097159
Q38A41	GO:1901363
Q38A41	GO:0005488
Q38A41	GO:0003729
Q38A41	GO:0003723
Q38A41	GO:0003674
Q38A41	GO:0003676
Q38A41	GO:0044822
Q38A92	GO:0044877
Q38A92	GO:0003674
Q38A92	GO:0005488
Q38BH8	GO:0097159
Q38BH8	GO:1901363
Q38BH8	GO:0005488
Q38BH8	GO:0042162
Q38BH8	GO:0003677
Q38BH8	GO:0003674
Q38BH8	GO:0043565
Q38BH8	GO:0003676
Q38C24	GO:0097159
Q38C24	GO:1901363
Q38C24	GO:0005488
Q38C24	GO:0042162
Q38C24	GO:0003677
Q38C24	GO:0003674
Q38C24	GO:0043565
Q38C24	GO:0003676
Q38CF5	GO:0044877
Q38CF5	GO:0003674
Q38CF5	GO:0005488
Q38CF6	GO:0005488
Q38CF6	GO:0003674
Q38CF6	GO:0005515
Q38CM2	GO:0004652
Q38CM2	GO:0003824
Q38CM2	GO:0016740
Q38CM2	GO:0003674
Q38CM2	GO:0070566
Q38CM2	GO:0016779
Q38CM2	GO:0016772
Q38D28	GO:0005488
Q38D28	GO:0003674
Q38D28	GO:0005515
Q38DJ1	GO:0097159
Q38DJ1	GO:1901363
Q38DJ1	GO:0005488
Q38DJ1	GO:0003729
Q38DJ1	GO:0003723
Q38DJ1	GO:0003674
Q38DJ1	GO:0003676
Q38DJ1	GO:0044822
Q38DT8	GO:0016787
Q38DT8	GO:0003674
Q38DT8	GO:0003824
Q38DT8	GO:0016791
Q38DT8	GO:0016788
Q38DT8	GO:0042578
Q38DT8	GO:0008252
Q38DT8	GO:0008253
Q38E40	GO:0003729
Q38E40	GO:0044822
Q38E40	GO:0005488
Q38E40	GO:0003674
Q38E40	GO:1901363
Q38E40	GO:0097159
Q38E40	GO:0003723
Q38E40	GO:0003676
Q4G3H1	GO:0005488
Q4G3H1	GO:0003674
Q4G3H1	GO:0005515
Q4G3H1	GO:0042802
Q4GYR6	GO:0003729
Q4GYR6	GO:0005488
Q4GYR6	GO:0003674
Q4GYR6	GO:1901363
Q4GYR6	GO:0097159
Q4GYR6	GO:0003723
Q4GYR6	GO:0003676
Q4GYR6	GO:0044822
Q4LDF6	GO:0043167
Q4LDF6	GO:0005488
Q4LDF6	GO:0005515
Q4LDF6	GO:0097367
Q4LDF6	GO:0001851
Q4LDF6	GO:0001846
Q4LDF6	GO:0005539
Q4LDF6	GO:0003674
Q4LDF6	GO:1901681
Q4LDF6	GO:0008201
Q4LDF6	GO:0001848
Q4LDF6	GO:0043168
Q55E23	GO:0016838
Q55E23	GO:0003674
Q55E23	GO:0003824
Q55E23	GO:0016835
Q55E23	GO:0010334
Q55E23	GO:0052578
Q55E23	GO:0010333
Q55E23	GO:0016829
Q57TY3	GO:0097159
Q57TY3	GO:1901363
Q57TY3	GO:0005488
Q57TY3	GO:0003729
Q57TY3	GO:0003723
Q57TY3	GO:0003674
Q57TY3	GO:0003676
Q57TY3	GO:0044822
Q57WH0	GO:0005488
Q57WH0	GO:0003674
Q57WH0	GO:0044877
Q57WU0	GO:0097159
Q57WU0	GO:1901363
Q57WU0	GO:0005488
Q57WU0	GO:0003729
Q57WU0	GO:0003723
Q57WU0	GO:0003674
Q57WU0	GO:0003676
Q57WU0	GO:0044822
Q57XL0	GO:0005488
Q57XL0	GO:0003674
Q57XL0	GO:0044877
Q57XQ0	GO:0097159
Q57XQ0	GO:1901363
Q57XQ0	GO:0005488
Q57XQ0	GO:0003729
Q57XQ0	GO:0003723
Q57XQ0	GO:0003674
Q57XQ0	GO:0003676
Q57XQ0	GO:0044822
Q57XS0	GO:0044877
Q57XS0	GO:0003674
Q57XS0	GO:0005488
Q57YB6	GO:0005488
Q57YB6	GO:0003674
Q57YB6	GO:0005515
Q57YQ5	GO:0005488
Q57YQ5	GO:0003674
Q57YQ5	GO:0044877
Q57Z15	GO:0005488
Q57Z15	GO:0003674
Q57Z15	GO:0044877
Q57ZF1	GO:0005488
Q57ZF1	GO:0003674
Q57ZF1	GO:0005515
Q57ZJ9	GO:0003729
Q57ZJ9	GO:0044822
Q57ZJ9	GO:0005488
Q57ZJ9	GO:0003674
Q57ZJ9	GO:1901363
Q57ZJ9	GO:0097159
Q57ZJ9	GO:0003723
Q57ZJ9	GO:0003676
Q582I5	GO:0003674
Q582I5	GO:0005488
Q582I5	GO:0005515
Q583E3	GO:0097159
Q583E3	GO:0044822
Q583E3	GO:1901363
Q583E3	GO:0005488
Q583E3	GO:0003729
Q583E3	GO:0003723
Q583E3	GO:0003674
Q583E3	GO:0003676
Q583I7	GO:0005488
Q583I7	GO:0003674
Q583I7	GO:0005515
Q583U1	GO:0005488
Q583U1	GO:0003674
Q583U1	GO:0005515
Q585L0	GO:0097159
Q585L0	GO:1901363
Q585L0	GO:0005488
Q585L0	GO:0003729
Q585L0	GO:0003723
Q585L0	GO:0003674
Q585L0	GO:0003676
Q585L0	GO:0044822
Q59QN2	GO:0019208
Q59QN2	GO:0005488
Q59QN2	GO:0003674
Q59QN2	GO:0019899
Q59QN2	GO:0030234
Q59QN2	GO:0019888
Q59QN2	GO:0005515
Q59QN2	GO:0098772
Q59QN2	GO:0019903
Q59QN2	GO:0019902
Q59ST9	GO:0004860
Q59ST9	GO:0004857
Q59ST9	GO:0003674
Q59ST9	GO:0030291
Q59ST9	GO:0030234
Q59ST9	GO:0016538
Q59ST9	GO:0019207
Q59ST9	GO:0019887
Q59ST9	GO:0004861
Q59ST9	GO:0098772
Q59ST9	GO:0019210
Q59U90	GO:0008289
Q59U90	GO:0005488
Q59U90	GO:0003674
Q59U90	GO:0005515
Q59VY4	GO:0008460
Q59VY4	GO:0016836
Q59VY4	GO:0003674
Q59VY4	GO:0003824
Q59VY4	GO:0016835
Q59VY4	GO:0016829
Q5A888	GO:0016491
Q5A888	GO:0000253
Q5A888	GO:0003674
Q5A888	GO:0003824
Q5A888	GO:0016614
Q5A888	GO:0016616
Q5ADN1	GO:0016787
Q5ADN1	GO:0004722
Q5ADN1	GO:0004721
Q5ADN1	GO:0003674
Q5ADN1	GO:0003824
Q5ADN1	GO:0016791
Q5ADN1	GO:0016788
Q5ADN1	GO:0042578
Q5DIA0	GO:0016758
Q5DIA0	GO:0016757
Q5DIA0	GO:0016740
Q5DIA0	GO:0003674
Q5DIA0	GO:0003824
Q5DIA0	GO:0046527
Q5F961	GO:0000976
Q5F961	GO:0003700
Q5F961	GO:0001216
Q5F961	GO:0001217
Q5F961	GO:0005488
Q5F961	GO:0000975
Q5F961	GO:0003674
Q5F961	GO:0003690
Q5F961	GO:1901363
Q5F961	GO:0003677
Q5F961	GO:1990837
Q5F961	GO:0044212
Q5F961	GO:0043565
Q5F961	GO:0001067
Q5F961	GO:0001071
Q5F961	GO:0097159
Q5F961	GO:0003676
Q5F961	GO:0001130
Q5ID23	GO:0005102
Q5ID23	GO:0005488
Q5ID23	GO:0003674
Q5ID23	GO:0038191
Q5ID23	GO:0005515
Q61407	GO:0043167
Q61407	GO:0005488
Q61407	GO:0005515
Q61407	GO:0097367
Q61407	GO:0001851
Q61407	GO:0001846
Q61407	GO:0005539
Q61407	GO:0003674
Q61407	GO:1901681
Q61407	GO:0008201
Q61407	GO:0001848
Q61407	GO:0043168
Q69ZV5	GO:0005488
Q69ZV5	GO:0003674
Q69ZV5	GO:0051018
Q69ZV5	GO:0005515
Q6I1X8	GO:0005488
Q6I1X8	GO:0003674
Q6I1X8	GO:0005515
Q6I1X8	GO:0042802
Q7K0W4	GO:0008061
Q7K0W4	GO:0005488
Q7K0W4	GO:0097367
Q7K0W4	GO:0003674
Q7KWU0	GO:0016838
Q7KWU0	GO:0003674
Q7KWU0	GO:0003824
Q7KWU0	GO:0016835
Q7KWU0	GO:0010334
Q7KWU0	GO:0010333
Q7KWU0	GO:0016829
Q7ME71	GO:0000976
Q7ME71	GO:0003700
Q7ME71	GO:0001216
Q7ME71	GO:0001217
Q7ME71	GO:0005488
Q7ME71	GO:0000975
Q7ME71	GO:0003674
Q7ME71	GO:0003690
Q7ME71	GO:1901363
Q7ME71	GO:0003677
Q7ME71	GO:1990837
Q7ME71	GO:0044212
Q7ME71	GO:0043565
Q7ME71	GO:0001067
Q7ME71	GO:0001071
Q7ME71	GO:0097159
Q7ME71	GO:0003676
Q7ME71	GO:0001130
Q7MMB6	GO:0000976
Q7MMB6	GO:0003700
Q7MMB6	GO:0001216
Q7MMB6	GO:0005488
Q7MMB6	GO:0000975
Q7MMB6	GO:0003674
Q7MMB6	GO:0003690
Q7MMB6	GO:1901363
Q7MMB6	GO:0003677
Q7MMB6	GO:1990837
Q7MMB6	GO:0044212
Q7MMB6	GO:0043565
Q7MMB6	GO:0001067
Q7MMB6	GO:0001071
Q7MMB6	GO:0097159
Q7MMB6	GO:0003676
Q7MMB6	GO:0001130
Q7Y3F3	GO:0005488
Q7Y3F3	GO:0003674
Q7Y3F3	GO:0005515
Q7Y3F3	GO:0042802
Q7Y4H8	GO:0061783
Q7ZTX2	GO:0005488
Q7ZTX2	GO:0003674
Q7ZTX2	GO:0005515
Q86II4	GO:0016838
Q86II4	GO:0003674
Q86II4	GO:0003824
Q86II4	GO:0016835
Q86II4	GO:0010334
Q86II4	GO:0010333
Q86II4	GO:0016829
Q8E0W3	GO:0061786
Q8GT36	GO:0005488
Q8GT36	GO:0003674
Q8GT36	GO:0005515
Q8IG33	GO:0005488
Q8IG33	GO:0003674
Q8IG33	GO:0005515
Q8IG33	GO:0042802
Q8R037	GO:0019955
Q8R037	GO:0005488
Q8R037	GO:0042802
Q8R037	GO:0003674
Q8R037	GO:0005515
Q8R0I8	GO:0043167
Q8R0I8	GO:0005488
Q8R0I8	GO:0005515
Q8R0I8	GO:0097367
Q8R0I8	GO:0001851
Q8R0I8	GO:0001846
Q8R0I8	GO:0005539
Q8R0I8	GO:0003674
Q8R0I8	GO:1901681
Q8R0I8	GO:0008201
Q8R0I8	GO:0001848
Q8R0I8	GO:0043168
Q8RYC5	GO:0005488
Q8RYC5	GO:0005515
Q8RYC5	GO:0003674
Q97C07	GO:0005488
Q97C07	GO:0003674
Q97C07	GO:0005515
Q97C07	GO:0042802
Q99L95	GO:0005488
Q99L95	GO:0003674
Q99L95	GO:0051018
Q99L95	GO:0005515
Q9BP37	GO:0046914
Q9BP37	GO:0046872
Q9BP37	GO:0008270
Q9BP37	GO:0005488
Q9BP37	GO:0005509
Q9BP37	GO:0005515
Q9BP37	GO:0003674
Q9BP37	GO:0043167
Q9BP37	GO:0043169
Q9BP38	GO:0005488
Q9BP38	GO:0003674
Q9BP38	GO:0005515
Q9BVU3	GO:0005488
Q9BVU3	GO:0003674
Q9BVU3	GO:0005515
Q9BVU3	GO:0042802
Q9FG09	GO:0005488
Q9FG09	GO:0003674
Q9FG09	GO:0005515
Q9FJI2	GO:0016836
Q9FJI2	GO:0003674
Q9FJI2	GO:0003824
Q9FJI2	GO:0016835
Q9FJI2	GO:0019171
Q9FJI2	GO:0016829
Q9FZR9	GO:0016298
Q9FZR9	GO:0016787
Q9FZR9	GO:0016788
Q9FZR9	GO:0003674
Q9FZR9	GO:0003824
Q9HZ57	GO:0016779
Q9HZ57	GO:0016772
Q9HZ57	GO:0003674
Q9HZ57	GO:0016740
Q9HZ57	GO:0003824
Q9HZ57	GO:0052621
Q9I4B3	GO:0016651
Q9I4B3	GO:0003960
Q9I4B3	GO:0016491
Q9I4B3	GO:0003674
Q9I4B3	GO:0003824
Q9I4B3	GO:0016655
Q9MC13	GO:0005488
Q9MC13	GO:0003674
Q9MC13	GO:0005515
Q9MC13	GO:0042802
Q9RN43	GO:0005488
Q9RN43	GO:0003674
Q9RN43	GO:0005515
Q9RN43	GO:0042802
Q9S574	GO:0005488
Q9S574	GO:0003674
Q9S574	GO:0005515
Q9S574	GO:0042802
Q9SKA8	GO:0032403
Q9SKA8	GO:0005488
Q9SKA8	GO:0003674
Q9SKA8	GO:0008092
Q9SKA8	GO:0008017
Q9SKA8	GO:0015631
Q9SKA8	GO:0044877
Q9SKA8	GO:0005515
Q9ZU99	GO:0001071
Q9ZU99	GO:0005488
Q9ZU99	GO:0003700
Q9ZU99	GO:0001228
Q9ZU99	GO:0003674
Q9ZU99	GO:0000981
Q9ZU99	GO:0005515
