0.28585946008	0.894470178254	CrowdGO	0.0	0	0	0	0
0.28585946008	0.894470178254	CrowdGO	0.0	0	0	0	0
0.28585946008	0.894470178254	CrowdGO	0.0	0	0	0	0
0.28585946008	0.894470178254	CrowdGO	0.0	0	0	0	0
0.28585946008	0.894470178254	CrowdGO	0.0	0	0	0	0
0.28585946008	0.894470178254	CrowdGO	0.0	0	0	0	0
0.28585946008	0.894470178254	CrowdGO	0.0	0	0	0	0
0.28585946008	0.894470178254	CrowdGO	0.0	0	0	0	0
0.28585946008	0.894470178254	CrowdGO	0.0	0	0	0	0
0.28590766834	0.894470178254	CrowdGO	0.009	0	0	0	0
0.28590766834	0.894470178254	CrowdGO	0.009	0	0	0	0
0.285920537494	0.894470178254	CrowdGO	0.011	0	0	0	0
0.285939477445	0.894470178254	CrowdGO	0.012	0	0	0	0
0.285931706028	0.894327910506	CrowdGO	0.012	0	0	0	0
0.285940820607	0.894327910506	CrowdGO	0.012	0	0	0	0
0.285961487566	0.894327910506	CrowdGO	0.015	0	0	0	0
0.286176439117	0.894327910506	CrowdGO	0.016	0	0	0	0
0.28612263261	0.893616571766	CrowdGO	0.016	0	0	0	0
0.286210811301	0.893616571766	CrowdGO	0.016	0	0	0	0
0.286341962815	0.893616571766	CrowdGO	0.019	0	0	0	0
0.286341962815	0.893616571766	CrowdGO	0.019	0	0	0	0
0.286445224307	0.893616571766	CrowdGO	0.021	0	0	0	0
0.286459470364	0.893616571766	CrowdGO	0.022	0	0	0	0
0.286517085113	0.893616571766	CrowdGO	0.023	0	0	0	0
0.28652839133	0.893616571766	CrowdGO	0.024	0	0	0	0
0.286559997201	0.893616571766	CrowdGO	0.025	0	0	0	0
0.28654328524	0.893355747562	CrowdGO	0.025	0	0	0	0
0.286562564224	0.893355747562	CrowdGO	0.025	0	0	0	0
0.286615276553	0.893355747562	CrowdGO	0.028	0	0	0	0
0.286625211838	0.893355747562	CrowdGO	0.029	0	0	0	0
0.286634368888	0.893355747562	CrowdGO	0.03	0	0	0	0
0.286654692968	0.893355747562	CrowdGO	0.031	0	0	0	0
0.286709072083	0.893355747562	CrowdGO	0.032	0	0	0	0
0.286753811889	0.893355747562	CrowdGO	0.033	0	0	0	0
0.28682222344	0.893355747562	CrowdGO	0.034	0	0	0	0
0.286860866289	0.893355747562	CrowdGO	0.035	0	0	0	0
0.286912061454	0.893355747562	CrowdGO	0.036	0	0	0	0
0.286956716902	0.893355747562	CrowdGO	0.037	0	0	0	0
0.286959468131	0.893355747562	CrowdGO	0.038	0	0	0	0
0.287001555445	0.893355747562	CrowdGO	0.039	0	0	0	0
0.287061542879	0.893355747562	CrowdGO	0.04	0	0	0	0
0.287091458971	0.893355747562	CrowdGO	0.041	0	0	0	0
0.287131405125	0.893355747562	CrowdGO	0.042	0	0	0	0
0.287156527372	0.893355747562	CrowdGO	0.043	0	0	0	0
0.287180509825	0.893355747562	CrowdGO	0.044	0	0	0	0
0.28721774081	0.893355747562	CrowdGO	0.045	0	0	0	0
0.287268134989	0.893213479814	CrowdGO	0.046	0	0	0	0
0.287256448994	0.893145438717	CrowdGO	0.046	0	0	0	0
0.2872639389	0.89307739762	CrowdGO	0.046	0	0	0	0
0.287280029595	0.89307739762	CrowdGO	0.046	0	0	0	0
0.287355809806	0.89307739762	CrowdGO	0.05	0	0	0	0
0.287363442044	0.893002876419	CrowdGO	0.05	0	0	0	0
0.287555945529	0.893002876419	CrowdGO	0.052	0	0	0	0
0.287877979095	0.893002876419	CrowdGO	0.053	0	0	0	0
0.288078840957	0.893002876419	CrowdGO	0.054	0	0	0	0
0.288114181547	0.893002876419	CrowdGO	0.055	0	0	0	0
0.288154122069	0.893002876419	CrowdGO	0.056	0	0	0	0
0.288261690268	0.893002876419	CrowdGO	0.057	0	0	0	0
0.288283568785	0.893002876419	CrowdGO	0.058	0	0	0	0
0.288304683579	0.892934835322	CrowdGO	0.059	0	0	0	0
0.288347590593	0.892934835322	CrowdGO	0.06	0	0	0	0
0.288394538635	0.892845409881	CrowdGO	0.061	0	0	0	0
0.288429069882	0.892845409881	CrowdGO	0.062	0	0	0	0
0.288645702221	0.89255380518	CrowdGO	0.063	0	0	0	0
0.288700939761	0.89255380518	CrowdGO	0.064	0	0	0	0
0.288709814265	0.892358187027	CrowdGO	0.064	0	0	0	0
0.288860318162	0.892358187027	CrowdGO	0.066	0	0	0	0
0.288872915123	0.892010421421	CrowdGO	0.066	0	0	0	0
0.28900163213	0.891952460486	CrowdGO	0.068	0	0	0	0
0.289114547764	0.891952460486	CrowdGO	0.069	0	0	0	0
0.289166758035	0.891865519085	CrowdGO	0.07	0	0	0	0
0.289311372837	0.891865519085	CrowdGO	0.071	0	0	0	0
0.289455823957	0.891865519085	CrowdGO	0.072	0	0	0	0
0.290093166083	0.891809628184	CrowdGO	0.073	0	0	0	0
0.290662863856	0.891286155829	CrowdGO	0.074	0	0	0	0
0.290840224367	0.891286155829	CrowdGO	0.075	0	0	0	0
0.291258302871	0.890967370691	CrowdGO	0.076	0	0	0	0
0.291511460595	0.890967370691	CrowdGO	0.077	0	0	0	0
0.291923619089	0.890967370691	CrowdGO	0.078	0	0	0	0
0.29398664091	0.890824818122	CrowdGO	0.079	0	0	0	0
0.29532111092	0.89053487069	CrowdGO	0.08	0	0	0	0
0.295554987391	0.890253496699	CrowdGO	0.081	0	0	0	0
0.295877463264	0.890166555298	CrowdGO	0.082	0	0	0	0
0.295964627546	0.890059689825	CrowdGO	0.083	0	0	0	0
0.297407646343	0.889720618359	CrowdGO	0.084	0	0	0	0
0.298061031819	0.889720618359	CrowdGO	0.085	0	0	0	0
0.298293446335	0.888677321542	CrowdGO	0.086	0	0	0	0
0.2987354738	0.888400283941	CrowdGO	0.087	0	0	0	0
0.299246248782	0.888269871838	CrowdGO	0.088	0	0	0	0
0.300663427069	0.888269871838	CrowdGO	0.089	0	0	0	0
0.301243223711	0.888009047634	CrowdGO	0.09	0	0	0	0
0.301558208866	0.888009047634	CrowdGO	0.091	0	0	0	0
0.302294081334	0.888009047634	CrowdGO	0.092	0	0	0	0
0.302387132605	0.886887503555	CrowdGO	0.092	0	0	0	0
0.30305331697	0.8837117539	CrowdGO	0.094	0	0	0	0
0.303414382083	0.883498810467	CrowdGO	0.095	0	0	0	0
0.304418096571	0.882559843331	CrowdGO	0.096	0	0	0	0
0.305256810531	0.882361390132	CrowdGO	0.097	0	0	0	0
0.30591241098	0.882219122384	CrowdGO	0.098	0	0	0	0
0.306018764208	0.881827886077	CrowdGO	0.099	0	0	0	0
0.306228500409	0.881827886077	CrowdGO	0.1	0	0	0	0
0.306299968568	0.881691803884	CrowdGO	0.101	0	0	0	0
0.306650473201	0.881564735682	CrowdGO	0.102	0	0	0	0
0.307436730043	0.881104510808	CrowdGO	0.103	0	0	0	0
0.30785474632	0.881104510808	CrowdGO	0.104	0	0	0	0
0.308037815485	0.880769165402	CrowdGO	0.105	0	0	0	0
0.308191514033	0.879791074636	CrowdGO	0.106	0	0	0	0
0.30920490652	0.879008602022	CrowdGO	0.107	0	0	0	0
0.310222394737	0.877338085093	CrowdGO	0.108	0	0	0	0
0.310588552542	0.877226303292	CrowdGO	0.109	0	0	0	0
0.311848805015	0.876984109387	CrowdGO	0.11	0	0	0	0
0.31196184696	0.876203657046	CrowdGO	0.111	0	0	0	0
0.312374102629	0.875481374634	CrowdGO	0.112	0	0	0	0
0.313376446218	0.873728979923	CrowdGO	0.113	0	0	0	0
0.31439616405	0.872261148298	CrowdGO	0.114	0	0	0	0
0.315438189206	0.872115493223	CrowdGO	0.115	0	0	0	0
0.317604065209	0.871215442714	CrowdGO	0.116	0	0	0	0
0.318326891021	0.870918017	CrowdGO	0.117	0	0	0	0
0.318874852316	0.870316114989	CrowdGO	0.118	0	0	0	0
0.319095485133	0.870241593788	CrowdGO	0.119	0	0	0	0
0.319313722539	0.870173552691	CrowdGO	0.12	0	0	0	0
0.31986415553	0.868794501908	CrowdGO	0.121	0	0	0	0
0.320372745978	0.868411298231	CrowdGO	0.122	0	0	0	0
0.32089368603	0.866672470201	CrowdGO	0.123	0	0	0	0
0.321296488753	0.866448906597	CrowdGO	0.124	0	0	0	0
0.322620726325	0.864396128714	CrowdGO	0.125	0	0	0	0
0.323868698563	0.864313763176	CrowdGO	0.126	0	0	0	0
0.324415127731	0.863750554866	CrowdGO	0.127	0	0	0	0
0.325711048459	0.8631703323	CrowdGO	0.128	0	0	0	0
0.326443343683	0.862164296083	CrowdGO	0.129	0	0	0	0
0.327237922248	0.860475075793	CrowdGO	0.13	0	0	0	0
0.328709842543	0.858277842163	CrowdGO	0.131	0	0	0	0
0.329049291678	0.857465626438	CrowdGO	0.132	0	0	0	0
0.329265424963	0.856242905497	CrowdGO	0.133	0	0	0	0
0.329530599858	0.856138575815	CrowdGO	0.134	0	0	0	0
0.329824375533	0.855590271746	CrowdGO	0.135	0	0	0	0
0.33040614337	0.85406631318	CrowdGO	0.136	0	0	0	0
0.331220633852	0.853673006839	CrowdGO	0.137	0	0	0	0
0.331996363775	0.852167916407	CrowdGO	0.138	0	0	0	0
0.332475118455	0.851625354934	CrowdGO	0.139	0	0	0	0
0.332718737489	0.850428815248	CrowdGO	0.14	0	0	0	0
0.333123809854	0.850354294046	CrowdGO	0.141	0	0	0	0
0.333979688901	0.850354294046	CrowdGO	0.142	0	0	0	0
0.334300797106	0.849571821433	CrowdGO	0.143	0	0	0	0
0.335508902458	0.849363991752	CrowdGO	0.144	0	0	0	0
0.335924696925	0.847615114651	CrowdGO	0.145	0	0	0	0
0.336562089969	0.847014743963	CrowdGO	0.146	0	0	0	0
0.33774961538	0.846293629838	CrowdGO	0.147	0	0	0	0
0.338308746116	0.845733860969	CrowdGO	0.148	0	0	0	0
0.338578090493	0.845733860969	CrowdGO	0.149	0	0	0	0
0.338929818508	0.845591593221	CrowdGO	0.15	0	0	0	0
0.339454869887	0.844324732799	CrowdGO	0.151	0	0	0	0
0.33990237903	0.84410794385	CrowdGO	0.152	0	0	0	0
0.340166557006	0.843640552105	CrowdGO	0.153	0	0	0	0
0.340440569532	0.843396495171	CrowdGO	0.154	0	0	0	0
0.34053362431	0.842867405349	CrowdGO	0.155	0	0	0	0
0.341706347742	0.842809444414	CrowdGO	0.156	0	0	0	0
0.34191957236	0.84273831054	CrowdGO	0.157	0	0	0	0
0.342100521942	0.842056722761	CrowdGO	0.158	0	0	0	0
0.34238250652	0.841581443099	CrowdGO	0.159	0	0	0	0
0.343213419861	0.840896428557	CrowdGO	0.16	0	0	0	0
0.344159778462	0.840324533376	CrowdGO	0.161	0	0	0	0
0.344341053677	0.840242167838	CrowdGO	0.162	0	0	0	0
0.345170583378	0.840242167838	CrowdGO	0.163	0	0	0	0
0.345178695733	0.839929178793	CrowdGO	0.163	0	0	0	0
0.345360878987	0.839929178793	CrowdGO	0.165	0	0	0	0
0.345798161124	0.839786911045	CrowdGO	0.166	0	0	0	0
0.346497613865	0.839786911045	CrowdGO	0.167	0	0	0	0
0.346651475574	0.839428032628	CrowdGO	0.168	0	0	0	0
0.347038254553	0.839200703742	CrowdGO	0.169	0	0	0	0
0.347476459946	0.838569136562	CrowdGO	0.17	0	0	0	0
0.34768531039	0.838486771023	CrowdGO	0.171	0	0	0	0
0.348563642554	0.838358320605	CrowdGO	0.172	0	0	0	0
0.348774047291	0.838217475535	CrowdGO	0.173	0	0	0	0
0.349130961318	0.838217475535	CrowdGO	0.174	0	0	0	0
0.350055045716	0.837924942183	CrowdGO	0.175	0	0	0	0
0.351292036461	0.837323040172	CrowdGO	0.176	0	0	0	0
0.353023287525	0.837257834121	CrowdGO	0.177	0	0	0	0
0.354132483455	0.837004937704	CrowdGO	0.178	0	0	0	0
0.354389410092	0.836235206653	CrowdGO	0.179	0	0	0	0
0.355455668136	0.833943018202	CrowdGO	0.18	0	0	0	0
0.356175032899	0.833066375858	CrowdGO	0.181	0	0	0	0
0.356400906959	0.833066375858	CrowdGO	0.182	0	0	0	0
0.357223346309	0.832776024385	CrowdGO	0.183	0	0	0	0
0.358131853114	0.832207915739	CrowdGO	0.184	0	0	0	0
0.35855449083	0.831915563334	CrowdGO	0.185	0	0	0	0
0.358832043229	0.831586101181	CrowdGO	0.186	0	0	0	0
0.359339083622	0.831280007488	CrowdGO	0.187	0	0	0	0
0.359693186679	0.831219817287	CrowdGO	0.188	0	0	0	0
0.361453695533	0.829985918166	CrowdGO	0.189	0	0	0	0
0.36167492075	0.829570112593	CrowdGO	0.19	0	0	0	0
0.362009544113	0.828976697027	CrowdGO	0.191	0	0	0	0
0.362819604492	0.828504284664	CrowdGO	0.192	0	0	0	0
0.363238292172	0.828392502862	CrowdGO	0.193	0	0	0	0
0.365416112929	0.828123459408	CrowdGO	0.194	0	0	0	0
0.365676531652	0.827692405808	CrowdGO	0.195	0	0	0	0
0.366400767221	0.826448938753	CrowdGO	0.196	0	0	0	0
0.367078872408	0.825494300247	CrowdGO	0.197	0	0	0	0
0.369449085395	0.822892832856	CrowdGO	0.198	0	0	0	0
0.370396072746	0.82050914097	CrowdGO	0.199	0	0	0	0
0.372055343062	0.818371428898	CrowdGO	0.2	0	0	0	0
0.372180435513	0.81793971987	CrowdGO	0.201	0	0	0	0
0.372383159569	0.817370648878	CrowdGO	0.202	0	0	0	0
0.372958765483	0.816849000469	CrowdGO	0.203	0	0	0	0
0.37340655911	0.816699958067	CrowdGO	0.204	0	0	0	0
0.376480808769	0.816380064851	CrowdGO	0.205	0	0	0	0
0.377876071331	0.816380064851	CrowdGO	0.206	0	0	0	0
0.378021211447	0.815336768033	CrowdGO	0.206	0	0	0	0
0.378324570589	0.814683923088	CrowdGO	0.208	0	0	0	0
0.378574463412	0.814084070998	CrowdGO	0.209	0	0	0	0
0.378632969594	0.813301598384	CrowdGO	0.209	0	0	0	0
0.378758194178	0.813214110181	CrowdGO	0.209	0	0	0	0
0.379306757526	0.811469481676	CrowdGO	0.212	0	0	0	0
0.379609206202	0.811242192012	CrowdGO	0.213	0	0	0	0
0.379769371924	0.810850955706	CrowdGO	0.214	0	0	0	0
0.37996032226	0.810776434504	CrowdGO	0.215	0	0	0	0
0.38141720128	0.810353445686	CrowdGO	0.216	0	0	0	0
0.382711582647	0.809853369203	CrowdGO	0.217	0	0	0	0
0.382561766039	0.808848706039	CrowdGO	0.217	0	0	0	0
0.382972123578	0.808783499988	CrowdGO	0.219	0	0	0	0
0.383470947702	0.808407913133	CrowdGO	0.22	0	0	0	0
0.383607529943	0.808094924088	CrowdGO	0.221	0	0	0	0
0.38474883782	0.806239346176	CrowdGO	0.222	0	0	0	0
0.385939360431	0.805258245899	CrowdGO	0.223	0	0	0	0
0.386790142551	0.804072681333	CrowdGO	0.224	0	0	0	0
0.387081320209	0.803942269231	CrowdGO	0.225	0	0	0	0
0.388399150652	0.803737335928	CrowdGO	0.226	0	0	0	0
0.388539517676	0.803659088666	CrowdGO	0.227	0	0	0	0
0.38921039202	0.802350310069	CrowdGO	0.228	0	0	0	0
0.391772663224	0.799444926617	CrowdGO	0.229	0	0	0	0
0.392169490652	0.799156156962	CrowdGO	0.23	0	0	0	0
0.393343746565	0.79848546615	CrowdGO	0.231	0	0	0	0
0.393775652859	0.797888457072	CrowdGO	0.232	0	0	0	0
0.393947368252	0.797685711131	CrowdGO	0.233	0	0	0	0
0.394681846597	0.797547273669	CrowdGO	0.234	0	0	0	0
0.39509245641	0.797288132201	CrowdGO	0.235	0	0	0	0
0.395515621629	0.797213611	CrowdGO	0.236	0	0	0	0
0.395764653747	0.796116651786	CrowdGO	0.236	0	0	0	0
0.396234334361	0.795951558663	CrowdGO	0.238	0	0	0	0
0.396508763606	0.795429910254	CrowdGO	0.239	0	0	0	0
0.396587674895	0.794860839263	CrowdGO	0.239	0	0	0	0
0.39676699969	0.794608686963	CrowdGO	0.241	0	0	0	0
0.39780437026	0.794422383959	CrowdGO	0.242	0	0	0	0
0.398346619161	0.794248501156	CrowdGO	0.243	0	0	0	0
0.398815826608	0.794248501156	CrowdGO	0.244	0	0	0	0
0.402665374388	0.793226605299	CrowdGO	0.245	0	0	0	0
0.403674220649	0.792884769337	CrowdGO	0.246	0	0	0	0
0.404028947456	0.79278696026	CrowdGO	0.247	0	0	0	0
0.404986133279	0.792617954955	CrowdGO	0.248	0	0	0	0
0.405890924865	0.791816019718	CrowdGO	0.249	0	0	0	0
0.406235095567	0.791045821185	CrowdGO	0.25	0	0	0	0
0.406933913876	0.790218635851	CrowdGO	0.251	0	0	0	0
0.408648002182	0.788191038166	CrowdGO	0.252	0	0	0	0
0.408782417971	0.78778157198	CrowdGO	0.253	0	0	0	0
0.408762327342	0.786745935733	CrowdGO	0.253	0	0	0	0
0.409093168023	0.786393608092	CrowdGO	0.253	0	0	0	0
0.40974091051	0.786043358446	CrowdGO	0.256	0	0	0	0
0.410032712639	0.785669968006	CrowdGO	0.257	0	0	0	0
0.411101950847	0.78517339127	CrowdGO	0.258	0	0	0	0
0.411658789451	0.784913884359	CrowdGO	0.259	0	0	0	0
0.41244185165	0.78439223595	CrowdGO	0.26	0	0	0	0
0.412540614039	0.783871866091	CrowdGO	0.26	0	0	0	0
0.412663516537	0.783042719673	CrowdGO	0.26	0	0	0	0
0.41298864128	0.783042719673	CrowdGO	0.263	0	0	0	0
0.413269999464	0.782838596382	CrowdGO	0.264	0	0	0	0
0.414153356953	0.781725314436	CrowdGO	0.265	0	0	0	0
0.414561415133	0.781303983029	CrowdGO	0.266	0	0	0	0
0.414746084796	0.781002172164	CrowdGO	0.267	0	0	0	0
0.414769872453	0.780284604911	CrowdGO	0.267	0	0	0	0
0.415216073888	0.779377365741	CrowdGO	0.269	0	0	0	0
0.415492160305	0.779377365741	CrowdGO	0.27	0	0	0	0
0.415784195367	0.778944312197	CrowdGO	0.271	0	0	0	0
0.417289120349	0.778760200994	CrowdGO	0.272	0	0	0	0
0.417502199652	0.778350334387	CrowdGO	0.273	0	0	0	0
0.417759569256	0.778263392985	CrowdGO	0.274	0	0	0	0
0.417786818391	0.777145574966	CrowdGO	0.274	0	0	0	0
0.418880389828	0.776661187158	CrowdGO	0.276	0	0	0	0
0.419278993781	0.776661187158	CrowdGO	0.277	0	0	0	0
0.419313881445	0.775889860878	CrowdGO	0.277	0	0	0	0
0.419340139836	0.774985532845	CrowdGO	0.277	0	0	0	0
0.419710117689	0.774855120743	CrowdGO	0.277	0	0	0	0
0.420788794353	0.774776873482	CrowdGO	0.281	0	0	0	0
0.421338642287	0.774698626221	CrowdGO	0.282	0	0	0	0
0.421344291885	0.774603781055	CrowdGO	0.282	0	0	0	0
0.424285334311	0.772320566096	CrowdGO	0.284	0	0	0	0
0.427351747636	0.768415121298	CrowdGO	0.285	0	0	0	0
0.428277856353	0.768325695857	CrowdGO	0.286	0	0	0	0
0.431899231974	0.76626112506	CrowdGO	0.287	0	0	0	0
0.434340030855	0.764737443786	CrowdGO	0.288	0	0	0	0
0.436648889507	0.764408480819	CrowdGO	0.289	0	0	0	0
0.437212965371	0.763667876792	CrowdGO	0.29	0	0	0	0
0.437352416611	0.763667876792	CrowdGO	0.291	0	0	0	0
0.438626938649	0.763243014823	CrowdGO	0.292	0	0	0	0
0.439213072378	0.76291618351	CrowdGO	0.293	0	0	0	0
0.439303063558	0.762781109772	CrowdGO	0.294	0	0	0	0
0.43986224339	0.761348047461	CrowdGO	0.295	0	0	0	0
0.441116770743	0.760987496355	CrowdGO	0.296	0	0	0	0
0.441393361882	0.760418198446	CrowdGO	0.297	0	0	0	0
0.442006966487	0.759658082193	CrowdGO	0.298	0	0	0	0
0.44260896836	0.759658082193	CrowdGO	0.299	0	0	0	0
0.443335343277	0.759515814445	CrowdGO	0.3	0	0	0	0
0.444518247951	0.758591074084	CrowdGO	0.301	0	0	0	0
0.444885344986	0.758550947283	CrowdGO	0.302	0	0	0	0
0.445528199547	0.758068253138	CrowdGO	0.303	0	0	0	0
0.445825197514	0.757894370335	CrowdGO	0.304	0	0	0	0
0.446203178455	0.757259642721	CrowdGO	0.305	0	0	0	0
0.446877434418	0.757259642721	CrowdGO	0.306	0	0	0	0
0.44798550388	0.756844932236	CrowdGO	0.307	0	0	0	0
0.447844901207	0.755889705928	CrowdGO	0.307	0	0	0	0
0.447919995302	0.755815184727	CrowdGO	0.307	0	0	0	0
0.447917867795	0.755666142324	CrowdGO	0.307	0	0	0	0
0.447943046862	0.755527036082	CrowdGO	0.307	0	0	0	0
0.448240775322	0.755527036082	CrowdGO	0.307	0	0	0	0
0.448994236254	0.75540665568	CrowdGO	0.313	0	0	0	0
0.449230536732	0.75540665568	CrowdGO	0.314	0	0	0	0
0.449518276965	0.755122120184	CrowdGO	0.315	0	0	0	0
0.450592143453	0.755122120184	CrowdGO	0.316	0	0	0	0
0.451781298619	0.754583394	CrowdGO	0.317	0	0	0	0
0.452047532677	0.753785936145	CrowdGO	0.317	0	0	0	0
0.452051242952	0.752419354948	CrowdGO	0.317	0	0	0	0
0.452521122624	0.751091522634	CrowdGO	0.317	0	0	0	0
0.454597527972	0.748065961862	CrowdGO	0.321	0	0	0	0
0.455299914489	0.746841547675	CrowdGO	0.322	0	0	0	0
0.455638805846	0.746337218818	CrowdGO	0.323	0	0	0	0
0.456222257589	0.74610537508	CrowdGO	0.324	0	0	0	0
0.457383215076	0.745575395677	CrowdGO	0.325	0	0	0	0
0.457690774824	0.745575395677	CrowdGO	0.326	0	0	0	0
0.457861345327	0.744454170522	CrowdGO	0.326	0	0	0	0
0.458564703844	0.744201416553	CrowdGO	0.328	0	0	0	0
0.463210909572	0.743650494172	CrowdGO	0.329	0	0	0	0
0.463541304744	0.743465984405	CrowdGO	0.33	0	0	0	0
0.464686714571	0.742937089715	CrowdGO	0.331	0	0	0	0
0.465804104468	0.742757878246	CrowdGO	0.332	0	0	0	0
0.466626644268	0.742757878246	CrowdGO	0.333	0	0	0	0
0.467253667881	0.742354681169	CrowdGO	0.334	0	0	0	0
0.467458163082	0.74183303276	CrowdGO	0.334	0	0	0	0
0.468312906565	0.740930179745	CrowdGO	0.336	0	0	0	0
0.468413332691	0.740930179745	CrowdGO	0.337	0	0	0	0
0.468883937806	0.740318626023	CrowdGO	0.338	0	0	0	0
0.469167047498	0.739951167519	CrowdGO	0.339	0	0	0	0
0.469592799398	0.739951167519	CrowdGO	0.34	0	0	0	0
0.47119557306	0.739872920258	CrowdGO	0.341	0	0	0	0
0.473368090288	0.73799917313	CrowdGO	0.342	0	0	0	0
0.473889031514	0.736785705455	CrowdGO	0.343	0	0	0	0
0.474153752939	0.736239837656	CrowdGO	0.344	0	0	0	0
0.475060031877	0.736239837656	CrowdGO	0.345	0	0	0	0
0.475484926249	0.736083343133	CrowdGO	0.346	0	0	0	0
0.47563166415	0.736083343133	CrowdGO	0.347	0	0	0	0
0.475972290159	0.735988882475	CrowdGO	0.348	0	0	0	0
0.476540123341	0.735665957269	CrowdGO	0.349	0	0	0	0
0.477438679745	0.735442393666	CrowdGO	0.35	0	0	0	0
0.477625116781	0.73470960751	CrowdGO	0.35	0	0	0	0
0.477812264468	0.734357494833	CrowdGO	0.35	0	0	0	0
0.477784621864	0.732954675827	CrowdGO	0.35	0	0	0	0
0.478683288468	0.732954675827	CrowdGO	0.354	0	0	0	0
0.478904457107	0.732954675827	CrowdGO	0.355	0	0	0	0
0.479193475764	0.732372837217	CrowdGO	0.356	0	0	0	0
0.479505731852	0.732216342695	CrowdGO	0.357	0	0	0	0
0.479757052247	0.731486209386	CrowdGO	0.357	0	0	0	0
0.480379784991	0.731407962125	CrowdGO	0.359	0	0	0	0
0.480274589264	0.730797731911	CrowdGO	0.359	0	0	0	0
0.480942390649	0.730589072547	CrowdGO	0.361	0	0	0	0
0.481762714612	0.728976704738	CrowdGO	0.362	0	0	0	0
0.483302053305	0.728820210215	CrowdGO	0.363	0	0	0	0
0.483962139753	0.728757612406	CrowdGO	0.364	0	0	0	0
0.486121726608	0.728311313212	CrowdGO	0.365	0	0	0	0
0.486449119675	0.72778875283	CrowdGO	0.366	0	0	0	0
0.487317471335	0.727520476505	CrowdGO	0.367	0	0	0	0
0.48801179814	0.726459791407	CrowdGO	0.368	0	0	0	0
0.488293593202	0.724581857135	CrowdGO	0.368	0	0	0	0
0.488935894133	0.72432972707	CrowdGO	0.368	0	0	0	0
0.489551501581	0.724245135436	CrowdGO	0.371	0	0	0	0
0.489926548401	0.7228996315	CrowdGO	0.371	0	0	0	0
0.490238148583	0.7228996315	CrowdGO	0.373	0	0	0	0
0.49186929498	0.722526452254	CrowdGO	0.374	0	0	0	0
0.492369899862	0.722365839454	CrowdGO	0.375	0	0	0	0
0.492586419948	0.722365839454	CrowdGO	0.376	0	0	0	0
0.493370273547	0.722167552047	CrowdGO	0.377	0	0	0	0
0.493566388057	0.72191996234	CrowdGO	0.378	0	0	0	0
0.494827180831	0.720094192909	CrowdGO	0.379	0	0	0	0
0.49510187189	0.719843400404	CrowdGO	0.38	0	0	0	0
0.49543746451	0.719311857795	CrowdGO	0.381	0	0	0	0
0.4957778669	0.718714255085	CrowdGO	0.382	0	0	0	0
0.496262859663	0.718448359299	CrowdGO	0.383	0	0	0	0
0.49968595082	0.717511111883	CrowdGO	0.384	0	0	0	0
0.499656348009	0.717034371969	CrowdGO	0.384	0	0	0	0
0.500519072988	0.716265709368	CrowdGO	0.386	0	0	0	0
0.501715772119	0.714298119094	CrowdGO	0.387	0	0	0	0
0.50699788065	0.711292447241	CrowdGO	0.388	0	0	0	0
0.507141759437	0.711052035365	CrowdGO	0.389	0	0	0	0
0.508045772836	0.710225354935	CrowdGO	0.39	0	0	0	0
0.509094260779	0.710150833733	CrowdGO	0.391	0	0	0	0
0.509266817898	0.709676477625	CrowdGO	0.391	0	0	0	0
0.510724554589	0.708864814647	CrowdGO	0.393	0	0	0	0
0.511162790391	0.708804624446	CrowdGO	0.394	0	0	0	0
0.510938939749	0.707949183157	CrowdGO	0.394	0	0	0	0
0.511379814514	0.707718167433	CrowdGO	0.394	0	0	0	0
0.512513705439	0.706559194834	CrowdGO	0.397	0	0	0	0
0.51318027201	0.705854969482	CrowdGO	0.398	0	0	0	0
0.513768723853	0.704953973668	CrowdGO	0.399	0	0	0	0
0.514007584475	0.704953973668	CrowdGO	0.4	0	0	0	0
0.514263905617	0.704871608129	CrowdGO	0.401	0	0	0	0
0.514883510925	0.704670062153	CrowdGO	0.402	0	0	0	0
0.515811698914	0.704469833471	CrowdGO	0.403	0	0	0	0
0.516908993193	0.703714963338	CrowdGO	0.404	0	0	0	0
0.517394173263	0.703662798498	CrowdGO	0.405	0	0	0	0
0.517989406703	0.703662798498	CrowdGO	0.406	0	0	0	0
0.518078308939	0.702967267286	CrowdGO	0.406	0	0	0	0
0.518785221735	0.702327955957	CrowdGO	0.408	0	0	0	0
0.519335040272	0.701454183376	CrowdGO	0.409	0	0	0	0
0.520122690573	0.701454183376	CrowdGO	0.41	0	0	0	0
0.520377592817	0.701454183376	CrowdGO	0.411	0	0	0	0
0.520427830786	0.70054129866	CrowdGO	0.411	0	0	0	0
0.521242557218	0.700398736362	CrowdGO	0.413	0	0	0	0
0.522364851177	0.700324215161	CrowdGO	0.414	0	0	0	0
0.522735211803	0.699840910139	CrowdGO	0.415	0	0	0	0
0.523533581217	0.699780719938	CrowdGO	0.416	0	0	0	0
0.523892449418	0.699102577007	CrowdGO	0.416	0	0	0	0
0.524269423953	0.698682643958	CrowdGO	0.418	0	0	0	0
0.526291285457	0.697477911247	CrowdGO	0.419	0	0	0	0
0.526427681568	0.696937632538	CrowdGO	0.419	0	0	0	0
0.527840758277	0.69602743473	CrowdGO	0.421	0	0	0	0
0.528550414801	0.694528899268	CrowdGO	0.421	0	0	0	0
0.529071797913	0.694468709067	CrowdGO	0.423	0	0	0	0
0.530197291071	0.694231531012	CrowdGO	0.424	0	0	0	0
0.532432577902	0.692872235639	CrowdGO	0.425	0	0	0	0
0.534226435055	0.690785642003	CrowdGO	0.426	0	0	0	0
0.536533723572	0.689014755934	CrowdGO	0.427	0	0	0	0
0.538895588153	0.688485289717	CrowdGO	0.428	0	0	0	0
0.540697364707	0.687994012213	CrowdGO	0.429	0	0	0	0
0.541501672227	0.687886084956	CrowdGO	0.43	0	0	0	0
0.541989245218	0.687197586975	CrowdGO	0.431	0	0	0	0
0.543976066236	0.68625379109	CrowdGO	0.432	0	0	0	0
0.544459920576	0.68625379109	CrowdGO	0.433	0	0	0	0
0.544549350973	0.68601186719	CrowdGO	0.433	0	0	0	0
0.546215027346	0.685929501652	CrowdGO	0.435	0	0	0	0
0.548153234822	0.685380591804	CrowdGO	0.436	0	0	0	0
0.549753379926	0.684896837052	CrowdGO	0.437	0	0	0	0
0.551746135334	0.680288276065	CrowdGO	0.437	0	0	0	0
0.552078437806	0.680167895663	CrowdGO	0.437	0	0	0	0
0.552144688043	0.680167895663	CrowdGO	0.437	0	0	0	0
0.552344297881	0.679693061855	CrowdGO	0.437	0	0	0	0
0.552843279856	0.679611642407	CrowdGO	0.437	0	0	0	0
0.5531030726	0.679513833331	CrowdGO	0.437	0	0	0	0
0.553038055776	0.678650785734	CrowdGO	0.437	0	0	0	0
0.55398287485	0.678459271458	CrowdGO	0.445	0	0	0	0
0.554119373618	0.678459271458	CrowdGO	0.446	0	0	0	0
0.556011015595	0.675288245819	CrowdGO	0.446	0	0	0	0
0.556837827623	0.675288245819	CrowdGO	0.448	0	0	0	0
0.557300191143	0.674505773206	CrowdGO	0.448	0	0	0	0
0.557388359818	0.674445583005	CrowdGO	0.448	0	0	0	0
0.55790765959	0.674416055736	CrowdGO	0.451	0	0	0	0
0.558428800355	0.674324855381	CrowdGO	0.452	0	0	0	0
0.558633349317	0.674266894447	CrowdGO	0.453	0	0	0	0
0.55949575603	0.673698932053	CrowdGO	0.454	0	0	0	0
0.559654881802	0.673698932053	CrowdGO	0.455	0	0	0	0
0.55997457274	0.673578551651	CrowdGO	0.456	0	0	0	0
0.561517374747	0.672600743162	CrowdGO	0.457	0	0	0	0
0.561941995271	0.672186886763	CrowdGO	0.458	0	0	0	0
0.562001542604	0.671616333815	CrowdGO	0.458	0	0	0	0
0.562461818486	0.670953642862	CrowdGO	0.458	0	0	0	0
0.562823761721	0.670885601765	CrowdGO	0.458	0	0	0	0
0.563669343325	0.670713271487	CrowdGO	0.462	0	0	0	0
0.564586261914	0.670655310553	CrowdGO	0.463	0	0	0	0
0.564872934306	0.670509022195	CrowdGO	0.464	0	0	0	0
0.565387251243	0.670386407667	CrowdGO	0.465	0	0	0	0
0.565953249496	0.668951874542	CrowdGO	0.465	0	0	0	0
0.566885733245	0.668612803077	CrowdGO	0.467	0	0	0	0
0.567543365759	0.668027134181	CrowdGO	0.468	0	0	0	0
0.568311449786	0.66717628333	CrowdGO	0.469	0	0	0	0
0.568568179122	0.66717628333	CrowdGO	0.47	0	0	0	0
0.571497586735	0.664854967629	CrowdGO	0.471	0	0	0	0
0.57269042595	0.664261169287	CrowdGO	0.472	0	0	0	0
0.574110394122	0.663893220856	CrowdGO	0.473	0	0	0	0
0.574359035055	0.663682617461	CrowdGO	0.474	0	0	0	0
0.574625501129	0.662093596153	CrowdGO	0.474	0	0	0	0
0.575599491846	0.662028390102	CrowdGO	0.474	0	0	0	0
0.577356586701	0.661259931546	CrowdGO	0.477	0	0	0	0
0.577483541888	0.660381441231	CrowdGO	0.477	0	0	0	0
0.577414475976	0.660157877627	CrowdGO	0.477	0	0	0	0
0.578101342082	0.659954040224	CrowdGO	0.477	0	0	0	0
0.578788310797	0.659693216019	CrowdGO	0.481	0	0	0	0
0.578965805064	0.659322432542	CrowdGO	0.481	0	0	0	0
0.579435801524	0.658241197658	CrowdGO	0.481	0	0	0	0
0.580353044769	0.655680821154	CrowdGO	0.481	0	0	0	0
0.581883490422	0.655506938351	CrowdGO	0.481	0	0	0	0
0.582273740795	0.655222402855	CrowdGO	0.481	0	0	0	0
0.583000230681	0.654642379505	CrowdGO	0.487	0	0	0	0
0.582607696676	0.653393683626	CrowdGO	0.487	0	0	0	0
0.583351346408	0.653022733647	CrowdGO	0.487	0	0	0	0
0.583228184975	0.652348316775	CrowdGO	0.487	0	0	0	0
0.583567756919	0.652198409104	CrowdGO	0.487	0	0	0	0
0.584120721518	0.652130368008	CrowdGO	0.487	0	0	0	0
0.584936069152	0.651626311847	CrowdGO	0.487	0	0	0	0
0.584944898266	0.650935356498	CrowdGO	0.487	0	0	0	0
0.585466700924	0.650870150447	CrowdGO	0.487	0	0	0	0
0.588049610491	0.648684634879	CrowdGO	0.496	0	0	0	0
0.588489122455	0.648624444678	CrowdGO	0.497	0	0	0	0
0.590668285148	0.648425721474	CrowdGO	0.498	0	0	0	0
0.590934010425	0.648425721474	CrowdGO	0.499	0	0	0	0
0.590941169646	0.648425721474	CrowdGO	0.5	0	0	0	0
0.591174325865	0.648379693673	CrowdGO	0.501	0	0	0	0
0.591148602257	0.647411960311	CrowdGO	0.501	0	0	0	0
0.591370144746	0.647188396707	CrowdGO	0.501	0	0	0	0
0.591620395641	0.647057984605	CrowdGO	0.501	0	0	0	0
0.592486505358	0.646274132949	CrowdGO	0.501	0	0	0	0
0.592408847307	0.644448363518	CrowdGO	0.501	0	0	0	0
0.592581419912	0.643096264799	CrowdGO	0.501	0	0	0	0
0.592773839678	0.643031058748	CrowdGO	0.501	0	0	0	0
0.592787689775	0.642923748218	CrowdGO	0.501	0	0	0	0
0.593223143974	0.642700184614	CrowdGO	0.501	0	0	0	0
0.593110799274	0.642439360409	CrowdGO	0.501	0	0	0	0
0.593101476337	0.639841892671	CrowdGO	0.501	0	0	0	0
0.593558960471	0.639710568596	CrowdGO	0.501	0	0	0	0
0.594463241229	0.639442292272	CrowdGO	0.501	0	0	0	0
0.597411807122	0.636696626721	CrowdGO	0.501	0	0	0	0
0.59790563573	0.636566214619	CrowdGO	0.501	0	0	0	0
0.598892081266	0.635906701988	CrowdGO	0.501	0	0	0	0
0.599242230774	0.635906701988	CrowdGO	0.501	0	0	0	0
0.599516703934	0.63548537058	CrowdGO	0.501	0	0	0	0
0.600126048165	0.63548537058	CrowdGO	0.501	0	0	0	0
0.600068319866	0.634430481575	CrowdGO	0.501	0	0	0	0
0.600665246428	0.632883593409	CrowdGO	0.501	0	0	0	0
0.602478374104	0.629001038822	CrowdGO	0.501	0	0	0	0
0.602984196537	0.628840426022	CrowdGO	0.501	0	0	0	0
0.603561113905	0.628655862458	CrowdGO	0.501	0	0	0	0
0.603437320887	0.627479669497	CrowdGO	0.501	0	0	0	0
0.604012717095	0.62714734743	CrowdGO	0.501	0	0	0	0
0.604651200607	0.626795084278	CrowdGO	0.501	0	0	0	0
0.604807563186	0.626795084278	CrowdGO	0.501	0	0	0	0
0.606813597719	0.62514131623	CrowdGO	0.501	0	0	0	0
0.608148116994	0.62465746843	CrowdGO	0.501	0	0	0	0
0.61019586387	0.623479746759	CrowdGO	0.501	0	0	0	0
0.61017364461	0.623349334657	CrowdGO	0.501	0	0	0	0
0.616046821269	0.621567833276	CrowdGO	0.534	0	0	0	0
0.616678362789	0.62136912274	CrowdGO	0.535	0	0	0	0
0.618982513355	0.620470269046	CrowdGO	0.536	0	0	0	0
0.620865727593	0.620047997295	CrowdGO	0.537	0	0	0	0
0.623407786517	0.61857688393	CrowdGO	0.538	0	0	0	0
0.623739448164	0.616426947273	CrowdGO	0.538	0	0	0	0
0.623828549432	0.615345424398	CrowdGO	0.538	0	0	0	0
0.626788855844	0.614487307417	CrowdGO	0.538	0	0	0	0
0.627405205737	0.614012169618	CrowdGO	0.538	0	0	0	0
0.628430230278	0.612491971992	CrowdGO	0.538	0	0	0	0
0.629929145771	0.6114334229	CrowdGO	0.538	0	0	0	0
0.630674938388	0.610828654689	CrowdGO	0.538	0	0	0	0
0.632453115435	0.609571825968	CrowdGO	0.538	0	0	0	0
0.633149923959	0.606992630255	CrowdGO	0.538	0	0	0	0
0.634819356152	0.605951808792	CrowdGO	0.538	0	0	0	0
0.635609572195	0.604877566064	CrowdGO	0.538	0	0	0	0
0.636857395499	0.604248098686	CrowdGO	0.538	0	0	0	0
0.638003188333	0.603178719448	CrowdGO	0.538	0	0	0	0
0.638281542392	0.602208863549	CrowdGO	0.538	0	0	0	0
0.638248759556	0.601046332809	CrowdGO	0.538	0	0	0	0
0.638966851781	0.600446227316	CrowdGO	0.538	0	0	0	0
0.639701009547	0.600127442177	CrowdGO	0.538	0	0	0	0
0.639668512677	0.598821286016	CrowdGO	0.538	0	0	0	0
0.641126161069	0.597588110409	CrowdGO	0.538	0	0	0	0
0.64110755764	0.596971631097	CrowdGO	0.538	0	0	0	0
0.641249759178	0.596370426271	CrowdGO	0.538	0	0	0	0
0.641662512994	0.596370426271	CrowdGO	0.538	0	0	0	0
0.641747022241	0.59617627893	CrowdGO	0.538	0	0	0	0
0.644200296618	0.595149580016	CrowdGO	0.538	0	0	0	0
0.646074344431	0.594543665326	CrowdGO	0.538	0	0	0	0
0.645713332383	0.593223341588	CrowdGO	0.538	0	0	0	0
0.646832557083	0.592329087172	CrowdGO	0.538	0	0	0	0
0.647421322593	0.591684271778	CrowdGO	0.538	0	0	0	0
0.648254925779	0.591510388975	CrowdGO	0.538	0	0	0	0
0.648177361347	0.590022156749	CrowdGO	0.538	0	0	0	0
0.648746278973	0.589808810789	CrowdGO	0.538	0	0	0	0
0.650706480997	0.586627111458	CrowdGO	0.538	0	0	0	0
0.650719179916	0.586390809187	CrowdGO	0.538	0	0	0	0
0.651154941397	0.585879192479	CrowdGO	0.538	0	0	0	0
0.651084718275	0.584652926501	CrowdGO	0.538	0	0	0	0
0.653397700955	0.582584023926	CrowdGO	0.538	0	0	0	0
0.654487909868	0.580307963651	CrowdGO	0.538	0	0	0	0
0.655709308717	0.579468349508	CrowdGO	0.538	0	0	0	0
0.655826267782	0.579254947887	CrowdGO	0.538	0	0	0	0
0.658297410336	0.578107046897	CrowdGO	0.538	0	0	0	0
0.658923516466	0.577701716363	CrowdGO	0.538	0	0	0	0
0.658975651917	0.577633675266	CrowdGO	0.538	0	0	0	0
0.659407727652	0.575301209436	CrowdGO	0.538	0	0	0	0
0.661023590861	0.574296833673	CrowdGO	0.538	0	0	0	0
0.662634604335	0.574228792576	CrowdGO	0.538	0	0	0	0
0.665866033097	0.573247995758	CrowdGO	0.538	0	0	0	0
0.665806977209	0.572678863825	CrowdGO	0.538	0	0	0	0
0.666173731134	0.571924737793	CrowdGO	0.538	0	0	0	0
0.666604614037	0.571924737793	CrowdGO	0.538	0	0	0	0
0.667981554888	0.570994883231	CrowdGO	0.538	0	0	0	0
0.668661396429	0.570874677293	CrowdGO	0.538	0	0	0	0
0.668706727977	0.570427550086	CrowdGO	0.538	0	0	0	0
0.668816245149	0.57023101996	CrowdGO	0.538	0	0	0	0
0.669582738038	0.570119238158	CrowdGO	0.538	0	0	0	0
0.671161009406	0.569640164949	CrowdGO	0.538	0	0	0	0
0.671861166144	0.569595452228	CrowdGO	0.538	0	0	0	0
0.671977593116	0.569013613618	CrowdGO	0.538	0	0	0	0
0.671655821174	0.567869352592	CrowdGO	0.538	0	0	0	0
0.673520235462	0.566846588189	CrowdGO	0.538	0	0	0	0
0.674601215085	0.56632493978	CrowdGO	0.538	0	0	0	0
0.674691832318	0.565225752061	CrowdGO	0.538	0	0	0	0
0.674612090073	0.564135266269	CrowdGO	0.538	0	0	0	0
0.674843138367	0.563645946572	CrowdGO	0.538	0	0	0	0
0.676064719419	0.5623573508	CrowdGO	0.538	0	0	0	0
0.676157107809	0.561583439803	CrowdGO	0.538	0	0	0	0
0.67613038556	0.561433465886	CrowdGO	0.538	0	0	0	0
0.676263683705	0.559842931431	CrowdGO	0.538	0	0	0	0
0.678111367792	0.556973865182	CrowdGO	0.538	0	0	0	0
0.67809459111	0.556842541107	CrowdGO	0.538	0	0	0	0
0.678895572331	0.556437625209	CrowdGO	0.538	0	0	0	0
0.67930621838	0.555804006813	CrowdGO	0.538	0	0	0	0
0.679869350806	0.554730328275	CrowdGO	0.538	0	0	0	0
0.679826287209	0.55392544178	CrowdGO	0.538	0	0	0	0
0.679120110396	0.552334414133	CrowdGO	0.538	0	0	0	0
0.679162634244	0.552110850529	CrowdGO	0.538	0	0	0	0
0.679821848652	0.551874548258	CrowdGO	0.538	0	0	0	0
0.679672175316	0.551090282354	CrowdGO	0.538	0	0	0	0
0.679562583273	0.55084952155	CrowdGO	0.538	0	0	0	0
0.679691863765	0.55084952155	CrowdGO	0.538	0	0	0	0
0.680197552766	0.55084952155	CrowdGO	0.538	0	0	0	0
0.680576819517	0.55084952155	CrowdGO	0.538	0	0	0	0
0.680893759215	0.548626681586	CrowdGO	0.538	0	0	0	0
0.683796627357	0.548626681586	CrowdGO	0.538	0	0	0	0
0.685437713348	0.547707427537	CrowdGO	0.538	0	0	0	0
0.686029824152	0.547030029817	CrowdGO	0.538	0	0	0	0
0.687447560278	0.547030029817	CrowdGO	0.538	0	0	0	0
0.690039121076	0.545885410052	CrowdGO	0.538	0	0	0	0
0.690114757123	0.545352169456	CrowdGO	0.538	0	0	0	0
0.693008853767	0.54310948176	CrowdGO	0.538	0	0	0	0
0.69458928673	0.54169378891	CrowdGO	0.538	0	0	0	0
0.69511456917	0.541147570105	CrowdGO	0.538	0	0	0	0
0.695625459105	0.540831600212	CrowdGO	0.538	0	0	0	0
0.697939304637	0.538211293182	CrowdGO	0.538	0	0	0	0
0.698191459137	0.53693239472	CrowdGO	0.538	0	0	0	0
0.698777929404	0.536571253514	CrowdGO	0.538	0	0	0	0
0.698445587466	0.533545935296	CrowdGO	0.538	0	0	0	0
0.699443319049	0.532347729136	CrowdGO	0.538	0	0	0	0
0.699522878969	0.532314432429	CrowdGO	0.538	0	0	0	0
0.70011010695	0.532066442432	CrowdGO	0.538	0	0	0	0
0.699756089519	0.530997063193	CrowdGO	0.538	0	0	0	0
0.699742657325	0.530885281391	CrowdGO	0.538	0	0	0	0
0.700255767146	0.530437084501	CrowdGO	0.538	0	0	0	0
0.701624701982	0.528872139274	CrowdGO	0.538	0	0	0	0
0.702121755747	0.528451094487	CrowdGO	0.538	0	0	0	0
0.702356467749	0.528277211684	CrowdGO	0.538	0	0	0	0
0.702917518174	0.527948009242	CrowdGO	0.538	0	0	0	0
0.702746496994	0.526487393697	CrowdGO	0.538	0	0	0	0
0.706320537913	0.523091450458	CrowdGO	0.538	0	0	0	0
0.708662245938	0.522838078374	CrowdGO	0.538	0	0	0	0
0.713010160722	0.521258516373	CrowdGO	0.538	0	0	0	0
0.713320995535	0.520811389166	CrowdGO	0.538	0	0	0	0
0.716012942921	0.520047546852	CrowdGO	0.538	0	0	0	0
0.718718998576	0.518789187862	CrowdGO	0.538	0	0	0	0
0.718979484094	0.518601394435	CrowdGO	0.538	0	0	0	0
0.718766041701	0.515199744184	CrowdGO	0.538	0	0	0	0
0.720101764396	0.514396614816	CrowdGO	0.538	0	0	0	0
0.72080893171	0.513982320138	CrowdGO	0.538	0	0	0	0
0.722827127645	0.513187460695	CrowdGO	0.538	0	0	0	0
0.72315274872	0.512034961655	CrowdGO	0.538	0	0	0	0
0.723620003983	0.509887905613	CrowdGO	0.538	0	0	0	0
0.723678234681	0.509887905613	CrowdGO	0.538	0	0	0	0
0.727848130471	0.5073294067	CrowdGO	0.538	0	0	0	0
0.728213652642	0.507247041161	CrowdGO	0.538	0	0	0	0
0.728047748818	0.506884302587	CrowdGO	0.538	0	0	0	0
0.728190719883	0.506660738983	CrowdGO	0.538	0	0	0	0
0.728733536057	0.505242936256	CrowdGO	0.538	0	0	0	0
0.729827598452	0.50446757703	CrowdGO	0.538	0	0	0	0
0.729999144275	0.50446757703	CrowdGO	0.538	0	0	0	0
0.73614153159	0.501833132416	CrowdGO	0.538	0	0	0	0
0.737695590697	0.500239642518	CrowdGO	0.538	0	0	0	0
0.738831370252	0.499677102989	CrowdGO	0.538	0	0	0	0
0.739211984309	0.499677102989	CrowdGO	0.538	0	0	0	0
0.739540706368	0.499294074437	CrowdGO	0.538	0	0	0	0
0.74024758041	0.498191160658	CrowdGO	0.538	0	0	0	0
0.745275624441	0.496067306421	CrowdGO	0.538	0	0	0	0
0.745891853132	0.495646702351	CrowdGO	0.538	0	0	0	0
0.745910852168	0.493623401384	CrowdGO	0.538	0	0	0	0
0.745900048948	0.491038951499	CrowdGO	0.538	0	0	0	0
0.746710265668	0.490733414574	CrowdGO	0.538	0	0	0	0
0.747249269148	0.489989307124	CrowdGO	0.538	0	0	0	0
0.753244204552	0.485065175439	CrowdGO	0.538	0	0	0	0
0.753287169766	0.484999969388	CrowdGO	0.538	0	0	0	0
0.752559356199	0.483406438533	CrowdGO	0.538	0	0	0	0
0.753064764825	0.483047381836	CrowdGO	0.538	0	0	0	0
0.754213919879	0.482855408741	CrowdGO	0.538	0	0	0	0
0.754435970508	0.4820526304	CrowdGO	0.538	0	0	0	0
0.754809724024	0.481866327397	CrowdGO	0.538	0	0	0	0
0.755033705344	0.481434625276	CrowdGO	0.538	0	0	0	0
0.755093549748	0.48104338897	CrowdGO	0.538	0	0	0	0
0.755098327536	0.479718946954	CrowdGO	0.538	0	0	0	0
0.75567539858	0.479241929554	CrowdGO	0.538	0	0	0	0
0.756962630733	0.47698143707	CrowdGO	0.538	0	0	0	0
0.758319816336	0.476574811671	CrowdGO	0.538	0	0	0	0
0.758689697332	0.475212750156	CrowdGO	0.538	0	0	0	0
0.758372373306	0.474195535758	CrowdGO	0.538	0	0	0	0
0.758658686833	0.472169227864	CrowdGO	0.538	0	0	0	0
0.758847307309	0.472008073454	CrowdGO	0.538	0	0	0	0
0.760275596753	0.470313890804	CrowdGO	0.538	0	0	0	0
0.760078666277	0.468561162078	CrowdGO	0.538	0	0	0	0
0.760848428195	0.468425079884	CrowdGO	0.538	0	0	0	0
0.761608428478	0.468219680823	CrowdGO	0.538	0	0	0	0
0.76176658869	0.466786580798	CrowdGO	0.538	0	0	0	0
0.762943528647	0.466786580798	CrowdGO	0.538	0	0	0	0
0.769788294616	0.464138007273	CrowdGO	0.538	0	0	0	0
0.769788294616	0.462943598019	CrowdGO	0.538	0	0	0	0
0.771286778238	0.462147384553	CrowdGO	0.538	0	0	0	0
0.771810603458	0.461694035823	CrowdGO	0.538	0	0	0	0
0.777958494038	0.45800446084	CrowdGO	0.538	0	0	0	0
0.77810587309	0.457688841634	CrowdGO	0.538	0	0	0	0
0.77883343521	0.456570854249	CrowdGO	0.538	0	0	0	0
0.78219585974	0.453825877091	CrowdGO	0.538	0	0	0	0
0.782643423766	0.452840894623	CrowdGO	0.538	0	0	0	0
0.782806929325	0.452710482521	CrowdGO	0.538	0	0	0	0
0.784238240644	0.45205842201	CrowdGO	0.538	0	0	0	0
0.784737840963	0.451588938442	CrowdGO	0.538	0	0	0	0
0.787765083035	0.450405009137	CrowdGO	0.538	0	0	0	0
0.791035616432	0.449508425934	CrowdGO	0.538	0	0	0	0
0.791005916403	0.448839767519	CrowdGO	0.538	0	0	0	0
0.801824824658	0.447100939489	CrowdGO	0.538	0	0	0	0
0.801933984822	0.446816403993	CrowdGO	0.538	0	0	0	0
0.802183438468	0.445115423632	CrowdGO	0.538	0	0	0	0
0.805030375146	0.444454668981	CrowdGO	0.538	0	0	0	0
0.80527192104	0.444193844776	CrowdGO	0.538	0	0	0	0
0.805675216416	0.444193844776	CrowdGO	0.538	0	0	0	0
0.817472145333	0.439367237531	CrowdGO	0.538	0	0	0	0
0.818484945938	0.439292716329	CrowdGO	0.538	0	0	0	0
0.819711464571	0.4387449855	CrowdGO	0.538	0	0	0	0
0.82091919404	0.4387449855	CrowdGO	0.538	0	0	0	0
0.824885369418	0.438452633095	CrowdGO	0.538	0	0	0	0
0.826318175742	0.438384591998	CrowdGO	0.538	0	0	0	0
0.83007363928	0.435366652663	CrowdGO	0.538	0	0	0	0
0.833710682591	0.434241922532	CrowdGO	0.538	0	0	0	0
0.834041370421	0.433925771981	CrowdGO	0.538	0	0	0	0
0.835179117269	0.431353818521	CrowdGO	0.538	0	0	0	0
0.835122434384	0.429893202976	CrowdGO	0.538	0	0	0	0
0.835122434384	0.429209263951	CrowdGO	0.538	0	0	0	0
0.835633901139	0.429138130077	CrowdGO	0.538	0	0	0	0
0.837634592523	0.427386961549	CrowdGO	0.538	0	0	0	0
0.837634592523	0.427056584223	CrowdGO	0.538	0	0	0	0
0.837634592523	0.426404523712	CrowdGO	0.538	0	0	0	0
0.837700588233	0.426140379927	CrowdGO	0.538	0	0	0	0
0.837888916328	0.42577889458	CrowdGO	0.538	0	0	0	0
0.840732231512	0.425288861226	CrowdGO	0.538	0	0	0	0
0.841614924137	0.425178735451	CrowdGO	0.538	0	0	0	0
0.841614924137	0.425178735451	CrowdGO	0.538	0	0	0	0
0.841545120982	0.424616100381	CrowdGO	0.538	0	0	0	0
0.841817353287	0.424616100381	CrowdGO	0.538	0	0	0	0
0.841817353287	0.424544966507	CrowdGO	0.538	0	0	0	0
0.842361817897	0.424023318098	CrowdGO	0.538	0	0	0	0
0.842819859553	0.423645123001	CrowdGO	0.538	0	0	0	0
0.843480274959	0.420595609477	CrowdGO	0.538	0	0	0	0
0.844234675328	0.41992043573	CrowdGO	0.538	0	0	0	0
0.844512145388	0.419246338988	CrowdGO	0.538	0	0	0	0
0.846319170788	0.418782486852	CrowdGO	0.538	0	0	0	0
0.848414733523	0.417061047102	CrowdGO	0.538	0	0	0	0
0.851222759335	0.412172171845	CrowdGO	0.538	0	0	0	0
0.851165144032	0.40859939711	CrowdGO	0.538	0	0	0	0
0.85724120147	0.405088703187	CrowdGO	0.538	0	0	0	0
0.860025591913	0.403793864334	CrowdGO	0.538	0	0	0	0
0.861313837847	0.402105936889	CrowdGO	0.538	0	0	0	0
0.862266318518	0.401076493371	CrowdGO	0.538	0	0	0	0
0.867396628821	0.395816837808	CrowdGO	0.538	0	0	0	0
0.868015993324	0.395493415794	CrowdGO	0.538	0	0	0	0
0.868620954002	0.39543545486	CrowdGO	0.538	0	0	0	0
0.869136228201	0.394015653799	CrowdGO	0.538	0	0	0	0
0.869854830827	0.389570097182	CrowdGO	0.538	0	0	0	0
0.87003631903	0.388783688686	CrowdGO	0.538	0	0	0	0
0.869993107553	0.388095676907	CrowdGO	0.538	0	0	0	0
0.869993107553	0.388095676907	CrowdGO	0.538	0	0	0	0
0.871143973223	0.387867455728	CrowdGO	0.538	0	0	0	0
0.873096359798	0.386962793476	CrowdGO	0.538	0	0	0	0
0.873368592103	0.386386234708	CrowdGO	0.538	0	0	0	0
0.875684727269	0.382445142947	CrowdGO	0.538	0	0	0	0
0.876245798642	0.382445142947	CrowdGO	0.538	0	0	0	0
0.877153239659	0.381481268274	CrowdGO	0.538	0	0	0	0
0.878583146715	0.380713699901	CrowdGO	0.538	0	0	0	0
0.878583146715	0.380713699901	CrowdGO	0.538	0	0	0	0
0.878583146715	0.380713699901	CrowdGO	0.538	0	0	0	0
0.879190988157	0.379689033383	CrowdGO	0.538	0	0	0	0
0.879646149048	0.378923826837	CrowdGO	0.538	0	0	0	0
0.880193494423	0.378803446435	CrowdGO	0.538	0	0	0	0
0.880485171893	0.378651775666	CrowdGO	0.538	0	0	0	0
0.880671369039	0.377729669893	CrowdGO	0.538	0	0	0	0
0.881760298258	0.374915104872	CrowdGO	0.538	0	0	0	0
0.881941786462	0.374915104872	CrowdGO	0.538	0	0	0	0
0.883928204963	0.371831224445	CrowdGO	0.538	0	0	0	0
0.884101514211	0.367922384168	CrowdGO	0.538	0	0	0	0
0.884545152041	0.367265451117	CrowdGO	0.538	0	0	0	0
0.88600085504	0.366926940573	CrowdGO	0.538	0	0	0	0
0.886661990637	0.366926940573	CrowdGO	0.538	0	0	0	0
0.886734009766	0.365577108088	CrowdGO	0.538	0	0	0	0
0.88671960594	0.3649644	CrowdGO	0.538	0	0	0	0
0.887627046956	0.3649644	CrowdGO	0.538	0	0	0	0
0.888087969377	0.362513484897	CrowdGO	0.538	0	0	0	0
0.889703231332	0.357154982853	CrowdGO	0.538	0	0	0	0
0.890005711671	0.357154982853	CrowdGO	0.538	0	0	0	0
0.890005711671	0.356847984029	CrowdGO	0.538	0	0	0	0
0.894028700177	0.354783069288	CrowdGO	0.538	0	0	0	0
0.895881392252	0.35338300599	CrowdGO	0.538	0	0	0	0
0.897206544212	0.351877338991	CrowdGO	0.538	0	0	0	0
0.898295473432	0.351326347859	CrowdGO	0.538	0	0	0	0
0.898900434109	0.349391901676	CrowdGO	0.538	0	0	0	0
0.899505394787	0.349000665369	CrowdGO	0.538	0	0	0	0
0.900715316142	0.348284085186	CrowdGO	0.538	0	0	0	0
0.903685384992	0.342398332143	CrowdGO	0.538	0	0	0	0
0.904926994764	0.341708357706	CrowdGO	0.538	0	0	0	0
0.904826167984	0.34109877428	CrowdGO	0.538	0	0	0	0
0.90626655055	0.340368466507	CrowdGO	0.538	0	0	0	0
0.90626655055	0.340368466507	CrowdGO	0.538	0	0	0	0
0.910076362436	0.335237965195	CrowdGO	0.538	0	0	0	0
0.913332778333	0.330599318174	CrowdGO	0.538	0	0	0	0
0.91406005106	0.329390194312	CrowdGO	0.538	0	0	0	0
0.915272172272	0.328388862716	CrowdGO	0.538	0	0	0	0
0.916181263181	0.328023031364	CrowdGO	0.538	0	0	0	0
0.917191364191	0.327153617349	CrowdGO	0.538	0	0	0	0
0.920888333888	0.325537178944	CrowdGO	0.538	0	0	0	0
0.920744232493	0.324259002885	CrowdGO	0.538	0	0	0	0
0.921351397034	0.323606942374	CrowdGO	0.538	0	0	0	0
0.921351397034	0.322533405068	CrowdGO	0.538	0	0	0	0
0.922168733917	0.32203783908	CrowdGO	0.538	0	0	0	0
0.922168733917	0.32203783908	CrowdGO	0.538	0	0	0	0
0.922269928008	0.321682466101	CrowdGO	0.538	0	0	0	0
0.923267412612	0.321195594253	CrowdGO	0.538	0	0	0	0
0.923267412612	0.321195594253	CrowdGO	0.538	0	0	0	0
0.923267412612	0.321195594253	CrowdGO	0.538	0	0	0	0
0.923267412612	0.321195594253	CrowdGO	0.538	0	0	0	0
0.923874577153	0.320673945844	CrowdGO	0.538	0	0	0	0
0.925392488507	0.320224679272	CrowdGO	0.538	0	0	0	0
0.925392488507	0.318949900972	CrowdGO	0.538	0	0	0	0
0.927173504496	0.312423043532	CrowdGO	0.538	0	0	0	0
0.928812848758	0.308299358838	CrowdGO	0.538	0	0	0	0
0.929723595571	0.307846586084	CrowdGO	0.538	0	0	0	0
0.930851186862	0.302476034154	CrowdGO	0.538	0	0	0	0
0.933461994391	0.292907850702	CrowdGO	0.538	0	0	0	0
0.93617977853	0.292125378089	CrowdGO	0.538	0	0	0	0
0.93617977853	0.292125378089	CrowdGO	0.538	0	0	0	0
0.937090525342	0.292125378089	CrowdGO	0.538	0	0	0	0
0.937090525342	0.292125378089	CrowdGO	0.538	0	0	0	0
0.937090525342	0.291777612483	CrowdGO	0.538	0	0	0	0
0.937610952092	0.291554048879	CrowdGO	0.538	0	0	0	0
0.938521698904	0.289611529566	CrowdGO	0.538	0	0	0	0
0.938521698904	0.289101708003	CrowdGO	0.538	0	0	0	0
0.940444386619	0.289101708003	CrowdGO	0.538	0	0	0	0
0.958659322867	0.282442891053	CrowdGO	0.538	0	0	0	0
0.959114696273	0.28118461186	CrowdGO	0.538	0	0	0	0
0.960155549773	0.279731448435	CrowdGO	0.538	0	0	0	0
0.961521669992	0.276255903809	CrowdGO	0.538	0	0	0	0
0.966075404054	0.273082619379	CrowdGO	0.538	0	0	0	0
0.966682568595	0.27243196454	CrowdGO	0.538	0	0	0	0
0.967289733137	0.27243196454	CrowdGO	0.538	0	0	0	0
0.967289733137	0.271147906918	CrowdGO	0.538	0	0	0	0
0.967289733137	0.271147906918	CrowdGO	0.538	0	0	0	0
0.967289733137	0.270439000106	CrowdGO	0.538	0	0	0	0
0.967289733137	0.270198239302	CrowdGO	0.538	0	0	0	0
0.967202995345	0.269937415097	CrowdGO	0.538	0	0	0	0
0.967202995345	0.269937415097	CrowdGO	0.538	0	0	0	0
0.967202995345	0.269696654293	CrowdGO	0.538	0	0	0	0
0.968214936248	0.269183419568	CrowdGO	0.538	0	0	0	0
0.970036429872	0.268012608694	CrowdGO	0.538	0	0	0	0
0.970036429872	0.266551400367	CrowdGO	0.538	0	0	0	0
0.970036429872	0.266551400367	CrowdGO	0.538	0	0	0	0
0.972378350247	0.260500598953	CrowdGO	0.538	0	0	0	0
0.972378350247	0.260358331205	CrowdGO	0.538	0	0	0	0
0.976932084309	0.2507117627	CrowdGO	0.538	0	0	0	0
0.976932084309	0.25039561215	CrowdGO	0.538	0	0	0	0
0.976932084309	0.25039561215	CrowdGO	0.538	0	0	0	0
0.976932084309	0.250253344402	CrowdGO	0.538	0	0	0	0
0.976932084309	0.250253344402	CrowdGO	0.538	0	0	0	0
0.976847740925	0.249922967076	CrowdGO	0.538	0	0	0	0
0.976847740925	0.249423675027	CrowdGO	0.538	0	0	0	0
0.976934795856	0.249423675027	CrowdGO	0.538	0	0	0	0
0.978762949421	0.246594353419	CrowdGO	0.538	0	0	0	0
0.978762949421	0.246594353419	CrowdGO	0.538	0	0	0	0
0.978762949421	0.246281364373	CrowdGO	0.538	0	0	0	0
0.979219987812	0.246281364373	CrowdGO	0.538	0	0	0	0
0.980134064595	0.245974365549	CrowdGO	0.538	0	0	0	0
0.980134064595	0.245382831229	CrowdGO	0.538	0	0	0	0
0.980134064595	0.244829081379	CrowdGO	0.538	0	0	0	0
0.980134064595	0.244829081379	CrowdGO	0.538	0	0	0	0
0.980134064595	0.244431634972	CrowdGO	0.538	0	0	0	0
0.980134064595	0.244431634972	CrowdGO	0.538	0	0	0	0
0.980134064595	0.244431634972	CrowdGO	0.538	0	0	0	0
0.980134064595	0.244431634972	CrowdGO	0.538	0	0	0	0
0.980743449116	0.24431125457	CrowdGO	0.538	0	0	0	0
0.980743449116	0.24431125457	CrowdGO	0.538	0	0	0	0
0.980743449116	0.243417000155	CrowdGO	0.538	0	0	0	0
0.980743449116	0.242766653956	CrowdGO	0.538	0	0	0	0
0.980743449116	0.242592771153	CrowdGO	0.538	0	0	0	0
0.983485679464	0.238262762511	CrowdGO	0.538	0	0	0	0
0.983485679464	0.237685223201	CrowdGO	0.538	0	0	0	0
0.983485679464	0.237536180798	CrowdGO	0.538	0	0	0	0
0.98577087142	0.225670854282	CrowdGO	0.538	0	0	0	0
0.986380255941	0.221680591175	CrowdGO	0.538	0	0	0	0
0.986380255941	0.221576261493	CrowdGO	0.538	0	0	0	0
0.986380255941	0.221576261493	CrowdGO	0.538	0	0	0	0
0.986380255941	0.221576261493	CrowdGO	0.538	0	0	0	0
0.986380255941	0.221576261493	CrowdGO	0.538	0	0	0	0
0.986380255941	0.22140237869	CrowdGO	0.538	0	0	0	0
0.986380255941	0.221178815086	CrowdGO	0.538	0	0	0	0
0.986380255941	0.220604324371	CrowdGO	0.538	0	0	0	0
0.986330275229	0.218220484926	CrowdGO	0.538	0	0	0	0
0.986254612546	0.216553671218	CrowdGO	0.538	0	0	0	0
0.98796641791	0.200690163356	CrowdGO	0.538	0	0	0	0
0.989813084112	0.195430170412	CrowdGO	0.538	0	0	0	0
0.996348314607	0.175231734488	CrowdGO	0.538	0	0	0	0
0.996306818182	0.172486870241	CrowdGO	0.538	0	0	0	0
0.996306818182	0.172278210878	CrowdGO	0.538	0	0	0	0
0.99625	0.170629758069	CrowdGO	0.538	0	0	0	0
0.99625	0.170629758069	CrowdGO	0.538	0	0	0	0
0.996206225681	0.168435186861	CrowdGO	0.538	0	0	0	0
0.996146245059	0.166024853097	CrowdGO	0.538	0	0	0	0
0.996146245059	0.166024853097	CrowdGO	0.538	0	0	0	0
0.996146245059	0.166024853097	CrowdGO	0.538	0	0	0	0
0.996485943775	0.163267655051	CrowdGO	0.538	0	0	0	0
0.996391752577	0.159244347033	CrowdGO	0.538	0	0	0	0
0.997422680412	0.159079615956	CrowdGO	0.538	0	0	0	0
0.997240618102	0.146886394388	CrowdGO	0.538	0	0	0	0
0.997009569378	0.134940522931	CrowdGO	0.538	0	0	0	0
0.997002398082	0.134369193721	CrowdGO	0.538	0	0	0	0
0.997002398082	0.134369193721	CrowdGO	0.538	0	0	0	0
0.996843434343	0.126603831744	CrowdGO	0.538	0	0	0	0
0.996786632391	0.125113137739	CrowdGO	0.538	0	0	0	0
0.996786632391	0.12412469702	CrowdGO	0.538	0	0	0	0
0.997429305913	0.124037755619	CrowdGO	0.538	0	0	0	0
0.997429305913	0.122964184563	CrowdGO	0.538	0	0	0	0
0.997429305913	0.122482662955	CrowdGO	0.538	0	0	0	0
0.997429305913	0.122482662955	CrowdGO	0.538	0	0	0	0
0.997340425532	0.116669896344	CrowdGO	0.538	0	0	0	0
0.997340425532	0.116222769136	CrowdGO	0.538	0	0	0	0
0.997175141243	0.106895198776	CrowdGO	0.538	0	0	0	0
0.998489425982	0.0972011886728	CrowdGO	0.538	0	0	0	0
0.998456790123	0.0951473451438	CrowdGO	0.538	0	0	0	0
0.998452012384	0.0950968630397	CrowdGO	0.538	0	0	0	0
0.998417721519	0.0938405248493	CrowdGO	0.538	0	0	0	0
0.998417721519	0.0938405248493	CrowdGO	0.538	0	0	0	0
1.0	0.0718184075261	CrowdGO	0.538	0	0	0	0
1.0	0.0135636736801	CrowdGO	0.538	0	0	0	0
1.0	0.0135636736801	CrowdGO	0.538	0	0	0	0
1.0	0.0135636736801	CrowdGO	0.538	0	0	0	0
1.0	0.0135636736801	CrowdGO	0.538	0	0	0	0
1.0	0.0133268246081	CrowdGO	0.538	0	0	0	0
1.0	0.0133268246081	CrowdGO	0.538	0	0	0	0
1.0	0.0125981963853	CrowdGO	0.538	0	0	0	0
1.0	0.0125981963853	CrowdGO	0.538	0	0	0	0
1.0	0.0125981963853	CrowdGO	0.538	0	0	0	0
1.0	0.0125981963853	CrowdGO	0.538	0	0	0	0
1.0	0.0125981963853	CrowdGO	0.538	0	0	0	0
1.0	0.0121977390209	CrowdGO	0.538	0	0	0	0
1.0	0.0120033064321	CrowdGO	0.538	0	0	0	0
1.0	0.0117625456279	CrowdGO	0.538	0	0	0	0
1.0	0.0117625456279	CrowdGO	0.538	0	0	0	0
1.0	0.0117625456279	CrowdGO	0.538	0	0	0	0
1.0	0.0117625456279	CrowdGO	0.538	0	0	0	0
1.0	0.0117625456279	CrowdGO	0.538	0	0	0	0
1.0	0.0116669100863	CrowdGO	0.538	0	0	0	0
1.0	0.0116669100863	CrowdGO	0.538	0	0	0	0
1.0	0.0115246423384	CrowdGO	0.538	0	0	0	0
1.0	0.0115246423384	CrowdGO	0.538	0	0	0	0
1.0	0.0115246423384	CrowdGO	0.538	0	0	0	0
1.0	0.0115246423384	CrowdGO	0.538	0	0	0	0
1.0	0.0115246423384	CrowdGO	0.538	0	0	0	0
1.0	0.0115246423384	CrowdGO	0.538	0	0	0	0
1.0	0.0115246423384	CrowdGO	0.538	0	0	0	0
1.0	0.00831985768376	CrowdGO	0.538	0	0	0	0
0.0	0.0	CrowdGO	0.538	0	0	0	0
0.0	0.0	CrowdGO	0.538	0	0	0	0
0.0	0.0	CrowdGO	0.538	0	0	0	0
0.0	0.0	CrowdGO	0.538	0	0	0	0
0.0	0.0	CrowdGO	0.538	0	0	0	0
0.0	0.0	CrowdGO	0.538	0	0	0	0
0.0	0.0	CrowdGO	0.538	0	0	0	0
0.0	0.0	CrowdGO	0.538	0	0	0	0
0.0	0.0	CrowdGO	0.538	0	0	0	0
0.0	0.0	CrowdGO	0.538	0	0	0	0
0.0	0.0	CrowdGO	0.538	0	0	0	0
0.0	0.0	CrowdGO	0.538	0	0	0	0
0.0	0.0	CrowdGO	0.538	0	0	0	0
0.0	0.0	CrowdGO	0.538	0	0	0	0
0.0	0.0	CrowdGO	0.538	0	0	0	0
0.0	0.0	CrowdGO	0.538	0	0	0	0
0.0	0.0	CrowdGO	0.538	0	0	0	0
0.0	0.0	CrowdGO	0.538	0	0	0	0
0.0	0.0	CrowdGO	0.538	0	0	0	0
0.0	0.0	CrowdGO	0.538	0	0	0	0
0.0	0.0	CrowdGO	0.538	0	0	0	0
0.0	0.0	CrowdGO	0.538	0	0	0	0
0.0	0.0	CrowdGO	0.538	0	0	0	0
0.0	0.0	CrowdGO	0.538	0	0	0	0
0.0	0.0	CrowdGO	0.538	0	0	0	0
0.0	0.0	CrowdGO	0.538	0	0	0	0
0.0	0.0	CrowdGO	0.538	0	0	0	0
0.0	0.0	CrowdGO	0.538	0	0	0	0
0.0	0.0	CrowdGO	0.538	0	0	0	0
0.0	0.0	CrowdGO	0.538	0	0	0	0
0.0	0.0	CrowdGO	0.538	0	0	0	0
0.0	0.0	CrowdGO	0.538	0	0	0	0
0.0	0.0	CrowdGO	0.538	0	0	0	0
0.0	0.0	CrowdGO	0.538	0	0	0	0
0.0	0.0	CrowdGO	0.538	0	0	0	0
0.0	0.0	CrowdGO	0.538	0	0	0	0
0.0	0.0	CrowdGO	0.538	0	0	0	0
