0.306009164986	0.763943002407	CrowdGO	0.0	0	0	0	0
0.306009164986	0.763943002407	CrowdGO	0.0	0	0	0	0
0.306009164986	0.763943002407	CrowdGO	0.0	0	0	0	0
0.306009164986	0.763943002407	CrowdGO	0.0	0	0	0	0
0.306009164986	0.763943002407	CrowdGO	0.0	0	0	0	0
0.306009164986	0.763943002407	CrowdGO	0.0	0	0	0	0
0.306009164986	0.763943002407	CrowdGO	0.0	0	0	0	0
0.306009164986	0.763943002407	CrowdGO	0.0	0	0	0	0
0.306009164986	0.763943002407	CrowdGO	0.0	0	0	0	0
0.306009164986	0.763943002407	CrowdGO	0.0	0	0	0	0
0.306009164986	0.763943002407	CrowdGO	0.0	0	0	0	0
0.306009164986	0.763943002407	CrowdGO	0.0	0	0	0	0
0.306009164986	0.763943002407	CrowdGO	0.0	0	0	0	0
0.306009164986	0.763943002407	CrowdGO	0.0	0	0	0	0
0.306009164986	0.763943002407	CrowdGO	0.0	0	0	0	0
0.306009164986	0.763943002407	CrowdGO	0.0	0	0	0	0
0.306009164986	0.763943002407	CrowdGO	0.0	0	0	0	0
0.306009164986	0.763943002407	CrowdGO	0.0	0	0	0	0
0.306009164986	0.763943002407	CrowdGO	0.0	0	0	0	0
0.306009164986	0.763943002407	CrowdGO	0.0	0	0	0	0
0.306009164986	0.763943002407	CrowdGO	0.0	0	0	0	0
0.306009164986	0.763943002407	CrowdGO	0.0	0	0	0	0
0.306009164986	0.763943002407	CrowdGO	0.0	0	0	0	0
0.306009164986	0.763943002407	CrowdGO	0.0	0	0	0	0
0.306009164986	0.763943002407	CrowdGO	0.0	0	0	0	0
0.306009164986	0.763943002407	CrowdGO	0.0	0	0	0	0
0.306009164986	0.763943002407	CrowdGO	0.0	0	0	0	0
0.306009164986	0.763943002407	CrowdGO	0.0	0	0	0	0
0.306009164986	0.763943002407	CrowdGO	0.0	0	0	0	0
0.306009164986	0.763943002407	CrowdGO	0.0	0	0	0	0
0.306009164986	0.763943002407	CrowdGO	0.0	0	0	0	0
0.306009164986	0.763943002407	CrowdGO	0.0	0	0	0	0
0.306009164986	0.763943002407	CrowdGO	0.0	0	0	0	0
0.306009164986	0.763943002407	CrowdGO	0.0	0	0	0	0
0.306009164986	0.763943002407	CrowdGO	0.0	0	0	0	0
0.306009164986	0.763943002407	CrowdGO	0.0	0	0	0	0
0.306009164986	0.763943002407	CrowdGO	0.0	0	0	0	0
0.306009164986	0.763943002407	CrowdGO	0.0	0	0	0	0
0.306009164986	0.763943002407	CrowdGO	0.0	0	0	0	0
0.306009164986	0.763943002407	CrowdGO	0.0	0	0	0	0
0.306009164986	0.763943002407	CrowdGO	0.0	0	0	0	0
0.306009164986	0.763943002407	CrowdGO	0.0	0	0	0	0
0.306009164986	0.763943002407	CrowdGO	0.0	0	0	0	0
0.306009164986	0.763943002407	CrowdGO	0.0	0	0	0	0
0.306009164986	0.763943002407	CrowdGO	0.0	0	0	0	0
0.306009164986	0.763943002407	CrowdGO	0.0	0	0	0	0
0.306009164986	0.763943002407	CrowdGO	0.0	0	0	0	0
0.306009164986	0.763943002407	CrowdGO	0.0	0	0	0	0
0.306009164986	0.763943002407	CrowdGO	0.0	0	0	0	0
0.306009164986	0.763943002407	CrowdGO	0.0	0	0	0	0
0.306009164986	0.763943002407	CrowdGO	0.0	0	0	0	0
0.306009164986	0.763943002407	CrowdGO	0.0	0	0	0	0
0.306009164986	0.763943002407	CrowdGO	0.0	0	0	0	0
0.306009164986	0.763943002407	CrowdGO	0.0	0	0	0	0
0.306009164986	0.763943002407	CrowdGO	0.0	0	0	0	0
0.306009164986	0.763943002407	CrowdGO	0.0	0	0	0	0
0.305103879481	0.761499117364	CrowdGO	0.0	0	0	0	0
0.305103879481	0.761499117364	CrowdGO	0.0	0	0	0	0
0.305103879481	0.761499117364	CrowdGO	0.0	0	0	0	0
0.305103879481	0.761499117364	CrowdGO	0.0	0	0	0	0
0.305949376454	0.761499117364	CrowdGO	0.0	0	0	0	0
0.308369007645	0.761376748299	CrowdGO	0.061	0	0	0	0
0.30930034833	0.761376748299	CrowdGO	0.062	0	0	0	0
0.309340411602	0.761376748299	CrowdGO	0.063	0	0	0	0
0.309333293183	0.76118521411	CrowdGO	0.063	0	0	0	0
0.309342210607	0.76118521411	CrowdGO	0.063	0	0	0	0
0.309390753652	0.76118521411	CrowdGO	0.066	0	0	0	0
0.309340361208	0.760967077951	CrowdGO	0.066	0	0	0	0
0.309308347403	0.760526549316	CrowdGO	0.066	0	0	0	0
0.309351474128	0.760526549316	CrowdGO	0.066	0	0	0	0
0.309639074511	0.760526549316	CrowdGO	0.07	0	0	0	0
0.309671617528	0.760526549316	CrowdGO	0.071	0	0	0	0
0.309723852151	0.760526549316	CrowdGO	0.072	0	0	0	0
0.309800896981	0.760526549316	CrowdGO	0.073	0	0	0	0
0.310184512925	0.76025121892	CrowdGO	0.074	0	0	0	0
0.310482337049	0.76025121892	CrowdGO	0.075	0	0	0	0
0.31063238623	0.76025121892	CrowdGO	0.076	0	0	0	0
0.310697944281	0.76025121892	CrowdGO	0.077	0	0	0	0
0.310636458488	0.759700558127	CrowdGO	0.077	0	0	0	0
0.310943646408	0.759700558127	CrowdGO	0.079	0	0	0	0
0.31143980176	0.759700558127	CrowdGO	0.08	0	0	0	0
0.311580065333	0.759700558127	CrowdGO	0.081	0	0	0	0
0.311609499987	0.759700558127	CrowdGO	0.082	0	0	0	0
0.311715954974	0.759700558127	CrowdGO	0.083	0	0	0	0
0.311818105913	0.759700558127	CrowdGO	0.084	0	0	0	0
0.312074143106	0.759700558127	CrowdGO	0.085	0	0	0	0
0.312392318539	0.758843974671	CrowdGO	0.086	0	0	0	0
0.312623830406	0.758652440482	CrowdGO	0.087	0	0	0	0
0.313102521725	0.758652440482	CrowdGO	0.088	0	0	0	0
0.313559175518	0.758652440482	CrowdGO	0.089	0	0	0	0
0.313856704306	0.758460906294	CrowdGO	0.09	0	0	0	0
0.31384590925	0.757726691903	CrowdGO	0.09	0	0	0	0
0.314058404206	0.757726691903	CrowdGO	0.092	0	0	0	0
0.314226444876	0.757726691903	CrowdGO	0.093	0	0	0	0
0.315177847715	0.757526451615	CrowdGO	0.094	0	0	0	0
0.316989232465	0.757526451615	CrowdGO	0.095	0	0	0	0
0.317736744296	0.757334917426	CrowdGO	0.096	0	0	0	0
0.319544171168	0.756894388791	CrowdGO	0.097	0	0	0	0
0.32125082599	0.754964453822	CrowdGO	0.098	0	0	0	0
0.322710246185	0.754964453822	CrowdGO	0.099	0	0	0	0
0.322851779153	0.754120107273	CrowdGO	0.099	0	0	0	0
0.323530552445	0.754032001546	CrowdGO	0.101	0	0	0	0
0.323970590971	0.753756671149	CrowdGO	0.102	0	0	0	0
0.324177360512	0.753756671149	CrowdGO	0.103	0	0	0	0
0.324352661996	0.752985746039	CrowdGO	0.104	0	0	0	0
0.325362336548	0.752885625895	CrowdGO	0.105	0	0	0	0
0.325808137675	0.752775493736	CrowdGO	0.106	0	0	0	0
0.326007750323	0.752085379886	CrowdGO	0.107	0	0	0	0
0.327407226319	0.751847082232	CrowdGO	0.108	0	0	0	0
0.327674925839	0.751847082232	CrowdGO	0.109	0	0	0	0
0.329759672275	0.751847082232	CrowdGO	0.11	0	0	0	0
0.330295962588	0.751717514987	CrowdGO	0.111	0	0	0	0
0.332326118567	0.751105669662	CrowdGO	0.112	0	0	0	0
0.332947117415	0.751105669662	CrowdGO	0.113	0	0	0	0
0.33363698217	0.750476343041	CrowdGO	0.114	0	0	0	0
0.333909718335	0.750161679731	CrowdGO	0.115	0	0	0	0
0.335367287011	0.750032112485	CrowdGO	0.116	0	0	0	0
0.335947940826	0.749351884447	CrowdGO	0.117	0	0	0	0
0.336689281511	0.748375146751	CrowdGO	0.118	0	0	0	0
0.336737748254	0.746698462542	CrowdGO	0.118	0	0	0	0
0.340275260685	0.746147801749	CrowdGO	0.12	0	0	0	0
0.343463687496	0.744238844334	CrowdGO	0.121	0	0	0	0
0.344428337273	0.743609517713	CrowdGO	0.122	0	0	0	0
0.346216981483	0.743609517713	CrowdGO	0.123	0	0	0	0
0.348720685459	0.743462674835	CrowdGO	0.124	0	0	0	0
0.349625900435	0.741994246054	CrowdGO	0.125	0	0	0	0
0.352996423502	0.741627138858	CrowdGO	0.126	0	0	0	0
0.353783909054	0.741627138858	CrowdGO	0.127	0	0	0	0
0.354307806122	0.741260031663	CrowdGO	0.128	0	0	0	0
0.354725047793	0.741039767346	CrowdGO	0.129	0	0	0	0
0.355297404708	0.740910200101	CrowdGO	0.13	0	0	0	0
0.356536044544	0.740677698877	CrowdGO	0.131	0	0	0	0
0.357255527696	0.740677698877	CrowdGO	0.132	0	0	0	0
0.357212914573	0.740216192689	CrowdGO	0.132	0	0	0	0
0.357696493032	0.740216192689	CrowdGO	0.134	0	0	0	0
0.358569985857	0.740216192689	CrowdGO	0.135	0	0	0	0
0.35868376988	0.739901529378	CrowdGO	0.136	0	0	0	0
0.359015904266	0.739167314988	CrowdGO	0.137	0	0	0	0
0.359264109057	0.738747763907	CrowdGO	0.138	0	0	0	0
0.359671752079	0.738096355651	CrowdGO	0.139	0	0	0	0
0.359900159539	0.738096355651	CrowdGO	0.14	0	0	0	0
0.361934666637	0.738096355651	CrowdGO	0.141	0	0	0	0
0.362180461766	0.738096355651	CrowdGO	0.142	0	0	0	0
0.362811726314	0.738096355651	CrowdGO	0.143	0	0	0	0
0.365129385725	0.737203916437	CrowdGO	0.144	0	0	0	0
0.366793573995	0.736380547442	CrowdGO	0.145	0	0	0	0
0.369124449117	0.734269681069	CrowdGO	0.146	0	0	0	0
0.36978931813	0.733315202362	CrowdGO	0.147	0	0	0	0
0.37160377212	0.733205070203	CrowdGO	0.148	0	0	0	0
0.371913751001	0.733205070203	CrowdGO	0.149	0	0	0	0
0.372295125842	0.732822001825	CrowdGO	0.15	0	0	0	0
0.374366712703	0.731790605419	CrowdGO	0.151	0	0	0	0
0.375000967155	0.731056391029	CrowdGO	0.152	0	0	0	0
0.375958316182	0.730735289595	CrowdGO	0.153	0	0	0	0
0.376632100004	0.730084508657	CrowdGO	0.154	0	0	0	0
0.376955862673	0.729809178261	CrowdGO	0.155	0	0	0	0
0.377626818968	0.729693249673	CrowdGO	0.156	0	0	0	0
0.377915691029	0.729004923682	CrowdGO	0.157	0	0	0	0
0.378967429041	0.728729593285	CrowdGO	0.158	0	0	0	0
0.379319325662	0.728211324304	CrowdGO	0.159	0	0	0	0
0.380166042393	0.727935993907	CrowdGO	0.16	0	0	0	0
0.380865461534	0.727766559817	CrowdGO	0.161	0	0	0	0
0.381342099876	0.727367330742	CrowdGO	0.162	0	0	0	0
0.38175886559	0.726596405632	CrowdGO	0.163	0	0	0	0
0.381934877597	0.726050989228	CrowdGO	0.164	0	0	0	0
0.382411377376	0.725561512967	CrowdGO	0.165	0	0	0	0
0.382277009989	0.724255007272	CrowdGO	0.165	0	0	0	0
0.383318671032	0.722879609383	CrowdGO	0.167	0	0	0	0
0.383993175917	0.722439080748	CrowdGO	0.168	0	0	0	0
0.384703267216	0.721217787198	CrowdGO	0.169	0	0	0	0
0.38440988457	0.720116465612	CrowdGO	0.169	0	0	0	0
0.384820865114	0.719916225324	CrowdGO	0.169	0	0	0	0
0.386123894879	0.719338031491	CrowdGO	0.172	0	0	0	0
0.388628155991	0.718561206444	CrowdGO	0.173	0	0	0	0
0.389014715034	0.717157021422	CrowdGO	0.173	0	0	0	0
0.389796370555	0.717157021422	CrowdGO	0.175	0	0	0	0
0.390363452092	0.71649622847	CrowdGO	0.176	0	0	0	0
0.391583458767	0.715945567677	CrowdGO	0.177	0	0	0	0
0.392478026058	0.71572530336	CrowdGO	0.178	0	0	0	0
0.393745771591	0.714967169551	CrowdGO	0.179	0	0	0	0
0.393865503154	0.713865847965	CrowdGO	0.179	0	0	0	0
0.394449018342	0.711773336952	CrowdGO	0.179	0	0	0	0
0.395011813839	0.711773336952	CrowdGO	0.182	0	0	0	0
0.396368431483	0.711254071299	CrowdGO	0.183	0	0	0	0
0.396978903004	0.710978740902	CrowdGO	0.184	0	0	0	0
0.397543972326	0.710978740902	CrowdGO	0.185	0	0	0	0
0.397762784399	0.710978740902	CrowdGO	0.186	0	0	0	0
0.400170515464	0.710015084515	CrowdGO	0.187	0	0	0	0
0.400447984027	0.706711119757	CrowdGO	0.187	0	0	0	0
0.402286899845	0.706443887313	CrowdGO	0.189	0	0	0	0
0.403243561641	0.7052638999	CrowdGO	0.19	0	0	0	0
0.404994830307	0.703933136317	CrowdGO	0.191	0	0	0	0
0.405570008292	0.703933136317	CrowdGO	0.192	0	0	0	0
0.407699428162	0.703487743322	CrowdGO	0.193	0	0	0	0
0.407918360144	0.703487743322	CrowdGO	0.194	0	0	0	0
0.408605141451	0.700991414394	CrowdGO	0.194	0	0	0	0
0.408674889352	0.699460052951	CrowdGO	0.194	0	0	0	0
0.409036820149	0.698594728848	CrowdGO	0.194	0	0	0	0
0.409973822425	0.698594728848	CrowdGO	0.198	0	0	0	0
0.410018959434	0.698032097168	CrowdGO	0.198	0	0	0	0
0.410576197939	0.697560102203	CrowdGO	0.2	0	0	0	0
0.411364233591	0.696176390466	CrowdGO	0.201	0	0	0	0
0.412029121953	0.6958293073	CrowdGO	0.202	0	0	0	0
0.412357063955	0.6958293073	CrowdGO	0.203	0	0	0	0
0.412531296984	0.695199980679	CrowdGO	0.203	0	0	0	0
0.412624840721	0.694649319886	CrowdGO	0.203	0	0	0	0
0.412952924799	0.694098659093	CrowdGO	0.203	0	0	0	0
0.413418234877	0.693097457652	CrowdGO	0.207	0	0	0	0
0.41240822979	0.690278074392	CrowdGO	0.207	0	0	0	0
0.414796022899	0.689956855596	CrowdGO	0.209	0	0	0	0
0.415648264703	0.689956855596	CrowdGO	0.21	0	0	0	0
0.416344479003	0.689190718841	CrowdGO	0.211	0	0	0	0
0.416597302373	0.689080586682	CrowdGO	0.212	0	0	0	0
0.417020172387	0.689080586682	CrowdGO	0.213	0	0	0	0
0.416836158073	0.688136596751	CrowdGO	0.213	0	0	0	0
0.416824498588	0.687699564376	CrowdGO	0.213	0	0	0	0
0.417622914824	0.687699564376	CrowdGO	0.216	0	0	0	0
0.418075152776	0.687699564376	CrowdGO	0.217	0	0	0	0
0.417660110906	0.685769629406	CrowdGO	0.217	0	0	0	0
0.418302771894	0.685647260341	CrowdGO	0.217	0	0	0	0
0.418196841571	0.684692781633	CrowdGO	0.217	0	0	0	0
0.418890002727	0.683958567243	CrowdGO	0.217	0	0	0	0
0.419138327976	0.683671265959	CrowdGO	0.217	0	0	0	0
0.419803074358	0.683328632577	CrowdGO	0.223	0	0	0	0
0.419846981751	0.683013969267	CrowdGO	0.223	0	0	0	0
0.422669577676	0.682884402022	CrowdGO	0.225	0	0	0	0
0.422320588334	0.680183541942	CrowdGO	0.225	0	0	0	0
0.422272338286	0.678669224761	CrowdGO	0.225	0	0	0	0
0.424387436894	0.676706869935	CrowdGO	0.225	0	0	0	0
0.4254934005	0.67654953828	CrowdGO	0.229	0	0	0	0
0.426072870597	0.67654953828	CrowdGO	0.23	0	0	0	0
0.426322881058	0.676182431085	CrowdGO	0.231	0	0	0	0
0.430471737373	0.676182431085	CrowdGO	0.232	0	0	0	0
0.43294881972	0.676182431085	CrowdGO	0.233	0	0	0	0
0.433472029255	0.674648447447	CrowdGO	0.233	0	0	0	0
0.437652994276	0.674518880202	CrowdGO	0.235	0	0	0	0
0.43801751965	0.674518880202	CrowdGO	0.236	0	0	0	0
0.439336889278	0.673889553582	CrowdGO	0.237	0	0	0	0
0.439948978889	0.671935659299	CrowdGO	0.237	0	0	0	0
0.439948508035	0.671306332678	CrowdGO	0.237	0	0	0	0
0.441264330847	0.670827497206	CrowdGO	0.24	0	0	0	0
0.441700904546	0.670627256918	CrowdGO	0.241	0	0	0	0
0.442949288326	0.670260149722	CrowdGO	0.242	0	0	0	0
0.444352065404	0.670260149722	CrowdGO	0.243	0	0	0	0
0.447687733433	0.668844164826	CrowdGO	0.244	0	0	0	0
0.448295222144	0.668214838206	CrowdGO	0.245	0	0	0	0
0.448646411606	0.665349495032	CrowdGO	0.245	0	0	0	0
0.450610603671	0.665349495032	CrowdGO	0.247	0	0	0	0
0.452024982665	0.66497189906	CrowdGO	0.248	0	0	0	0
0.452271174765	0.663625839344	CrowdGO	0.248	0	0	0	0
0.451378876365	0.659940782354	CrowdGO	0.248	0	0	0	0
0.452058947554	0.659940782354	CrowdGO	0.248	0	0	0	0
0.452766846654	0.659940782354	CrowdGO	0.248	0	0	0	0
0.453047749705	0.659940782354	CrowdGO	0.248	0	0	0	0
0.453306668898	0.659734284557	CrowdGO	0.248	0	0	0	0
0.455671465924	0.659321288962	CrowdGO	0.255	0	0	0	0
0.456074177445	0.659321288962	CrowdGO	0.256	0	0	0	0
0.456229529962	0.659076550832	CrowdGO	0.257	0	0	0	0
0.456590808367	0.658761887522	CrowdGO	0.258	0	0	0	0
0.457495998214	0.658761887522	CrowdGO	0.259	0	0	0	0
0.457984053994	0.658541623205	CrowdGO	0.26	0	0	0	0
0.458438354992	0.658262302513	CrowdGO	0.261	0	0	0	0
0.459229483386	0.658262302513	CrowdGO	0.262	0	0	0	0
0.460149459129	0.656279785648	CrowdGO	0.262	0	0	0	0
0.460505923234	0.656035047518	CrowdGO	0.264	0	0	0	0
0.461591700524	0.656035047518	CrowdGO	0.265	0	0	0	0
0.462606702417	0.656035047518	CrowdGO	0.266	0	0	0	0
0.462682168804	0.65504385809	CrowdGO	0.266	0	0	0	0
0.462629119487	0.654691435183	CrowdGO	0.266	0	0	0	0
0.462759374976	0.654691435183	CrowdGO	0.266	0	0	0	0
0.462903976042	0.654195840469	CrowdGO	0.266	0	0	0	0
0.463606972011	0.653784041963	CrowdGO	0.266	0	0	0	0
0.465012617982	0.653784041963	CrowdGO	0.272	0	0	0	0
0.46541167923	0.653784041963	CrowdGO	0.273	0	0	0	0
0.46618336848	0.653563777646	CrowdGO	0.274	0	0	0	0
0.466415772674	0.652075682408	CrowdGO	0.274	0	0	0	0
0.466978900311	0.651623353899	CrowdGO	0.274	0	0	0	0
0.467796167764	0.651171232406	CrowdGO	0.277	0	0	0	0
0.469222553565	0.650950968089	CrowdGO	0.278	0	0	0	0
0.469522351159	0.650950968089	CrowdGO	0.279	0	0	0	0
0.470320231466	0.649810313589	CrowdGO	0.28	0	0	0	0
0.473715500758	0.649722207862	CrowdGO	0.281	0	0	0	0
0.476021075674	0.649219318681	CrowdGO	0.282	0	0	0	0
0.47641600953	0.648353994578	CrowdGO	0.282	0	0	0	0
0.477002125986	0.648353994578	CrowdGO	0.284	0	0	0	0
0.477273663758	0.648249106808	CrowdGO	0.285	0	0	0	0
0.477022472717	0.646780678027	CrowdGO	0.285	0	0	0	0
0.478230813853	0.646535939896	CrowdGO	0.287	0	0	0	0
0.47838361944	0.645801725506	CrowdGO	0.287	0	0	0	0
0.478486886636	0.645487062196	CrowdGO	0.287	0	0	0	0
0.482173544073	0.644661071006	CrowdGO	0.29	0	0	0	0
0.482456521125	0.644110410213	CrowdGO	0.29	0	0	0	0
0.483034252218	0.643910169925	CrowdGO	0.292	0	0	0	0
0.483461662971	0.643709929637	CrowdGO	0.293	0	0	0	0
0.484898444581	0.643269401002	CrowdGO	0.294	0	0	0	0
0.485177480985	0.643190735175	CrowdGO	0.295	0	0	0	0
0.486039623735	0.642589530637	CrowdGO	0.296	0	0	0	0
0.486670996735	0.642389290349	CrowdGO	0.297	0	0	0	0
0.486934670099	0.642189050061	CrowdGO	0.298	0	0	0	0
0.487122374389	0.640773065165	CrowdGO	0.298	0	0	0	0
0.487251074517	0.640773065165	CrowdGO	0.298	0	0	0	0
0.488985223522	0.640596853711	CrowdGO	0.301	0	0	0	0
0.489113188863	0.640596853711	CrowdGO	0.302	0	0	0	0
0.489225801476	0.640282190401	CrowdGO	0.302	0	0	0	0
0.489332991378	0.63954797601	CrowdGO	0.302	0	0	0	0
0.490516763284	0.639425606945	CrowdGO	0.305	0	0	0	0
0.491129280563	0.639287941747	CrowdGO	0.306	0	0	0	0
0.492145557074	0.639056084571	CrowdGO	0.307	0	0	0	0
0.493167166919	0.639056084571	CrowdGO	0.308	0	0	0	0
0.493262884757	0.639056084571	CrowdGO	0.309	0	0	0	0
0.492361765937	0.638872530973	CrowdGO	0.309	0	0	0	0
0.493576587101	0.638652266656	CrowdGO	0.311	0	0	0	0
0.495212689817	0.637747609639	CrowdGO	0.312	0	0	0	0
0.495185725858	0.637347129062	CrowdGO	0.312	0	0	0	0
0.495944614957	0.636489902912	CrowdGO	0.312	0	0	0	0
0.495931178431	0.635755688521	CrowdGO	0.312	0	0	0	0
0.496291301085	0.635755688521	CrowdGO	0.312	0	0	0	0
0.496445210381	0.635755688521	CrowdGO	0.317	0	0	0	0
0.496781469797	0.635633319456	CrowdGO	0.318	0	0	0	0
0.498244772799	0.635346018173	CrowdGO	0.319	0	0	0	0
0.498244772799	0.635346018173	CrowdGO	0.319	0	0	0	0
0.498260558368	0.635031354863	CrowdGO	0.319	0	0	0	0
0.498322986534	0.634935587768	CrowdGO	0.319	0	0	0	0
0.497479793366	0.633676934527	CrowdGO	0.319	0	0	0	0
0.497722685399	0.632941329579	CrowdGO	0.319	0	0	0	0
0.497122345182	0.631179215041	CrowdGO	0.319	0	0	0	0
0.497281954823	0.631179215041	CrowdGO	0.319	0	0	0	0
0.498189999649	0.631179215041	CrowdGO	0.319	0	0	0	0
0.498277869966	0.630628554248	CrowdGO	0.319	0	0	0	0
0.499525957956	0.630628554248	CrowdGO	0.319	0	0	0	0
0.501890490773	0.629484324029	CrowdGO	0.319	0	0	0	0
0.503381760955	0.629484324029	CrowdGO	0.331	0	0	0	0
0.504398929535	0.629484324029	CrowdGO	0.332	0	0	0	0
0.505109645821	0.629484324029	CrowdGO	0.333	0	0	0	0
0.505315699786	0.629169660719	CrowdGO	0.334	0	0	0	0
0.505528530038	0.628083635266	CrowdGO	0.334	0	0	0	0
0.50542967637	0.626298335011	CrowdGO	0.334	0	0	0	0
0.505572731061	0.625808858751	CrowdGO	0.334	0	0	0	0
0.505714880238	0.625469990571	CrowdGO	0.334	0	0	0	0
0.5057126001	0.625182689287	CrowdGO	0.334	0	0	0	0
0.50594903261	0.625182689287	CrowdGO	0.334	0	0	0	0
0.50594903261	0.625182689287	CrowdGO	0.334	0	0	0	0
0.505726434165	0.623861103384	CrowdGO	0.334	0	0	0	0
0.505726434165	0.623684891931	CrowdGO	0.334	0	0	0	0
0.506998901783	0.622858900741	CrowdGO	0.334	0	0	0	0
0.506813184973	0.621072312391	CrowdGO	0.334	0	0	0	0
0.506963476743	0.620872072102	CrowdGO	0.334	0	0	0	0
0.507460575091	0.620872072102	CrowdGO	0.334	0	0	0	0
0.509004184906	0.61999552024	CrowdGO	0.334	0	0	0	0
0.508152733479	0.616499261237	CrowdGO	0.334	0	0	0	0
0.508752381511	0.616499261237	CrowdGO	0.334	0	0	0	0
0.508980430889	0.616086265642	CrowdGO	0.334	0	0	0	0
0.508666911953	0.615335364561	CrowdGO	0.334	0	0	0	0
0.508804512995	0.615335364561	CrowdGO	0.334	0	0	0	0
0.509773310704	0.614331198634	CrowdGO	0.334	0	0	0	0
0.510021886432	0.61377255725	CrowdGO	0.334	0	0	0	0
0.509089022692	0.612347317551	CrowdGO	0.334	0	0	0	0
0.509566306465	0.612347317551	CrowdGO	0.334	0	0	0	0
0.510560450704	0.610878888769	CrowdGO	0.334	0	0	0	0
0.510655061975	0.610878888769	CrowdGO	0.334	0	0	0	0
0.511421428289	0.610389412509	CrowdGO	0.334	0	0	0	0
0.511592399688	0.610389412509	CrowdGO	0.334	0	0	0	0
0.513122701701	0.609838751716	CrowdGO	0.334	0	0	0	0
0.514618574838	0.609288090923	CrowdGO	0.334	0	0	0	0
0.515420353039	0.609288090923	CrowdGO	0.334	0	0	0	0
0.51571273448	0.609067826606	CrowdGO	0.334	0	0	0	0
0.515599107534	0.608186769337	CrowdGO	0.334	0	0	0	0
0.515953435868	0.608081881567	CrowdGO	0.334	0	0	0	0
0.51686743415	0.607137891636	CrowdGO	0.334	0	0	0	0
0.517842797399	0.607137891636	CrowdGO	0.334	0	0	0	0
0.520471785009	0.602670681167	CrowdGO	0.334	0	0	0	0
0.521991868553	0.602009888215	CrowdGO	0.334	0	0	0	0
0.522657743368	0.601765150085	CrowdGO	0.334	0	0	0	0
0.522657743368	0.601765150085	CrowdGO	0.334	0	0	0	0
0.524330219712	0.601428635156	CrowdGO	0.334	0	0	0	0
0.524608180171	0.601183897026	CrowdGO	0.334	0	0	0	0
0.524634117952	0.600743368392	CrowdGO	0.334	0	0	0	0
0.525907296425	0.598874459034	CrowdGO	0.334	0	0	0	0
0.526024091395	0.598874459034	CrowdGO	0.334	0	0	0	0
0.525502555487	0.597690538329	CrowdGO	0.334	0	0	0	0
0.527656603234	0.596746548398	CrowdGO	0.334	0	0	0	0
0.529309262306	0.595812093719	CrowdGO	0.381	0	0	0	0
0.530223109242	0.595399098124	CrowdGO	0.382	0	0	0	0
0.530139208076	0.59378287294	CrowdGO	0.382	0	0	0	0
0.530666849206	0.593415765745	CrowdGO	0.382	0	0	0	0
0.531410988459	0.59295688175	CrowdGO	0.382	0	0	0	0
0.531680482948	0.59295688175	CrowdGO	0.382	0	0	0	0
0.531772139535	0.592438612769	CrowdGO	0.382	0	0	0	0
0.534630246389	0.591848619062	CrowdGO	0.388	0	0	0	0
0.535139182575	0.59154825863	CrowdGO	0.389	0	0	0	0
0.53597907186	0.59154825863	CrowdGO	0.39	0	0	0	0
0.53597907186	0.59154825863	CrowdGO	0.39	0	0	0	0
0.536178031674	0.590667201361	CrowdGO	0.39	0	0	0	0
0.536794449918	0.590435344185	CrowdGO	0.39	0	0	0	0
0.536918699245	0.59006823699	CrowdGO	0.39	0	0	0	0
0.537067354689	0.589627708355	CrowdGO	0.39	0	0	0	0
0.537114194713	0.589187179721	CrowdGO	0.39	0	0	0	0
0.535592458525	0.587109964841	CrowdGO	0.39	0	0	0	0
0.53589085982	0.587109964841	CrowdGO	0.39	0	0	0	0
0.535885929291	0.587018188042	CrowdGO	0.39	0	0	0	0
0.535128928762	0.585035809187	CrowdGO	0.39	0	0	0	0
0.535662686883	0.584944032388	CrowdGO	0.39	0	0	0	0
0.535734715478	0.584944032388	CrowdGO	0.39	0	0	0	0
0.537421449397	0.584393371596	CrowdGO	0.39	0	0	0	0
0.537461066535	0.584201837407	CrowdGO	0.39	0	0	0	0
0.537457368638	0.582591905488	CrowdGO	0.39	0	0	0	0
0.53774481847	0.582591905488	CrowdGO	0.39	0	0	0	0
0.537228256777	0.581123476707	CrowdGO	0.39	0	0	0	0
0.537004909144	0.580144524186	CrowdGO	0.39	0	0	0	0
0.537395407029	0.580144524186	CrowdGO	0.39	0	0	0	0
0.537615574105	0.580144524186	CrowdGO	0.39	0	0	0	0
0.537579416894	0.579593863393	CrowdGO	0.39	0	0	0	0
0.538762872944	0.577391220222	CrowdGO	0.39	0	0	0	0
0.539697858811	0.577268851157	CrowdGO	0.39	0	0	0	0
0.54154937152	0.577152922569	CrowdGO	0.39	0	0	0	0
0.542346528993	0.577152922569	CrowdGO	0.39	0	0	0	0
0.542203275344	0.576877592172	CrowdGO	0.39	0	0	0	0
0.542795795457	0.576276871307	CrowdGO	0.39	0	0	0	0
0.543319082121	0.575726210514	CrowdGO	0.39	0	0	0	0
0.544034299172	0.573523567342	CrowdGO	0.39	0	0	0	0
0.544613740028	0.573156460147	CrowdGO	0.39	0	0	0	0
0.54573052923	0.573156460147	CrowdGO	0.39	0	0	0	0
0.545908345312	0.573156460147	CrowdGO	0.39	0	0	0	0
0.546127997123	0.572422245756	CrowdGO	0.39	0	0	0	0
0.547712930201	0.572064316241	CrowdGO	0.39	0	0	0	0
0.548994841781	0.57141137585	CrowdGO	0.39	0	0	0	0
0.548804147654	0.570860715057	CrowdGO	0.39	0	0	0	0
0.552306815245	0.569357323686	CrowdGO	0.39	0	0	0	0
0.553682153443	0.568427453262	CrowdGO	0.39	0	0	0	0
0.554812683262	0.56804985729	CrowdGO	0.39	0	0	0	0
0.554927468213	0.56804985729	CrowdGO	0.39	0	0	0	0
0.555086254381	0.56804985729	CrowdGO	0.39	0	0	0	0
0.555452368299	0.567927488225	CrowdGO	0.39	0	0	0	0
0.55716426942	0.566983498294	CrowdGO	0.39	0	0	0	0
0.557962477329	0.566861129229	CrowdGO	0.39	0	0	0	0
0.557908146728	0.566585798832	CrowdGO	0.39	0	0	0	0
0.55760233633	0.565704741564	CrowdGO	0.39	0	0	0	0
0.557210917734	0.564414621992	CrowdGO	0.39	0	0	0	0
0.560488954906	0.561707206426	CrowdGO	0.39	0	0	0	0
0.560488954906	0.560826149158	CrowdGO	0.39	0	0	0	0
0.561563575048	0.559908381169	CrowdGO	0.39	0	0	0	0
0.565391624394	0.559140793397	CrowdGO	0.39	0	0	0	0
0.568588523517	0.559140793397	CrowdGO	0.442	0	0	0	0
0.569393618805	0.558590132604	CrowdGO	0.443	0	0	0	0
0.571672415247	0.556807040513	CrowdGO	0.444	0	0	0	0
0.572829621425	0.55625637972	CrowdGO	0.445	0	0	0	0
0.572829621425	0.555522165329	CrowdGO	0.445	0	0	0	0
0.573831921049	0.553356232877	CrowdGO	0.445	0	0	0	0
0.574471032151	0.552352806543	CrowdGO	0.445	0	0	0	0
0.57513183209	0.552352806543	CrowdGO	0.445	0	0	0	0
0.575223747224	0.551793405103	CrowdGO	0.445	0	0	0	0
0.576299024043	0.551793405103	CrowdGO	0.445	0	0	0	0
0.576398001278	0.551793405103	CrowdGO	0.445	0	0	0	0
0.578140303997	0.551793405103	CrowdGO	0.453	0	0	0	0
0.579072041421	0.551059190712	CrowdGO	0.454	0	0	0	0
0.5785356007	0.54928706416	CrowdGO	0.454	0	0	0	0
0.578526436141	0.549218231561	CrowdGO	0.454	0	0	0	0
0.581484755728	0.549218231561	CrowdGO	0.457	0	0	0	0
0.582398458043	0.548903568251	CrowdGO	0.458	0	0	0	0
0.582640521933	0.548903568251	CrowdGO	0.459	0	0	0	0
0.581965238652	0.5473302517	CrowdGO	0.459	0	0	0	0
0.581727989576	0.546037395925	CrowdGO	0.459	0	0	0	0
0.581727989576	0.546037395925	CrowdGO	0.459	0	0	0	0
0.581631761708	0.545408069304	CrowdGO	0.459	0	0	0	0
0.581631761708	0.545408069304	CrowdGO	0.459	0	0	0	0
0.58383067701	0.543893752124	CrowdGO	0.459	0	0	0	0
0.585741599548	0.543526644929	CrowdGO	0.459	0	0	0	0
0.584867113952	0.542661320825	CrowdGO	0.459	0	0	0	0
0.585279972698	0.542661320825	CrowdGO	0.459	0	0	0	0
0.585362644656	0.542661320825	CrowdGO	0.459	0	0	0	0
0.586171557965	0.542661320825	CrowdGO	0.459	0	0	0	0
0.586489552727	0.542661320825	CrowdGO	0.459	0	0	0	0
0.586756210316	0.542385990429	CrowdGO	0.459	0	0	0	0
0.587348692679	0.541127337188	CrowdGO	0.459	0	0	0	0
0.587899839064	0.541127337188	CrowdGO	0.459	0	0	0	0
0.588571910048	0.541127337188	CrowdGO	0.459	0	0	0	0
0.588824589468	0.540576676395	CrowdGO	0.459	0	0	0	0
0.590632208289	0.540576676395	CrowdGO	0.459	0	0	0	0
0.590632208289	0.540576676395	CrowdGO	0.459	0	0	0	0
0.591291284532	0.540026015602	CrowdGO	0.459	0	0	0	0
0.593419232342	0.537147561457	CrowdGO	0.459	0	0	0	0
0.593864477931	0.536832898147	CrowdGO	0.459	0	0	0	0
0.594520348855	0.536832898147	CrowdGO	0.459	0	0	0	0
0.594607558157	0.536832898147	CrowdGO	0.459	0	0	0	0
0.59461153351	0.536675566492	CrowdGO	0.459	0	0	0	0
0.594475874595	0.535574244906	CrowdGO	0.459	0	0	0	0
0.595618039386	0.531682908635	CrowdGO	0.459	0	0	0	0
0.597912546226	0.531368245325	CrowdGO	0.459	0	0	0	0
0.599214863437	0.531368245325	CrowdGO	0.459	0	0	0	0
0.600027182431	0.531368245325	CrowdGO	0.459	0	0	0	0
0.60012866284	0.531368245325	CrowdGO	0.459	0	0	0	0
0.60012866284	0.531168005037	CrowdGO	0.459	0	0	0	0
0.599978763187	0.529846419134	CrowdGO	0.459	0	0	0	0
0.600348736371	0.529091227189	CrowdGO	0.459	0	0	0	0
0.600348710834	0.52902239459	CrowdGO	0.459	0	0	0	0
0.600932822984	0.52902239459	CrowdGO	0.459	0	0	0	0
0.601480133928	0.528884729392	CrowdGO	0.459	0	0	0	0
0.602827143548	0.526665399529	CrowdGO	0.459	0	0	0	0
0.603322300431	0.526665399529	CrowdGO	0.459	0	0	0	0
0.6037226287	0.526665399529	CrowdGO	0.459	0	0	0	0
0.604933205789	0.526665399529	CrowdGO	0.459	0	0	0	0
0.605651294622	0.523687381463	CrowdGO	0.459	0	0	0	0
0.605581715828	0.523372718153	CrowdGO	0.459	0	0	0	0
0.605637475837	0.523372718153	CrowdGO	0.459	0	0	0	0
0.605667500457	0.523372718153	CrowdGO	0.459	0	0	0	0
0.606378440571	0.523372718153	CrowdGO	0.459	0	0	0	0
0.608091050697	0.523005610958	CrowdGO	0.459	0	0	0	0
0.608254065825	0.523005610958	CrowdGO	0.459	0	0	0	0
0.608749241348	0.523005610958	CrowdGO	0.459	0	0	0	0
0.608738407112	0.522936778359	CrowdGO	0.459	0	0	0	0
0.608920984055	0.522936778359	CrowdGO	0.459	0	0	0	0
0.609430618743	0.522677643868	CrowdGO	0.459	0	0	0	0
0.611279138966	0.52217942696	CrowdGO	0.459	0	0	0	0
0.610898819939	0.520327204293	CrowdGO	0.459	0	0	0	0
0.611834054639	0.520051873896	CrowdGO	0.459	0	0	0	0
0.611728545769	0.518719799216	CrowdGO	0.459	0	0	0	0
0.611749307014	0.518719799216	CrowdGO	0.459	0	0	0	0
0.612337542308	0.518719799216	CrowdGO	0.459	0	0	0	0
0.613183480684	0.518719799216	CrowdGO	0.459	0	0	0	0
0.613393564717	0.518719799216	CrowdGO	0.459	0	0	0	0
0.615592459505	0.517779685572	CrowdGO	0.459	0	0	0	0
0.622145977882	0.516816029185	CrowdGO	0.459	0	0	0	0
0.6220936903	0.515164046806	CrowdGO	0.459	0	0	0	0
0.6220936903	0.515164046806	CrowdGO	0.459	0	0	0	0
0.623431736964	0.512961403634	CrowdGO	0.459	0	0	0	0
0.6243618603	0.512646740324	CrowdGO	0.459	0	0	0	0
0.624070813285	0.511618840177	CrowdGO	0.459	0	0	0	0
0.627128027473	0.510464121181	CrowdGO	0.459	0	0	0	0
0.627339104811	0.510464121181	CrowdGO	0.459	0	0	0	0
0.634192457658	0.507396153906	CrowdGO	0.459	0	0	0	0
0.634723111798	0.506111278722	CrowdGO	0.459	0	0	0	0
0.636144912746	0.506111278722	CrowdGO	0.459	0	0	0	0
0.636046176569	0.505206621705	CrowdGO	0.459	0	0	0	0
0.64096254991	0.501585377555	CrowdGO	0.459	0	0	0	0
0.643821894357	0.501585377555	CrowdGO	0.459	0	0	0	0
0.644132208056	0.501340639425	CrowdGO	0.459	0	0	0	0
0.644172395412	0.500361686904	CrowdGO	0.459	0	0	0	0
0.644394316724	0.498942205749	CrowdGO	0.459	0	0	0	0
0.645197381512	0.497804576858	CrowdGO	0.459	0	0	0	0
0.645752313728	0.496336148077	CrowdGO	0.459	0	0	0	0
0.646149139125	0.496336148077	CrowdGO	0.459	0	0	0	0
0.646429460655	0.496213779012	CrowdGO	0.459	0	0	0	0
0.646482370708	0.496213779012	CrowdGO	0.459	0	0	0	0
0.646078572126	0.493363299613	CrowdGO	0.459	0	0	0	0
0.645944198903	0.490609995648	CrowdGO	0.459	0	0	0	0
0.646787097718	0.490609995648	CrowdGO	0.459	0	0	0	0
0.646868460269	0.490609995648	CrowdGO	0.459	0	0	0	0
0.646527512434	0.488774459672	CrowdGO	0.459	0	0	0	0
0.646584337073	0.488774459672	CrowdGO	0.459	0	0	0	0
0.646822811142	0.488013546576	CrowdGO	0.459	0	0	0	0
0.649220261301	0.487132489308	CrowdGO	0.459	0	0	0	0
0.649047209907	0.486095951344	CrowdGO	0.459	0	0	0	0
0.649166827132	0.485695470768	CrowdGO	0.459	0	0	0	0
0.652888706625	0.48531240239	CrowdGO	0.459	0	0	0	0
0.653128770386	0.484578187999	CrowdGO	0.459	0	0	0	0
0.653128770386	0.484578187999	CrowdGO	0.459	0	0	0	0
0.652896181338	0.483256602096	CrowdGO	0.459	0	0	0	0
0.652916117542	0.482375544828	CrowdGO	0.459	0	0	0	0
0.654055278437	0.482375544828	CrowdGO	0.459	0	0	0	0
0.65486755838	0.481274223242	CrowdGO	0.459	0	0	0	0
0.655994778344	0.480172901656	CrowdGO	0.459	0	0	0	0
0.655994778344	0.480172901656	CrowdGO	0.459	0	0	0	0
0.658099348069	0.478971459926	CrowdGO	0.459	0	0	0	0
0.658099348069	0.478237245535	CrowdGO	0.459	0	0	0	0
0.65824924434	0.477778361541	CrowdGO	0.459	0	0	0	0
0.65824924434	0.477778361541	CrowdGO	0.459	0	0	0	0
0.658227495754	0.477640696343	CrowdGO	0.459	0	0	0	0
0.660939768861	0.476706241664	CrowdGO	0.459	0	0	0	0
0.663228030838	0.476706241664	CrowdGO	0.459	0	0	0	0
0.663257493209	0.476706241664	CrowdGO	0.459	0	0	0	0
0.664178076753	0.476706241664	CrowdGO	0.459	0	0	0	0
0.665301466035	0.476339134468	CrowdGO	0.459	0	0	0	0
0.666059041792	0.476339134468	CrowdGO	0.459	0	0	0	0
0.667352923349	0.475918629863	CrowdGO	0.459	0	0	0	0
0.667352923349	0.475918629863	CrowdGO	0.459	0	0	0	0
0.667961063094	0.473440656295	CrowdGO	0.459	0	0	0	0
0.667961063094	0.473440656295	CrowdGO	0.459	0	0	0	0
0.67213084129	0.47213909442	CrowdGO	0.459	0	0	0	0
0.672210969496	0.471698565786	CrowdGO	0.459	0	0	0	0
0.67129521858	0.469936451249	CrowdGO	0.459	0	0	0	0
0.671137390297	0.46948412274	CrowdGO	0.459	0	0	0	0
0.671368929591	0.469283882452	CrowdGO	0.459	0	0	0	0
0.671254460727	0.468549668061	CrowdGO	0.459	0	0	0	0
0.673057345342	0.468549668061	CrowdGO	0.459	0	0	0	0
0.673966332188	0.468549668061	CrowdGO	0.459	0	0	0	0
0.674166652701	0.468549668061	CrowdGO	0.459	0	0	0	0
0.674395092236	0.468549668061	CrowdGO	0.459	0	0	0	0
0.675090573121	0.468296569312	CrowdGO	0.459	0	0	0	0
0.677529608026	0.467856040677	CrowdGO	0.459	0	0	0	0
0.679097831469	0.467718375479	CrowdGO	0.459	0	0	0	0
0.678639956011	0.466080512608	CrowdGO	0.459	0	0	0	0
0.68036381086	0.465639983973	CrowdGO	0.459	0	0	0	0
0.68036381086	0.465639983973	CrowdGO	0.459	0	0	0	0
0.681304725803	0.465282054458	CrowdGO	0.459	0	0	0	0
0.682852256798	0.465282054458	CrowdGO	0.459	0	0	0	0
0.683965466505	0.464967391148	CrowdGO	0.459	0	0	0	0
0.684018885308	0.463866069562	CrowdGO	0.459	0	0	0	0
0.685516259259	0.461951867758	CrowdGO	0.459	0	0	0	0
0.685595005617	0.461951867758	CrowdGO	0.459	0	0	0	0
0.685554844975	0.461401206965	CrowdGO	0.459	0	0	0	0
0.685454443368	0.461156468834	CrowdGO	0.459	0	0	0	0
0.68498969691	0.460605808041	CrowdGO	0.459	0	0	0	0
0.68498969691	0.460605808041	CrowdGO	0.459	0	0	0	0
0.68498969691	0.460605808041	CrowdGO	0.459	0	0	0	0
0.68626452246	0.460605808041	CrowdGO	0.459	0	0	0	0
0.686207011533	0.460238700846	CrowdGO	0.459	0	0	0	0
0.686163878338	0.460101035648	CrowdGO	0.459	0	0	0	0
0.686856769084	0.459856297518	CrowdGO	0.459	0	0	0	0
0.686856769084	0.459856297518	CrowdGO	0.459	0	0	0	0
0.687177540592	0.45884390252	CrowdGO	0.459	0	0	0	0
0.689096330707	0.45884390252	CrowdGO	0.459	0	0	0	0
0.689096330707	0.458643662231	CrowdGO	0.459	0	0	0	0
0.688899133183	0.457322076328	CrowdGO	0.459	0	0	0	0
0.688899133183	0.456771415535	CrowdGO	0.459	0	0	0	0
0.688581263466	0.45573165851	CrowdGO	0.459	0	0	0	0
0.69003404797	0.45573165851	CrowdGO	0.459	0	0	0	0
0.690202241358	0.45573165851	CrowdGO	0.459	0	0	0	0
0.69100934386	0.45573165851	CrowdGO	0.459	0	0	0	0
0.691453250236	0.45524218225	CrowdGO	0.459	0	0	0	0
0.693471006491	0.45524218225	CrowdGO	0.459	0	0	0	0
0.693269230866	0.454875075054	CrowdGO	0.459	0	0	0	0
0.693269230866	0.454875075054	CrowdGO	0.459	0	0	0	0
0.693269230866	0.454324414261	CrowdGO	0.459	0	0	0	0
0.693349941116	0.454324414261	CrowdGO	0.459	0	0	0	0
0.6970708906	0.454324414261	CrowdGO	0.459	0	0	0	0
0.697877993102	0.453223092675	CrowdGO	0.459	0	0	0	0
0.697756522826	0.452935791392	CrowdGO	0.459	0	0	0	0
0.697683149871	0.452660460996	CrowdGO	0.459	0	0	0	0
0.697916507768	0.452112792924	CrowdGO	0.459	0	0	0	0
0.697916507768	0.452112792924	CrowdGO	0.459	0	0	0	0
0.697916507768	0.452112792924	CrowdGO	0.459	0	0	0	0
0.697962627911	0.452112792924	CrowdGO	0.459	0	0	0	0
0.698246215923	0.451955461269	CrowdGO	0.459	0	0	0	0
0.698246215923	0.451955461269	CrowdGO	0.459	0	0	0	0
0.700080277745	0.451771907672	CrowdGO	0.459	0	0	0	0
0.700166753013	0.451771907672	CrowdGO	0.459	0	0	0	0
0.700139849596	0.451527169541	CrowdGO	0.459	0	0	0	0
0.700173899932	0.449875187163	CrowdGO	0.459	0	0	0	0
0.701181596628	0.449305091283	CrowdGO	0.459	0	0	0	0
0.701234260914	0.449029760886	CrowdGO	0.459	0	0	0	0
0.70349162777	0.449029760886	CrowdGO	0.459	0	0	0	0
0.704477567595	0.446946427553	CrowdGO	0.459	0	0	0	0
0.704695592332	0.446946427553	CrowdGO	0.459	0	0	0	0
0.704695592332	0.446946427553	CrowdGO	0.459	0	0	0	0
0.704600741384	0.446212213162	CrowdGO	0.459	0	0	0	0
0.706850063877	0.446212213162	CrowdGO	0.459	0	0	0	0
0.707575700029	0.445936882766	CrowdGO	0.459	0	0	0	0
0.707575700029	0.445936882766	CrowdGO	0.459	0	0	0	0
0.707741523366	0.444691777528	CrowdGO	0.459	0	0	0	0
0.70847710215	0.443511790115	CrowdGO	0.459	0	0	0	0
0.708091565441	0.44139695072	CrowdGO	0.459	0	0	0	0
0.707658909022	0.439885692766	CrowdGO	0.459	0	0	0	0
0.707468277213	0.438784371181	CrowdGO	0.459	0	0	0	0
0.707475260063	0.438784371181	CrowdGO	0.459	0	0	0	0
0.707150557533	0.438343842546	CrowdGO	0.459	0	0	0	0
0.707352860676	0.438099104416	CrowdGO	0.459	0	0	0	0
0.70968793224	0.435345800451	CrowdGO	0.459	0	0	0	0
0.710704430793	0.435250033357	CrowdGO	0.459	0	0	0	0
0.710175305931	0.434148711771	CrowdGO	0.459	0	0	0	0
0.710147068318	0.429706149927	CrowdGO	0.459	0	0	0	0
0.710918272422	0.429289683782	CrowdGO	0.459	0	0	0	0
0.711584563456	0.427434712718	CrowdGO	0.459	0	0	0	0
0.71146080108	0.427067605523	CrowdGO	0.459	0	0	0	0
0.71146080108	0.427067605523	CrowdGO	0.459	0	0	0	0
0.712114746969	0.426752942213	CrowdGO	0.459	0	0	0	0
0.710192562882	0.425239340176	CrowdGO	0.459	0	0	0	0
0.71067625553	0.425239340176	CrowdGO	0.459	0	0	0	0
0.714443527988	0.424505125785	CrowdGO	0.459	0	0	0	0
0.720131346655	0.417498451731	CrowdGO	0.459	0	0	0	0
0.721261580345	0.416562328383	CrowdGO	0.459	0	0	0	0
0.722533020912	0.414989011832	CrowdGO	0.459	0	0	0	0
0.727009114399	0.412948944703	CrowdGO	0.459	0	0	0	0
0.728608440998	0.411847623118	CrowdGO	0.459	0	0	0	0
0.730190301403	0.410806373618	CrowdGO	0.459	0	0	0	0
0.730331959689	0.409765059939	CrowdGO	0.459	0	0	0	0
0.730331959689	0.409765059939	CrowdGO	0.459	0	0	0	0
0.730331959689	0.409765059939	CrowdGO	0.459	0	0	0	0
0.730219726243	0.407929523963	CrowdGO	0.459	0	0	0	0
0.730857416275	0.407929523963	CrowdGO	0.459	0	0	0	0
0.730793078122	0.404873793594	CrowdGO	0.459	0	0	0	0
0.73423599712	0.403234922187	CrowdGO	0.459	0	0	0	0
0.736709634503	0.399755938816	CrowdGO	0.459	0	0	0	0
0.738957195554	0.398001253829	CrowdGO	0.459	0	0	0	0
0.738957195554	0.398001253829	CrowdGO	0.459	0	0	0	0
0.738658443244	0.392034371348	CrowdGO	0.459	0	0	0	0
0.738658443244	0.392034371348	CrowdGO	0.459	0	0	0	0
0.738455899965	0.391349104584	CrowdGO	0.459	0	0	0	0
0.737727222788	0.390597408898	CrowdGO	0.459	0	0	0	0
0.738473937245	0.390597408898	CrowdGO	0.459	0	0	0	0
0.738563542979	0.390597408898	CrowdGO	0.459	0	0	0	0
0.73819921197	0.389646267528	CrowdGO	0.459	0	0	0	0
0.73973973096	0.388667315008	CrowdGO	0.459	0	0	0	0
0.741896065192	0.388667315008	CrowdGO	0.459	0	0	0	0
0.743243774087	0.387382439824	CrowdGO	0.459	0	0	0	0
0.744279500334	0.3858877891	CrowdGO	0.459	0	0	0	0
0.745146809483	0.383501592331	CrowdGO	0.459	0	0	0	0
0.750741373004	0.383501592331	CrowdGO	0.459	0	0	0	0
0.752686925586	0.382774720084	CrowdGO	0.459	0	0	0	0
0.752734749594	0.382774720084	CrowdGO	0.459	0	0	0	0
0.752734749594	0.382774720084	CrowdGO	0.459	0	0	0	0
0.752787858184	0.382311845794	CrowdGO	0.459	0	0	0	0
0.752645225178	0.382015838412	CrowdGO	0.459	0	0	0	0
0.753641430443	0.381771100281	CrowdGO	0.459	0	0	0	0
0.757268044061	0.38119730248	CrowdGO	0.459	0	0	0	0
0.759526072986	0.379545320101	CrowdGO	0.459	0	0	0	0
0.763267943557	0.379449553007	CrowdGO	0.459	0	0	0	0
0.763608543012	0.37844000822	CrowdGO	0.459	0	0	0	0
0.762884758773	0.375330085837	CrowdGO	0.459	0	0	0	0
0.76667839343	0.374155342812	CrowdGO	0.459	0	0	0	0
0.766471348653	0.373354381659	CrowdGO	0.459	0	0	0	0
0.767382095466	0.372987274463	CrowdGO	0.459	0	0	0	0
0.768173577814	0.372857707218	CrowdGO	0.459	0	0	0	0
0.768122717927	0.372056746064	CrowdGO	0.459	0	0	0	0
0.768122717927	0.372056746064	CrowdGO	0.459	0	0	0	0
0.772059309569	0.371781415668	CrowdGO	0.459	0	0	0	0
0.772987798202	0.370957093148	CrowdGO	0.459	0	0	0	0
0.773197549509	0.368754449976	CrowdGO	0.459	0	0	0	0
0.773099702151	0.368616784778	CrowdGO	0.459	0	0	0	0
0.775268355415	0.368616784778	CrowdGO	0.459	0	0	0	0
0.775268355415	0.368616784778	CrowdGO	0.459	0	0	0	0
0.777813605849	0.368045446998	CrowdGO	0.459	0	0	0	0
0.779183468863	0.368045446998	CrowdGO	0.459	0	0	0	0
0.78295059215	0.367635016594	CrowdGO	0.459	0	0	0	0
0.78295059215	0.36683405544	CrowdGO	0.459	0	0	0	0
0.78276091881	0.365916287452	CrowdGO	0.459	0	0	0	0
0.783331695066	0.365916287452	CrowdGO	0.459	0	0	0	0
0.783331695066	0.365716047164	CrowdGO	0.459	0	0	0	0
0.783237654127	0.365375161911	CrowdGO	0.459	0	0	0	0
0.783237654127	0.365375161911	CrowdGO	0.459	0	0	0	0
0.783430714491	0.36474583529	CrowdGO	0.459	0	0	0	0
0.788188698966	0.361441870533	CrowdGO	0.459	0	0	0	0
0.788494797713	0.358819676281	CrowdGO	0.459	0	0	0	0
0.790132524627	0.358269015488	CrowdGO	0.459	0	0	0	0
0.793457946655	0.354209858785	CrowdGO	0.459	0	0	0	0
0.793391992296	0.353965120655	CrowdGO	0.459	0	0	0	0
0.798689809743	0.352065221729	CrowdGO	0.459	0	0	0	0
0.798759254188	0.35186498144	CrowdGO	0.459	0	0	0	0
0.801192436775	0.344264544389	CrowdGO	0.459	0	0	0	0
0.803051074672	0.342460474744	CrowdGO	0.459	0	0	0	0
0.805916711629	0.340534830638	CrowdGO	0.459	0	0	0	0
0.805747987893	0.33984756427	CrowdGO	0.459	0	0	0	0
0.805747987893	0.33984756427	CrowdGO	0.459	0	0	0	0
0.808108705551	0.337969465141	CrowdGO	0.459	0	0	0	0
0.810337598655	0.336060108696	CrowdGO	0.459	0	0	0	0
0.809664301882	0.333228313269	CrowdGO	0.459	0	0	0	0
0.810001107915	0.330878827219	CrowdGO	0.459	0	0	0	0
0.809532260764	0.330585141463	CrowdGO	0.459	0	0	0	0
0.80784963934	0.327176288935	CrowdGO	0.459	0	0	0	0
0.807235582312	0.32642459325	CrowdGO	0.459	0	0	0	0
0.807556095132	0.325916290979	CrowdGO	0.459	0	0	0	0
0.807366840874	0.32213710394	CrowdGO	0.459	0	0	0	0
0.807541397501	0.320423937029	CrowdGO	0.459	0	0	0	0
0.809451575209	0.319064230847	CrowdGO	0.459	0	0	0	0
0.809314269286	0.318121293302	CrowdGO	0.459	0	0	0	0
0.81339729877	0.315787540418	CrowdGO	0.459	0	0	0	0
0.815828738625	0.310944052248	CrowdGO	0.459	0	0	0	0
0.819118210468	0.309705065464	CrowdGO	0.459	0	0	0	0
0.819402057307	0.30854802225	CrowdGO	0.459	0	0	0	0
0.822709523228	0.30854802225	CrowdGO	0.459	0	0	0	0
0.824989158486	0.30854802225	CrowdGO	0.459	0	0	0	0
0.823179924154	0.307446700665	CrowdGO	0.459	0	0	0	0
0.822132708476	0.30669150872	CrowdGO	0.459	0	0	0	0
0.822132708476	0.30669150872	CrowdGO	0.459	0	0	0	0
0.822277124394	0.30669150872	CrowdGO	0.459	0	0	0	0
0.823262681349	0.306062182099	CrowdGO	0.459	0	0	0	0
0.827237775232	0.305695074904	CrowdGO	0.459	0	0	0	0
0.827459189903	0.304569279505	CrowdGO	0.459	0	0	0	0
0.828478557895	0.303646805014	CrowdGO	0.459	0	0	0	0
0.830925041076	0.303646805014	CrowdGO	0.459	0	0	0	0
0.830925041076	0.303536672856	CrowdGO	0.459	0	0	0	0
0.829639535067	0.30186502402	CrowdGO	0.459	0	0	0	0
0.830589868653	0.300612270716	CrowdGO	0.459	0	0	0	0
0.836538586602	0.299523186037	CrowdGO	0.459	0	0	0	0
0.836672896736	0.299258868856	CrowdGO	0.459	0	0	0	0
0.840400592245	0.298430255472	CrowdGO	0.459	0	0	0	0
0.840302307317	0.298115592162	CrowdGO	0.459	0	0	0	0
0.840302307317	0.297454799211	CrowdGO	0.459	0	0	0	0
0.843326020486	0.296445254424	CrowdGO	0.459	0	0	0	0
0.843746558452	0.295068602441	CrowdGO	0.459	0	0	0	0
0.846539516448	0.293526752221	CrowdGO	0.459	0	0	0	0
0.849143683114	0.292150100238	CrowdGO	0.459	0	0	0	0
0.849391698987	0.291752400777	CrowdGO	0.459	0	0	0	0
0.853089615654	0.291385293582	CrowdGO	0.459	0	0	0	0
0.853089615654	0.291385293582	CrowdGO	0.459	0	0	0	0
0.853737978017	0.289794495735	CrowdGO	0.459	0	0	0	0
0.855667550527	0.287151323929	CrowdGO	0.459	0	0	0	0
0.857111727597	0.274488775391	CrowdGO	0.459	0	0	0	0
0.858562431275	0.273068554643	CrowdGO	0.459	0	0	0	0
0.861208917956	0.268820037978	CrowdGO	0.459	0	0	0	0
0.868634406529	0.263977560339	CrowdGO	0.459	0	0	0	0
0.868634406529	0.263702229942	CrowdGO	0.459	0	0	0	0
0.869426215716	0.262738573554	CrowdGO	0.459	0	0	0	0
0.870292975346	0.261200219593	CrowdGO	0.459	0	0	0	0
0.872714259267	0.257453864063	CrowdGO	0.459	0	0	0	0
0.872253079047	0.25690320327	CrowdGO	0.459	0	0	0	0
0.869330262469	0.250702587929	CrowdGO	0.459	0	0	0	0
0.871209961717	0.250190617355	CrowdGO	0.459	0	0	0	0
0.870052605972	0.247492168218	CrowdGO	0.459	0	0	0	0
0.871496436726	0.246851399296	CrowdGO	0.459	0	0	0	0
0.868857015696	0.244387916801	CrowdGO	0.459	0	0	0	0
0.868101728816	0.241071849608	CrowdGO	0.459	0	0	0	0
0.867723791556	0.240206525505	CrowdGO	0.459	0	0	0	0
0.867723791556	0.240206525505	CrowdGO	0.459	0	0	0	0
0.867207087617	0.239125227948	CrowdGO	0.459	0	0	0	0
0.864930949867	0.229271839009	CrowdGO	0.459	0	0	0	0
0.864344950384	0.226929742779	CrowdGO	0.459	0	0	0	0
0.865101677602	0.222039922614	CrowdGO	0.459	0	0	0	0
0.867663208004	0.221048733187	CrowdGO	0.459	0	0	0	0
0.86858100043	0.21910830944	CrowdGO	0.459	0	0	0	0
0.867768076672	0.217886843681	CrowdGO	0.459	0	0	0	0
0.873019218225	0.217642105551	CrowdGO	0.459	0	0	0	0
0.872770547425	0.215712170581	CrowdGO	0.459	0	0	0	0
0.876610793201	0.215712170581	CrowdGO	0.459	0	0	0	0
0.876393219184	0.213509527409	CrowdGO	0.459	0	0	0	0
0.876238180424	0.212428229852	CrowdGO	0.459	0	0	0	0
0.877217486563	0.210802469416	CrowdGO	0.459	0	0	0	0
0.877206360618	0.210215097904	CrowdGO	0.459	0	0	0	0
0.878958697066	0.209113776318	CrowdGO	0.459	0	0	0	0
0.881873094065	0.204777675561	CrowdGO	0.459	0	0	0	0
0.877026862027	0.199984742853	CrowdGO	0.459	0	0	0	0
0.879453491241	0.196221894102	CrowdGO	0.459	0	0	0	0
0.881526030101	0.196099525036	CrowdGO	0.459	0	0	0	0
0.881526030101	0.195429155375	CrowdGO	0.459	0	0	0	0
0.881526030101	0.195429155375	CrowdGO	0.459	0	0	0	0
0.881526030101	0.195429155375	CrowdGO	0.459	0	0	0	0
0.884133282943	0.193364883377	CrowdGO	0.459	0	0	0	0
0.883562515915	0.192385930856	CrowdGO	0.459	0	0	0	0
0.883562515915	0.192385930856	CrowdGO	0.459	0	0	0	0
0.886113256113	0.18972440369	CrowdGO	0.459	0	0	0	0
0.886113256113	0.18972440369	CrowdGO	0.459	0	0	0	0
0.887657657658	0.18972440369	CrowdGO	0.459	0	0	0	0
0.887305900621	0.189357296495	CrowdGO	0.459	0	0	0	0
0.88669008587	0.188035710592	CrowdGO	0.459	0	0	0	0
0.886479913529	0.187815446275	CrowdGO	0.459	0	0	0	0
0.888668840317	0.186493860372	CrowdGO	0.459	0	0	0	0
0.889218290867	0.186053331737	CrowdGO	0.459	0	0	0	0
0.889218290867	0.186053331737	CrowdGO	0.459	0	0	0	0
0.886088864055	0.181002985608	CrowdGO	0.459	0	0	0	0
0.887171726579	0.181002985608	CrowdGO	0.459	0	0	0	0
0.885829819405	0.176962184265	CrowdGO	0.459	0	0	0	0
0.885829819405	0.176962184265	CrowdGO	0.459	0	0	0	0
0.885829819405	0.176962184265	CrowdGO	0.459	0	0	0	0
0.882643888678	0.155214277253	CrowdGO	0.459	0	0	0	0
0.884023199023	0.155214277253	CrowdGO	0.459	0	0	0	0
0.884550101156	0.148310362811	CrowdGO	0.459	0	0	0	0
0.881965401928	0.145947527409	CrowdGO	0.459	0	0	0	0
0.884300265315	0.142877812004	CrowdGO	0.459	0	0	0	0
0.884300265315	0.142877812004	CrowdGO	0.459	0	0	0	0
0.884300265315	0.142877812004	CrowdGO	0.459	0	0	0	0
0.884059278232	0.142694258406	CrowdGO	0.459	0	0	0	0
0.884059278232	0.142564691161	CrowdGO	0.459	0	0	0	0
0.884197587824	0.139352503202	CrowdGO	0.459	0	0	0	0
0.884197587824	0.139352503202	CrowdGO	0.459	0	0	0	0
0.885544251755	0.134607874073	CrowdGO	0.459	0	0	0	0
0.883727493847	0.132417467808	CrowdGO	0.459	0	0	0	0
0.884013641186	0.129660290147	CrowdGO	0.459	0	0	0	0
0.883055076237	0.128367434372	CrowdGO	0.459	0	0	0	0
0.883055076237	0.127926905738	CrowdGO	0.459	0	0	0	0
0.892243772372	0.122920533946	CrowdGO	0.459	0	0	0	0
0.896166852471	0.120318661699	CrowdGO	0.459	0	0	0	0
0.895256035388	0.118997075796	CrowdGO	0.459	0	0	0	0
0.89593079922	0.118255663225	CrowdGO	0.459	0	0	0	0
0.895968534907	0.116787234444	CrowdGO	0.459	0	0	0	0
0.900992063492	0.115465648541	CrowdGO	0.459	0	0	0	0
0.899191919192	0.113040118858	CrowdGO	0.459	0	0	0	0
0.899191919192	0.112070955862	CrowdGO	0.459	0	0	0	0
0.897325102881	0.108440225359	CrowdGO	0.459	0	0	0	0
0.896365524403	0.10706969183	CrowdGO	0.459	0	0	0	0
0.89942002442	0.101389413958	CrowdGO	0.459	0	0	0	0
0.898443519803	0.0991867707863	CrowdGO	0.459	0	0	0	0
0.898443519803	0.0991867707863	CrowdGO	0.459	0	0	0	0
0.899315281668	0.0980854492004	CrowdGO	0.459	0	0	0	0
0.901988135321	0.0944316528801	CrowdGO	0.459	0	0	0	0
0.904632329122	0.0927414776719	CrowdGO	0.459	0	0	0	0
0.909954051796	0.091170231274	CrowdGO	0.459	0	0	0	0
0.911125116713	0.0840085279863	CrowdGO	0.459	0	0	0	0
0.900600459482	0.0741701651744	CrowdGO	0.459	0	0	0	0
0.897913985414	0.0736856963438	CrowdGO	0.459	0	0	0	0
0.897913985414	0.0736856963438	CrowdGO	0.459	0	0	0	0
0.895078262787	0.070876452235	CrowdGO	0.459	0	0	0	0
0.883916170635	0.0654397694855	CrowdGO	0.459	0	0	0	0
0.883916170635	0.0651069256285	CrowdGO	0.459	0	0	0	0
0.883916170635	0.0651069256285	CrowdGO	0.459	0	0	0	0
0.878207129846	0.0615007092799	CrowdGO	0.459	0	0	0	0
0.876177248677	0.0604518315791	CrowdGO	0.459	0	0	0	0
0.871907498632	0.0590751795967	CrowdGO	0.459	0	0	0	0
0.877041847042	0.0561661331855	CrowdGO	0.459	0	0	0	0
0.872189828312	0.0521669449256	CrowdGO	0.459	0	0	0	0
0.87147922999	0.0499031172212	CrowdGO	0.459	0	0	0	0
0.876878306878	0.0485264652389	CrowdGO	0.459	0	0	0	0
0.876878306878	0.0485264652389	CrowdGO	0.459	0	0	0	0
0.87408008658	0.0473333668541	CrowdGO	0.459	0	0	0	0
0.896303258145	0.0425909357407	CrowdGO	0.459	0	0	0	0
0.895171957672	0.0396960332863	CrowdGO	0.459	0	0	0	0
0.895171957672	0.0389801742555	CrowdGO	0.459	0	0	0	0
0.895171957672	0.0384295134626	CrowdGO	0.459	0	0	0	0
0.885642135642	0.0369023475301	CrowdGO	0.459	0	0	0	0
0.878264208909	0.0351573964459	CrowdGO	0.459	0	0	0	0
0.874206349206	0.03405607486	CrowdGO	0.459	0	0	0	0
0.874206349206	0.0337119118644	CrowdGO	0.459	0	0	0	0
0.86986863711	0.0326105902785	CrowdGO	0.459	0	0	0	0
0.860229276896	0.0296370219966	CrowdGO	0.459	0	0	0	0
0.860229276896	0.0293616916001	CrowdGO	0.459	0	0	0	0
0.860229276896	0.0287008986486	CrowdGO	0.459	0	0	0	0
0.860229276896	0.0287008986486	CrowdGO	0.459	0	0	0	0
0.849047619048	0.0259475946838	CrowdGO	0.459	0	0	0	0
0.849047619048	0.0259475946838	CrowdGO	0.459	0	0	0	0
0.842132505176	0.0244385723185	CrowdGO	0.459	0	0	0	0
0.834956709957	0.0234749159309	CrowdGO	0.459	0	0	0	0
0.842970521542	0.0220064871497	CrowdGO	0.459	0	0	0	0
0.842970521542	0.0220064871497	CrowdGO	0.459	0	0	0	0
0.835119047619	0.0207478339086	CrowdGO	0.459	0	0	0	0
0.826441102757	0.0198038439779	CrowdGO	0.459	0	0	0	0
0.826441102757	0.0198038439779	CrowdGO	0.459	0	0	0	0
0.816798941799	0.0174635356078	CrowdGO	0.459	0	0	0	0
0.806022408964	0.0159951068266	CrowdGO	0.459	0	0	0	0
0.780158730159	0.0130582492642	CrowdGO	0.459	0	0	0	0
0.780158730159	0.0130582492642	CrowdGO	0.459	0	0	0	0
0.81043956044	0.00998503760068	CrowdGO	0.459	0	0	0	0
0.826388888889	0.00872638435964	CrowdGO	0.459	0	0	0	0
0.826388888889	0.00872638435964	CrowdGO	0.459	0	0	0	0
0.841666666667	0.00786106025643	CrowdGO	0.459	0	0	0	0
0.841666666667	0.00779222765732	CrowdGO	0.459	0	0	0	0
0.875	0.00779222765732	CrowdGO	0.459	0	0	0	0
0.914285714286	0.00765456245908	CrowdGO	0.459	0	0	0	0
0.892857142857	0.00662475526187	CrowdGO	0.459	0	0	0	0
0.892857142857	0.00662475526187	CrowdGO	0.459	0	0	0	0
0.857142857143	0.00494655094049	CrowdGO	0.459	0	0	0	0
0.828571428571	0.00480888574226	CrowdGO	0.459	0	0	0	0
0.714285714286	0.00358366547794	CrowdGO	0.459	0	0	0	0
0.714285714286	0.00358366547794	CrowdGO	0.459	0	0	0	0
0.714285714286	0.00358366547794	CrowdGO	0.459	0	0	0	0
0.571428571429	0.00235997482694	CrowdGO	0.459	0	0	0	0
0.571428571429	0.00235997482694	CrowdGO	0.459	0	0	0	0
0.571428571429	0.00235997482694	CrowdGO	0.459	0	0	0	0
0.583333333333	0.00235997482694	CrowdGO	0.459	0	0	0	0
0.583333333333	0.00235997482694	CrowdGO	0.459	0	0	0	0
0.583333333333	0.00235997482694	CrowdGO	0.459	0	0	0	0
0.583333333333	0.00235997482694	CrowdGO	0.459	0	0	0	0
1.0	0.00220264317181	CrowdGO	0.459	0	0	0	0
1.0	0.00220264317181	CrowdGO	0.459	0	0	0	0
1.0	0.00220264317181	CrowdGO	0.459	0	0	0	0
1.0	0.00220264317181	CrowdGO	0.459	0	0	0	0
1.0	0.00220264317181	CrowdGO	0.459	0	0	0	0
0.0	0.0	CrowdGO	0.459	0	0	0	0
0.0	0.0	CrowdGO	0.459	0	0	0	0
0.0	0.0	CrowdGO	0.459	0	0	0	0
0.0	0.0	CrowdGO	0.459	0	0	0	0
0.0	0.0	CrowdGO	0.459	0	0	0	0
0.0	0.0	CrowdGO	0.459	0	0	0	0
0.0	0.0	CrowdGO	0.459	0	0	0	0
0.0	0.0	CrowdGO	0.459	0	0	0	0
0.0	0.0	CrowdGO	0.459	0	0	0	0
0.0	0.0	CrowdGO	0.459	0	0	0	0
0.0	0.0	CrowdGO	0.459	0	0	0	0
0.0	0.0	CrowdGO	0.459	0	0	0	0
0.0	0.0	CrowdGO	0.459	0	0	0	0
0.0	0.0	CrowdGO	0.459	0	0	0	0
0.0	0.0	CrowdGO	0.459	0	0	0	0
0.0	0.0	CrowdGO	0.459	0	0	0	0
0.0	0.0	CrowdGO	0.459	0	0	0	0
0.0	0.0	CrowdGO	0.459	0	0	0	0
0.0	0.0	CrowdGO	0.459	0	0	0	0
0.0	0.0	CrowdGO	0.459	0	0	0	0
0.0	0.0	CrowdGO	0.459	0	0	0	0
0.0	0.0	CrowdGO	0.459	0	0	0	0
0.0	0.0	CrowdGO	0.459	0	0	0	0
0.0	0.0	CrowdGO	0.459	0	0	0	0
0.0	0.0	CrowdGO	0.459	0	0	0	0
0.0	0.0	CrowdGO	0.459	0	0	0	0
0.0	0.0	CrowdGO	0.459	0	0	0	0
0.0	0.0	CrowdGO	0.459	0	0	0	0
0.0	0.0	CrowdGO	0.459	0	0	0	0
0.0	0.0	CrowdGO	0.459	0	0	0	0
0.0	0.0	CrowdGO	0.459	0	0	0	0
0.0	0.0	CrowdGO	0.459	0	0	0	0
0.0	0.0	CrowdGO	0.459	0	0	0	0
0.0	0.0	CrowdGO	0.459	0	0	0	0
0.0	0.0	CrowdGO	0.459	0	0	0	0
0.0	0.0	CrowdGO	0.459	0	0	0	0
0.0	0.0	CrowdGO	0.459	0	0	0	0
0.0	0.0	CrowdGO	0.459	0	0	0	0
0.0	0.0	CrowdGO	0.459	0	0	0	0
0.0	0.0	CrowdGO	0.459	0	0	0	0
0.0	0.0	CrowdGO	0.459	0	0	0	0
0.0	0.0	CrowdGO	0.459	0	0	0	0
0.0	0.0	CrowdGO	0.459	0	0	0	0
0.0	0.0	CrowdGO	0.459	0	0	0	0
0.0	0.0	CrowdGO	0.459	0	0	0	0
0.0	0.0	CrowdGO	0.459	0	0	0	0
0.0	0.0	CrowdGO	0.459	0	0	0	0
0.0	0.0	CrowdGO	0.459	0	0	0	0
0.0	0.0	CrowdGO	0.459	0	0	0	0
0.0	0.0	CrowdGO	0.459	0	0	0	0
0.0	0.0	CrowdGO	0.459	0	0	0	0
0.0	0.0	CrowdGO	0.459	0	0	0	0
0.0	0.0	CrowdGO	0.459	0	0	0	0
0.0	0.0	CrowdGO	0.459	0	0	0	0
0.0	0.0	CrowdGO	0.459	0	0	0	0
0.0	0.0	CrowdGO	0.459	0	0	0	0
