0.6594627078812069	0.0000001	InterProScan
0.6594627078812069	0.1346754181460279	InterProScan
0.6594627078812069	0.1346754181460279	InterProScan
0.6594627078812069	0.1346754181460279	InterProScan
0.6594627078812069	0.1346754181460279	InterProScan
0.6594627078812069	0.1346754181460279	InterProScan
0.6594627078812069	0.1346754181460279	InterProScan
0.6594627078812069	0.1346754181460279	InterProScan
0.6594627078812069	0.1346754181460279	InterProScan
0.6594627078812069	0.1346754181460279	InterProScan
0.6594627078812069	0.1346754181460279	InterProScan
0.6594627078812069	0.1346754181460279	InterProScan
0.6594627078812069	0.1346754181460279	InterProScan
0.6594627078812069	0.1346754181460279	InterProScan
0.6594627078812069	0.1346754181460279	InterProScan
0.6594627078812069	0.1346754181460279	InterProScan
0.6594627078812069	0.1346754181460279	InterProScan
0.6594627078812069	0.1346754181460279	InterProScan
0.6594627078812069	0.1346754181460279	InterProScan
0.6594627078812069	0.1346754181460279	InterProScan
0.6594627078812069	0.1346754181460279	InterProScan
0.6594627078812069	0.1346754181460279	InterProScan
0.6594627078812069	0.1346754181460279	InterProScan
0.6594627078812069	0.1346754181460279	InterProScan
0.6594627078812069	0.1346754181460279	InterProScan
0.6594627078812069	0.1346754181460279	InterProScan
0.6594627078812069	0.1346754181460279	InterProScan
0.6594627078812069	0.1346754181460279	InterProScan
0.6594627078812069	0.1346754181460279	InterProScan
0.6594627078812069	0.1346754181460279	InterProScan
0.6594627078812069	0.1346754181460279	InterProScan
0.6594627078812069	0.1346754181460279	InterProScan
0.6594627078812069	0.1346754181460279	InterProScan
0.6594627078812069	0.1346754181460279	InterProScan
0.6594627078812069	0.1346754181460279	InterProScan
0.6594627078812069	0.1346754181460279	InterProScan
0.6594627078812069	0.1346754181460279	InterProScan
0.6594627078812069	0.1346754181460279	InterProScan
0.6594627078812069	0.1346754181460279	InterProScan
0.6594627078812069	0.1346754181460279	InterProScan
0.6594627078812069	0.1346754181460279	InterProScan
0.6594627078812069	0.1346754181460279	InterProScan
0.6594627078812069	0.1346754181460279	InterProScan
0.6594627078812069	0.1346754181460279	InterProScan
0.6594627078812069	0.1346754181460279	InterProScan
0.6594627078812069	0.1346754181460279	InterProScan
0.6594627078812069	0.1346754181460279	InterProScan
0.6594627078812069	0.1346754181460279	InterProScan
0.6594627078812069	0.1346754181460279	InterProScan
0.6594627078812069	0.1346754181460279	InterProScan
0.6594627078812069	0.1346754181460279	InterProScan
0.6594627078812069	0.1346754181460279	InterProScan
0.6594627078812069	0.1346754181460279	InterProScan
0.6594627078812069	0.1346754181460279	InterProScan
0.6594627078812069	0.1346754181460279	InterProScan
0.6594627078812069	0.1346754181460279	InterProScan
0.6594627078812069	0.1346754181460279	InterProScan
0.6594627078812069	0.1346754181460279	InterProScan
0.6594627078812069	0.1346754181460279	InterProScan
0.6594627078812069	0.1346754181460279	InterProScan
0.6594627078812069	0.1346754181460279	InterProScan
0.6594627078812069	0.1346754181460279	InterProScan
0.6594627078812069	0.1346754181460279	InterProScan
0.6594627078812069	0.1346754181460279	InterProScan
0.6594627078812069	0.1346754181460279	InterProScan
0.6594627078812069	0.1346754181460279	InterProScan
0.6594627078812069	0.1346754181460279	InterProScan
0.6594627078812069	0.1346754181460279	InterProScan
0.6594627078812069	0.1346754181460279	InterProScan
0.6594627078812069	0.1346754181460279	InterProScan
0.6594627078812069	0.1346754181460279	InterProScan
0.6594627078812069	0.1346754181460279	InterProScan
0.6594627078812069	0.1346754181460279	InterProScan
0.6594627078812069	0.1346754181460279	InterProScan
0.6594627078812069	0.1346754181460279	InterProScan
0.6594627078812069	0.1346754181460279	InterProScan
0.6594627078812069	0.1346754181460279	InterProScan
0.6594627078812069	0.1346754181460279	InterProScan
0.6594627078812069	0.1346754181460279	InterProScan
0.6594627078812069	0.1346754181460279	InterProScan
0.6594627078812069	0.1346754181460279	InterProScan
0.6594627078812069	0.1346754181460279	InterProScan
0.6594627078812069	0.1346754181460279	InterProScan
0.6594627078812069	0.1346754181460279	InterProScan
0.6594627078812069	0.1346754181460279	InterProScan
0.6594627078812069	0.1346754181460279	InterProScan
0.6594627078812069	0.1346754181460279	InterProScan
0.6594627078812069	0.1346754181460279	InterProScan
0.6594627078812069	0.1346754181460279	InterProScan
0.6594627078812069	0.1346754181460279	InterProScan
0.6594627078812069	0.1346754181460279	InterProScan
0.6594627078812069	0.1346754181460279	InterProScan
0.6594627078812069	0.1346754181460279	InterProScan
0.6594627078812069	0.1346754181460279	InterProScan
0.6594627078812069	0.1346754181460279	InterProScan
0.6594627078812069	0.1346754181460279	InterProScan
0.6594627078812069	0.1346754181460279	InterProScan
0.6594627078812069	0.1346754181460279	InterProScan
0.6594627078812069	0.1346754181460279	InterProScan
0.6594627078812069	0.1346754181460279	InterProScan
0.6594627078812069	0.1346754181460279	InterProScan
0.6594627078812069	0.1346754181460279	InterProScan
0.6594627078812069	0.1346754181460279	InterProScan
0.6594627078812069	0.1346754181460279	InterProScan
0.6594627078812069	0.1346754181460279	InterProScan
0.6594627078812069	0.1346754181460279	InterProScan
0.6594627078812069	0.1346754181460279	InterProScan
0.6594627078812069	0.1346754181460279	InterProScan
0.6594627078812069	0.1346754181460279	InterProScan
0.6594627078812069	0.1346754181460279	InterProScan
0.6594627078812069	0.1346754181460279	InterProScan
0.6594627078812069	0.1346754181460279	InterProScan
0.6594627078812069	0.1346754181460279	InterProScan
0.6594627078812069	0.1346754181460279	InterProScan
0.6594627078812069	0.1346754181460279	InterProScan
0.6594627078812069	0.1346754181460279	InterProScan
0.6594627078812069	0.1346754181460279	InterProScan
0.6594627078812069	0.1346754181460279	InterProScan
0.6594627078812069	0.1346754181460279	InterProScan
0.6594627078812069	0.1346754181460279	InterProScan
0.6594627078812069	0.1346754181460279	InterProScan
0.6594627078812069	0.1346754181460279	InterProScan
0.6594627078812069	0.1346754181460279	InterProScan
0.6594627078812069	0.1346754181460279	InterProScan
0.6594627078812069	0.1346754181460279	InterProScan
0.6594627078812069	0.1346754181460279	InterProScan
0.6594627078812069	0.1346754181460279	InterProScan
0.6594627078812069	0.1346754181460279	InterProScan
0.6594627078812069	0.1346754181460279	InterProScan
0.6594627078812069	0.1346754181460279	InterProScan
0.6594627078812069	0.1346754181460279	InterProScan
0.6594627078812069	0.1346754181460279	InterProScan
0.6594627078812069	0.1346754181460279	InterProScan
0.6594627078812069	0.1346754181460279	InterProScan
0.6594627078812069	0.1346754181460279	InterProScan
0.6594627078812069	0.1346754181460279	InterProScan
0.6594627078812069	0.1346754181460279	InterProScan
0.6594627078812069	0.1346754181460279	InterProScan
0.6594627078812069	0.1346754181460279	InterProScan
0.6594627078812069	0.1346754181460279	InterProScan
0.6594627078812069	0.1346754181460279	InterProScan
0.6594627078812069	0.1346754181460279	InterProScan
0.6594627078812069	0.1346754181460279	InterProScan
0.6594627078812069	0.1346754181460279	InterProScan
0.6594627078812069	0.1346754181460279	InterProScan
0.6594627078812069	0.1346754181460279	InterProScan
0.6594627078812069	0.1346754181460279	InterProScan
0.6594627078812069	0.1346754181460279	InterProScan
0.6594627078812069	0.1346754181460279	InterProScan
0.6594627078812069	0.1346754181460279	InterProScan
0.6594627078812069	0.1346754181460279	InterProScan
0.6594627078812069	0.1346754181460279	InterProScan
0.6594627078812069	0.1346754181460279	InterProScan
0.6594627078812069	0.1346754181460279	InterProScan
0.6594627078812069	0.1346754181460279	InterProScan
0.6594627078812069	0.1346754181460279	InterProScan
0.6594627078812069	0.1346754181460279	InterProScan
0.6594627078812069	0.1346754181460279	InterProScan
0.6594627078812069	0.1346754181460279	InterProScan
0.6594627078812069	0.1346754181460279	InterProScan
0.6594627078812069	0.1346754181460279	InterProScan
0.6594627078812069	0.1346754181460279	InterProScan
0.6594627078812069	0.1346754181460279	InterProScan
0.6594627078812069	0.1346754181460279	InterProScan
0.6594627078812069	0.1346754181460279	InterProScan
0.6594627078812069	0.1346754181460279	InterProScan
0.6594627078812069	0.1346754181460279	InterProScan
0.6594627078812069	0.1346754181460279	InterProScan
0.6594627078812069	0.1346754181460279	InterProScan
0.6594627078812069	0.1346754181460279	InterProScan
0.6594627078812069	0.1346754181460279	InterProScan
0.6594627078812069	0.1346754181460279	InterProScan
0.6594627078812069	0.1346754181460279	InterProScan
0.6594627078812069	0.1346754181460279	InterProScan
0.6594627078812069	0.1346754181460279	InterProScan
0.6594627078812069	0.1346754181460279	InterProScan
0.6594627078812069	0.1346754181460279	InterProScan
0.6594627078812069	0.1346754181460279	InterProScan
0.6594627078812069	0.1346754181460279	InterProScan
0.6594627078812069	0.1346754181460279	InterProScan
0.6594627078812069	0.1346754181460279	InterProScan
0.6594627078812069	0.1346754181460279	InterProScan
0.6594627078812069	0.1346754181460279	InterProScan
0.6594627078812069	0.1346754181460279	InterProScan
0.6594627078812069	0.1346754181460279	InterProScan
0.6594627078812069	0.1346754181460279	InterProScan
0.6594627078812069	0.1346754181460279	InterProScan
0.6594627078812069	0.1346754181460279	InterProScan
0.6594627078812069	0.1346754181460279	InterProScan
0.6594627078812069	0.1346754181460279	InterProScan
0.6594627078812069	0.1346754181460279	InterProScan
0.6594627078812069	0.1346754181460279	InterProScan
0.6594627078812069	0.1346754181460279	InterProScan
0.6594627078812069	0.1346754181460279	InterProScan
0.6594627078812069	0.1346754181460279	InterProScan
0.6594627078812069	0.1346754181460279	InterProScan
0.6594627078812069	0.1346754181460279	InterProScan
0.6594627078812069	0.1346754181460279	InterProScan
0.6594627078812069	0.1346754181460279	InterProScan
0.6594627078812069	0.1346754181460279	InterProScan
0.6594627078812069	0.1346754181460279	InterProScan
0.6594627078812069	0.1346754181460279	InterProScan
0.6594627078812069	0.1346754181460279	InterProScan
0.6594627078812069	0.1346754181460279	InterProScan
0.6594627078812069	0.1346754181460279	InterProScan
0.6594627078812069	0.1346754181460279	InterProScan
0.6594627078812069	0.1346754181460279	InterProScan
0.6594627078812069	0.1346754181460279	InterProScan
0.6594627078812069	0.1346754181460279	InterProScan
0.6594627078812069	0.1346754181460279	InterProScan
0.6594627078812069	0.1346754181460279	InterProScan
0.6594627078812069	0.1346754181460279	InterProScan
0.6594627078812069	0.1346754181460279	InterProScan
0.6594627078812069	0.1346754181460279	InterProScan
0.6594627078812069	0.1346754181460279	InterProScan
0.6594627078812069	0.1346754181460279	InterProScan
0.6594627078812069	0.1346754181460279	InterProScan
0.6594627078812069	0.1346754181460279	InterProScan
0.6594627078812069	0.1346754181460279	InterProScan
0.6594627078812069	0.1346754181460279	InterProScan
0.6594627078812069	0.1346754181460279	InterProScan
0.6594627078812069	0.1346754181460279	InterProScan
0.6594627078812069	0.1346754181460279	InterProScan
0.6594627078812069	0.1346754181460279	InterProScan
0.6594627078812069	0.1346754181460279	InterProScan
0.6594627078812069	0.1346754181460279	InterProScan
0.6594627078812069	0.1346754181460279	InterProScan
0.6594627078812069	0.1346754181460279	InterProScan
0.6594627078812069	0.1346754181460279	InterProScan
0.6594627078812069	0.1346754181460279	InterProScan
0.6594627078812069	0.1346754181460279	InterProScan
0.6594627078812069	0.1346754181460279	InterProScan
0.6594627078812069	0.1346754181460279	InterProScan
0.6594627078812069	0.1346754181460279	InterProScan
0.6594627078812069	0.1346754181460279	InterProScan
0.6594627078812069	0.1346754181460279	InterProScan
0.6594627078812069	0.1346754181460279	InterProScan
0.6594627078812069	0.1346754181460279	InterProScan
0.6594627078812069	0.1346754181460279	InterProScan
0.6594627078812069	0.1346754181460279	InterProScan
0.6594627078812069	0.1346754181460279	InterProScan
0.6594627078812069	0.1346754181460279	InterProScan
0.6594627078812069	0.1346754181460279	InterProScan
0.6594627078812069	0.1346754181460279	InterProScan
0.6594627078812069	0.1346754181460279	InterProScan
0.6594627078812069	0.1346754181460279	InterProScan
0.6594627078812069	0.1346754181460279	InterProScan
0.6594627078812069	0.1346754181460279	InterProScan
0.6594627078812069	0.1346754181460279	InterProScan
0.6594627078812069	0.1346754181460279	InterProScan
0.6594627078812069	0.1346754181460279	InterProScan
0.6594627078812069	0.1346754181460279	InterProScan
0.6594627078812069	0.1346754181460279	InterProScan
0.6594627078812069	0.1346754181460279	InterProScan
0.6594627078812069	0.1346754181460279	InterProScan
0.6594627078812069	0.1346754181460279	InterProScan
0.6594627078812069	0.1346754181460279	InterProScan
0.6594627078812069	0.1346754181460279	InterProScan
0.6594627078812069	0.1346754181460279	InterProScan
0.6594627078812069	0.1346754181460279	InterProScan
0.6594627078812069	0.1346754181460279	InterProScan
0.6594627078812069	0.1346754181460279	InterProScan
0.6594627078812069	0.1346754181460279	InterProScan
0.6594627078812069	0.1346754181460279	InterProScan
0.6594627078812069	0.1346754181460279	InterProScan
0.6594627078812069	0.1346754181460279	InterProScan
0.6594627078812069	0.1346754181460279	InterProScan
0.6594627078812069	0.1346754181460279	InterProScan
0.6594627078812069	0.1346754181460279	InterProScan
0.6594627078812069	0.1346754181460279	InterProScan
0.6594627078812069	0.1346754181460279	InterProScan
0.6594627078812069	0.1346754181460279	InterProScan
0.6594627078812069	0.1346754181460279	InterProScan
0.6594627078812069	0.1346754181460279	InterProScan
0.6594627078812069	0.1346754181460279	InterProScan
0.6594627078812069	0.1346754181460279	InterProScan
0.6594627078812069	0.1346754181460279	InterProScan
0.6594627078812069	0.1346754181460279	InterProScan
0.6594627078812069	0.1346754181460279	InterProScan
0.6594627078812069	0.1346754181460279	InterProScan
0.6594627078812069	0.1346754181460279	InterProScan
0.6594627078812069	0.1346754181460279	InterProScan
0.6594627078812069	0.1346754181460279	InterProScan
0.6594627078812069	0.1346754181460279	InterProScan
0.6594627078812069	0.1346754181460279	InterProScan
0.6594627078812069	0.1346754181460279	InterProScan
0.6594627078812069	0.1346754181460279	InterProScan
0.6594627078812069	0.1346754181460279	InterProScan
0.6594627078812069	0.1346754181460279	InterProScan
0.6594627078812069	0.1346754181460279	InterProScan
0.6594627078812069	0.1346754181460279	InterProScan
0.6594627078812069	0.1346754181460279	InterProScan
0.6594627078812069	0.1346754181460279	InterProScan
0.6594627078812069	0.1346754181460279	InterProScan
0.6594627078812069	0.1346754181460279	InterProScan
0.6594627078812069	0.1346754181460279	InterProScan
0.6594627078812069	0.1346754181460279	InterProScan
0.6594627078812069	0.1346754181460279	InterProScan
0.6594627078812069	0.1346754181460279	InterProScan
0.6594627078812069	0.1346754181460279	InterProScan
0.6594627078812069	0.1346754181460279	InterProScan
0.6594627078812069	0.1346754181460279	InterProScan
0.6594627078812069	0.1346754181460279	InterProScan
0.6594627078812069	0.1346754181460279	InterProScan
0.6594627078812069	0.1346754181460279	InterProScan
0.6594627078812069	0.1346754181460279	InterProScan
0.6594627078812069	0.1346754181460279	InterProScan
0.6594627078812069	0.1346754181460279	InterProScan
0.6594627078812069	0.1346754181460279	InterProScan
0.6594627078812069	0.1346754181460279	InterProScan
0.6594627078812069	0.1346754181460279	InterProScan
0.6594627078812069	0.1346754181460279	InterProScan
0.6594627078812069	0.1346754181460279	InterProScan
0.6594627078812069	0.1346754181460279	InterProScan
0.6594627078812069	0.1346754181460279	InterProScan
0.6594627078812069	0.1346754181460279	InterProScan
0.6594627078812069	0.1346754181460279	InterProScan
0.6594627078812069	0.1346754181460279	InterProScan
0.6594627078812069	0.1346754181460279	InterProScan
0.6594627078812069	0.1346754181460279	InterProScan
0.6594627078812069	0.1346754181460279	InterProScan
0.6594627078812069	0.1346754181460279	InterProScan
0.6594627078812069	0.1346754181460279	InterProScan
0.6594627078812069	0.1346754181460279	InterProScan
0.6594627078812069	0.1346754181460279	InterProScan
0.6594627078812069	0.1346754181460279	InterProScan
0.6594627078812069	0.1346754181460279	InterProScan
0.6594627078812069	0.1346754181460279	InterProScan
0.6594627078812069	0.1346754181460279	InterProScan
0.6594627078812069	0.1346754181460279	InterProScan
0.6594627078812069	0.1346754181460279	InterProScan
0.6594627078812069	0.1346754181460279	InterProScan
0.6594627078812069	0.1346754181460279	InterProScan
0.6594627078812069	0.1346754181460279	InterProScan
0.6594627078812069	0.1346754181460279	InterProScan
0.6594627078812069	0.1346754181460279	InterProScan
0.6594627078812069	0.1346754181460279	InterProScan
0.6594627078812069	0.1346754181460279	InterProScan
0.6594627078812069	0.1346754181460279	InterProScan
0.6594627078812069	0.1346754181460279	InterProScan
0.6594627078812069	0.1346754181460279	InterProScan
0.6594627078812069	0.1346754181460279	InterProScan
0.6594627078812069	0.1346754181460279	InterProScan
0.6594627078812069	0.1346754181460279	InterProScan
0.6594627078812069	0.1346754181460279	InterProScan
0.6594627078812069	0.1346754181460279	InterProScan
0.6594627078812069	0.1346754181460279	InterProScan
0.6594627078812069	0.1346754181460279	InterProScan
0.6594627078812069	0.1346754181460279	InterProScan
0.6594627078812069	0.1346754181460279	InterProScan
0.6594627078812069	0.1346754181460279	InterProScan
0.6594627078812069	0.1346754181460279	InterProScan
0.6594627078812069	0.1346754181460279	InterProScan
0.6594627078812069	0.1346754181460279	InterProScan
0.6594627078812069	0.1346754181460279	InterProScan
0.6594627078812069	0.1346754181460279	InterProScan
0.6594627078812069	0.1346754181460279	InterProScan
0.6594627078812069	0.1346754181460279	InterProScan
0.6594627078812069	0.1346754181460279	InterProScan
0.6594627078812069	0.1346754181460279	InterProScan
0.6594627078812069	0.1346754181460279	InterProScan
0.6594627078812069	0.1346754181460279	InterProScan
0.6594627078812069	0.1346754181460279	InterProScan
0.6594627078812069	0.1346754181460279	InterProScan
0.6594627078812069	0.1346754181460279	InterProScan
0.6594627078812069	0.1346754181460279	InterProScan
0.6594627078812069	0.1346754181460279	InterProScan
0.6594627078812069	0.1346754181460279	InterProScan
0.6594627078812069	0.1346754181460279	InterProScan
0.6594627078812069	0.1346754181460279	InterProScan
0.6594627078812069	0.1346754181460279	InterProScan
0.6594627078812069	0.1346754181460279	InterProScan
0.6594627078812069	0.1346754181460279	InterProScan
0.6594627078812069	0.1346754181460279	InterProScan
0.6594627078812069	0.1346754181460279	InterProScan
0.6594627078812069	0.1346754181460279	InterProScan
0.6594627078812069	0.1346754181460279	InterProScan
0.6594627078812069	0.1346754181460279	InterProScan
0.6594627078812069	0.1346754181460279	InterProScan
0.6594627078812069	0.1346754181460279	InterProScan
0.6594627078812069	0.1346754181460279	InterProScan
0.6594627078812069	0.1346754181460279	InterProScan
0.6594627078812069	0.1346754181460279	InterProScan
0.6594627078812069	0.1346754181460279	InterProScan
0.6594627078812069	0.1346754181460279	InterProScan
0.6594627078812069	0.1346754181460279	InterProScan
0.6594627078812069	0.1346754181460279	InterProScan
0.6594627078812069	0.1346754181460279	InterProScan
0.6594627078812069	0.1346754181460279	InterProScan
0.6594627078812069	0.1346754181460279	InterProScan
0.6594627078812069	0.1346754181460279	InterProScan
0.6594627078812069	0.1346754181460279	InterProScan
0.6594627078812069	0.1346754181460279	InterProScan
0.6594627078812069	0.1346754181460279	InterProScan
0.6594627078812069	0.1346754181460279	InterProScan
0.6594627078812069	0.1346754181460279	InterProScan
0.6594627078812069	0.1346754181460279	InterProScan
0.6594627078812069	0.1346754181460279	InterProScan
0.6594627078812069	0.1346754181460279	InterProScan
0.6594627078812069	0.1346754181460279	InterProScan
0.6594627078812069	0.1346754181460279	InterProScan
0.6594627078812069	0.1346754181460279	InterProScan
0.6594627078812069	0.1346754181460279	InterProScan
0.6594627078812069	0.1346754181460279	InterProScan
0.6594627078812069	0.1346754181460279	InterProScan
0.6594627078812069	0.1346754181460279	InterProScan
0.6594627078812069	0.1346754181460279	InterProScan
0.6594627078812069	0.1346754181460279	InterProScan
0.6594627078812069	0.1346754181460279	InterProScan
0.6594627078812069	0.1346754181460279	InterProScan
0.6594627078812069	0.1346754181460279	InterProScan
0.6594627078812069	0.1346754181460279	InterProScan
0.6594627078812069	0.1346754181460279	InterProScan
0.6594627078812069	0.1346754181460279	InterProScan
0.6594627078812069	0.1346754181460279	InterProScan
0.6594627078812069	0.1346754181460279	InterProScan
0.6594627078812069	0.1346754181460279	InterProScan
0.6594627078812069	0.1346754181460279	InterProScan
0.6594627078812069	0.1346754181460279	InterProScan
0.6594627078812069	0.1346754181460279	InterProScan
0.6594627078812069	0.1346754181460279	InterProScan
0.6594627078812069	0.1346754181460279	InterProScan
0.6594627078812069	0.1346754181460279	InterProScan
0.6594627078812069	0.1346754181460279	InterProScan
0.6594627078812069	0.1346754181460279	InterProScan
0.6594627078812069	0.1346754181460279	InterProScan
0.6594627078812069	0.1346754181460279	InterProScan
0.6594627078812069	0.1346754181460279	InterProScan
0.6594627078812069	0.1346754181460279	InterProScan
0.6594627078812069	0.1346754181460279	InterProScan
0.6594627078812069	0.1346754181460279	InterProScan
0.6594627078812069	0.1346754181460279	InterProScan
0.6594627078812069	0.1346754181460279	InterProScan
0.6594627078812069	0.1346754181460279	InterProScan
0.6594627078812069	0.1346754181460279	InterProScan
0.6594627078812069	0.1346754181460279	InterProScan
0.6594627078812069	0.1346754181460279	InterProScan
0.6594627078812069	0.1346754181460279	InterProScan
0.6594627078812069	0.1346754181460279	InterProScan
0.6594627078812069	0.1346754181460279	InterProScan
0.6594627078812069	0.1346754181460279	InterProScan
0.6594627078812069	0.1346754181460279	InterProScan
0.6594627078812069	0.1346754181460279	InterProScan
0.6594627078812069	0.1346754181460279	InterProScan
0.6594627078812069	0.1346754181460279	InterProScan
0.6594627078812069	0.1346754181460279	InterProScan
0.6594627078812069	0.1346754181460279	InterProScan
0.6594627078812069	0.1346754181460279	InterProScan
0.6594627078812069	0.1346754181460279	InterProScan
0.6594627078812069	0.1346754181460279	InterProScan
0.6594627078812069	0.1346754181460279	InterProScan
0.6594627078812069	0.1346754181460279	InterProScan
0.6594627078812069	0.1346754181460279	InterProScan
0.6594627078812069	0.1346754181460279	InterProScan
0.6594627078812069	0.1346754181460279	InterProScan
0.6594627078812069	0.1346754181460279	InterProScan
0.6594627078812069	0.1346754181460279	InterProScan
0.6594627078812069	0.1346754181460279	InterProScan
0.6594627078812069	0.1346754181460279	InterProScan
0.6594627078812069	0.1346754181460279	InterProScan
0.6594627078812069	0.1346754181460279	InterProScan
0.6594627078812069	0.1346754181460279	InterProScan
0.6594627078812069	0.1346754181460279	InterProScan
0.6594627078812069	0.1346754181460279	InterProScan
0.6594627078812069	0.1346754181460279	InterProScan
0.6594627078812069	0.1346754181460279	InterProScan
0.6594627078812069	0.1346754181460279	InterProScan
0.6594627078812069	0.1346754181460279	InterProScan
0.6594627078812069	0.1346754181460279	InterProScan
0.6594627078812069	0.1346754181460279	InterProScan
0.6594627078812069	0.1346754181460279	InterProScan
0.6594627078812069	0.1346754181460279	InterProScan
0.6594627078812069	0.1346754181460279	InterProScan
0.6594627078812069	0.1346754181460279	InterProScan
0.6594627078812069	0.1346754181460279	InterProScan
0.6594627078812069	0.1346754181460279	InterProScan
0.6594627078812069	0.1346754181460279	InterProScan
0.6594627078812069	0.1346754181460279	InterProScan
0.6594627078812069	0.1346754181460279	InterProScan
0.6594627078812069	0.1346754181460279	InterProScan
0.6594627078812069	0.1346754181460279	InterProScan
0.6594627078812069	0.1346754181460279	InterProScan
0.6594627078812069	0.1346754181460279	InterProScan
0.6594627078812069	0.1346754181460279	InterProScan
0.6594627078812069	0.1346754181460279	InterProScan
0.6594627078812069	0.1346754181460279	InterProScan
0.6594627078812069	0.1346754181460279	InterProScan
0.6594627078812069	0.1346754181460279	InterProScan
0.6594627078812069	0.1346754181460279	InterProScan
0.6594627078812069	0.1346754181460279	InterProScan
0.6594627078812069	0.1346754181460279	InterProScan
0.6594627078812069	0.1346754181460279	InterProScan
0.6594627078812069	0.1346754181460279	InterProScan
0.6594627078812069	0.1346754181460279	InterProScan
0.6594627078812069	0.1346754181460279	InterProScan
0.6594627078812069	0.1346754181460279	InterProScan
0.6594627078812069	0.1346754181460279	InterProScan
0.6594627078812069	0.1346754181460279	InterProScan
0.6594627078812069	0.1346754181460279	InterProScan
0.6594627078812069	0.1346754181460279	InterProScan
0.6594627078812069	0.1346754181460279	InterProScan
0.6594627078812069	0.1346754181460279	InterProScan
0.6594627078812069	0.1346754181460279	InterProScan
0.6594627078812069	0.1346754181460279	InterProScan
0.6594627078812069	0.1346754181460279	InterProScan
0.6594627078812069	0.1346754181460279	InterProScan
0.6594627078812069	0.1346754181460279	InterProScan
0.6594627078812069	0.1346754181460279	InterProScan
0.6594627078812069	0.1346754181460279	InterProScan
0.6594627078812069	0.1346754181460279	InterProScan
0.6594627078812069	0.1346754181460279	InterProScan
0.6594627078812069	0.1346754181460279	InterProScan
0.6594627078812069	0.1346754181460279	InterProScan
0.6594627078812069	0.1346754181460279	InterProScan
0.6594627078812069	0.1346754181460279	InterProScan
0.6594627078812069	0.1346754181460279	InterProScan
0.6594627078812069	0.1346754181460279	InterProScan
0.6594627078812069	0.1346754181460279	InterProScan
0.6594627078812069	0.1346754181460279	InterProScan
0.6594627078812069	0.1346754181460279	InterProScan
0.6594627078812069	0.1346754181460279	InterProScan
0.6594627078812069	0.1346754181460279	InterProScan
0.6594627078812069	0.1346754181460279	InterProScan
0.6594627078812069	0.1346754181460279	InterProScan
0.6594627078812069	0.1346754181460279	InterProScan
0.6594627078812069	0.1346754181460279	InterProScan
0.6594627078812069	0.1346754181460279	InterProScan
0.6594627078812069	0.1346754181460279	InterProScan
0.6594627078812069	0.1346754181460279	InterProScan
0.6594627078812069	0.1346754181460279	InterProScan
0.6594627078812069	0.1346754181460279	InterProScan
0.6594627078812069	0.1346754181460279	InterProScan
0.6594627078812069	0.1346754181460279	InterProScan
0.6594627078812069	0.1346754181460279	InterProScan
0.6594627078812069	0.1346754181460279	InterProScan
0.6594627078812069	0.1346754181460279	InterProScan
0.6594627078812069	0.1346754181460279	InterProScan
0.6594627078812069	0.1346754181460279	InterProScan
0.6594627078812069	0.1346754181460279	InterProScan
0.6594627078812069	0.1346754181460279	InterProScan
0.6594627078812069	0.1346754181460279	InterProScan
0.6594627078812069	0.1346754181460279	InterProScan
0.6594627078812069	0.1346754181460279	InterProScan
0.6594627078812069	0.1346754181460279	InterProScan
0.6594627078812069	0.1346754181460279	InterProScan
0.6594627078812069	0.1346754181460279	InterProScan
0.6594627078812069	0.1346754181460279	InterProScan
0.6594627078812069	0.1346754181460279	InterProScan
0.6594627078812069	0.1346754181460279	InterProScan
0.6594627078812069	0.1346754181460279	InterProScan
0.6594627078812069	0.1346754181460279	InterProScan
0.6594627078812069	0.1346754181460279	InterProScan
0.6594627078812069	0.1346754181460279	InterProScan
0.6594627078812069	0.1346754181460279	InterProScan
0.6594627078812069	0.1346754181460279	InterProScan
0.6594627078812069	0.1346754181460279	InterProScan
0.6594627078812069	0.1346754181460279	InterProScan
0.6594627078812069	0.1346754181460279	InterProScan
0.6594627078812069	0.1346754181460279	InterProScan
0.6594627078812069	0.1346754181460279	InterProScan
0.6594627078812069	0.1346754181460279	InterProScan
0.6594627078812069	0.1346754181460279	InterProScan
0.6594627078812069	0.1346754181460279	InterProScan
0.6594627078812069	0.1346754181460279	InterProScan
0.6594627078812069	0.1346754181460279	InterProScan
0.6594627078812069	0.1346754181460279	InterProScan
0.6594627078812069	0.1346754181460279	InterProScan
0.6594627078812069	0.1346754181460279	InterProScan
0.6594627078812069	0.1346754181460279	InterProScan
0.6594627078812069	0.1346754181460279	InterProScan
0.6594627078812069	0.1346754181460279	InterProScan
0.6594627078812069	0.1346754181460279	InterProScan
0.6594627078812069	0.1346754181460279	InterProScan
0.6594627078812069	0.1346754181460279	InterProScan
0.6594627078812069	0.1346754181460279	InterProScan
0.6594627078812069	0.1346754181460279	InterProScan
0.6594627078812069	0.1346754181460279	InterProScan
0.6594627078812069	0.1346754181460279	InterProScan
0.6594627078812069	0.1346754181460279	InterProScan
0.6594627078812069	0.1346754181460279	InterProScan
0.6594627078812069	0.1346754181460279	InterProScan
0.6594627078812069	0.1346754181460279	InterProScan
0.6594627078812069	0.1346754181460279	InterProScan
0.6594627078812069	0.1346754181460279	InterProScan
0.6594627078812069	0.1346754181460279	InterProScan
0.6594627078812069	0.1346754181460279	InterProScan
0.6594627078812069	0.1346754181460279	InterProScan
0.6594627078812069	0.1346754181460279	InterProScan
0.6594627078812069	0.1346754181460279	InterProScan
0.6594627078812069	0.1346754181460279	InterProScan
0.6594627078812069	0.1346754181460279	InterProScan
0.6594627078812069	0.1346754181460279	InterProScan
0.6594627078812069	0.1346754181460279	InterProScan
0.6594627078812069	0.1346754181460279	InterProScan
0.6594627078812069	0.1346754181460279	InterProScan
0.6594627078812069	0.1346754181460279	InterProScan
0.6594627078812069	0.1346754181460279	InterProScan
0.6594627078812069	0.1346754181460279	InterProScan
0.6594627078812069	0.1346754181460279	InterProScan
0.6594627078812069	0.1346754181460279	InterProScan
0.6594627078812069	0.1346754181460279	InterProScan
0.6594627078812069	0.1346754181460279	InterProScan
0.6594627078812069	0.1346754181460279	InterProScan
0.6594627078812069	0.1346754181460279	InterProScan
0.6594627078812069	0.1346754181460279	InterProScan
0.6594627078812069	0.1346754181460279	InterProScan
0.6594627078812069	0.1346754181460279	InterProScan
0.6594627078812069	0.1346754181460279	InterProScan
0.6594627078812069	0.1346754181460279	InterProScan
0.6594627078812069	0.1346754181460279	InterProScan
0.6594627078812069	0.1346754181460279	InterProScan
0.6594627078812069	0.1346754181460279	InterProScan
0.6594627078812069	0.1346754181460279	InterProScan
0.6594627078812069	0.1346754181460279	InterProScan
0.6594627078812069	0.1346754181460279	InterProScan
0.6594627078812069	0.1346754181460279	InterProScan
0.6594627078812069	0.1346754181460279	InterProScan
0.6594627078812069	0.1346754181460279	InterProScan
0.6594627078812069	0.1346754181460279	InterProScan
0.6594627078812069	0.1346754181460279	InterProScan
0.6594627078812069	0.1346754181460279	InterProScan
0.6594627078812069	0.1346754181460279	InterProScan
0.6594627078812069	0.1346754181460279	InterProScan
0.6594627078812069	0.1346754181460279	InterProScan
0.6594627078812069	0.1346754181460279	InterProScan
0.6594627078812069	0.1346754181460279	InterProScan
0.6594627078812069	0.1346754181460279	InterProScan
0.6594627078812069	0.1346754181460279	InterProScan
0.6594627078812069	0.1346754181460279	InterProScan
0.6594627078812069	0.1346754181460279	InterProScan
0.6594627078812069	0.1346754181460279	InterProScan
0.6594627078812069	0.1346754181460279	InterProScan
0.6594627078812069	0.1346754181460279	InterProScan
0.6594627078812069	0.1346754181460279	InterProScan
0.6594627078812069	0.1346754181460279	InterProScan
0.6594627078812069	0.1346754181460279	InterProScan
0.6594627078812069	0.1346754181460279	InterProScan
0.6594627078812069	0.1346754181460279	InterProScan
0.6594627078812069	0.1346754181460279	InterProScan
0.6594627078812069	0.1346754181460279	InterProScan
0.6594627078812069	0.1346754181460279	InterProScan
0.6594627078812069	0.1346754181460279	InterProScan
0.6594627078812069	0.1346754181460279	InterProScan
0.6594627078812069	0.1346754181460279	InterProScan
0.6594627078812069	0.1346754181460279	InterProScan
0.6594627078812069	0.1346754181460279	InterProScan
0.6594627078812069	0.1346754181460279	InterProScan
0.6594627078812069	0.1346754181460279	InterProScan
0.6594627078812069	0.1346754181460279	InterProScan
0.6594627078812069	0.1346754181460279	InterProScan
0.6594627078812069	0.1346754181460279	InterProScan
0.6594627078812069	0.1346754181460279	InterProScan
0.6594627078812069	0.1346754181460279	InterProScan
0.6594627078812069	0.1346754181460279	InterProScan
0.6594627078812069	0.1346754181460279	InterProScan
0.6594627078812069	0.1346754181460279	InterProScan
0.6594627078812069	0.1346754181460279	InterProScan
0.6594627078812069	0.1346754181460279	InterProScan
0.6594627078812069	0.1346754181460279	InterProScan
0.6594627078812069	0.1346754181460279	InterProScan
0.6594627078812069	0.1346754181460279	InterProScan
0.6594627078812069	0.1346754181460279	InterProScan
0.6594627078812069	0.1346754181460279	InterProScan
0.6594627078812069	0.1346754181460279	InterProScan
0.6594627078812069	0.1346754181460279	InterProScan
0.6594627078812069	0.1346754181460279	InterProScan
0.6594627078812069	0.1346754181460279	InterProScan
0.6594627078812069	0.1346754181460279	InterProScan
0.6594627078812069	0.1346754181460279	InterProScan
0.6594627078812069	0.1346754181460279	InterProScan
0.6594627078812069	0.1346754181460279	InterProScan
0.6594627078812069	0.1346754181460279	InterProScan
0.6594627078812069	0.1346754181460279	InterProScan
0.6594627078812069	0.1346754181460279	InterProScan
0.6594627078812069	0.1346754181460279	InterProScan
0.6594627078812069	0.1346754181460279	InterProScan
0.6594627078812069	0.1346754181460279	InterProScan
0.6594627078812069	0.1346754181460279	InterProScan
0.6594627078812069	0.1346754181460279	InterProScan
0.6594627078812069	0.1346754181460279	InterProScan
0.6594627078812069	0.1346754181460279	InterProScan
0.6594627078812069	0.1346754181460279	InterProScan
0.6594627078812069	0.1346754181460279	InterProScan
0.6594627078812069	0.1346754181460279	InterProScan
0.6594627078812069	0.1346754181460279	InterProScan
0.6594627078812069	0.1346754181460279	InterProScan
0.6594627078812069	0.1346754181460279	InterProScan
0.6594627078812069	0.1346754181460279	InterProScan
0.6594627078812069	0.1346754181460279	InterProScan
0.6594627078812069	0.1346754181460279	InterProScan
0.6594627078812069	0.1346754181460279	InterProScan
0.6594627078812069	0.1346754181460279	InterProScan
0.6594627078812069	0.1346754181460279	InterProScan
0.6594627078812069	0.1346754181460279	InterProScan
0.6594627078812069	0.1346754181460279	InterProScan
0.6594627078812069	0.1346754181460279	InterProScan
0.6594627078812069	0.1346754181460279	InterProScan
0.6594627078812069	0.1346754181460279	InterProScan
0.6594627078812069	0.1346754181460279	InterProScan
0.6594627078812069	0.1346754181460279	InterProScan
0.6594627078812069	0.1346754181460279	InterProScan
0.6594627078812069	0.1346754181460279	InterProScan
0.6594627078812069	0.1346754181460279	InterProScan
0.6594627078812069	0.1346754181460279	InterProScan
0.6594627078812069	0.1346754181460279	InterProScan
0.6594627078812069	0.1346754181460279	InterProScan
0.6594627078812069	0.1346754181460279	InterProScan
0.6594627078812069	0.1346754181460279	InterProScan
0.6594627078812069	0.1346754181460279	InterProScan
0.6594627078812069	0.1346754181460279	InterProScan
0.6594627078812069	0.1346754181460279	InterProScan
0.6594627078812069	0.1346754181460279	InterProScan
0.6594627078812069	0.1346754181460279	InterProScan
0.6594627078812069	0.1346754181460279	InterProScan
0.6594627078812069	0.1346754181460279	InterProScan
0.6594627078812069	0.1346754181460279	InterProScan
0.6594627078812069	0.1346754181460279	InterProScan
0.6594627078812069	0.1346754181460279	InterProScan
0.6594627078812069	0.1346754181460279	InterProScan
0.6594627078812069	0.1346754181460279	InterProScan
0.6594627078812069	0.1346754181460279	InterProScan
0.6594627078812069	0.1346754181460279	InterProScan
0.6594627078812069	0.1346754181460279	InterProScan
0.6594627078812069	0.1346754181460279	InterProScan
0.6594627078812069	0.1346754181460279	InterProScan
0.6594627078812069	0.1346754181460279	InterProScan
0.6594627078812069	0.1346754181460279	InterProScan
0.6594627078812069	0.1346754181460279	InterProScan
0.6594627078812069	0.1346754181460279	InterProScan
0.6594627078812069	0.1346754181460279	InterProScan
0.6594627078812069	0.1346754181460279	InterProScan
0.6594627078812069	0.1346754181460279	InterProScan
0.6594627078812069	0.1346754181460279	InterProScan
0.6594627078812069	0.1346754181460279	InterProScan
0.6594627078812069	0.1346754181460279	InterProScan
0.6594627078812069	0.1346754181460279	InterProScan
0.6594627078812069	0.1346754181460279	InterProScan
0.6594627078812069	0.1346754181460279	InterProScan
0.6594627078812069	0.1346754181460279	InterProScan
0.6594627078812069	0.1346754181460279	InterProScan
0.6594627078812069	0.1346754181460279	InterProScan
0.6594627078812069	0.1346754181460279	InterProScan
0.6594627078812069	0.1346754181460279	InterProScan
0.6594627078812069	0.1346754181460279	InterProScan
0.6594627078812069	0.1346754181460279	InterProScan
0.6594627078812069	0.1346754181460279	InterProScan
0.6594627078812069	0.1346754181460279	InterProScan
0.6594627078812069	0.1346754181460279	InterProScan
0.6594627078812069	0.1346754181460279	InterProScan
0.6594627078812069	0.1346754181460279	InterProScan
0.6594627078812069	0.1346754181460279	InterProScan
0.6594627078812069	0.1346754181460279	InterProScan
0.6594627078812069	0.1346754181460279	InterProScan
0.6594627078812069	0.1346754181460279	InterProScan
0.6594627078812069	0.1346754181460279	InterProScan
0.6594627078812069	0.1346754181460279	InterProScan
0.6594627078812069	0.1346754181460279	InterProScan
0.6594627078812069	0.1346754181460279	InterProScan
0.6594627078812069	0.1346754181460279	InterProScan
0.6594627078812069	0.1346754181460279	InterProScan
0.6594627078812069	0.1346754181460279	InterProScan
0.6594627078812069	0.1346754181460279	InterProScan
0.6594627078812069	0.1346754181460279	InterProScan
0.6594627078812069	0.1346754181460279	InterProScan
0.6594627078812069	0.1346754181460279	InterProScan
0.6594627078812069	0.1346754181460279	InterProScan
0.6594627078812069	0.1346754181460279	InterProScan
0.6594627078812069	0.1346754181460279	InterProScan
0.6594627078812069	0.1346754181460279	InterProScan
0.6594627078812069	0.1346754181460279	InterProScan
0.6594627078812069	0.1346754181460279	InterProScan
0.6594627078812069	0.1346754181460279	InterProScan
0.6594627078812069	0.1346754181460279	InterProScan
0.6594627078812069	0.1346754181460279	InterProScan
0.6594627078812069	0.1346754181460279	InterProScan
0.6594627078812069	0.1346754181460279	InterProScan
0.6594627078812069	0.1346754181460279	InterProScan
0.6594627078812069	0.1346754181460279	InterProScan
0.6594627078812069	0.1346754181460279	InterProScan
0.6594627078812069	0.1346754181460279	InterProScan
0.6594627078812069	0.1346754181460279	InterProScan
0.6594627078812069	0.1346754181460279	InterProScan
0.6594627078812069	0.1346754181460279	InterProScan
0.6594627078812069	0.1346754181460279	InterProScan
0.6594627078812069	0.1346754181460279	InterProScan
0.6594627078812069	0.1346754181460279	InterProScan
0.6594627078812069	0.1346754181460279	InterProScan
0.6594627078812069	0.1346754181460279	InterProScan
0.6594627078812069	0.1346754181460279	InterProScan
0.6594627078812069	0.1346754181460279	InterProScan
0.6594627078812069	0.1346754181460279	InterProScan
0.6594627078812069	0.1346754181460279	InterProScan
0.6594627078812069	0.1346754181460279	InterProScan
0.6594627078812069	0.1346754181460279	InterProScan
0.6594627078812069	0.1346754181460279	InterProScan
0.6594627078812069	0.1346754181460279	InterProScan
0.6594627078812069	0.1346754181460279	InterProScan
0.6594627078812069	0.1346754181460279	InterProScan
0.6594627078812069	0.1346754181460279	InterProScan
0.6594627078812069	0.1346754181460279	InterProScan
0.6594627078812069	0.1346754181460279	InterProScan
0.6594627078812069	0.1346754181460279	InterProScan
0.6594627078812069	0.1346754181460279	InterProScan
0.6594627078812069	0.1346754181460279	InterProScan
0.6594627078812069	0.1346754181460279	InterProScan
0.6594627078812069	0.1346754181460279	InterProScan
0.6594627078812069	0.1346754181460279	InterProScan
0.6594627078812069	0.1346754181460279	InterProScan
0.6594627078812069	0.1346754181460279	InterProScan
0.6594627078812069	0.1346754181460279	InterProScan
0.6594627078812069	0.1346754181460279	InterProScan
0.6594627078812069	0.1346754181460279	InterProScan
0.6594627078812069	0.1346754181460279	InterProScan
0.6594627078812069	0.1346754181460279	InterProScan
0.6594627078812069	0.1346754181460279	InterProScan
0.6594627078812069	0.1346754181460279	InterProScan
0.6594627078812069	0.1346754181460279	InterProScan
0.6594627078812069	0.1346754181460279	InterProScan
0.6594627078812069	0.1346754181460279	InterProScan
0.6594627078812069	0.1346754181460279	InterProScan
0.6594627078812069	0.1346754181460279	InterProScan
0.6594627078812069	0.1346754181460279	InterProScan
0.6594627078812069	0.1346754181460279	InterProScan
0.6594627078812069	0.1346754181460279	InterProScan
0.6594627078812069	0.1346754181460279	InterProScan
0.6594627078812069	0.1346754181460279	InterProScan
0.6594627078812069	0.1346754181460279	InterProScan
0.6594627078812069	0.1346754181460279	InterProScan
0.6594627078812069	0.1346754181460279	InterProScan
0.6594627078812069	0.1346754181460279	InterProScan
0.6594627078812069	0.1346754181460279	InterProScan
0.6594627078812069	0.1346754181460279	InterProScan
0.6594627078812069	0.1346754181460279	InterProScan
0.6594627078812069	0.1346754181460279	InterProScan
0.6594627078812069	0.1346754181460279	InterProScan
0.6594627078812069	0.1346754181460279	InterProScan
0.6594627078812069	0.1346754181460279	InterProScan
0.6594627078812069	0.1346754181460279	InterProScan
0.6594627078812069	0.1346754181460279	InterProScan
0.6594627078812069	0.1346754181460279	InterProScan
0.6594627078812069	0.1346754181460279	InterProScan
0.6594627078812069	0.1346754181460279	InterProScan
0.6594627078812069	0.1346754181460279	InterProScan
0.6594627078812069	0.1346754181460279	InterProScan
0.6594627078812069	0.1346754181460279	InterProScan
0.6594627078812069	0.1346754181460279	InterProScan
0.6594627078812069	0.1346754181460279	InterProScan
0.6594627078812069	0.1346754181460279	InterProScan
0.6594627078812069	0.1346754181460279	InterProScan
0.6594627078812069	0.1346754181460279	InterProScan
0.6594627078812069	0.1346754181460279	InterProScan
0.6594627078812069	0.1346754181460279	InterProScan
0.6594627078812069	0.1346754181460279	InterProScan
0.6594627078812069	0.1346754181460279	InterProScan
0.6594627078812069	0.1346754181460279	InterProScan
0.6594627078812069	0.1346754181460279	InterProScan
0.6594627078812069	0.1346754181460279	InterProScan
0.6594627078812069	0.1346754181460279	InterProScan
0.6594627078812069	0.1346754181460279	InterProScan
0.6594627078812069	0.1346754181460279	InterProScan
0.6594627078812069	0.1346754181460279	InterProScan
0.6594627078812069	0.1346754181460279	InterProScan
0.6594627078812069	0.1346754181460279	InterProScan
0.6594627078812069	0.1346754181460279	InterProScan
0.6594627078812069	0.1346754181460279	InterProScan
0.6594627078812069	0.1346754181460279	InterProScan
0.6594627078812069	0.1346754181460279	InterProScan
0.6594627078812069	0.1346754181460279	InterProScan
0.6594627078812069	0.1346754181460279	InterProScan
0.6594627078812069	0.1346754181460279	InterProScan
0.6594627078812069	0.1346754181460279	InterProScan
0.6594627078812069	0.1346754181460279	InterProScan
0.6594627078812069	0.1346754181460279	InterProScan
0.6594627078812069	0.1346754181460279	InterProScan
0.6594627078812069	0.1346754181460279	InterProScan
0.6594627078812069	0.1346754181460279	InterProScan
0.6594627078812069	0.1346754181460279	InterProScan
0.6594627078812069	0.1346754181460279	InterProScan
0.6594627078812069	0.1346754181460279	InterProScan
0.6594627078812069	0.1346754181460279	InterProScan
0.6594627078812069	0.1346754181460279	InterProScan
0.6594627078812069	0.1346754181460279	InterProScan
0.6594627078812069	0.1346754181460279	InterProScan
0.6594627078812069	0.1346754181460279	InterProScan
0.6594627078812069	0.1346754181460279	InterProScan
0.6594627078812069	0.1346754181460279	InterProScan
0.6594627078812069	0.1346754181460279	InterProScan
0.6594627078812069	0.1346754181460279	InterProScan
0.6594627078812069	0.1346754181460279	InterProScan
0.6594627078812069	0.1346754181460279	InterProScan
0.6594627078812069	0.1346754181460279	InterProScan
0.6594627078812069	0.1346754181460279	InterProScan
0.6594627078812069	0.1346754181460279	InterProScan
0.6594627078812069	0.1346754181460279	InterProScan
0.6594627078812069	0.1346754181460279	InterProScan
0.6594627078812069	0.1346754181460279	InterProScan
0.6594627078812069	0.1346754181460279	InterProScan
0.6594627078812069	0.1346754181460279	InterProScan
0.6594627078812069	0.1346754181460279	InterProScan
0.6594627078812069	0.1346754181460279	InterProScan
0.6594627078812069	0.1346754181460279	InterProScan
0.6594627078812069	0.1346754181460279	InterProScan
0.6594627078812069	0.1346754181460279	InterProScan
0.6594627078812069	0.1346754181460279	InterProScan
0.6594627078812069	0.1346754181460279	InterProScan
0.6594627078812069	0.1346754181460279	InterProScan
0.6594627078812069	0.1346754181460279	InterProScan
0.6594627078812069	0.1346754181460279	InterProScan
0.6594627078812069	0.1346754181460279	InterProScan
0.6594627078812069	0.1346754181460279	InterProScan
0.6594627078812069	0.1346754181460279	InterProScan
0.6594627078812069	0.1346754181460279	InterProScan
0.6594627078812069	0.1346754181460279	InterProScan
0.6594627078812069	0.1346754181460279	InterProScan
0.6594627078812069	0.1346754181460279	InterProScan
0.6594627078812069	0.1346754181460279	InterProScan
0.6594627078812069	0.1346754181460279	InterProScan
0.6594627078812069	0.1346754181460279	InterProScan
0.6594627078812069	0.1346754181460279	InterProScan
0.6594627078812069	0.1346754181460279	InterProScan
0.6594627078812069	0.1346754181460279	InterProScan
0.6594627078812069	0.1346754181460279	InterProScan
0.6594627078812069	0.1346754181460279	InterProScan
0.6594627078812069	0.1346754181460279	InterProScan
0.6594627078812069	0.1346754181460279	InterProScan
0.6594627078812069	0.1346754181460279	InterProScan
0.6594627078812069	0.1346754181460279	InterProScan
0.6594627078812069	0.1346754181460279	InterProScan
0.6594627078812069	0.1346754181460279	InterProScan
0.6594627078812069	0.1346754181460279	InterProScan
0.6594627078812069	0.1346754181460279	InterProScan
0.6594627078812069	0.1346754181460279	InterProScan
0.6594627078812069	0.1346754181460279	InterProScan
0.6594627078812069	0.1346754181460279	InterProScan
0.6594627078812069	0.1346754181460279	InterProScan
0.6594627078812069	0.1346754181460279	InterProScan
0.6594627078812069	0.1346754181460279	InterProScan
0.6594627078812069	0.1346754181460279	InterProScan
0.6594627078812069	0.1346754181460279	InterProScan
0.6594627078812069	0.1346754181460279	InterProScan
0.6594627078812069	0.1346754181460279	InterProScan
0.6594627078812069	0.1346754181460279	InterProScan
0.6594627078812069	0.1346754181460279	InterProScan
0.6594627078812069	0.1346754181460279	InterProScan
0.6594627078812069	0.1346754181460279	InterProScan
0.6594627078812069	0.1346754181460279	InterProScan
0.6594627078812069	0.1346754181460279	InterProScan
0.6594627078812069	0.1346754181460279	InterProScan
0.6594627078812069	0.1346754181460279	InterProScan
0.6594627078812069	0.1346754181460279	InterProScan
0.6594627078812069	0.1346754181460279	InterProScan
0.6594627078812069	0.1346754181460279	InterProScan
0.6594627078812069	0.1346754181460279	InterProScan
0.6594627078812069	0.1346754181460279	InterProScan
0.6594627078812069	0.1346754181460279	InterProScan
0.6594627078812069	0.1346754181460279	InterProScan
0.6594627078812069	0.1346754181460279	InterProScan
0.6594627078812069	0.1346754181460279	InterProScan
0.6594627078812069	0.1346754181460279	InterProScan
0.6594627078812069	0.1346754181460279	InterProScan
0.6594627078812069	0.1346754181460279	InterProScan
0.6594627078812069	0.1346754181460279	InterProScan
0.6594627078812069	0.1346754181460279	InterProScan
0.6594627078812069	0.1346754181460279	InterProScan
0.6594627078812069	0.1346754181460279	InterProScan
0.6594627078812069	0.1346754181460279	InterProScan
0.6594627078812069	0.1346754181460279	InterProScan
0.6594627078812069	0.1346754181460279	InterProScan
0.6594627078812069	0.1346754181460279	InterProScan
0.6594627078812069	0.1346754181460279	InterProScan
0.6594627078812069	0.1346754181460279	InterProScan
0.6594627078812069	0.1346754181460279	InterProScan
0.6594627078812069	0.1346754181460279	InterProScan
0.6594627078812069	0.1346754181460279	InterProScan
0.6594627078812069	0.1346754181460279	InterProScan
0.6594627078812069	0.1346754181460279	InterProScan
0.6594627078812069	0.1346754181460279	InterProScan
0.6594627078812069	0.1346754181460279	InterProScan
0.6594627078812069	0.1346754181460279	InterProScan
0.6594627078812069	0.1346754181460279	InterProScan
0.6594627078812069	0.1346754181460279	InterProScan
0.6594627078812069	0.1346754181460279	InterProScan
0.6594627078812069	0.1346754181460279	InterProScan
0.6594627078812069	0.1346754181460279	InterProScan
0.6594627078812069	0.1346754181460279	InterProScan
0.6594627078812069	0.1346754181460279	InterProScan
0.6594627078812069	0.1346754181460279	InterProScan
0.6594627078812069	0.1346754181460279	InterProScan
0.6594627078812069	0.1346754181460279	InterProScan
0.6594627078812069	0.1346754181460279	InterProScan
0.6594627078812069	0.1346754181460279	InterProScan
0.6594627078812069	0.1346754181460279	InterProScan
0.6594627078812069	0.1346754181460279	InterProScan
0.6594627078812069	0.1346754181460279	InterProScan
0.6594627078812069	0.1346754181460279	InterProScan
0.6594627078812069	0.1346754181460279	InterProScan
0.6594627078812069	0.1346754181460279	InterProScan
0.6594627078812069	0.1346754181460279	InterProScan
0.6594627078812069	0.1346754181460279	InterProScan
0.6594627078812069	0.1346754181460279	InterProScan
0.6594627078812069	0.1346754181460279	InterProScan
