0.225937867167	0.611008272767	CrowdGO	0.0	220.327811136	44.0699924562	224.692030556	0.0
0.255864101839	0.555081111447	CrowdGO	0.01	142.534785642	49.3179884546	150.825823728	0.01
0.269305511626	0.531503065362	CrowdGO	0.02	124.003617732	51.2171184323	134.164415666	0.02
0.283173398766	0.510839712303	CrowdGO	0.03	109.455732531	52.810729709	121.529957444	0.03
0.294512455358	0.494318688666	CrowdGO	0.04	98.2067213936	53.9741885638	112.061470444	0.04
0.307914376019	0.483233107534	CrowdGO	0.05	89.7207044499	54.8848781805	105.17677814	0.05
0.314559582658	0.469023618587	CrowdGO	0.06	83.3981245621	55.7834450067	100.334639668	0.06
0.322920794083	0.45182904475	CrowdGO	0.07	77.0716559084	56.8456551323	95.7677850422	0.07
0.332764897554	0.436734498636	CrowdGO	0.08	71.7294024965	57.7915488002	92.1138984911	0.08
0.34008991946	0.42522295058	CrowdGO	0.09	67.473963434	58.3895485595	89.2304607322	0.09
0.344308453774	0.414383797657	CrowdGO	0.09	64.3329219743	59.0704613234	87.3386755723	0.1
0.346867676344	0.401207689112	CrowdGO	0.09	61.1386832646	59.8012071233	85.5226459175	0.11
0.351839000506	0.387013379715	CrowdGO	0.09	58.1146001121	60.5003868304	83.890425871	0.12
0.353370846125	0.376373366013	CrowdGO	0.09	55.9030901584	61.2467100704	82.9235490299	0.13
0.355725956104	0.368263618089	CrowdGO	0.09	53.6294903832	61.7084138243	81.7560430517	0.14
0.358771258621	0.356134622433	CrowdGO	0.09	51.2972849276	62.3006454408	80.7018083024	0.15
0.363401354049	0.345712395376	CrowdGO	0.09	48.9010547462	62.975713734	79.7323878709	0.16
0.362981412858	0.334681999347	CrowdGO	0.09	46.9873690099	63.5708341564	79.0510202452	0.17
0.363755005681	0.324252909022	CrowdGO	0.09	45.3166726886	64.0649229494	78.4723847992	0.18
0.366994798965	0.317606526948	CrowdGO	0.09	43.7215017798	64.3897972155	77.8306861291	0.19
0.367904560044	0.307567382955	CrowdGO	0.09	42.3073093137	65.044528257	77.5931638584	0.2
0.371386958422	0.30110929792	CrowdGO	0.09	40.8116975314	65.4926917751	77.1679164636	0.21
0.372888803557	0.294214383204	CrowdGO	0.09	39.7254451847	65.8185274479	76.8777571898	0.22
0.374137607596	0.288593272374	CrowdGO	0.09	38.4614058693	66.0286609197	76.4137671123	0.23
0.38044219492	0.28082219209	CrowdGO	0.09	36.8931870944	66.3862641772	75.9489521019	0.24
0.382128387216	0.274093355186	CrowdGO	0.09	35.8553275875	66.7442281041	75.765404385	0.25
0.386114007507	0.268327343016	CrowdGO	0.09	34.630669736	66.9628887613	75.3877427545	0.26
0.389688042012	0.261692996731	CrowdGO	0.09	33.8559084409	67.2077264323	75.2535781777	0.27
0.390295468794	0.25319247392	CrowdGO	0.09	32.9963346806	67.5203278871	75.1515321223	0.28
0.396964240439	0.248514630892	CrowdGO	0.09	31.9522429687	67.7389944744	74.8967102291	0.29
0.401656335973	0.24187998602	CrowdGO	0.09	31.3509285766	68.013536654	74.8914006466	0.3
0.404613428755	0.237081778721	CrowdGO	0.09	30.5061372235	68.240331528	74.7486940043	0.31
0.408137288836	0.232657142305	CrowdGO	0.09	29.6724204704	68.4371883138	74.5929036898	0.32
0.411086635727	0.229722932	CrowdGO	0.09	29.0569757436	68.5878196725	74.4889041858	0.33
0.414834081221	0.226292062462	CrowdGO	0.09	28.3854546323	68.7895242525	74.4159437323	0.34
0.419004748419	0.223336774396	CrowdGO	0.09	27.8028878548	68.9192540612	74.3159750889	0.35
0.422244006652	0.220900455597	CrowdGO	0.09	27.2069412403	69.0590017831	74.225085914	0.36
0.427988048272	0.217068576472	CrowdGO	0.09	26.5494810476	69.2115322985	74.129016903	0.37
0.434685819213	0.215334817531	CrowdGO	0.09	25.8718186874	69.2918212504	73.9642311823	0.38
0.438383406402	0.211422237238	CrowdGO	0.09	25.3405183155	69.5288214946	74.0026951328	0.39
0.440871551238	0.209490341176	CrowdGO	0.09	24.9340344425	69.6101065634	73.9410103349	0.4
0.441981807217	0.204484005324	CrowdGO	0.09	24.4682120448	69.8306765867	73.9933564128	0.41
0.444057220167	0.201965895137	CrowdGO	0.09	24.0211687452	69.9353336206	73.9457060045	0.42
0.448062008215	0.19895255113	CrowdGO	0.09	23.3430151794	70.1048506808	73.889014384	0.43
0.451063688414	0.194332708599	CrowdGO	0.09	23.0863861901	70.2569382274	73.9528133096	0.44
0.459963328856	0.190773445016	CrowdGO	0.09	22.4690891765	70.3845882636	73.8840323308	0.45
0.465592101802	0.186952060756	CrowdGO	0.09	21.828728719	70.5008491375	73.8028666557	0.46
0.472247371071	0.183614204185	CrowdGO	0.09	21.3527492077	70.6223065656	73.7797403314	0.47
0.47832746376	0.178528826865	CrowdGO	0.09	21.0297131419	70.8231756122	73.8794358304	0.48
0.484997174212	0.175692703191	CrowdGO	0.09	20.5151380113	70.9253350112	73.8327436445	0.49
0.493511796298	0.172613881999	CrowdGO	0.09	19.7753673711	71.0463529909	73.7471994585	0.5
0.498384275909	0.168368558194	CrowdGO	0.09	19.1867003192	71.2066567314	73.7463045311	0.51
0.5042654968	0.162177069207	CrowdGO	0.09	18.7334082206	71.4859491792	73.8998072637	0.52
0.514797468104	0.159157308506	CrowdGO	0.09	18.2354536678	71.6437876264	73.928100719	0.53
0.524700559107	0.155613065113	CrowdGO	0.09	17.5852495519	71.7456406678	73.8693302842	0.54
0.537552828622	0.152875237824	CrowdGO	0.09	16.9470564471	71.8831093956	73.8538024655	0.55
0.539429407744	0.148590049634	CrowdGO	0.09	16.3630827858	72.0995977952	73.9330946226	0.56
0.555070542968	0.146218218884	CrowdGO	0.09	15.8251311992	72.1805944243	73.8950132885	0.57
0.567285691039	0.14295344817	CrowdGO	0.09	15.4294238439	72.3371054959	73.9643424339	0.58
0.575349124348	0.139101216999	CrowdGO	0.09	15.1518115187	72.4351121676	74.0028571545	0.59
0.583117498213	0.134379266916	CrowdGO	0.09	14.6682765445	72.5652214391	74.0328960617	0.6
0.589735571668	0.13031176403	CrowdGO	0.09	14.2501822084	72.6957498062	74.0792800509	0.61
0.599535258108	0.125697143218	CrowdGO	0.09	13.7828527267	72.8896819602	74.1813505239	0.62
0.609298250708	0.123667233163	CrowdGO	0.09	13.5026543311	72.9616002298	74.2005173977	0.63
0.606480335103	0.121235542135	CrowdGO	0.09	13.2455639813	72.9969242604	74.1889204441	0.64
0.615148728554	0.11789636518	CrowdGO	0.09	12.7864235957	73.0802069642	74.1903583918	0.65
0.629850831543	0.115209170574	CrowdGO	0.09	12.3873947434	73.171169189	74.2123139985	0.66
0.63470702143	0.112893044441	CrowdGO	0.09	12.0972437334	73.2498680309	74.2420802004	0.67
0.644353366916	0.109972394217	CrowdGO	0.09	11.7691315717	73.3859422742	74.3236771253	0.68
0.655341285846	0.106192202682	CrowdGO	0.09	11.5525999179	73.5096039269	74.411856813	0.69
0.657035804208	0.102194352197	CrowdGO	0.09	11.0452042031	73.6239480113	74.4478492414	0.7
0.657708382172	0.0987594734335	CrowdGO	0.09	10.6950268409	73.7453203977	74.5168160866	0.71
0.666883978543	0.0953748565952	CrowdGO	0.09	10.3912818214	73.8290899247	74.5567787461	0.72
0.677612376806	0.0931030457093	CrowdGO	0.09	10.1132160823	73.9080791007	74.5967914583	0.73
0.680392618569	0.0904678499066	CrowdGO	0.09	9.89105937906	73.9956479056	74.6537940403	0.74
0.686264223604	0.0888759547648	CrowdGO	0.09	9.6897835041	74.0948587993	74.7257653346	0.75
0.68890449984	0.0867730927706	CrowdGO	0.09	9.46728371347	74.1718683728	74.7736284985	0.76
0.690854515741	0.0848850663784	CrowdGO	0.09	9.22670699214	74.2144115196	74.7857673567	0.77
0.695330364116	0.081918706022	CrowdGO	0.09	9.06364364882	74.3967300875	74.9468016923	0.78
0.701639349942	0.0771125191443	CrowdGO	0.09	8.79299389288	74.5739754014	75.0905756321	0.79
0.699307846481	0.0748252797017	CrowdGO	0.09	8.63306514919	74.6773593662	75.174715269	0.8
0.710862537117	0.0716272462582	CrowdGO	0.09	8.19353767745	74.8643313505	75.3113681209	0.81
0.714528312592	0.0702337688236	CrowdGO	0.09	7.75397682012	74.9747573082	75.374653498	0.82
0.723835688141	0.068084098025	CrowdGO	0.09	7.44663901723	75.0597117502	75.4281960587	0.83
0.731343603598	0.0630023642489	CrowdGO	0.09	7.10473964977	75.2944716017	75.6289281907	0.84
0.73937858874	0.0612777245448	CrowdGO	0.09	6.76345801184	75.3911252465	75.6938975757	0.85
0.762768061084	0.0587815600555	CrowdGO	0.09	6.38517376371	75.5135537004	75.783027364	0.86
0.779411175578	0.0563363406132	CrowdGO	0.09	6.16802340418	75.6545958649	75.9056149979	0.87
0.78859118742	0.0542396769481	CrowdGO	0.09	5.95895129943	75.7203217034	75.9544351533	0.88
0.799821784299	0.052309060581	CrowdGO	0.09	5.63956917531	75.8194514138	76.0289020911	0.89
0.80761244037	0.0511022420262	CrowdGO	0.09	5.46355999222	75.9169683818	76.1133140526	0.9
0.817766593427	0.0496076262658	CrowdGO	0.09	5.14924204193	76.022104529	76.1962930242	0.91
0.834193261956	0.0463496700776	CrowdGO	0.09	4.29422200992	76.0691333213	76.1902446966	0.92
0.834929834477	0.0443018230781	CrowdGO	0.09	4.00526460177	76.1292899719	76.2345783497	0.93
0.810990855011	0.0385083653459	CrowdGO	0.09	3.60338242267	76.3376755999	76.4226738663	0.94
0.765806330907	0.0330805680545	CrowdGO	0.09	3.27044336597	76.4659792486	76.5358855848	0.95
0.760207093721	0.0292972804523	CrowdGO	0.09	2.94038277418	76.6559258562	76.7122990122	0.96
0.719573822851	0.0240960240997	CrowdGO	0.09	2.58838031197	76.8639532766	76.9075225576	0.97
0.616962310467	0.0197878693422	CrowdGO	0.09	2.38006163684	76.9712010206	77.007989715	0.98
0.569210647685	0.016276634982	CrowdGO	0.09	2.12849927553	77.1339551881	77.1633173996	0.99
