0.469402551752	0.745384811537	CrowdGO	0.0	40.6289829095	11.2691814525	42.162883	0.0
0.513472833018	0.729506035149	CrowdGO	0.001	25.5014351505	11.9448389598	28.1602978058	0.001
0.519480343559	0.727900265288	CrowdGO	0.002	24.0405084317	12.0176653792	26.8769478703	0.002
0.525846115956	0.727109201124	CrowdGO	0.003	22.9229628114	12.0436207452	25.8942276329	0.003
0.529617075557	0.726351061282	CrowdGO	0.004	22.1736345228	12.0711495117	25.246439719	0.004
0.534284871941	0.725682474456	CrowdGO	0.005	21.6014916388	12.105278201	24.762112215	0.005
0.537917689906	0.724845671434	CrowdGO	0.006	20.989421122	12.1416408299	24.2482007802	0.006
0.541342719596	0.72412570582	CrowdGO	0.007	20.5967918041	12.154700209	23.9157807691	0.007
0.544858248249	0.723727325691	CrowdGO	0.008	20.1105989453	12.1763943856	23.5095888984	0.008
0.547849352379	0.723123910194	CrowdGO	0.009	19.7499963926	12.203544489	23.2161335197	0.009
0.551812022277	0.721641270457	CrowdGO	0.01	19.2759800068	12.2343573554	22.8307447343	0.01
0.55585858704	0.720900601751	CrowdGO	0.011	18.8779042043	12.2619651359	22.5106875981	0.011
0.557921664625	0.720546470378	CrowdGO	0.012	18.6170901594	12.2708699208	22.2973158613	0.012
0.560264644142	0.720060033057	CrowdGO	0.013	18.2813691166	12.2891412968	22.0279697338	0.013
0.561747383223	0.71994100315	CrowdGO	0.014	18.1054167027	12.297177567	21.8866783705	0.014
0.564002016256	0.719679916719	CrowdGO	0.015	17.8411371995	12.3012690164	21.670888214	0.015
0.565703919717	0.719233446326	CrowdGO	0.016	17.6481250731	12.3233508605	21.5248994196	0.016
0.569207513818	0.718110754162	CrowdGO	0.017	17.332595405	12.3387561617	21.2758963875	0.017
0.570810180118	0.716932393061	CrowdGO	0.018	17.1428546976	12.3486125733	21.1273684984	0.018
0.572028239841	0.715761645446	CrowdGO	0.019	17.0259669357	12.3681015315	21.0440843371	0.019
0.573825110798	0.715482964316	CrowdGO	0.02	16.8820915405	12.3819801253	20.9360561378	0.02
0.574892059697	0.714988866216	CrowdGO	0.021	16.7611948135	12.4071348302	20.8536482725	0.021
0.576949650609	0.714137355399	CrowdGO	0.022	16.6271006908	12.4388899925	20.7650297767	0.022
0.579009464147	0.714053368837	CrowdGO	0.023	16.4900930964	12.4443390774	20.6587692131	0.023
0.580605348887	0.71385628278	CrowdGO	0.024	16.2772002471	12.4618916113	20.4999022051	0.024
0.581053546499	0.713739378408	CrowdGO	0.025	16.1583289655	12.4623090856	20.4058997034	0.025
0.583180436456	0.713590591025	CrowdGO	0.026	15.9616954955	12.4658400978	20.2527255558	0.026
0.584048464937	0.713590591025	CrowdGO	0.027	15.8500201929	12.4658400978	20.1648285254	0.027
0.585125207365	0.713470734522	CrowdGO	0.028	15.7624816898	12.4695305099	20.098383521	0.028
0.58718353935	0.712420543578	CrowdGO	0.029	15.6390606052	12.4756455923	20.0055479695	0.029
0.587769157778	0.711846885558	CrowdGO	0.03	15.5503010117	12.5112989065	19.958568633	0.03
0.588822987847	0.711778691341	CrowdGO	0.031	15.4404350704	12.5118081333	19.873408815	0.031
0.589106970565	0.711540631528	CrowdGO	0.032	15.3832588758	12.5192889365	19.8337401696	0.032
0.58961693629	0.710948499075	CrowdGO	0.033	15.3168326062	12.5472509402	19.799971395	0.033
0.590610787956	0.710814894078	CrowdGO	0.034	15.2309694303	12.5506036022	19.7357563971	0.034
0.591760098987	0.710219636698	CrowdGO	0.035	15.1156885642	12.5799148812	19.6656629481	0.035
0.593249860099	0.709364109246	CrowdGO	0.036	15.0145298564	12.583741582	19.5904736801	0.036
0.594029658843	0.709088852588	CrowdGO	0.037	14.9405827347	12.5953558108	19.5413408049	0.037
0.595239981156	0.708712628199	CrowdGO	0.038	14.8451429706	12.6028550888	19.4733208829	0.038
0.595708768967	0.70867853109	CrowdGO	0.039	14.7765876985	12.6053216034	19.4227103345	0.039
0.596108408607	0.708604137399	CrowdGO	0.04	14.6997061901	12.6067395694	19.3652070644	0.04
0.597064818645	0.708486053728	CrowdGO	0.041	14.58194075	12.6172437174	19.2828378373	0.041
0.598147224443	0.708486053728	CrowdGO	0.042	14.4916045736	12.6172437174	19.2146153264	0.042
0.598421369257	0.708442983696	CrowdGO	0.043	14.4376825348	12.6199100699	19.1757348529	0.043
0.598917656575	0.708326079324	CrowdGO	0.044	14.3753915362	12.6318975766	19.1367896525	0.044
0.599802600094	0.708187742484	CrowdGO	0.045	14.2838723708	12.648391193	19.0790673168	0.045
0.600466399682	0.708037596607	CrowdGO	0.046	14.2349432154	12.6536090814	19.0459295161	0.046
0.600540151461	0.707881724111	CrowdGO	0.046	14.2066656749	12.6585798273	19.0281105957	0.047
0.601152369385	0.707503246206	CrowdGO	0.048	14.1237190336	12.6660521	18.971249699	0.048
0.602260300348	0.707299642419	CrowdGO	0.049	14.0796270899	12.6694864124	18.9407440441	0.049
0.603876250505	0.707043914105	CrowdGO	0.05	14.0178300504	12.6748248141	18.8984322997	0.05
0.604159380678	0.706730220706	CrowdGO	0.051	13.9847745155	12.6774113418	18.8756636063	0.051
0.605328455017	0.706554155636	CrowdGO	0.052	13.9218973201	12.6793312958	18.8304186651	0.052
0.605991940952	0.706426033168	CrowdGO	0.053	13.864381786	12.6816652136	18.7895107679	0.053
0.607319718929	0.706257033531	CrowdGO	0.054	13.785199034	12.6846812519	18.7332018318	0.054
0.607869500348	0.706257033531	CrowdGO	0.055	13.7165132218	12.6846812519	18.6827159008	0.055
0.608124037591	0.705553207215	CrowdGO	0.055	13.6633478874	12.7011308631	18.6549135805	0.056
0.608491041805	0.705553207215	CrowdGO	0.057	13.6271478819	12.7011308631	18.6284160518	0.057
0.60905082029	0.705478813524	CrowdGO	0.058	13.5911645706	12.701942264	18.6026635636	0.058
0.609382900604	0.705393083651	CrowdGO	0.059	13.5439613439	12.7037294272	18.5694272998	0.059
0.610181733426	0.705393083651	CrowdGO	0.06	13.4796118681	12.7037294272	18.5225451133	0.06
0.610927165414	0.705248302082	CrowdGO	0.061	13.440337974	12.7069433143	18.4961913173	0.061
0.611758550325	0.705032763847	CrowdGO	0.062	13.3869134662	12.7134497161	18.461886573	0.062
0.6125488699	0.704548083043	CrowdGO	0.063	13.3145555706	12.7237927367	18.4166308441	0.063
0.612800777327	0.704411694609	CrowdGO	0.064	13.284630484	12.7260504682	18.3965694523	0.064
0.613658378211	0.703766925439	CrowdGO	0.065	13.2318155553	12.7392777439	18.3676383981	0.065
0.614630799079	0.703571785064	CrowdGO	0.066	13.1876332116	12.7405066191	18.3366894131	0.066
0.61551116233	0.703506318616	CrowdGO	0.067	13.1264893935	12.7421294208	18.2938947732	0.067
0.616027902394	0.703443370107	CrowdGO	0.068	13.0793082474	12.7446073054	18.2617994623	0.068
0.616406643401	0.703325906384	CrowdGO	0.069	13.0477986443	12.7541221962	18.2458949482	0.069
0.616688080282	0.703325906384	CrowdGO	0.07	13.0186753799	12.7541221962	18.2250800175	0.07
0.617414971591	0.703290326793	CrowdGO	0.071	12.974921879	12.7549335971	18.1944202665	0.071
0.617825144096	0.703222132575	CrowdGO	0.072	12.9236747921	12.7569281037	18.1593112418	0.072
0.61814566555	0.703181216045	CrowdGO	0.073	12.8916826555	12.7595947746	18.1384326915	0.073
0.618828906635	0.701828640634	CrowdGO	0.073	12.8423106081	12.812151988	18.1404570042	0.074
0.619098446397	0.701490165652	CrowdGO	0.073	12.8115028012	12.8229241526	18.12627893	0.075
0.619442882534	0.701490165652	CrowdGO	0.073	12.7886694617	12.8229241526	18.1101477196	0.076
0.619785635736	0.70134771551	CrowdGO	0.077	12.7638643557	12.8263242674	18.0950498066	0.077
0.62030326709	0.701270548369	CrowdGO	0.078	12.7184939749	12.8319519395	18.0670716932	0.078
0.620833333838	0.701153643997	CrowdGO	0.079	12.650593597	12.8327633404	18.0199149084	0.079
0.621245723506	0.700874167346	CrowdGO	0.08	12.6233702092	12.8383630522	18.0048060611	0.08
0.621640181749	0.700701408662	CrowdGO	0.081	12.5817068045	12.8462420319	17.9812480228	0.081
0.622219531571	0.699571690743	CrowdGO	0.081	12.5462285732	12.8609555678	17.9669705161	0.082
0.622665867917	0.69937244503	CrowdGO	0.081	12.5013359354	12.8788669021	17.9484989025	0.083
0.62357389414	0.699117639107	CrowdGO	0.084	12.4418545644	12.884743834	17.9113474834	0.084
0.624258295006	0.69891168111	CrowdGO	0.085	12.378068247	12.8902160466	17.8710448283	0.085
0.624895823421	0.698762303301	CrowdGO	0.086	12.3093091566	12.8927444561	17.8253177117	0.086
0.624965111805	0.69872672371	CrowdGO	0.087	12.2945139966	12.8941005751	17.8160855424	0.087
0.625251551644	0.69872672371	CrowdGO	0.088	12.2278084401	12.8941005751	17.7701189892	0.088
0.626119185992	0.698519777728	CrowdGO	0.089	12.2028207126	12.8999349007	17.7571718972	0.089
0.626342184726	0.698402873356	CrowdGO	0.09	12.1768490506	12.9019294073	17.7407845158	0.09
0.62656984385	0.698249436368	CrowdGO	0.091	12.1308109959	12.9072994888	17.7131294669	0.091
0.627337461258	0.698179088649	CrowdGO	0.092	12.0911253369	12.9090730821	17.6872688607	0.092
0.628038600761	0.698179088649	CrowdGO	0.093	12.0595182274	12.9090730821	17.6656771089	0.093
0.628576953144	0.698036511992	CrowdGO	0.094	12.0098909249	12.9149150756	17.6361138417	0.094
0.62923702323	0.697218181386	CrowdGO	0.094	11.9864819067	12.9153325499	17.6204870357	0.095
0.630236097717	0.697022261043	CrowdGO	0.096	11.9395833579	12.9211651159	17.5929008043	0.096
0.630773303097	0.696877479474	CrowdGO	0.097	11.9045535907	12.9235993184	17.5709366722	0.097
0.631437034351	0.696577660033	CrowdGO	0.098	11.8731636565	12.9368289074	17.5594293015	0.098
0.631697060394	0.696397304275	CrowdGO	0.099	11.831619005	12.945913735	17.5380697545	0.099
0.632160631069	0.696397304275	CrowdGO	0.1	11.8055140767	12.945913735	17.5204693159	0.1
0.632706883636	0.696397304275	CrowdGO	0.101	11.76501461	12.945913735	17.4932058584	0.101
0.633013363951	0.696231484652	CrowdGO	0.102	11.7451122313	12.9565797344	17.4877276894	0.102
0.633865407169	0.696014352458	CrowdGO	0.103	11.7127361661	12.9598253378	17.46840752	0.103
0.63414779321	0.695968889646	CrowdGO	0.104	11.6822600628	12.9633828011	17.4506301842	0.104
0.634237632971	0.695846358861	CrowdGO	0.104	11.6757428468	12.9659369054	17.4481658308	0.105
0.634803197041	0.695846358861	CrowdGO	0.106	11.6496484379	12.9659369054	17.4307150904	0.106
0.635109355769	0.695582469459	CrowdGO	0.107	11.6153685416	12.9743134833	17.4140631881	0.107
0.636840986368	0.694647234481	CrowdGO	0.108	11.5658707283	12.9761006465	17.3824208237	0.108
0.637017661328	0.69450774631	CrowdGO	0.109	11.5529462217	12.981729812	17.3780285221	0.109
0.637015474376	0.694337260767	CrowdGO	0.109	11.5459348981	12.9825647606	17.3739920696	0.11
0.637113522709	0.694317776705	CrowdGO	0.109	11.5394335457	12.9847231051	17.3712855216	0.111
0.638219623046	0.693419179222	CrowdGO	0.112	11.5052815844	12.9888909779	17.3517374684	0.112
0.638644608646	0.693419179222	CrowdGO	0.113	11.4803015964	12.9888909779	17.3351842673	0.113
0.639191267811	0.693378262691	CrowdGO	0.114	11.4541960604	12.9897023787	17.318515389	0.114
0.639364150544	0.693292122628	CrowdGO	0.115	11.4346492048	12.9950350364	17.3095967034	0.115
0.63994465249	0.693128456507	CrowdGO	0.116	11.4086353625	12.9986303417	17.2951250817	0.116
0.640189607171	0.693128456507	CrowdGO	0.117	11.3760843748	12.9986303417	17.273670324	0.117
0.641005301717	0.693053912221	CrowdGO	0.118	11.3364089412	13.0012988013	17.2495779137	0.118
0.641982589595	0.69266423098	CrowdGO	0.119	11.3023447821	13.0139789341	17.236781755	0.119
0.642296682849	0.692547326608	CrowdGO	0.12	11.2613701356	13.0149546964	17.2106799134	0.12
0.642455703888	0.692547326608	CrowdGO	0.121	11.2428817003	13.0149546964	17.1985881594	0.121
0.642596311136	0.692451854704	CrowdGO	0.122	11.2359475561	13.0174392472	17.1959367886	0.122
0.643827320168	0.69231478747	CrowdGO	0.123	11.1702657042	13.0206848506	17.1555550735	0.123
0.644398564434	0.692084183341	CrowdGO	0.124	11.1433975789	13.0369478242	17.1504320112	0.124
0.644683847344	0.691957600611	CrowdGO	0.125	11.1104453826	13.0452753378	17.1353787597	0.125
0.645387899251	0.691957600611	CrowdGO	0.126	11.0746627064	13.0452753378	17.1121992362	0.126
0.646699750641	0.691914530579	CrowdGO	0.127	11.0403137422	13.0460867386	17.0906087287	0.127
0.647190967732	0.691603738611	CrowdGO	0.128	11.020921942	13.0548667849	17.0847963764	0.128
0.647277658675	0.691603738611	CrowdGO	0.129	10.9793767503	13.0548667849	17.0580262808	0.129
0.647659852714	0.691363525297	CrowdGO	0.13	10.9537987476	13.068562751	17.052068478	0.13
0.648054872292	0.691281692237	CrowdGO	0.131	10.9210998662	13.0713686585	17.0332351857	0.131
0.648726685356	0.69116934258	CrowdGO	0.132	10.8861023798	13.0753391531	17.0138684311	0.132
0.649045978134	0.69116934258	CrowdGO	0.133	10.8700994537	13.0753391531	17.0036336147	0.133
0.649106683581	0.690918432036	CrowdGO	0.133	10.8604949496	13.0854105473	17.0052438895	0.134
0.649339185097	0.690713849384	CrowdGO	0.133	10.8451077356	13.0922197397	17.0006640902	0.135
0.649672440453	0.69061963369	CrowdGO	0.136	10.82366212	13.0956887323	16.9896652427	0.136
0.650095654458	0.690502729317	CrowdGO	0.137	10.8040669049	13.0965001331	16.9778142711	0.137
0.650171506467	0.690353091721	CrowdGO	0.137	10.7731310707	13.100711657	16.9613973182	0.138
0.650796553108	0.690264558878	CrowdGO	0.139	10.7355126733	13.1062117387	16.9417832148	0.139
0.651083024682	0.689289501212	CrowdGO	0.139	10.7298089624	13.1180021616	16.9472942112	0.14
0.651449933475	0.689289501212	CrowdGO	0.139	10.7015984192	13.1180021616	16.9294474049	0.141
0.651480722749	0.68924643118	CrowdGO	0.139	10.6980998758	13.1228873982	16.9310222556	0.142
0.651845603283	0.689034271393	CrowdGO	0.139	10.6591579541	13.1284014625	16.910723617	0.143
0.652565634975	0.688874069105	CrowdGO	0.144	10.6271233469	13.1357330886	16.8962491224	0.144
0.652794676562	0.688799675414	CrowdGO	0.145	10.6068534904	13.1365444894	16.8841387725	0.145
0.652860437487	0.688640890527	CrowdGO	0.145	10.5945657303	13.1414242473	16.8802208001	0.146
0.653148569623	0.688559848124	CrowdGO	0.147	10.5821486351	13.1456786859	16.875744068	0.147
0.653696478121	0.688367796527	CrowdGO	0.148	10.5426969101	13.1522488853	16.8561593751	0.148
0.653743456885	0.688243856176	CrowdGO	0.148	10.5405564455	13.1563824664	16.8580464403	0.149
0.654210296901	0.6879487612	CrowdGO	0.15	10.5234414388	13.1661208593	16.8549564876	0.15
0.654782555814	0.687868494323	CrowdGO	0.151	10.5000330748	13.168237776	16.8420064333	0.151
0.654812464111	0.687579256374	CrowdGO	0.151	10.4910444583	13.1749317526	16.8416400778	0.152
0.655034248791	0.687488330751	CrowdGO	0.151	10.4686727894	13.1774780746	16.82970702	0.153
0.655057772484	0.687488330751	CrowdGO	0.151	10.4628828146	13.1774780746	16.8261060617	0.154
0.655138694616	0.687338952942	CrowdGO	0.151	10.4502873151	13.182587693	16.8222805604	0.155
0.655378069433	0.687209742846	CrowdGO	0.151	10.4330736902	13.1897981538	16.8172471576	0.156
0.655720818503	0.686924448944	CrowdGO	0.157	10.408190866	13.1970426702	16.8075094033	0.157
0.655970512132	0.686924448944	CrowdGO	0.158	10.3587854288	13.1970426702	16.7769595219	0.158
0.656122676465	0.686715320012	CrowdGO	0.158	10.3438816873	13.2019199446	16.7716003585	0.159
0.656364534247	0.686369802645	CrowdGO	0.158	10.3136260656	13.2063388726	16.7564396289	0.16
0.656416523873	0.686283662581	CrowdGO	0.158	10.3035229543	13.2090511106	16.7523615204	0.161
0.656682433188	0.686203395703	CrowdGO	0.162	10.2884370274	13.2114232113	16.7449586364	0.162
0.656843503737	0.686112470081	CrowdGO	0.163	10.2768370218	13.2127793303	16.7389042892	0.163
0.657129631803	0.685983366991	CrowdGO	0.164	10.2611577584	13.2166895536	16.7323710603	0.164
0.657475336838	0.685903624601	CrowdGO	0.165	10.2232922394	13.2194524791	16.7113622442	0.165
0.657569755135	0.685711209234	CrowdGO	0.165	10.2056484276	13.2272105047	16.7067159419	0.166
0.65783820803	0.685674012388	CrowdGO	0.167	10.1898463711	13.2285666237	16.6981419321	0.167
0.657870168061	0.685622866726	CrowdGO	0.167	10.1795255024	13.2298721396	16.6928804071	0.168
0.657982107813	0.68534589329	CrowdGO	0.167	10.1687992888	13.2352321514	16.6905916335	0.169
0.658590471696	0.68534589329	CrowdGO	0.17	10.1270886023	13.2352321514	16.6652120796	0.17
0.658788770608	0.685269397168	CrowdGO	0.171	10.1159616216	13.2389058754	16.6613717414	0.171
0.658796049854	0.685269397168	CrowdGO	0.172	10.1057444306	13.2389058754	16.6551703466	0.172
0.658807142441	0.685182291949	CrowdGO	0.172	10.1028396598	13.2461834838	16.6591940404	0.173
0.659017106244	0.684975555796	CrowdGO	0.172	10.0726465241	13.2538051637	16.6469684723	0.174
0.659471240514	0.684704983185	CrowdGO	0.175	10.0383951845	13.2599162876	16.6311382002	0.175
0.660145661441	0.684466303426	CrowdGO	0.176	10.0090803013	13.2702495339	16.6217090328	0.176
0.660500131153	0.684119888766	CrowdGO	0.177	9.97326981944	13.2767277193	16.6053488317	0.177
0.660833518159	0.684119888766	CrowdGO	0.178	9.94419793297	13.2767277193	16.5879043722	0.178
0.66150890275	0.684006231738	CrowdGO	0.179	9.91877287413	13.2794399573	16.5748478397	0.179
0.662022145111	0.683970652146	CrowdGO	0.18	9.88222109327	13.2804157196	16.5537831151	0.18
0.662148318441	0.683868360821	CrowdGO	0.181	9.85855385228	13.2816445948	16.5406519581	0.181
0.662384158333	0.683868360821	CrowdGO	0.182	9.84386431349	13.2816445948	16.531900912	0.182
0.662373762436	0.683641746191	CrowdGO	0.182	9.83913087498	13.2828734699	16.5300702961	0.183
0.662666925242	0.683567201905	CrowdGO	0.182	9.79847582692	13.2868214029	16.5090808806	0.184
0.663030922486	0.683452837919	CrowdGO	0.185	9.77474715278	13.2921912326	16.4993342189	0.185
0.662984445445	0.683289171798	CrowdGO	0.185	9.77474715278	13.2968402473	16.5030797872	0.186
0.663383995615	0.68318764958	CrowdGO	0.187	9.74445704883	13.3014119177	16.48884478	0.187
0.663446150444	0.683018610581	CrowdGO	0.187	9.73091893066	13.3057737734	16.484368321	0.188
0.663576304469	0.682625357765	CrowdGO	0.187	9.72257275239	13.3144723824	16.4864670487	0.189
0.663622287248	0.682625357765	CrowdGO	0.187	9.71898895878	13.3144723824	16.4843538303	0.19
0.663720785992	0.682508453393	CrowdGO	0.187	9.69585511721	13.3170598675	16.472816698	0.191
0.66376660381	0.682465383361	CrowdGO	0.187	9.69097862864	13.3204599905	16.4726962316	0.192
0.663766613614	0.682256254429	CrowdGO	0.187	9.68652649397	13.3219440496	16.4712776912	0.193
0.663827613469	0.682119865994	CrowdGO	0.187	9.66013823745	13.322361524	16.4561109422	0.194
0.664303035602	0.682013847454	CrowdGO	0.187	9.6388380387	13.3267431533	16.4471663763	0.195
0.664591839066	0.681940468882	CrowdGO	0.196	9.59324024711	13.3309109956	16.4238681927	0.196
0.664926746598	0.681417400472	CrowdGO	0.196	9.57954349621	13.3404443076	16.4236143379	0.197
0.665261888727	0.681230062336	CrowdGO	0.196	9.55703183824	13.3459624531	16.41498009	0.198
0.665452050125	0.681230062336	CrowdGO	0.199	9.54748591056	13.3459624531	16.4094241523	0.199
0.665991444125	0.680713352468	CrowdGO	0.2	9.52373881767	13.3537967574	16.4019964915	0.2
0.66594469412	0.680167798731	CrowdGO	0.2	9.51900446732	13.3596746472	16.4040346479	0.201
0.666032501434	0.680128830607	CrowdGO	0.2	9.51599718871	13.3623413181	16.404461832	0.202
0.666449067399	0.67996404092	CrowdGO	0.2	9.49525054524	13.3713324303	16.3997656654	0.203
0.666574168505	0.679867766731	CrowdGO	0.2	9.47774151005	13.3779603704	16.3950421714	0.204
0.666638500316	0.679676822923	CrowdGO	0.2	9.47386857817	13.3827695066	16.3967285	0.205
0.667201497416	0.678858492318	CrowdGO	0.2	9.46309460154	13.3846017008	16.392001773	0.206
0.667308197204	0.678729282222	CrowdGO	0.2	9.46105432551	13.3895815577	16.3948907663	0.207
0.667458733072	0.678674726848	CrowdGO	0.2	9.4443549852	13.3920065767	16.3872414164	0.208
0.667818077358	0.6785967906	CrowdGO	0.2	9.41008665589	13.3970871819	16.3716729698	0.209
0.667905743103	0.678542235227	CrowdGO	0.2	9.40846385418	13.3978985828	16.3714042931	0.21
0.667972297296	0.678364337269	CrowdGO	0.2	9.40571070131	13.4132496626	16.3823887241	0.211
0.668259497328	0.678093508806	CrowdGO	0.2	9.37976434115	13.4192039533	16.37238571	0.212
0.66850728639	0.678093508806	CrowdGO	0.2	9.36197408417	13.4192039533	16.3622001422	0.213
0.668929383618	0.678007129465	CrowdGO	0.214	9.32922417654	13.4230322445	16.3466271252	0.214
0.669088045074	0.677734352596	CrowdGO	0.214	9.30153095592	13.4263917251	16.3335995077	0.215
0.66931546238	0.677555311779	CrowdGO	0.214	9.27965140173	13.431816201	16.3256122886	0.216
0.669400693635	0.677522578555	CrowdGO	0.214	9.26433945588	13.4326956826	16.3176376616	0.217
0.669665107386	0.677485381709	CrowdGO	0.218	9.25152704454	13.4340518016	16.3114836991	0.218
0.670347609264	0.677369761514	CrowdGO	0.219	9.22797347383	13.4370729609	16.3006264969	0.219
0.670722533627	0.677369761514	CrowdGO	0.22	9.19837689146	13.4370729609	16.2838898054	0.22
0.671169121111	0.677369761514	CrowdGO	0.221	9.17036531027	13.4370729609	16.2680831594	0.221
0.671445785214	0.677369761514	CrowdGO	0.222	9.15284930808	13.4370729609	16.2582157758	0.222
0.671713655736	0.677137901175	CrowdGO	0.223	9.13359508705	13.4551139522	16.2623076678	0.223
0.671764559139	0.677089764081	CrowdGO	0.224	9.1290684218	13.4577806231	16.2619724988	0.224
0.671863127111	0.676964860988	CrowdGO	0.224	9.11605414623	13.4628035479	16.258829065	0.225
0.671894696052	0.676805741149	CrowdGO	0.224	9.10982909725	13.4649058508	16.2570807881	0.226
0.672417809823	0.676669352714	CrowdGO	0.227	9.09524907583	13.4670733706	16.2507113974	0.227
0.672490856452	0.676510130017	CrowdGO	0.227	9.0674803061	13.4760013335	16.2425924976	0.228
0.672591313358	0.676510130017	CrowdGO	0.229	9.0632535824	13.4760013335	16.2402332939	0.229
0.672666802786	0.676373741583	CrowdGO	0.229	9.05948763502	13.4778878682	16.2396975833	0.23
0.67275536067	0.676373741583	CrowdGO	0.231	9.05494862529	13.4778878682	16.2371658856	0.231
0.672881338109	0.676291908522	CrowdGO	0.232	9.05094190204	13.4789415776	16.235806582	0.232
0.672908243608	0.676212023868	CrowdGO	0.232	9.04804992373	13.480801572	16.2357389251	0.233
0.673190450577	0.676072961151	CrowdGO	0.234	9.02435575642	13.4831647441	16.2245101108	0.234
0.6733015422	0.676072961151	CrowdGO	0.235	9.01629336375	13.4831647441	16.2200270511	0.235
0.673357017145	0.676032044621	CrowdGO	0.236	9.01167501775	13.48447026	16.218545706	0.236
0.673653269441	0.67568881255	CrowdGO	0.236	8.96809075568	13.4908323901	16.1996669837	0.237
0.673852043589	0.675371545759	CrowdGO	0.236	8.95674446904	13.5027804686	16.2033438483	0.238
0.673956661194	0.67527527157	CrowdGO	0.236	8.95298363756	13.505185181	16.2032695092	0.239
0.674055323091	0.67527527157	CrowdGO	0.236	8.94453465396	13.505185181	16.1986026234	0.24
0.674060556679	0.675102991442	CrowdGO	0.236	8.93576852091	13.5152782276	16.2021820947	0.241
0.674095419477	0.675102991442	CrowdGO	0.236	8.93321441664	13.5152782276	16.2007736045	0.242
0.674195158284	0.675102991442	CrowdGO	0.236	8.91919762205	13.5152782276	16.1930488726	0.243
0.674315108746	0.674874780093	CrowdGO	0.236	8.91381892125	13.5213955411	16.1951938901	0.244
0.67456428624	0.674874780093	CrowdGO	0.245	8.89392373489	13.5213955411	16.184252123	0.245
0.674727116475	0.674575169911	CrowdGO	0.245	8.86637852486	13.5370407058	16.1822167585	0.246
0.674816569253	0.674278525066	CrowdGO	0.245	8.85670718517	13.5534223413	16.1906306031	0.247
0.674919112908	0.674278525066	CrowdGO	0.245	8.84994575262	13.5534223413	16.1869329086	0.248
0.675205677326	0.674109403408	CrowdGO	0.245	8.83176312844	13.5577951417	16.1806628128	0.249
0.675200452288	0.673887055876	CrowdGO	0.245	8.83014032673	13.5711271279	16.1909502411	0.25
0.67574836181	0.673887055876	CrowdGO	0.251	8.7912417288	13.5711271279	16.169768788	0.251
0.676100120865	0.673786264423	CrowdGO	0.252	8.75511275516	13.5771322615	16.155201014	0.252
0.676175358066	0.673786264423	CrowdGO	0.253	8.7533020442	13.5771322615	16.1542197931	0.253
0.67630477297	0.673639646857	CrowdGO	0.253	8.74253938865	13.5888708261	16.1582612088	0.254
0.67632076691	0.673456841846	CrowdGO	0.253	8.7363899297	13.5921667778	16.1577073472	0.255
0.676554750573	0.673415925315	CrowdGO	0.256	8.71171221459	13.5935228968	16.1455193306	0.256
0.676725138285	0.673415925315	CrowdGO	0.257	8.70119159694	13.5935228968	16.1398451031	0.257
0.677086467745	0.67324503863	CrowdGO	0.258	8.68203892591	13.6036839363	16.1380920976	0.258
0.677219128199	0.672810307649	CrowdGO	0.258	8.67464606134	13.6191556636	16.1471633818	0.259
0.677726855163	0.672679510897	CrowdGO	0.26	8.64886781808	13.6235337795	16.1370253509	0.26
0.6778877862	0.671827880259	CrowdGO	0.26	8.63688681906	13.644219984	16.1480820191	0.261
0.677982038273	0.671784810227	CrowdGO	0.26	8.61545947991	13.6455019532	16.1377156253	0.262
0.678082044142	0.67166578032	CrowdGO	0.26	8.61121231584	13.6485240846	16.1380044378	0.263
0.678241012512	0.671163775171	CrowdGO	0.26	8.59758863243	13.6550677855	16.1362761045	0.264
0.678356778812	0.670871385883	CrowdGO	0.26	8.5922383063	13.6634177818	16.1404939389	0.265
0.678654089837	0.670825923071	CrowdGO	0.26	8.57893227936	13.6644843667	16.1343178369	0.266
0.67870146902	0.670714376816	CrowdGO	0.26	8.56490179166	13.6709037155	16.1323014818	0.267
0.678932124062	0.670600018456	CrowdGO	0.26	8.55506661147	13.6740854787	16.1297792423	0.268
0.679336835816	0.670556948424	CrowdGO	0.26	8.53926234748	13.6753674479	16.1224897666	0.269
0.679448046663	0.670466022801	CrowdGO	0.26	8.52956018281	13.6766729638	16.118460853	0.27
0.6794450658	0.669728611649	CrowdGO	0.26	8.51441334949	13.687641462	16.1197631334	0.271
0.679515428874	0.669691414803	CrowdGO	0.26	8.51070436815	13.6887080468	16.1187101479	0.272
0.679550934304	0.669691414803	CrowdGO	0.26	8.50811688307	13.6887080468	16.1173441015	0.273
0.679656712703	0.669372831084	CrowdGO	0.26	8.49462644895	13.6957056048	16.1161729489	0.274
0.680197097329	0.668110298047	CrowdGO	0.26	8.47580066119	13.7166572856	16.1240777701	0.275
0.680400967846	0.667705952486	CrowdGO	0.26	8.45564092355	13.7290498758	16.124040248	0.276
0.680557104697	0.667533193802	CrowdGO	0.26	8.44365344367	13.7328628363	16.1210050915	0.277
0.680813463675	0.667405071334	CrowdGO	0.26	8.43534397333	13.741869218	16.1243293676	0.278
0.681263266799	0.667285214831	CrowdGO	0.26	8.41755002756	13.7437997512	16.1166739766	0.279
0.681372099099	0.667155321084	CrowdGO	0.26	8.41325764368	13.7461629233	16.1164480979	0.28
0.681838129308	0.666984510807	CrowdGO	0.26	8.40087901778	13.7493081154	16.1126733326	0.281
0.68199626582	0.666984510807	CrowdGO	0.26	8.38225085885	13.7493081154	16.1029687671	0.282
0.682327410827	0.666748343466	CrowdGO	0.26	8.36480208676	13.7552315343	16.0989536466	0.283
0.682491067032	0.666705273434	CrowdGO	0.26	8.35209441977	13.7583917511	16.0950559108	0.284
0.682730864198	0.666559792437	CrowdGO	0.26	8.33618674238	13.7604058573	16.0885294157	0.285
0.682953097284	0.666482625297	CrowdGO	0.26	8.32510059199	13.7634896367	16.085426536	0.286
0.683229783165	0.6664578274	CrowdGO	0.26	8.30427006098	13.7643010376	16.0753502076	0.287
0.683304387709	0.666342363154	CrowdGO	0.26	8.28779319093	13.7675007921	16.0695859945	0.288
0.683594164701	0.666159035843	CrowdGO	0.26	8.27920289525	13.7722034555	16.0691875526	0.289
0.684023279073	0.665805504995	CrowdGO	0.26	8.25501862909	13.7779557616	16.0616748048	0.29
0.684108961944	0.665805504995	CrowdGO	0.26	8.23787991061	13.7779557616	16.0528729637	0.291
0.684278384599	0.665657222547	CrowdGO	0.26	8.21875553249	13.784843052	16.0489825369	0.292
0.684462511902	0.665563622641	CrowdGO	0.26	8.2009112713	13.7876523402	16.0422661346	0.293
0.684622096495	0.665529525532	CrowdGO	0.26	8.19222824097	13.7890084592	16.0389949137	0.294
0.68545679187	0.665077958768	CrowdGO	0.26	8.1628706312	13.79825609	16.0319782955	0.295
0.685778434491	0.664600591719	CrowdGO	0.26	8.14129934067	13.8099888725	16.0311118646	0.296
0.686185353628	0.664145834299	CrowdGO	0.26	8.10828512733	13.8239254167	16.0263907862	0.297
0.686385743998	0.664145834299	CrowdGO	0.26	8.09317158744	13.8239254167	16.0187496475	0.298
0.686625099585	0.663559056166	CrowdGO	0.26	8.07128504143	13.8387315867	16.0204910708	0.299
0.687234872496	0.663030739025	CrowdGO	0.26	8.04436576206	13.8540180127	16.0201634078	0.3
0.687222024647	0.662956345333	CrowdGO	0.26	8.04394828774	13.8550717221	16.0208650354	0.301
0.687798932206	0.662251283784	CrowdGO	0.26	8.02270973608	13.8703373908	16.0234244418	0.302
0.68800231384	0.662123161316	CrowdGO	0.26	8.0158609668	13.8730496288	16.0223448047	0.303
0.688344536052	0.662057694867	CrowdGO	0.26	7.96585847379	13.8750529904	15.9991248733	0.304
0.688674899628	0.661539273459	CrowdGO	0.26	7.94495576605	13.8837788785	15.9963007621	0.305
0.688969638085	0.661299522076	CrowdGO	0.26	7.92627310149	13.88794976	15.990652076	0.306
0.689219414562	0.661179665573	CrowdGO	0.26	7.90679441399	13.8897682139	15.9825861156	0.307
0.689676782735	0.660595293589	CrowdGO	0.26	7.87186925013	13.9024494575	15.9763708773	0.308
0.689969547172	0.660334089073	CrowdGO	0.26	7.8543046849	13.9064669254	15.9712217576	0.309
0.690867817326	0.65934251419	CrowdGO	0.26	7.84171385288	13.9258989057	15.9819628483	0.31
0.690922465039	0.659232386883	CrowdGO	0.26	7.80703746036	13.9298315354	15.968407576	0.311
0.69109303586	0.659191470353	CrowdGO	0.26	7.79321378001	13.9308278439	15.9625231539	0.312
0.692513426752	0.658733274822	CrowdGO	0.313	7.74010330792	13.937003124	15.9420593179	0.313
0.692771535894	0.658642349199	CrowdGO	0.314	7.72870873083	13.9382850932	15.9376513321	0.314
0.693358604948	0.658332375485	CrowdGO	0.315	7.69652972706	13.9422272745	15.9255226354	0.315
0.694131333874	0.658170290679	CrowdGO	0.316	7.65173037032	13.9463224054	15.9075103739	0.316
0.694212385227	0.65800478103	CrowdGO	0.316	7.64050281462	13.9504298816	15.9057152352	0.317
0.694743812199	0.657711188652	CrowdGO	0.318	7.61246770483	13.9584473903	15.8993055856	0.318
0.694826159646	0.657711188652	CrowdGO	0.319	7.58995921161	13.9584473903	15.8885409771	0.319
0.695046629779	0.657556615093	CrowdGO	0.32	7.58222874049	13.9616291534	15.8876455553	0.32
0.695572884888	0.657117898963	CrowdGO	0.321	7.56822280636	13.9670200984	15.8857057406	0.321
0.695745040539	0.657117898963	CrowdGO	0.322	7.5589651568	13.9670200984	15.8812973233	0.322
0.695966839172	0.657074828931	CrowdGO	0.323	7.55143258085	13.9680686919	15.8786358673	0.323
0.696040363526	0.657074828931	CrowdGO	0.324	7.54933430035	13.9680686919	15.8776380914	0.324
0.696208612952	0.656653949885	CrowdGO	0.324	7.54224478407	13.9784192352	15.883376867	0.325
0.696738437521	0.656616753039	CrowdGO	0.326	7.51555994092	13.9794155437	15.8716004287	0.326
0.69713772629	0.656263279681	CrowdGO	0.327	7.48766982876	13.9883562668	15.8662947947	0.327
0.697698952059	0.655735542554	CrowdGO	0.327	7.4427266879	13.99675539	15.8525500157	0.328
0.697813952896	0.655735542554	CrowdGO	0.329	7.40357484429	13.99675539	15.8342060718	0.329
0.697880523701	0.655735542554	CrowdGO	0.33	7.40252625079	13.99675539	15.8337158097	0.33
0.69796129177	0.655735542554	CrowdGO	0.331	7.39143183028	13.99675539	15.8285320213	0.331
0.698588848779	0.655372692074	CrowdGO	0.332	7.36561310001	14.0062014047	15.8248517885	0.332
0.698609779511	0.65497216381	CrowdGO	0.332	7.36003354289	14.0137998475	15.8289822768	0.333
0.698941715379	0.654489782799	CrowdGO	0.332	7.34580952823	14.0259517253	15.8331373842	0.334
0.6993545956	0.654418623616	CrowdGO	0.332	7.30947944211	14.0285392104	15.8186093602	0.335
0.699748683719	0.654206615305	CrowdGO	0.332	7.29842546467	14.0338721346	15.8182357219	0.336
0.700207482361	0.653957691652	CrowdGO	0.337	7.2748518314	14.0378108181	15.8108697336	0.337
0.700302279426	0.653491697835	CrowdGO	0.337	7.26115875919	14.0436359953	15.8097482109	0.338
0.700647189243	0.653409864774	CrowdGO	0.337	7.24852586138	14.0464419027	15.8064435371	0.339
0.701078397435	0.653279068023	CrowdGO	0.34	7.21806163007	14.0494831133	15.795201469	0.34
0.701353227134	0.653167477486	CrowdGO	0.341	7.19146628272	14.0528425939	15.7860562607	0.341
0.701725804648	0.653128509362	CrowdGO	0.342	7.17012594258	14.0533518207	15.7767995306	0.342
0.701891916476	0.653087592831	CrowdGO	0.343	7.16037894364	14.0537692951	15.7727441498	0.343
0.701997172722	0.652789983335	CrowdGO	0.343	7.14898498252	14.0610844141	15.7740952571	0.344
0.702435874325	0.652660533961	CrowdGO	0.345	7.13961453927	14.0642661773	15.7726877505	0.345
0.702434384525	0.65195336097	CrowdGO	0.345	7.13374152709	14.0747920092	15.7794181856	0.346
0.70303282192	0.651518866387	CrowdGO	0.345	7.11617785385	14.0793879531	15.7755872277	0.347
0.703583507407	0.651337015141	CrowdGO	0.345	7.08988290649	14.0813913147	15.7655326895	0.348
0.703743631244	0.651227904393	CrowdGO	0.345	7.07929219505	14.0847001922	15.7637291745	0.349
0.703877184958	0.651108047891	CrowdGO	0.345	7.07395931101	14.0867973792	15.7632090875	0.35
0.704063629478	0.65077826017	CrowdGO	0.345	7.06774914178	14.0942559668	15.7670900673	0.351
0.704572187681	0.650723704797	CrowdGO	0.345	7.03951739194	14.0952630199	15.7553560643	0.352
0.704763803739	0.650298333851	CrowdGO	0.345	7.01991750324	14.1037861362	15.7542383227	0.353
0.705102629945	0.649954995084	CrowdGO	0.345	6.99656052886	14.1122938609	15.7514665111	0.354
0.705286839896	0.649304022317	CrowdGO	0.345	6.98839105461	14.1167655247	15.7518468254	0.355
0.705498965513	0.649217882253	CrowdGO	0.345	6.98049631197	14.1187688863	15.7501417018	0.356
0.705770274915	0.648972383072	CrowdGO	0.345	6.97246918515	14.1216639538	15.7491815458	0.357
0.705866488921	0.648972383072	CrowdGO	0.345	6.96133113893	14.1216639538	15.7442536835	0.358
0.70652380103	0.648972383072	CrowdGO	0.345	6.94455022305	14.1216639538	15.7368411895	0.359
0.707131107217	0.648853353165	CrowdGO	0.36	6.93347757466	14.1246636239	15.7346507355	0.36
0.707613984523	0.648380581604	CrowdGO	0.36	6.92335825649	14.1307311097	15.7356427019	0.361
0.707971247842	0.647902614292	CrowdGO	0.36	6.91772014152	14.1393903839	15.7409406449	0.362
0.708269418232	0.647902614292	CrowdGO	0.363	6.88661999629	14.1393903839	15.7272977782	0.363
0.708789283597	0.647657557727	CrowdGO	0.364	6.86391644096	14.1473719877	15.7245503295	0.364
0.708954364562	0.647534331254	CrowdGO	0.365	6.85966809296	14.1505717422	15.725575569	0.365
0.709236709529	0.647285264655	CrowdGO	0.365	6.84602436716	14.1596960397	15.7278428773	0.366
0.710018539809	0.647026776099	CrowdGO	0.367	6.82358930775	14.1637135075	15.721709556	0.367
0.71025515147	0.646995301845	CrowdGO	0.368	6.81794080487	14.1647205606	15.7201662008	0.368
0.711146435978	0.646383497433	CrowdGO	0.369	6.79114564844	14.1760461874	15.7187768203	0.369
0.711019396879	0.645896691095	CrowdGO	0.369	6.78272126337	14.1850271397	15.7232408457	0.37
0.710998363675	0.645310220828	CrowdGO	0.369	6.77764585329	14.1941778781	15.729309233	0.371
0.7114719991	0.645112490227	CrowdGO	0.369	6.75722147674	14.198078519	15.724041329	0.372
0.712344650586	0.644429557834	CrowdGO	0.369	6.73898357914	14.2144088998	15.730966914	0.373
0.713002207826	0.644209683146	CrowdGO	0.369	6.72012340273	14.2189585834	15.7270099429	0.374
0.713086087039	0.644035477919	CrowdGO	0.369	6.71692364822	14.2256500616	15.7316935825	0.375
0.7131722365	0.643788603392	CrowdGO	0.369	6.70153485035	14.2287958421	15.7279750911	0.376
0.713269302092	0.643604077863	CrowdGO	0.369	6.6900460874	14.235131818	15.7288173277	0.377
0.713310745206	0.643211662017	CrowdGO	0.369	6.67901960501	14.2528705735	15.7401913098	0.378
0.713487599779	0.64306618102	CrowdGO	0.369	6.67596040313	14.2548631905	15.7406979478	0.379
0.713737630885	0.642954590483	CrowdGO	0.369	6.66948932642	14.2576593167	15.7404871928	0.38
0.714091324574	0.642686359896	CrowdGO	0.369	6.66013088122	14.2620219769	15.7404769377	0.381
0.714783536006	0.642515692016	CrowdGO	0.369	6.64695441222	14.2657532353	15.7382882909	0.382
0.714718706284	0.642236715673	CrowdGO	0.369	6.62991553276	14.270952706	15.7358149172	0.383
0.715024171177	0.64210487352	CrowdGO	0.369	6.6234345374	14.273049893	15.7349877127	0.384
0.715323083519	0.64210487352	CrowdGO	0.369	6.58929149521	14.273049893	15.720646159	0.385
0.715394979988	0.64190483715	CrowdGO	0.369	6.58670965752	14.2761950851	15.7224199861	0.386
0.715832278667	0.641634366366	CrowdGO	0.369	6.56897414615	14.2822754462	15.7205220414	0.387
0.715884327899	0.64159716952	CrowdGO	0.369	6.56688077613	14.2832717548	15.720552635	0.388
0.715932793721	0.641207146454	CrowdGO	0.369	6.56030787802	14.2993419317	15.7324130105	0.389
0.716267044317	0.640678951244	CrowdGO	0.369	6.5415656875	14.3034243339	15.7283193419	0.39
0.716813687295	0.640504412199	CrowdGO	0.369	6.52470668907	14.306834917	15.7244180407	0.391
0.717589219614	0.640206957601	CrowdGO	0.369	6.49922205111	14.3160786062	15.7222769957	0.392
0.717576793064	0.639474204052	CrowdGO	0.369	6.49510351116	14.3276837723	15.7311440111	0.393
0.71823403633	0.639138809183	CrowdGO	0.369	6.45890887074	14.3333068205	15.7213608893	0.394
0.718515901297	0.638695340123	CrowdGO	0.369	6.44792189968	14.3403332652	15.7232584085	0.395
0.718759604519	0.638658143277	CrowdGO	0.369	6.43789939808	14.3412127468	15.7199532985	0.396
0.71885874381	0.638658143277	CrowdGO	0.369	6.43205160875	14.3412127468	15.717559319	0.397
0.719765439642	0.638399224057	CrowdGO	0.369	6.41752240484	14.3452682572	15.7153210335	0.398
0.720028936931	0.638360255933	CrowdGO	0.369	6.40253564164	14.3493544947	15.7129385239	0.399
0.720079539081	0.637944630125	CrowdGO	0.369	6.39582198554	14.3564909302	15.716722645	0.4
0.720395639452	0.637899167314	CrowdGO	0.369	6.37829514644	14.3588590629	15.7117625544	0.401
0.722723065697	0.636187582764	CrowdGO	0.369	6.34777449069	14.3756510813	15.7147569181	0.402
0.723378215297	0.635179189498	CrowdGO	0.369	6.33253679262	14.3923971596	15.7239345658	0.403
0.724002760386	0.634978370072	CrowdGO	0.369	6.3165945113	14.3950312822	15.7199329463	0.404
0.724165295211	0.633472285053	CrowdGO	0.369	6.30341899917	14.4117100835	15.7299230326	0.405
0.725269476123	0.633452800991	CrowdGO	0.369	6.28303660204	14.4132180238	15.7231486269	0.406
0.725420209934	0.633323590895	CrowdGO	0.369	6.27076620477	14.416100867	15.7208928819	0.407
0.726405599893	0.632695583255	CrowdGO	0.369	6.24118013964	14.4287315275	15.7207068234	0.408
0.727744117563	0.631591644377	CrowdGO	0.369	6.21180606428	14.4513847674	15.7298778214	0.409
0.727931920172	0.631291589821	CrowdGO	0.369	6.20196001659	14.4574966912	15.7316089013	0.41
0.728107562446	0.631138881403	CrowdGO	0.369	6.19228550253	14.4609859798	15.7310049029	0.411
0.728911598277	0.630885588597	CrowdGO	0.369	6.18677495905	14.4636088914	15.7312480928	0.412
0.72906058325	0.630809423627	CrowdGO	0.369	6.17524630179	14.4651944206	15.72817588	0.413
0.729741150238	0.630153964378	CrowdGO	0.369	6.15630136758	14.4782108988	15.7327250456	0.414
0.729719069912	0.629902354406	CrowdGO	0.369	6.15050887278	14.4875541224	15.7390591791	0.415
0.729686895873	0.629738688285	CrowdGO	0.369	6.14517086411	14.4879715967	15.7373582896	0.416
0.729979179276	0.62950827449	CrowdGO	0.369	6.12097666315	14.491125052	15.7308315286	0.417
0.730902639725	0.628728552196	CrowdGO	0.369	6.10168529961	14.505737804	15.7368037648	0.418
0.731939599495	0.627970113903	CrowdGO	0.369	6.09130481496	14.5121511044	15.7386951183	0.419
0.732020094334	0.627970113903	CrowdGO	0.369	6.08651075412	14.5121511044	15.7368403067	0.42
0.733137233167	0.626882576405	CrowdGO	0.369	6.0659215146	14.5357796821	15.7506918828	0.421
0.733541047255	0.626191098303	CrowdGO	0.369	6.05110730543	14.5506442181	15.7587165335	0.422
0.733707691673	0.62613830278	CrowdGO	0.369	6.04790755093	14.5527593965	15.7594413542	0.423
0.734192721495	0.625707795127	CrowdGO	0.369	6.03895296561	14.5572348772	15.7601408684	0.424
0.735622695094	0.625214328234	CrowdGO	0.369	5.99190254329	14.5694375141	15.7534569402	0.425
0.736549286858	0.624635250066	CrowdGO	0.369	5.9765162808	14.5823492936	15.7595576644	0.426
0.736988767985	0.624367258757	CrowdGO	0.369	5.95597836789	14.5863560169	15.7554898423	0.427
0.737547952939	0.623405894987	CrowdGO	0.369	5.93473280794	14.6046559566	15.7644228919	0.428
0.738255164578	0.622133294002	CrowdGO	0.369	5.90467804064	14.6361100887	15.7822983527	0.429
0.738542458983	0.622037019813	CrowdGO	0.369	5.89572141874	14.6381134504	15.7808078511	0.43
0.739182910064	0.621230488324	CrowdGO	0.369	5.88227047812	14.6521392183	15.7888026668	0.431
0.739985142584	0.620683442799	CrowdGO	0.369	5.85272206258	14.6630888132	15.7879868598	0.432
0.740042830858	0.620425022608	CrowdGO	0.369	5.84598815469	14.6721572518	15.7939157883	0.433
0.740073248311	0.620181745138	CrowdGO	0.369	5.84404545275	14.6821314766	15.8024634772	0.434
0.741711172737	0.619636164151	CrowdGO	0.369	5.81445926201	14.6946835718	15.8032168176	0.435
0.741837038062	0.619422282288	CrowdGO	0.369	5.81346295348	14.7023737688	15.8100014532	0.436
0.741922696407	0.619422282288	CrowdGO	0.369	5.81239636865	14.7023737688	15.8096092926	0.437
0.742661348429	0.618892433886	CrowdGO	0.369	5.78911679558	14.7113439428	15.8094121927	0.438
0.743063560735	0.618892433886	CrowdGO	0.369	5.76837481307	14.7113439428	15.801828647	0.439
0.743447222594	0.618315850268	CrowdGO	0.369	5.7551837585	14.7268853694	15.8114924273	0.44
0.743705071696	0.61740650703	CrowdGO	0.369	5.75025373697	14.7363647284	15.8185291177	0.441
0.743962260839	0.616803632467	CrowdGO	0.369	5.7393793401	14.7451061785	15.822725158	0.442
0.745112818329	0.615828475961	CrowdGO	0.369	5.70008290192	14.7674018715	15.8293115177	0.443
0.745614516826	0.615539906748	CrowdGO	0.369	5.69001039425	14.7750161604	15.8327925782	0.444
0.74600357955	0.615516525873	CrowdGO	0.369	5.68026096704	14.7760124689	15.8302213861	0.445
0.746321702317	0.615114080001	CrowdGO	0.369	5.67030870086	14.7847153759	15.8347784799	0.446
0.747058618362	0.614826321069	CrowdGO	0.369	5.65226105976	14.7896431211	15.8329276742	0.447
0.747275259284	0.614653562386	CrowdGO	0.369	5.64815326438	14.792754608	15.8343684493	0.448
0.747629112479	0.61429675673	CrowdGO	0.369	5.63993193926	14.8008574569	15.8390092411	0.449
0.747521512828	0.613840475422	CrowdGO	0.369	5.6383464101	14.807028543	15.8442117037	0.45
0.748112615042	0.61345803467	CrowdGO	0.369	5.60462335287	14.8162483276	15.8408654256	0.451
0.748681471051	0.613087156399	CrowdGO	0.369	5.58668418458	14.8216065283	15.8395410368	0.452
0.748974604767	0.612547194345	CrowdGO	0.369	5.57864009239	14.8434363526	15.8571380783	0.453
0.749883658487	0.612204350589	CrowdGO	0.369	5.55291847098	14.8526860433	15.8567709906	0.454
0.750034432895	0.611739165241	CrowdGO	0.369	5.54295118728	14.8637064444	15.8636085785	0.455
0.751464504223	0.610826754894	CrowdGO	0.369	5.50749165629	14.8832091927	15.8695425333	0.456
0.752440533792	0.610410468144	CrowdGO	0.369	5.48796436088	14.8919929148	15.8710177934	0.457
0.752852285526	0.610319542521	CrowdGO	0.369	5.47493709898	14.8928723964	15.8673433332	0.458
0.752769487756	0.609676781027	CrowdGO	0.369	5.47405761738	14.9025804185	15.8761522394	0.459
0.753071205472	0.608876635546	CrowdGO	0.369	5.46083166159	14.9138690993	15.8821967608	0.46
0.753318606585	0.608846327005	CrowdGO	0.369	5.45597765224	14.9149356841	15.881530109	0.461
0.753342730772	0.608523541044	CrowdGO	0.369	5.45226238785	14.9188100472	15.8838930483	0.462
0.7534564462	0.608523541044	CrowdGO	0.369	5.44970109636	14.9188100472	15.8830140485	0.463
0.753729731408	0.608096572663	CrowdGO	0.369	5.44104931298	14.9303204477	15.890861723	0.464
0.754356465101	0.607914721418	CrowdGO	0.369	5.42473994985	14.9323238094	15.8871677108	0.465
0.754837421451	0.607457050822	CrowdGO	0.369	5.40361060378	14.9516037241	15.898096159	0.466
0.75503012889	0.607293384701	CrowdGO	0.369	5.40065031935	14.9523964887	15.8978358473	0.467
0.755578946201	0.606847022552	CrowdGO	0.369	5.38395547914	14.9568908682	15.8964008834	0.468
0.755614714451	0.606602222799	CrowdGO	0.369	5.37937537701	14.9614709704	15.8991601364	0.469
0.755730090998	0.606527829107	CrowdGO	0.369	5.37637570686	14.9633835122	15.8999453419	0.47
0.755926326481	0.606302134562	CrowdGO	0.369	5.369868419	14.968119144	15.9022035438	0.471
0.756425487134	0.605491506915	CrowdGO	0.369	5.35467972863	14.9829965111	15.9110898259	0.472
0.756717599574	0.605061676698	CrowdGO	0.369	5.35004677719	14.9965241345	15.9222717172	0.473
0.756853476912	0.604611030972	CrowdGO	0.369	5.34547852573	15.0100159973	15.933446611	0.474
0.757257373928	0.604520105349	CrowdGO	0.369	5.33819967203	15.0110123058	15.9319448337	0.475
0.757298337936	0.604317471104	CrowdGO	0.369	5.3304138843	15.015913127	15.9339561696	0.476
0.7579866481	0.603678540425	CrowdGO	0.369	5.31627409922	15.0239289936	15.9367880297	0.477
0.758832851756	0.603507448644	CrowdGO	0.369	5.30329293004	15.0280710827	15.9363683557	0.478
0.759005575496	0.603294843144	CrowdGO	0.369	5.27701773769	15.0322419641	15.9315791644	0.479
0.759905403117	0.6027723471	CrowdGO	0.369	5.25652000662	15.0407398423	15.9328232772	0.48
0.760054600305	0.602503289916	CrowdGO	0.369	5.25076146322	15.0433324245	15.9333720969	0.481
0.760013006533	0.602234779032	CrowdGO	0.369	5.24609957313	15.0495088476	15.9376685022	0.482
0.76064633796	0.601966425496	CrowdGO	0.369	5.23264715822	15.0534726705	15.936989544	0.483
0.761425177911	0.601143801465	CrowdGO	0.369	5.21642406805	15.0628201047	15.9405028015	0.484
0.761685948899	0.600365800071	CrowdGO	0.369	5.20273347653	15.0693278672	15.942179211	0.485
0.764301683225	0.598970347064	CrowdGO	0.369	5.15786155224	15.095571546	15.9524235179	0.486
0.764567748535	0.598730877686	CrowdGO	0.369	5.14927399253	15.0982056687	15.9521420839	0.487
0.764892127182	0.598173604804	CrowdGO	0.369	5.14172072863	15.1037550208	15.9549587207	0.488
0.764990022434	0.598022775242	CrowdGO	0.369	5.13812149115	15.1069367839	15.9568114437	0.489
0.765429474964	0.597840923996	CrowdGO	0.369	5.11687568714	15.1160026973	15.9585699341	0.49
0.765929128056	0.597244184737	CrowdGO	0.369	5.09889778585	15.1313559493	15.9673633232	0.491
0.766450467949	0.596983131899	CrowdGO	0.369	5.08656724975	15.1363665219	15.9681795415	0.492
0.766666918166	0.596942215369	CrowdGO	0.369	5.08362999822	15.1371779227	15.9680133211	0.493
0.766673534802	0.596942215369	CrowdGO	0.369	5.06855309086	15.1371779227	15.9632197848	0.494
0.766704812948	0.596727961538	CrowdGO	0.369	5.06336796607	15.1413198314	15.9655022281	0.495
0.767570007469	0.596571191749	CrowdGO	0.369	5.04643256548	15.144509526	15.9631654261	0.496
0.767848145156	0.596227580777	CrowdGO	0.369	5.04117395725	15.1529342614	15.9694975375	0.497
0.767848145156	0.596227580777	CrowdGO	0.369	5.04117395725	15.1529342614	15.9694975375	0.498
0.767848145156	0.596227580777	CrowdGO	0.369	5.04117395725	15.1529342614	15.9694975375	0.499
0.768427458839	0.594972452926	CrowdGO	0.369	5.02287560107	15.1750342943	15.9847097295	0.5
0.768598457689	0.594792192175	CrowdGO	0.369	5.018937056	15.1798437193	15.9880387951	0.501
0.768885426947	0.594792192175	CrowdGO	0.369	5.00996303624	15.1798437193	15.9852239573	0.502
0.768885426947	0.594792192175	CrowdGO	0.369	5.00996303624	15.1798437193	15.9852239573	0.503
0.769093803984	0.594225005536	CrowdGO	0.369	5.00531166335	15.1868733859	15.9904430234	0.504
0.769294194829	0.59418780869	CrowdGO	0.369	4.99990532364	15.1878696944	15.9896979052	0.505
0.770195430561	0.593556445528	CrowdGO	0.369	4.9884909988	15.2052362394	16.002632644	0.506
0.771038270643	0.593027499634	CrowdGO	0.369	4.96568768573	15.212794102	16.0027234739	0.507
0.771234061147	0.592742323817	CrowdGO	0.369	4.96168096248	15.2196836684	16.008030764	0.508
0.771902869031	0.592196944088	CrowdGO	0.369	4.92875949591	15.2272275271	16.0050344683	0.509
0.772833705204	0.591908812485	CrowdGO	0.369	4.914549522	15.232027015	16.0052317693	0.51
0.773099711948	0.591797548236	CrowdGO	0.369	4.89600943428	15.2338870093	16.0013193766	0.511
0.774039503923	0.590816163927	CrowdGO	0.369	4.86587403675	15.2422324876	16.0000744169	0.512
0.775199914933	0.589109154997	CrowdGO	0.369	4.86508127217	15.2446529654	16.0021392264	0.513
0.775453944171	0.588965947141	CrowdGO	0.369	4.86270297842	15.2490410352	16.0055969195	0.514
0.775934080882	0.588849259258	CrowdGO	0.369	4.85530059985	15.2520299608	16.0061976072	0.515
0.775709656997	0.588209473512	CrowdGO	0.369	4.8494339622	15.2593258166	16.0113720252	0.516
0.776243313183	0.587609432612	CrowdGO	0.369	4.83966782271	15.26810917	16.0167893868	0.517
0.776632019309	0.587427581366	CrowdGO	0.369	4.83108462644	15.2698370667	16.0158453637	0.518
0.776832326504	0.587088558687	CrowdGO	0.369	4.82281515729	15.2753010037	16.0185631938	0.519
0.777255042946	0.586680923628	CrowdGO	0.369	4.81779841873	15.2802310252	16.0217552655	0.52
0.777296371628	0.586020179776	CrowdGO	0.369	4.81406327919	15.2896186746	16.0295865346	0.521
0.777173786554	0.58562270491	CrowdGO	0.369	4.81406327919	15.2932173466	16.0330191189	0.522
0.777279757602	0.584217677885	CrowdGO	0.369	4.80419123415	15.3209539239	16.056521496	0.523
0.777470603206	0.584135844825	CrowdGO	0.369	4.79900274149	15.3218334055	16.0558091113	0.524
0.778206327168	0.58384347565	CrowdGO	0.369	4.77376392196	15.3287518056	16.054888785	0.525
0.778187438811	0.583132959702	CrowdGO	0.369	4.76125911933	15.3445723073	16.0662841907	0.526
0.778562825514	0.582704428423	CrowdGO	0.369	4.72922539287	15.354579095	16.0663832894	0.527
0.778780844284	0.581678415429	CrowdGO	0.369	4.71460653714	15.3719704493	16.0787123332	0.528
0.778892886306	0.581481637003	CrowdGO	0.369	4.6954469548	15.3767082119	16.0776359437	0.529
0.77916216093	0.581375769057	CrowdGO	0.369	4.68999306491	15.37854957	16.0778052552	0.53
0.78039670594	0.580916030769	CrowdGO	0.369	4.66866786371	15.386938168	16.0796245543	0.531
0.781610298173	0.580268852888	CrowdGO	0.369	4.65469988166	15.3941983101	16.0825238256	0.532
0.781790680942	0.580182712824	CrowdGO	0.369	4.64216117765	15.3961443766	16.0807624839	0.533
0.781790680942	0.580182712824	CrowdGO	0.369	4.64216117765	15.3961443766	16.0807624839	0.534
0.782561437759	0.579833348604	CrowdGO	0.369	4.58197655247	15.4050038752	16.0719834969	0.535
0.78285038829	0.579755235228	CrowdGO	0.369	4.57933810765	15.4067628385	16.072917553	0.536
0.783285358341	0.579583775482	CrowdGO	0.369	4.57229675168	15.4108060919	16.0747890184	0.537
0.783993988562	0.578784518748	CrowdGO	0.369	4.55485419357	15.4166824566	16.0754718342	0.538
0.784233554821	0.578753044494	CrowdGO	0.369	4.55035229409	15.4174752212	16.0749571756	0.539
0.784258963363	0.578717464902	CrowdGO	0.369	4.54935598556	15.4185418061	16.0756981593	0.54
0.7847118977	0.578216997814	CrowdGO	0.369	4.53662188725	15.4234407611	16.0767989059	0.541
0.785808897502	0.577302603444	CrowdGO	0.369	4.51122675976	15.4363068889	16.0820004118	0.542
0.786135997586	0.576685668742	CrowdGO	0.369	4.50411283422	15.442865693	16.0863026589	0.543
0.786245386605	0.576564268048	CrowdGO	0.369	4.49667368072	15.4459267844	16.0871603591	0.544
0.786262723637	0.576483225645	CrowdGO	0.369	4.49562508722	15.4480239714	16.0888809289	0.545
0.78684517786	0.576155030867	CrowdGO	0.369	4.4876768133	15.4525706359	16.0910280106	0.546
0.789278162731	0.575179183072	CrowdGO	0.369	4.44857839528	15.4671860246	16.0942130363	0.547
0.789357048247	0.575179183072	CrowdGO	0.369	4.44646321695	15.4671860246	16.0936285113	0.548
0.789746148383	0.575133720261	CrowdGO	0.369	4.42828007965	15.4680499729	16.0894448142	0.549
0.790539616878	0.573833508847	CrowdGO	0.369	4.41152628501	15.4907726699	16.1066943249	0.55
0.792118122617	0.57289998883	CrowdGO	0.369	4.38509311918	15.5058118729	16.1139456218	0.551
0.792388578982	0.57163959235	CrowdGO	0.369	4.37418151979	15.5440250055	16.1477607531	0.552
0.792830625648	0.571596522318	CrowdGO	0.369	4.35516742784	15.5449044871	16.1434673735	0.553
0.793415778618	0.571322394649	CrowdGO	0.369	4.34725371009	15.5520599965	16.1482254429	0.554
0.793536193392	0.570985492962	CrowdGO	0.369	4.34054410413	15.5595876517	16.1536711311	0.555
0.793895089689	0.570561325972	CrowdGO	0.369	4.32604407992	15.5650778733	16.1550706153	0.556
0.794576113098	0.570406716474	CrowdGO	0.369	4.29226663522	15.5674561671	16.1483511351	0.557
0.795131194929	0.570238799285	CrowdGO	0.369	4.28528023777	15.5732865548	16.152116915	0.558
0.795543508371	0.570000739472	CrowdGO	0.369	4.27535353975	15.5785541062	16.1545657921	0.559
0.796129163449	0.569617545616	CrowdGO	0.369	4.26577450357	15.5845649766	16.1578308453	0.56
0.796677760373	0.569230439965	CrowdGO	0.369	4.24065550789	15.592061754	16.1584513143	0.561
0.797235178637	0.569164868602	CrowdGO	0.369	4.22801539996	15.5938207172	16.1568362863	0.562
0.798205729368	0.568267204138	CrowdGO	0.369	4.21418515131	15.6131528255	16.1718860261	0.563
0.798713680259	0.567920474964	CrowdGO	0.369	4.20702092897	15.6289131511	16.1852386878	0.564
0.798811866819	0.567875012152	CrowdGO	0.369	4.20510838711	15.6297770995	16.1855759467	0.565
0.798872098107	0.567875012152	CrowdGO	0.369	4.20222554388	15.6297770995	16.1848272064	0.566
0.798820505928	0.56754767991	CrowdGO	0.369	4.20055019466	15.6313626286	16.1859235006	0.567
0.798978449648	0.567125877636	CrowdGO	0.369	4.18749912001	15.6386342356	16.1895654554	0.568
0.799249629743	0.566540828149	CrowdGO	0.369	4.18327514603	15.6586948184	16.207853478	0.569
0.799777547055	0.566396468962	CrowdGO	0.369	4.17821755301	15.6630333698	16.2107407685	0.57
0.800568457166	0.566185066889	CrowdGO	0.369	4.16622071841	15.6664720824	16.2109759911	0.571
0.801216885506	0.566185066889	CrowdGO	0.369	4.15917015076	15.6664720824	16.2091654274	0.572
0.801791067957	0.565634529789	CrowdGO	0.369	4.15328946383	15.6723527693	16.2133418732	0.573
0.801956547174	0.56522371627	CrowdGO	0.369	4.15031279524	15.680055954	16.2200262336	0.574
0.802494568835	0.564475459494	CrowdGO	0.369	4.13566249965	15.6956238137	16.2313373205	0.575
0.802639373971	0.564130681714	CrowdGO	0.369	4.13240472431	15.698881589	16.2336579967	0.576
0.803764903575	0.563262189199	CrowdGO	0.369	4.12068623413	15.710735937	16.2421451392	0.577
0.804088527242	0.563055453046	CrowdGO	0.369	4.1120516766	15.7123214661	16.2414905365	0.578
0.804328657362	0.562803671731	CrowdGO	0.369	4.10408104362	15.7191909823	16.2461209632	0.579
0.804659495546	0.562233959938	CrowdGO	0.369	4.09527539345	15.7336447201	16.2578859858	0.58
0.805819240552	0.561545014799	CrowdGO	0.369	4.03312362126	15.7384880246	16.2470333121	0.581
0.806642126787	0.560823373002	CrowdGO	0.369	4.02365232026	15.7534620634	16.2591926299	0.582
0.808376928778	0.560220157736	CrowdGO	0.369	3.9904989873	15.7592560333	16.2566365798	0.583
0.808948059649	0.560145764045	CrowdGO	0.369	3.98525319524	15.7608415624	16.2568868418	0.584
0.810647564378	0.558459065277	CrowdGO	0.369	3.95094247751	15.7975561575	16.2841249998	0.585
0.81090805183	0.558176282239	CrowdGO	0.369	3.94695724341	15.8013564839	16.2868455575	0.586
0.810851963434	0.557977036527	CrowdGO	0.369	3.94695724341	15.8077576966	16.2930560325	0.587
0.810861372127	0.556684500963	CrowdGO	0.369	3.9431085597	15.8354728197	16.3190166535	0.588
0.810941445691	0.556639038151	CrowdGO	0.369	3.94152303054	15.8362655843	16.3194029136	0.589
0.811302608955	0.556523107982	CrowdGO	0.369	3.93174695816	15.8381069424	16.3188316267	0.59
0.811392732809	0.556454913765	CrowdGO	0.369	3.93075064964	15.8389183432	16.3193791228	0.591
0.811957690007	0.556312842479	CrowdGO	0.369	3.89951255612	15.8406773065	16.3135911345	0.592
0.813709275248	0.55374094629	CrowdGO	0.369	3.89951255612	15.8460977659	16.318854512	0.593
0.813753562227	0.553417644961	CrowdGO	0.369	3.89750919449	15.8528705055	16.3249527162	0.594
0.814488625714	0.552546240785	CrowdGO	0.369	3.88675600065	15.8618789273	16.3311382124	0.595
0.814813680856	0.552064116647	CrowdGO	0.369	3.86242148689	15.8669143021	16.3302562507	0.596
0.815675519539	0.551407093566	CrowdGO	0.369	3.84498712468	15.8727238052	16.3317876237	0.597
0.816323655971	0.551060611836	CrowdGO	0.369	3.84008816963	15.8776939441	16.3354657764	0.598
0.817092308116	0.550424813203	CrowdGO	0.369	3.81596229899	15.893013221	16.3447067123	0.599
0.817624132851	0.550022305457	CrowdGO	0.369	3.80353906567	15.8996091097	16.3482255693	0.6
0.819247299567	0.54943566552	CrowdGO	0.369	3.7797733602	15.9067352922	16.3496456937	0.601
0.81995349922	0.548933139589	CrowdGO	0.369	3.7655357446	15.9128295305	16.3522904546	0.602
0.820681745174	0.547761765238	CrowdGO	0.369	3.76060111617	15.9259240551	16.3638986114	0.603
0.820829499311	0.547679932177	CrowdGO	0.369	3.76013775408	15.9267168196	16.3645636845	0.604
0.821167223053	0.547288951999	CrowdGO	0.369	3.75574034605	15.9384081698	16.3749332986	0.605
0.821702208162	0.547034360255	CrowdGO	0.369	3.73917521158	15.9411479083	16.3738092055	0.606
0.821861657572	0.546359207984	CrowdGO	0.369	3.73146607315	15.9493393336	16.3800263807	0.607
0.821861657572	0.546313745173	CrowdGO	0.369	3.73146607315	15.9503879271	16.3810474049	0.608
0.822676578467	0.546240064064	CrowdGO	0.369	3.7195476212	15.9521158238	16.3800193456	0.609
0.823325707127	0.545651772322	CrowdGO	0.369	3.71371353398	15.9599336367	16.3863098317	0.61
0.825081627035	0.544791040575	CrowdGO	0.369	3.69962641391	15.9697781465	16.3927133096	0.611
0.825179458183	0.54466932092	CrowdGO	0.369	3.69775062378	15.9730468074	16.3954744971	0.612
0.826778890668	0.543650866934	CrowdGO	0.369	3.68848254413	15.9789328665	16.3991218981	0.613
0.827191651779	0.543533962562	CrowdGO	0.369	3.67835450137	15.9793962286	16.3972984259	0.614
0.827779144735	0.543065475178	CrowdGO	0.369	3.67134788723	15.9854345969	16.4016131695	0.615
0.827704565612	0.542440969841	CrowdGO	0.369	3.66893845869	16.0029654653	16.4181610753	0.616
0.827647051402	0.542105023593	CrowdGO	0.369	3.66684370269	16.0080891449	16.4226873809	0.617
0.82776305489	0.542008749404	CrowdGO	0.369	3.66498435328	16.0102043232	16.4243341655	0.618
0.82785637285	0.541707041655	CrowdGO	0.369	3.66030404466	16.0137924768	16.4267883407	0.619
0.829115125927	0.541111305527	CrowdGO	0.369	3.64624068732	16.0264103933	16.4359636542	0.62
0.829514768186	0.539900597143	CrowdGO	0.369	3.63350128096	16.0426521928	16.4489823678	0.621
0.829556798728	0.539826203451	CrowdGO	0.369	3.63262179936	16.0443956228	16.4504885045	0.622
0.829575812545	0.539826203451	CrowdGO	0.369	3.6277365627	16.0443956228	16.4494104292	0.623
0.829861371903	0.539362594884	CrowdGO	0.369	3.62535826896	16.0496155723	16.4539777136	0.624
0.830419302585	0.539247284662	CrowdGO	0.369	3.60352844465	16.0522074174	16.4517105562	0.625
0.830624066765	0.539083618541	CrowdGO	0.369	3.60115254068	16.0558027227	16.4546984382	0.626
0.830655869664	0.539035481447	CrowdGO	0.369	3.59834663321	16.0565954873	16.4548581621	0.627
0.830951640146	0.538882974379	CrowdGO	0.369	3.59498715259	16.0607477325	16.4581757906	0.628
0.831510503519	0.538582919824	CrowdGO	0.369	3.57276290895	16.0640611584	16.456569986	0.629
0.831563319676	0.538267772351	CrowdGO	0.369	3.56828064796	16.0674923678	16.4589470432	0.63
0.831489729163	0.537153726822	CrowdGO	0.369	3.56457881992	16.0849806528	16.4752185043	0.631
0.831453814176	0.536862200937	CrowdGO	0.369	3.54766559218	16.0893003946	16.4757858187	0.632
0.831606156774	0.535599818302	CrowdGO	0.369	3.53981018228	16.0972280404	16.4818386933	0.633
0.832104422651	0.535120767838	CrowdGO	0.369	3.53325377712	16.1072557377	16.4902264888	0.634
0.832074845603	0.535072630743	CrowdGO	0.369	3.53325377712	16.1081352193	16.4910855463	0.635
0.832115389771	0.534731391864	CrowdGO	0.369	3.53151034715	16.1146928196	16.4971176271	0.636
0.832113629232	0.53424505942	CrowdGO	0.369	3.52942976969	16.1224549441	16.504254843	0.637
0.832561510248	0.533744914113	CrowdGO	0.369	3.5204216217	16.131172094	16.5108473895	0.638
0.832967522455	0.53360843451	CrowdGO	0.369	3.51696582823	16.1337639391	16.5126432614	0.639
0.833871030857	0.533084785583	CrowdGO	0.369	3.50609467418	16.1423759829	16.5187469935	0.64
0.834074336346	0.532774958365	CrowdGO	0.369	3.50257988104	16.1522721755	16.5276726206	0.641
0.834533322694	0.531967786813	CrowdGO	0.369	3.49572610657	16.1610726091	16.5348229167	0.642
0.834879092472	0.53109453232	CrowdGO	0.369	3.48952983744	16.1699062529	16.5421487937	0.643
0.834971280675	0.53084793101	CrowdGO	0.369	3.473299276	16.1753820495	16.5440863244	0.644
0.835008251985	0.530751656821	CrowdGO	0.369	3.46413922365	16.1771254795	16.5438704462	0.645
0.835074893548	0.530751656821	CrowdGO	0.369	3.46272071556	16.1771254795	16.5435734814	0.646
0.835546932977	0.529760657136	CrowdGO	0.369	3.4579067898	16.191540227	16.5566631387	0.647
0.836892651736	0.528590230078	CrowdGO	0.369	3.43430991433	16.2216354061	16.5811923527	0.648
0.837151746383	0.528019465145	CrowdGO	0.369	3.42901276279	16.2262916757	16.5846516416	0.649
0.837440080744	0.527496606875	CrowdGO	0.369	3.42483465136	16.2310482632	16.5884423655	0.65
0.837659898514	0.526997268863	CrowdGO	0.369	3.41759881939	16.2365314669	16.5923155637	0.651
0.838854068143	0.526404098813	CrowdGO	0.369	3.40294659986	16.2411010195	16.5937761792	0.652
0.838854068143	0.526404098813	CrowdGO	0.369	3.40294659986	16.2411010195	16.5937761792	0.653
0.839179031555	0.52631317319	CrowdGO	0.369	3.39799406974	16.2424571385	16.594088634	0.654
0.839141112263	0.526026757478	CrowdGO	0.369	3.39799406974	16.2538364642	16.6052269934	0.655
0.839566299727	0.525421483692	CrowdGO	0.369	3.38538660249	16.2625453196	16.611177644	0.656
0.839967289203	0.525061967251	CrowdGO	0.369	3.36050312979	16.2746657259	16.6179940359	0.657
0.840149168843	0.524787241976	CrowdGO	0.369	3.35564461761	16.277149373	16.6194447112	0.658
0.840318237035	0.524660736761	CrowdGO	0.369	3.34916646913	16.2790251631	16.6199752196	0.659
0.840395394552	0.524623539916	CrowdGO	0.369	3.34341653303	16.2798891115	16.619663763	0.66
0.841358782648	0.523808442706	CrowdGO	0.369	3.32292111187	16.2890508751	16.6245295611	0.661
0.842229192924	0.523197957633	CrowdGO	0.369	3.31772188842	16.3081117173	16.6421689185	0.662
0.842683379869	0.523081053261	CrowdGO	0.369	3.31003897776	16.3106992024	16.6431747724	0.663
0.842565893261	0.522380438864	CrowdGO	0.369	3.29966411299	16.3173530816	16.6476363142	0.664
0.843452850137	0.521269145347	CrowdGO	0.369	3.27310814231	16.3329727676	16.6577080158	0.665
0.843650228084	0.520629925167	CrowdGO	0.369	3.26749222003	16.339356934	16.6628656126	0.666
0.84484457746	0.520070236939	CrowdGO	0.369	3.25444570988	16.3493413837	16.6701043956	0.667
0.845221484342	0.519741251503	CrowdGO	0.369	3.24698955132	16.3519332288	16.6711925628	0.668
0.84549820503	0.519544327026	CrowdGO	0.369	3.23978392964	16.3564860687	16.6742566978	0.669
0.846254532406	0.519342034297	CrowdGO	0.369	3.23550120208	16.3615444284	16.6783873354	0.67
0.846418944634	0.518381268051	CrowdGO	0.369	3.2290979019	16.3721681019	16.6875690746	0.671
0.846686686439	0.517952391195	CrowdGO	0.369	3.21997370096	16.3971423548	16.7103114285	0.672
0.846784843236	0.517565250341	CrowdGO	0.369	3.21569409632	16.4037598302	16.7159811285	0.673
0.846856673211	0.517565250341	CrowdGO	0.369	3.21316144367	16.4037598302	16.7154941007	0.674
0.847275156294	0.517076260121	CrowdGO	0.369	3.19677760931	16.4146673187	16.7230586397	0.675
0.847370929593	0.516964669584	CrowdGO	0.369	3.19598484473	16.4182833412	16.7264564986	0.676
0.847362479008	0.516702225172	CrowdGO	0.369	3.19336193316	16.4219908418	16.729594844	0.677
0.847776557683	0.516599561878	CrowdGO	0.369	3.16804027998	16.4275061432	16.7301953754	0.678
0.847841089424	0.516423350756	CrowdGO	0.369	3.16651033305	16.4300183965	16.7323725813	0.679
0.849397053425	0.515542288695	CrowdGO	0.369	3.15240784825	16.4414523003	16.7409387127	0.68
0.850791430022	0.513710985159	CrowdGO	0.369	3.13958051105	16.4492253324	16.7461631374	0.681
0.850737363583	0.513523284153	CrowdGO	0.369	3.13602157847	16.4517459938	16.7479723425	0.682
0.850737363583	0.513330067205	CrowdGO	0.369	3.13602157847	16.4539683191	16.750155366	0.683
0.851793984089	0.512211346413	CrowdGO	0.369	3.12303725559	16.4717922471	16.765240873	0.684
0.852136521953	0.511930435374	CrowdGO	0.369	3.11624844939	16.4766507593	16.7687514336	0.685
0.853206470359	0.511582234676	CrowdGO	0.369	3.10300655347	16.4826983978	16.7722388531	0.686
0.85325164425	0.510343521365	CrowdGO	0.369	3.09941124822	16.5387682335	16.8266813355	0.687
0.853600732698	0.509655069746	CrowdGO	0.369	3.09527399127	16.5483154094	16.835304095	0.688
0.854791189173	0.509263192276	CrowdGO	0.369	3.07060986823	16.5552891293	16.8376436332	0.689
0.855324827888	0.509133298529	CrowdGO	0.369	3.06579795576	16.5569458423	16.8383957885	0.69
0.855654693404	0.509042372906	CrowdGO	0.369	3.06209612772	16.5649451708	16.8455881823	0.691
0.855873856711	0.50880505703	CrowdGO	0.369	3.05024673392	16.5673234646	16.8457772726	0.692
0.856968813412	0.508215796999	CrowdGO	0.369	3.0377972849	16.5724949707	16.8486142426	0.693
0.857152456491	0.507952848121	CrowdGO	0.369	3.03507307964	16.5770287749	16.8525829356	0.694
0.857362282189	0.507752708894	CrowdGO	0.369	3.02783212478	16.5854001449	16.8595155726	0.695
0.857686583173	0.506478913777	CrowdGO	0.369	3.0244475151	16.6064319814	16.8795991044	0.696
0.858257552316	0.505949214718	CrowdGO	0.369	3.00807578262	16.6151820453	16.8852833649	0.697
0.859282366118	0.50475554518	CrowdGO	0.369	2.99151850495	16.6458564693	16.9125314653	0.698
0.859282366118	0.504692596671	CrowdGO	0.369	2.99151850495	16.6466492339	16.9133117302	0.699
0.859680574087	0.50402370035	CrowdGO	0.369	2.96255168623	16.6663429915	16.9276017558	0.7
0.860420656976	0.503327511544	CrowdGO	0.369	2.95732139631	16.6759551562	16.9361515762	0.701
0.860874574482	0.502845845021	CrowdGO	0.369	2.95300165447	16.681526128	16.9408834696	0.702
0.861059595204	0.502621659709	CrowdGO	0.369	2.95027744921	16.6871126331	16.9459099802	0.703
0.861330977776	0.502290826587	CrowdGO	0.369	2.94158808958	16.6901833735	16.9474234481	0.704
0.861727552769	0.502014237048	CrowdGO	0.369	2.93523391964	16.6953825969	16.951442364	0.705
0.862123160713	0.501482322154	CrowdGO	0.369	2.92344021709	16.7196944691	16.9733522276	0.706
0.862185265571	0.501482322154	CrowdGO	0.369	2.92132503876	16.7196944691	16.9729880434	0.707
0.862640080147	0.501278718367	CrowdGO	0.369	2.91765353369	16.7231968623	16.9758067684	0.708
0.862713894042	0.501192578303	CrowdGO	0.369	2.91109062277	16.7257843474	16.9772291806	0.709
0.862840765395	0.50073444931	CrowdGO	0.369	2.90943390982	16.7354746847	16.9864922393	0.71
0.863107195235	0.500306747699	CrowdGO	0.369	2.90145418355	16.7422039841	16.9917577262	0.711
0.864561819159	0.499694532751	CrowdGO	0.369	2.8857253584	16.7499816797	16.9967437209	0.712
0.864896025011	0.499519176192	CrowdGO	0.369	2.87157258502	16.7574115243	17.001669627	0.713
0.865321318456	0.499222531348	CrowdGO	0.369	2.86546468554	16.759789818	17.0029833444	0.714
0.866150211292	0.498655523079	CrowdGO	0.369	2.85844436594	16.7676585528	17.0095584168	0.715
0.866438555274	0.497975365896	CrowdGO	0.369	2.85599488841	16.7742142208	17.0156095844	0.716
0.866950513713	0.4975553003	CrowdGO	0.369	2.85167514657	16.7821744012	17.0227327058	0.717
0.867295885728	0.496936274092	CrowdGO	0.369	2.84899549327	16.8036977747	17.0435041651	0.718
0.867231296676	0.49677260797	CrowdGO	0.369	2.84899549327	16.804115249	17.0439157655	0.719
0.868131616	0.496214067252	CrowdGO	0.369	2.83463082989	16.8123292349	17.0496201202	0.72
0.868504533362	0.495731779944	CrowdGO	0.369	2.82855212484	16.8194303001	17.0556132327	0.721
0.868639334174	0.495170433862	CrowdGO	0.369	2.82311034561	16.828060699	17.0632229931	0.722
0.868703630968	0.495000323013	CrowdGO	0.369	2.81473036572	16.8307846417	17.0645251527	0.723
0.870626421703	0.493233986364	CrowdGO	0.369	2.77955191799	16.8395446683	17.0674009005	0.724
0.871025401041	0.492205305171	CrowdGO	0.369	2.7668113181	16.8476227542	17.0733018874	0.725
0.871591368289	0.491758268693	CrowdGO	0.369	2.76207355547	16.8545343412	17.0793553211	0.726
0.872194373429	0.490647963287	CrowdGO	0.369	2.75007894613	16.8742259083	17.0968545123	0.727
0.872416793358	0.490647963287	CrowdGO	0.369	2.74369769497	16.8742259083	17.0958292296	0.728
0.873557778707	0.490133252897	CrowdGO	0.369	2.72957469346	16.8810292972	17.1002844462	0.729
0.873706058659	0.490133252897	CrowdGO	0.369	2.72771443657	16.8810292972	17.0999876076	0.73
0.873706058659	0.490133252897	CrowdGO	0.369	2.72771443657	16.8810292972	17.0999876076	0.731
0.873854338612	0.489472388938	CrowdGO	0.369	2.72420805139	16.925468185	17.143301397	0.732
0.873854338612	0.489353359032	CrowdGO	0.369	2.72420805139	16.9317247485	17.1494784896	0.733
0.875142255914	0.488910856872	CrowdGO	0.369	2.71557761855	16.9383213466	17.1546230457	0.734
0.87578692066	0.488109848855	CrowdGO	0.369	2.70994275037	16.9454137087	17.1607352834	0.735
0.87578692066	0.488109848855	CrowdGO	0.369	2.70994275037	16.9454137087	17.1607352834	0.736
0.876407304132	0.487578488307	CrowdGO	0.369	2.69970957452	16.954525841	17.1681209886	0.737
0.877030079933	0.487039925108	CrowdGO	0.369	2.69315197413	16.9632577975	17.1757149097	0.738
0.877230257869	0.486812401223	CrowdGO	0.369	2.67926466068	16.9659124184	17.1761649769	0.739
0.877155494867	0.486071451399	CrowdGO	0.369	2.67790854169	16.9912135695	17.2009456926	0.74
0.87729106511	0.485415936151	CrowdGO	0.369	2.67704459332	16.9993063231	17.2088053979	0.741
0.877638246596	0.485299031779	CrowdGO	0.369	2.66321185157	17.0002330243	17.2075745021	0.742
0.877960447797	0.484934007787	CrowdGO	0.369	2.65490551027	17.0080107882	17.2139755501	0.743
0.878296440393	0.484646617872	CrowdGO	0.369	2.65131735665	17.0122101973	17.2175718242	0.744
0.878440227013	0.484646617872	CrowdGO	0.369	2.646668342	17.0122101973	17.2168565397	0.745
0.879033346824	0.484482951751	CrowdGO	0.369	2.64075403055	17.0126735594	17.2164062303	0.746
0.879085895158	0.483937192919	CrowdGO	0.369	2.63902613382	17.0190372958	17.2224298346	0.747
0.879621468224	0.483687056287	CrowdGO	0.369	2.63314599188	17.0233570376	17.225798752	0.748
0.880013350956	0.483687056287	CrowdGO	0.369	2.62810875229	17.0233570376	17.2250294758	0.749
0.880338807894	0.48358314129	CrowdGO	0.369	2.61853201599	17.0250849343	17.2252787188	0.75
0.880771144567	0.483282284449	CrowdGO	0.369	2.60994847228	17.0290593134	17.2279044613	0.751
0.881037213807	0.483105599432	CrowdGO	0.369	2.60003822499	17.0306448426	17.2279732565	0.752
0.881379108222	0.482748582648	CrowdGO	0.369	2.59106143619	17.0391941604	17.2350728748	0.753
0.88244672388	0.481916025881	CrowdGO	0.369	2.57690293143	17.0454204259	17.2391063055	0.754
0.882585118502	0.481916025881	CrowdGO	0.369	2.5731382363	17.0454204259	17.2385439605	0.755
0.882976386097	0.481730041652	CrowdGO	0.369	2.55284653911	17.0571215153	17.2470988818	0.756
0.883125725192	0.481539833272	CrowdGO	0.369	2.5461325447	17.0597599601	17.2487159183	0.757
0.88394497193	0.480709268142	CrowdGO	0.369	2.53454599254	17.0714974745	17.2586195685	0.758
0.885012587588	0.479991816118	CrowdGO	0.369	2.5211578121	17.0835927517	17.2686240917	0.759
0.886153265414	0.479517883152	CrowdGO	0.369	2.49032979242	17.0905981809	17.2710824402	0.76
0.887122956843	0.479415591826	CrowdGO	0.369	2.46872274569	17.0923416109	17.2697056645	0.761
0.887523737359	0.47841634859	CrowdGO	0.369	2.45622420596	17.1167327932	17.2920669344	0.762
0.887900680607	0.478370885779	CrowdGO	0.369	2.45182963833	17.1175967416	17.2922984818	0.763
0.887949840621	0.478290618901	CrowdGO	0.369	2.448358341	17.1191086972	17.2933033615	0.764
0.88848364845	0.477563455316	CrowdGO	0.369	2.44490254753	17.1290754913	17.3026811695	0.765
0.888817278343	0.477246261038	CrowdGO	0.369	2.4420197043	17.1343926412	17.3075379942	0.766
0.889181960369	0.477013017049	CrowdGO	0.369	2.42912199248	17.1399010054	17.3111767402	0.767
0.889326914763	0.476501770177	CrowdGO	0.369	2.42567838313	17.1514062861	17.322085706	0.768
0.889682786649	0.476335950554	CrowdGO	0.369	2.42439696045	17.1535263611	17.3240055196	0.769
0.889786138174	0.476335950554	CrowdGO	0.369	2.41987094014	17.1535263611	17.3233727082	0.77
0.889765918181	0.476295034024	CrowdGO	0.369	2.41987094014	17.1543191257	17.3241577005	0.771
0.890123393093	0.476045835822	CrowdGO	0.369	2.41387049242	17.1577749192	17.3267426521	0.772
0.890475028409	0.475589173846	CrowdGO	0.369	2.40916346898	17.1646331161	17.3328791212	0.773
0.890288452299	0.475177424341	CrowdGO	0.369	2.40874599467	17.1717583911	17.3398772634	0.774
0.890288452299	0.47509559128	CrowdGO	0.369	2.40874599467	17.1754916468	17.3435743311	0.775
0.890494637724	0.474978686908	CrowdGO	0.369	2.40233289793	17.1788511275	17.3460119166	0.776
0.891192190938	0.474345319441	CrowdGO	0.369	2.37897059646	17.1886120706	17.3524605175	0.777
0.891151161422	0.473905629108	CrowdGO	0.369	2.37790401162	17.1984361532	17.3620457782	0.778
0.891151161422	0.473489764022	CrowdGO	0.369	2.37790401162	17.2075310249	17.3710549899	0.779
0.891232788018	0.473345022612	CrowdGO	0.369	2.37711124704	17.2129132266	17.3762780717	0.78
0.891013396378	0.472296409148	CrowdGO	0.369	2.37711124704	17.2459756136	17.4090302069	0.781
0.890912943342	0.471991719169	CrowdGO	0.369	2.37386859334	17.2526575334	17.4152072644	0.782
0.890899478544	0.471884556828	CrowdGO	0.369	2.37386859334	17.2554016222	17.4179257446	0.783
0.890989585825	0.471802723767	CrowdGO	0.369	2.36979617136	17.2603814791	17.422304747	0.784
0.89136328208	0.471585786952	CrowdGO	0.369	2.36085233596	17.2660799787	17.4267364008	0.785
0.891374075679	0.471246119579	CrowdGO	0.369	2.35514185238	17.2728551355	17.4326767215	0.786
0.891374075679	0.471171725888	CrowdGO	0.369	2.35154654713	17.273851444	17.4331785648	0.787
0.891965025246	0.470889502201	CrowdGO	0.369	2.34143867051	17.2786859953	17.4366087521	0.788
0.892366475075	0.470379492117	CrowdGO	0.369	2.33270165646	17.2899372848	17.4465878707	0.789
0.893190905418	0.470277200791	CrowdGO	0.369	2.284104485	17.2908167664	17.4410285748	0.79
0.894020992168	0.469850089642	CrowdGO	0.369	2.27205841973	17.294429178	17.4430367211	0.791
0.894199086558	0.469850089642	CrowdGO	0.369	2.27119447137	17.294429178	17.4429242078	0.792
0.89425562446	0.469545728083	CrowdGO	0.369	2.26930793666	17.2987955195	17.4470079079	0.793
0.895368986214	0.46834345745	CrowdGO	0.369	2.26000298648	17.3199921012	17.466818253	0.794
0.895715389588	0.468265521202	CrowdGO	0.369	2.25415281728	17.3211006544	17.4671615554	0.795
0.895893483979	0.467994000542	CrowdGO	0.369	2.25240938731	17.3254359295	17.4712357375	0.796
0.895978680968	0.467907860479	CrowdGO	0.369	2.24304993308	17.3272228259	17.4718036808	0.797
0.89612709296	0.46711256395	CrowdGO	0.369	2.24200133958	17.3339108256	17.4783018201	0.798
0.896179711757	0.466636158663	CrowdGO	0.369	2.23896095369	17.3402817577	17.4842305404	0.799
0.896321056511	0.465900960055	CrowdGO	0.369	2.23721752372	17.3492118366	17.4928640765	0.8
0.896429891971	0.465313859421	CrowdGO	0.369	2.23168383572	17.3627956729	17.505630132	0.801
0.897571315107	0.464901953298	CrowdGO	0.369	2.22085251123	17.3711185201	17.5125082303	0.802
0.897571315107	0.464397542438	CrowdGO	0.369	2.22085251123	17.3753218653	17.5166776473	0.803
0.897709704471	0.464360345592	CrowdGO	0.369	2.21780055611	17.3761146299	17.5170773515	0.804
0.898006881816	0.463838922117	CrowdGO	0.369	2.21028423147	17.3805089047	17.5204864707	0.805
0.898396074102	0.463430819581	CrowdGO	0.369	2.20281303914	17.3836424209	17.5226541684	0.806
0.898415862368	0.462821530898	CrowdGO	0.369	2.20145692015	17.3921902369	17.5309638585	0.807
0.898415862368	0.462626690277	CrowdGO	0.369	2.20145692015	17.4008527887	17.539557872	0.808
0.898554380227	0.461115374776	CrowdGO	0.369	2.19994496456	17.411310461	17.5497432977	0.809
0.89885120421	0.460849417329	CrowdGO	0.369	2.19901824036	17.4144208917	17.5527130727	0.81
0.899408319994	0.460763037987	CrowdGO	0.369	2.19468296529	17.4161487884	17.5538848104	0.811
0.899633411515	0.459644259286	CrowdGO	0.369	2.1899555119	17.4308245246	17.5678555536	0.812
0.899495935144	0.459089093412	CrowdGO	0.369	2.1899555119	17.4366990425	17.5736842649	0.813
0.899513099577	0.458901559315	CrowdGO	0.369	2.18836998274	17.4449583185	17.5816817716	0.814
0.899710506994	0.45768497619	CrowdGO	0.369	2.18658308634	17.4645753863	17.6009243796	0.815
0.900235717078	0.45710781729	CrowdGO	0.369	2.18168575924	17.470287048	17.605984275	0.816
0.901049173774	0.456803216454	CrowdGO	0.369	2.16154052705	17.4771677877	17.6103279733	0.817
0.901744503808	0.456775938767	CrowdGO	0.369	2.15208763424	17.4785239067	17.610516152	0.818
0.901961918598	0.456059899487	CrowdGO	0.369	2.13618142592	17.4928194375	17.6227694463	0.819
0.902472370713	0.455006240292	CrowdGO	0.369	2.12992950624	17.5041131151	17.6332236317	0.82
0.902662688416	0.454936310222	CrowdGO	0.369	2.12631020747	17.5059000115	17.6345606781	0.821
0.903553954014	0.45367799407	CrowdGO	0.369	2.12117332958	17.5428628591	17.6706370453	0.822
0.903760565584	0.453432289793	CrowdGO	0.369	2.11600993191	17.5462862803	17.6734167682	0.823
0.903848519426	0.452968569117	CrowdGO	0.369	2.10271495906	17.5564004012	17.6818722212	0.824
0.904243512133	0.452837426392	CrowdGO	0.369	2.09345086467	17.5582714027	17.6826307763	0.825
0.904243512133	0.452837426392	CrowdGO	0.369	2.09345086467	17.5582714027	17.6826307763	0.826
0.904325886681	0.452563231449	CrowdGO	0.369	2.09172296794	17.5637217028	17.6878383367	0.827
0.904347107291	0.451893682789	CrowdGO	0.369	2.08872341129	17.5755499262	17.6992293815	0.828
0.904803350394	0.451893682789	CrowdGO	0.369	2.0786296959	17.5755499262	17.6980410391	0.829
0.904803350394	0.451105666908	CrowdGO	0.369	2.0768427995	17.5844856439	17.7067052659	0.83
0.904817529619	0.450552363829	CrowdGO	0.369	2.07603139864	17.5937482971	17.7158089149	0.831
0.905202637991	0.4501567102	CrowdGO	0.369	2.05970813155	17.6109714568	17.7310099329	0.832
0.905202637991	0.449829596763	CrowdGO	0.369	2.03521570539	17.6154054218	17.732586138	0.833
0.905337325954	0.449584097582	CrowdGO	0.369	2.0190447973	17.6187649025	17.7340750698	0.834
0.905560142353	0.449404639115	CrowdGO	0.369	2.01772126299	17.6218753332	17.7370146686	0.835
0.906035484005	0.449326702867	CrowdGO	0.369	2.01465429872	17.6236187631	17.7383981873	0.836
0.90645140795	0.447076761883	CrowdGO	0.369	2.01199967779	17.6430315225	17.7573844923	0.837
0.907012696182	0.446584110326	CrowdGO	0.369	2.00682525784	17.646665943	17.7604100887	0.838
0.907233229758	0.446170963498	CrowdGO	0.369	2.00333649661	17.653667596	17.7669732006	0.839
0.9078779304	0.445295951747	CrowdGO	0.369	1.99896993923	17.6675585617	17.7802842032	0.84
0.90870480345	0.444912009795	CrowdGO	0.369	1.97961659178	17.672276934	17.7828078177	0.841
0.908969645603	0.444785936453	CrowdGO	0.369	1.96108507172	17.6748565949	17.7833183155	0.842
0.909089158858	0.444485881897	CrowdGO	0.369	1.95611700836	17.6798031255	17.7876876605	0.843
0.909204602002	0.444411488206	CrowdGO	0.369	1.9545314792	17.6810592522	17.7887618901	0.844
0.909531690911	0.443653015348	CrowdGO	0.369	1.95280358247	17.6997861679	17.8071859714	0.845
0.909659128148	0.443320843694	CrowdGO	0.369	1.9519396341	17.7106747445	17.8179142506	0.846
0.910105678327	0.443116261042	CrowdGO	0.369	1.94468783993	17.7157776551	17.8221937123	0.847
0.910093288595	0.441850188556	CrowdGO	0.369	1.94271252224	17.731025583	17.8371354249	0.848
0.910251540696	0.441621055986	CrowdGO	0.369	1.93604568073	17.7477680299	17.8530541623	0.849
0.910229013911	0.441270342869	CrowdGO	0.369	1.93518173236	17.7506770934	17.8558524191	0.85
0.910427249614	0.440389706332	CrowdGO	0.369	1.93182225174	17.7630864285	17.8678251804	0.851
0.910958238102	0.440218232328	CrowdGO	0.369	1.92718256609	17.7659758561	17.8701967186	0.852
0.911991144168	0.438848434386	CrowdGO	0.369	1.88781928902	17.7856190992	17.8855279042	0.853
0.911935921366	0.437295156104	CrowdGO	0.369	1.88581592739	17.8010132317	17.9006249552	0.854
0.912246790989	0.436384969275	CrowdGO	0.369	1.87578618572	17.8090447	17.9075583746	0.855
0.912466106364	0.43613516309	CrowdGO	0.369	1.86013046886	17.8119537634	17.9088185605	0.856
0.913205350621	0.43419756727	CrowdGO	0.369	1.84244519712	17.8368298533	17.9317345374	0.857
0.913757578649	0.433953634271	CrowdGO	0.369	1.83831575534	17.8402696865	17.9347324291	0.858
0.915826309799	0.433336931804	CrowdGO	0.369	1.82226637707	17.8497571415	17.9425328413	0.859
0.916275199298	0.43332023118	CrowdGO	0.369	1.81143855752	17.8506366231	17.9423113756	0.86
0.916968400437	0.432615420718	CrowdGO	0.369	1.80700081635	17.8604905929	17.9516677824	0.861
0.917324749774	0.431096575633	CrowdGO	0.369	1.80347048998	17.8792871634	17.9700143372	0.862
0.917589533513	0.430872154664	CrowdGO	0.369	1.80087864488	17.8834012854	17.9738478193	0.863
0.91802588348	0.430439226263	CrowdGO	0.369	1.79531034545	17.8907629502	17.9806156228	0.864
0.918478960341	0.430439226263	CrowdGO	0.369	1.78980188874	17.8907629502	17.9800664554	0.865
0.91865059885	0.428018334902	CrowdGO	0.369	1.78492849546	17.922400308	18.0110633372	0.866
0.918995441172	0.42754679335	CrowdGO	0.369	1.76283672388	17.9352851064	18.021710384	0.867
0.919233962341	0.426676800459	CrowdGO	0.369	1.76057320954	17.9490359119	18.0351741935	0.868
0.919283654251	0.426676800459	CrowdGO	0.369	1.75978044496	17.9490359119	18.035096822	0.869
0.919715318591	0.425894105177	CrowdGO	0.369	1.75657558259	17.9582548143	18.0439594811	0.87
0.920251991221	0.425803179554	CrowdGO	0.369	1.75399592161	17.9595783487	18.0450258009	0.871
0.920628223979	0.423205139679	CrowdGO	0.369	1.75121574902	17.9819715433	18.067043399	0.872
0.920628223979	0.422750511565	CrowdGO	0.369	1.75121574902	17.9870744538	18.0721222884	0.873
0.920660197377	0.421938026178	CrowdGO	0.369	1.7478562684	18.0014467258	18.0861020056	0.874
0.921604299969	0.419437336386	CrowdGO	0.369	1.73244809865	18.0528424038	18.1357794227	0.875
0.921735423197	0.418903267991	CrowdGO	0.369	1.71323913707	18.0582279722	18.1393160245	0.876
0.922263192147	0.418163713138	CrowdGO	0.369	1.70634968408	18.0698975873	18.1502845173	0.877
0.923652581629	0.417087426054	CrowdGO	0.369	1.68848440606	18.0815909877	18.1602563923	0.878
0.923652581629	0.415855485377	CrowdGO	0.369	1.68802104396	18.091982108	18.1705594751	0.879
0.923515635587	0.415162827175	CrowdGO	0.369	1.68755768186	18.1027599227	18.181247695	0.88
0.924412496574	0.414292500466	CrowdGO	0.369	1.67904126417	18.1099740602	18.1876425088	0.881
0.924532078039	0.413438089645	CrowdGO	0.369	1.6769639633	18.1206992148	18.1981303481	0.882
0.924532078039	0.413379637459	CrowdGO	0.369	1.67522053332	18.1215631632	18.1988300534	0.883
0.924532078039	0.41231507778	CrowdGO	0.369	1.67522053332	18.1346013521	18.2118129255	0.884
0.924725330228	0.41231507778	CrowdGO	0.369	1.67261199138	18.1346013521	18.211573163	0.885
0.925147118013	0.410835732299	CrowdGO	0.369	1.66215655318	18.1507109425	18.2266582819	0.886
0.925544990166	0.410413154917	CrowdGO	0.369	1.65864553621	18.156179867	18.2317846734	0.887
0.925836469987	0.410011428984	CrowdGO	0.369	1.64941624856	18.1597536598	18.2345064903	0.888
0.925806574621	0.409032261438	CrowdGO	0.369	1.64658823117	18.1703558501	18.2448097968	0.889
0.926112132959	0.408619996398	CrowdGO	0.369	1.64114645194	18.1762006703	18.2501406155	0.89
0.927827672556	0.408156374554	CrowdGO	0.369	1.60635324368	18.1861158268	18.2569214165	0.891
0.928158972434	0.405602788371	CrowdGO	0.369	1.60096089864	18.2101714139	18.2804107919	0.892
0.928757954165	0.40434667048	CrowdGO	0.369	1.59216115844	18.2271806584	18.2965868923	0.893
0.929249974872	0.404236414028	CrowdGO	0.369	1.58921984407	18.2302910891	18.2994298519	0.894
0.929659776002	0.402520329268	CrowdGO	0.369	1.57915421299	18.255009795	18.3231850573	0.895
0.930138961387	0.401094036885	CrowdGO	0.369	1.57706223191	18.2608009065	18.3287745098	0.896
0.93091259188	0.400221150905	CrowdGO	0.369	1.54961136911	18.2701862637	18.3357847256	0.897
0.931652665887	0.399278739445	CrowdGO	0.369	1.53300608377	18.2999527756	18.3640512754	0.898
0.932252725893	0.398870046483	CrowdGO	0.369	1.52826461273	18.3029701261	18.3666629567	0.899
0.933062806902	0.396871238754	CrowdGO	0.369	1.51135156296	18.3208821266	18.3831146829	0.9
0.933332833454	0.394958476923	CrowdGO	0.369	1.50580529318	18.3402009105	18.4019134608	0.901
0.934807837871	0.392877824447	CrowdGO	0.369	1.45601277317	18.3660317947	18.4236559097	0.902
0.934781972924	0.39201469992	CrowdGO	0.369	1.4538252905	18.3813254761	18.4387291925	0.903
0.934814701571	0.389339271531	CrowdGO	0.369	1.44858947785	18.4139810676	18.4708719402	0.904
0.935687932526	0.388811891291	CrowdGO	0.369	1.4272672549	18.4182568053	18.4734749185	0.905
0.935855823966	0.387869328083	CrowdGO	0.369	1.42640330653	18.4489255057	18.5039854817	0.906
0.935855823966	0.387240212437	CrowdGO	0.369	1.42461641013	18.4549881398	18.5098924675	0.907
0.935900440438	0.384227039346	CrowdGO	0.369	1.4174208244	18.4884638174	18.5427176034	0.908
0.935842379243	0.383261329297	CrowdGO	0.369	1.4143103937	18.4995903643	18.5535742524	0.909
0.936360478331	0.382269885753	CrowdGO	0.369	1.40965902082	18.5110818098	18.5646785139	0.91
0.936244875204	0.381488443944	CrowdGO	0.369	1.40965902082	18.5258544981	18.5794085869	0.911
0.936244875204	0.380201846381	CrowdGO	0.369	1.40873229662	18.5330608693	18.5865239318	0.912
0.936484656697	0.377441704177	CrowdGO	0.369	1.39861778973	18.5988192565	18.6513326456	0.913
0.936583027917	0.376408561788	CrowdGO	0.369	1.3845416479	18.6064322114	18.6578743487	0.914
0.93771890051	0.373120912667	CrowdGO	0.369	1.36950434016	18.6434840374	18.6937165698	0.915
0.937854818329	0.371448021847	CrowdGO	0.369	1.36539760093	18.6643614277	18.7142378448	0.916
0.938048701057	0.370473981112	CrowdGO	0.369	1.36251489951	18.6729381387	18.7225817019	0.917
0.938557210812	0.368559182306	CrowdGO	0.369	1.35659391057	18.7124012316	18.7615113168	0.918
0.939516688254	0.366460560199	CrowdGO	0.369	1.34004435616	18.7350826	18.7829454268	0.919
0.939490268545	0.365349874889	CrowdGO	0.369	1.33418636441	18.7476275669	18.7950417037	0.92
0.940304074829	0.362325293279	CrowdGO	0.369	1.31369015975	18.7977664653	18.8436144601	0.921
0.941130079339	0.361192554787	CrowdGO	0.369	1.30832947055	18.8140100635	18.859445927	0.922
0.94197821091	0.360606739438	CrowdGO	0.369	1.29865865068	18.8268088007	18.8715458802	0.923
0.94192493103	0.360132011976	CrowdGO	0.369	1.29865865068	18.8321472294	18.8768716572	0.924
0.943128146076	0.355120908953	CrowdGO	0.369	1.26391328695	18.8742743408	18.9165458975	0.925
0.943865040277	0.351690226351	CrowdGO	0.369	1.22549845001	18.9107935641	18.9504606719	0.926
0.94463485188	0.348861821803	CrowdGO	0.369	1.22238424315	18.9414070845	18.9808094026	0.927
0.944926622353	0.346840737251	CrowdGO	0.369	1.21194355082	18.9738013113	19.0124681031	0.928
0.945197915087	0.345503760145	CrowdGO	0.369	1.20486251721	18.9946489187	19.0328237849	0.929
0.94514729927	0.342967118133	CrowdGO	0.369	1.19752898678	19.0225113702	19.0601682706	0.93
0.945901407815	0.341419282372	CrowdGO	0.369	1.18963064349	19.052687104	19.0897906471	0.931
0.94574887419	0.340249800492	CrowdGO	0.369	1.18830710919	19.0691105199	19.1060998063	0.932
0.946196906915	0.337478935362	CrowdGO	0.369	1.18519667848	19.0975107505	19.1342522203	0.933
0.945985504108	0.334573623368	CrowdGO	0.369	1.18405294143	19.1308664578	19.1674733023	0.934
0.947743730394	0.332246144808	CrowdGO	0.369	1.15999785435	19.1800626007	19.2151085448	0.935
0.948418317227	0.329269360575	CrowdGO	0.369	1.14799677212	19.2154980272	19.249760025	0.936
0.948345997176	0.327909114548	CrowdGO	0.369	1.14620987572	19.2430812098	19.2771878531	0.937
0.948389344617	0.327162932988	CrowdGO	0.369	1.14250011614	19.2548814608	19.2887471492	0.938
0.948821318937	0.325235391355	CrowdGO	0.369	1.139961661	19.2753224846	19.309002291	0.939
0.948998304385	0.323217845704	CrowdGO	0.369	1.13127549145	19.3044642061	19.3375831614	0.94
0.949941168896	0.318752809425	CrowdGO	0.369	1.12091000237	19.3492770678	19.381717217	0.941
0.951402881015	0.31732141576	CrowdGO	0.369	1.10963653768	19.3646585071	19.3964247309	0.942
0.952005342532	0.315561667136	CrowdGO	0.369	1.10188278232	19.3923884355	19.4236679054	0.943
0.952027515254	0.314979671618	CrowdGO	0.369	1.10141942023	19.4073310578	19.4385602226	0.944
0.952456592383	0.312695060206	CrowdGO	0.369	1.08533942442	19.4424838935	19.4727538272	0.945
0.952362910792	0.312481417937	CrowdGO	0.369	1.08533942442	19.4479016801	19.4781631944	0.946
0.95335965265	0.310064534653	CrowdGO	0.369	1.0512718152	19.4661157176	19.4944821312	0.947
0.953507918879	0.305799491729	CrowdGO	0.369	1.03535145542	19.5278144914	19.5552420452	0.948
0.953339993924	0.303287923335	CrowdGO	0.369	1.02257787607	19.5627490952	19.5894567989	0.949
0.953653667573	0.302555022847	CrowdGO	0.369	1.02079097967	19.5788658302	19.6054584598	0.95
0.954730687402	0.30149119306	CrowdGO	0.369	1.0165205091	19.5831377284	19.6095027279	0.951
0.954881347048	0.300819350367	CrowdGO	0.369	1.01167934881	19.6073419372	19.6334243816	0.952
0.95552873338	0.298098562217	CrowdGO	0.369	1.00096845017	19.6360576866	19.6615538376	0.953
0.956968080039	0.293269605429	CrowdGO	0.369	0.989691422783	19.7313092194	19.7561143098	0.954
0.95866597408	0.291172160803	CrowdGO	0.369	0.981944508304	19.7482286588	19.7726262843	0.955
0.959170195059	0.28483239862	CrowdGO	0.369	0.933552854543	19.8512596134	19.8731987654	0.956
0.95878500822	0.282646232478	CrowdGO	0.369	0.93222932024	19.8908591942	19.9126927107	0.957
0.959144619081	0.280579362332	CrowdGO	0.369	0.912222567217	19.9218004578	19.9426749332	0.958
0.958781248427	0.278418151913	CrowdGO	0.369	0.908831195417	19.959685303	19.9803656507	0.959
0.960300028804	0.272905923464	CrowdGO	0.369	0.886960976384	20.0326758908	20.0523016913	0.96
0.960303898394	0.271987310535	CrowdGO	0.369	0.87857958221	20.0453314001	20.0645760739	0.961
0.960596604714	0.271505634487	CrowdGO	0.369	0.871385604899	20.054897656	20.0738195883	0.962
0.960363833729	0.26779971948	CrowdGO	0.369	0.855302018358	20.1122310809	20.1304093499	0.963
0.96137856189	0.266053019155	CrowdGO	0.369	0.834170353646	20.1443458361	20.1616097905	0.964
0.961940932825	0.263470628644	CrowdGO	0.369	0.808896205378	20.1769520348	20.1931598935	0.965
0.962893812687	0.258268323904	CrowdGO	0.369	0.790880184362	20.254461812	20.2698967624	0.966
0.962525418558	0.252030995131	CrowdGO	0.369	0.772113647585	20.3395377153	20.354187627	0.967
0.962525718659	0.248172611386	CrowdGO	0.369	0.763767404229	20.3889521613	20.4032524584	0.968
0.961819619997	0.245161720324	CrowdGO	0.369	0.758661567596	20.4334087333	20.4474878613	0.969
0.961704741736	0.239759214723	CrowdGO	0.369	0.745205865608	20.5202254206	20.5337522897	0.97
0.962103605771	0.237664572627	CrowdGO	0.369	0.741887824683	20.5448504665	20.558241127	0.971
0.962519239965	0.231581459667	CrowdGO	0.369	0.70853195563	20.6298259618	20.6419896509	0.972
0.962220023439	0.228298691032	CrowdGO	0.369	0.706110521915	20.6816347172	20.6936851877	0.973
0.962946620268	0.224415241337	CrowdGO	0.369	0.677921971756	20.7459740086	20.7570473759	0.974
0.962425362471	0.217658530579	CrowdGO	0.369	0.636598310309	20.8425470352	20.8522666471	0.975
0.962084442874	0.211652360936	CrowdGO	0.369	0.607605367153	20.9370955735	20.9459102293	0.976
0.961495001544	0.209027176045	CrowdGO	0.369	0.594020246425	21.0040046605	21.0124028096	0.977
0.961963041545	0.204522294576	CrowdGO	0.369	0.579638883712	21.09508515	21.1030471431	0.978
0.961658547601	0.197174171907	CrowdGO	0.369	0.566802452539	21.1991125233	21.206688492	0.979
0.961495349407	0.19381491804	CrowdGO	0.369	0.563998752945	21.2518196982	21.2593023187	0.98
0.96177596836	0.189569431938	CrowdGO	0.369	0.537080984505	21.3189996253	21.3257637848	0.981
0.962668466899	0.184906309786	CrowdGO	0.369	0.500902315094	21.3919762762	21.397839894	0.982
0.961162931315	0.179372910599	CrowdGO	0.369	0.483936592717	21.50677273	21.5122167125	0.983
0.961798397444	0.174381388539	CrowdGO	0.369	0.467237542847	21.5711636358	21.5762232915	0.984
0.959993025303	0.168478846006	CrowdGO	0.369	0.44271558755	21.6742770807	21.6787980308	0.985
0.959271890574	0.163346258258	CrowdGO	0.369	0.423542358501	21.7475943266	21.7517182568	0.986
0.958102579183	0.157939189764	CrowdGO	0.369	0.417333984014	21.8259983346	21.8299878827	0.987
0.957923092195	0.15422658007	CrowdGO	0.369	0.408296892141	21.9260029707	21.9298042085	0.988
0.958637027934	0.150290172122	CrowdGO	0.369	0.401476701858	22.002059487	22.0057221015	0.989
0.957156848439	0.145516800139	CrowdGO	0.369	0.392450840277	22.1513667854	22.1548429947	0.99
0.959820898056	0.14048586455	CrowdGO	0.369	0.364308761616	22.2430495209	22.2460327444	0.991
0.959130581936	0.134108622598	CrowdGO	0.369	0.332954903363	22.3583631625	22.3608421638	0.992
0.957391083935	0.128596444077	CrowdGO	0.369	0.319752672749	22.4628766774	22.4651523564	0.993
0.957036374946	0.125521335118	CrowdGO	0.369	0.297538900773	22.5299852591	22.5319498751	0.994
0.95839545619	0.116436697475	CrowdGO	0.369	0.279880365347	22.6758713455	22.6775985125	0.995
0.956204724803	0.110134927554	CrowdGO	0.369	0.267079994144	22.778449462	22.7800151804	0.996
0.957067762711	0.102855454795	CrowdGO	0.369	0.234521954053	22.9176385881	22.9188385177	0.997
0.957404150517	0.0958302315053	CrowdGO	0.369	0.19342019518	23.059365694	23.0601768766	0.998
0.970891297224	0.0790554902285	CrowdGO	0.369	0.139223406153	23.431313584	23.4317271968	0.999
