0.529649675378	0.339522554105	Wei2GO	0.0	12.920982907	17.8266543198	22.0168436321	0.0
0.529649675378	0.339522554105	Wei2GO	0.0	12.920982907	17.8266543198	22.0168436321	0.01
0.529649675378	0.339522554105	Wei2GO	0.0	12.920982907	17.8266543198	22.0168436321	0.02
0.529649675378	0.339522554105	Wei2GO	0.0	12.920982907	17.8266543198	22.0168436321	0.03
0.529649675378	0.339522554105	Wei2GO	0.0	12.920982907	17.8266543198	22.0168436321	0.04
0.529649675378	0.339522554105	Wei2GO	0.0	12.920982907	17.8266543198	22.0168436321	0.05
0.529889598603	0.339522554105	Wei2GO	0.06	12.9198743538	17.8266543198	22.0161930759	0.06
0.529975621496	0.339522554105	Wei2GO	0.07	12.9178390994	17.8266543198	22.0149987789	0.07
0.529975621496	0.339522554105	Wei2GO	0.07	12.9178390994	17.8266543198	22.0149987789	0.08
0.529975621496	0.339522554105	Wei2GO	0.07	12.915803845	17.8266543198	22.0138046053	0.09
0.529975621496	0.339522554105	Wei2GO	0.07	12.915803845	17.8266543198	22.0138046053	0.1
0.529975621496	0.339522554105	Wei2GO	0.07	12.915803845	17.8266543198	22.0138046053	0.11
0.530067356846	0.339522554105	Wei2GO	0.12	12.9150110804	17.8266543198	22.0133394887	0.12
0.530067356846	0.339522554105	Wei2GO	0.12	12.9150110804	17.8266543198	22.0133394887	0.13
0.530259295426	0.339522554105	Wei2GO	0.14	12.9109405717	17.8266543198	22.0109516079	0.14
0.530259295426	0.339522554105	Wei2GO	0.14	12.9048348085	17.8266543198	22.0073707124	0.15
0.530259295426	0.339522554105	Wei2GO	0.14	12.9027995542	17.8266543198	22.0061773276	0.16
0.531306691351	0.339485357259	Wei2GO	0.17	12.8987290454	17.8280104388	22.0048896201	0.17
0.531162660672	0.339336569876	Wei2GO	0.17	12.8880126242	17.8317572304	22.0016461958	0.18
0.531299759657	0.339336569876	Wei2GO	0.17	12.8844139522	17.8317572304	21.9995383773	0.19
0.531968095032	0.339336569876	Wei2GO	0.2	12.8718810522	17.8317572304	21.9922006117	0.2
0.532156024632	0.339150585647	Wei2GO	0.2	12.8579028926	17.8367231167	21.9880503533	0.21
0.531693967741	0.336705643505	Wei2GO	0.2	12.8256887044	17.8847591732	22.0082462142	0.22
0.530531854219	0.335068982294	Wei2GO	0.2	12.8167770338	17.8990010917	22.0146318074	0.23
0.530300244065	0.334874141673	Wei2GO	0.2	12.8167770338	17.9041040023	22.0187809304	0.24
0.531216563551	0.333605729235	Wei2GO	0.2	12.7612361971	17.921411038	22.0005936936	0.25
0.532429330091	0.331917383985	Wei2GO	0.2	12.7357962792	17.9346618153	21.9966497743	0.26
0.533515980528	0.331917383985	Wei2GO	0.2	12.7085935839	17.9346618153	21.9809109299	0.27
0.53271499363	0.330956288343	Wei2GO	0.2	12.6819516637	17.9475105828	21.9760104232	0.28
0.531929427511	0.329922607578	Wei2GO	0.2	12.6562049541	17.9651173939	21.9755538455	0.29
0.532973986431	0.329582060059	Wei2GO	0.2	12.6161876902	17.9743934262	21.9601231981	0.3
0.533468281399	0.3287322552	Wei2GO	0.2	12.5577684607	17.9797767868	21.9310264697	0.31
0.536334694519	0.328186701463	Wei2GO	0.2	12.4908454848	17.9929107008	21.903562642	0.32
0.538537847451	0.327719083974	Wei2GO	0.2	12.3782340894	17.9971366367	21.843021913	0.33
0.539914565403	0.326750008257	Wei2GO	0.2	12.2926398171	18.0150910461	21.8094589358	0.34
0.540479391159	0.326586342136	Wei2GO	0.2	12.2668694402	18.0192641678	21.7983936796	0.35
0.540394745534	0.325143104522	Wei2GO	0.2	12.238549627	18.0365641473	21.7967828638	0.36
0.542793826691	0.325110371298	Wei2GO	0.2	12.1965854949	18.0369816216	21.7735941854	0.37
0.544034457922	0.324783039056	Wei2GO	0.2	12.1786164007	18.0393678469	21.7655114746	0.38
0.546001140155	0.324750305832	Wei2GO	0.2	12.1397600809	18.0397853212	21.7441401131	0.39
0.547493119442	0.324061576867	Wei2GO	0.2	12.0787175648	18.054631541	21.7224569994	0.4
0.548837741004	0.323591634964	Wei2GO	0.2	12.023419308	18.0642437425	21.6997583821	0.41
0.54891541297	0.323441997368	Wei2GO	0.2	11.9659457891	18.0683709764	21.6714071617	0.42
0.549646150187	0.323379048859	Wei2GO	0.2	11.934247633	18.0691637409	21.6545825372	0.43
0.549580825258	0.319973818494	Wei2GO	0.2	11.883839818	18.1555074522	21.6990345331	0.44
0.55190581583	0.315368848995	Wei2GO	0.2	11.6375109313	18.1931049495	21.5967758793	0.45
0.554348277756	0.313799732532	Wei2GO	0.2	11.5577879092	18.2292691962	21.5844554432	0.46
0.554059450041	0.312272595367	Wei2GO	0.2	11.4646831414	18.2516894047	21.5537264912	0.47
0.558215332476	0.309537033057	Wei2GO	0.2	11.3613221581	18.2763747462	21.5198865016	0.48
0.554679789212	0.30331855367	Wei2GO	0.2	11.1820609643	18.3482925183	21.487166536	0.49
0.554250676848	0.302735937858	Wei2GO	0.2	11.1620961115	18.356064312	21.4834235314	0.5
0.556150264664	0.301587330051	Wei2GO	0.2	11.0373663149	18.3874375543	21.4457761571	0.51
0.557029725367	0.297523112553	Wei2GO	0.2	10.9960178576	18.4340329454	21.4645283981	0.52
0.558630390735	0.295926586438	Wei2GO	0.2	10.863472443	18.472525646	21.4301011958	0.53
0.554604982157	0.288810617092	Wei2GO	0.2	10.7230109051	18.5854003901	21.4569352549	0.54
0.556321097743	0.286597636262	Wei2GO	0.2	10.4964692998	18.6248743415	21.3790039992	0.55
0.559006043395	0.28470541084	Wei2GO	0.2	10.3840050049	18.6644172432	21.3585587287	0.56
0.560392929212	0.282826332418	Wei2GO	0.2	10.2590256615	18.6979997616	21.3275128087	0.57
0.568917909771	0.277356315664	Wei2GO	0.2	9.96733373009	18.8063076442	21.2843827464	0.58
0.571813447827	0.270788685832	Wei2GO	0.2	9.74093312052	18.8968428351	21.2597377028	0.59
0.575952021017	0.264116750828	Wei2GO	0.2	9.38393150263	19.0090436829	21.1991016834	0.6
0.58250120604	0.25484314758	Wei2GO	0.2	8.9082990665	19.224851175	21.1885038395	0.61
0.608885860832	0.241276801491	Wei2GO	0.2	7.53798995833	19.426592182	20.8377968226	0.62
0.618364327838	0.233313979501	Wei2GO	0.2	7.0698360783	19.6117029022	20.8470974694	0.63
0.625733764253	0.227348654354	Wei2GO	0.2	6.74745833723	19.7834796824	20.9024941659	0.64
0.629892426202	0.220422216749	Wei2GO	0.2	6.47250478691	19.9651248563	20.9880806351	0.65
0.63072787257	0.213218959014	Wei2GO	0.2	6.17647371797	20.1427691809	21.068459314	0.66
0.6396262323	0.206714112993	Wei2GO	0.2	6.00007908721	20.2171277985	21.0886985249	0.67
0.647802863696	0.203210657229	Wei2GO	0.2	5.79601979614	20.304844205	21.1158836819	0.68
0.649697773189	0.197065049275	Wei2GO	0.2	5.64309192227	20.4047467643	21.1706914615	0.69
0.65184058333	0.188536660714	Wei2GO	0.2	5.45057711069	20.5664081507	21.2764173455	0.7
0.652136328774	0.182308249872	Wei2GO	0.2	5.31391020619	20.6855771743	21.3572176258	0.71
0.646428032539	0.173776642185	Wei2GO	0.2	5.09544485813	20.9119820422	21.5238135848	0.72
0.653795299021	0.166492755859	Wei2GO	0.2	4.89365457268	21.0556194112	21.6168213173	0.73
0.665469048361	0.162824174096	Wei2GO	0.2	4.59410336182	21.1507187994	21.6439065658	0.74
0.670541739981	0.156608108838	Wei2GO	0.2	4.33284884711	21.3112005528	21.7472032255	0.75
0.670469013112	0.149159815579	Wei2GO	0.2	4.14057718987	21.5200588229	21.9147738114	0.76
0.663263339513	0.142121661086	Wei2GO	0.2	3.97686289633	21.763730961	22.1240914805	0.77
0.657929924128	0.12736434654	Wei2GO	0.2	3.54102889049	22.168083052	22.449115613	0.78
0.662132872429	0.116870336421	Wei2GO	0.2	3.24164324305	22.4561157304	22.6888824011	0.79
0.683076638462	0.106277329441	Wei2GO	0.2	2.82509802672	22.6743866961	22.8497043942	0.8
0.703996720141	0.0941429029889	Wei2GO	0.2	2.44906328764	22.9312244821	23.0616340972	0.81
0.695939856212	0.0855818557567	Wei2GO	0.2	2.2671116982	23.1242897011	23.2351580505	0.82
0.68066855749	0.0731172378116	Wei2GO	0.2	2.02438334298	23.367975467	23.4554984033	0.83
0.669524272934	0.059843585766	Wei2GO	0.2	1.74577502149	23.6418557087	23.7062243256	0.84
0.723074812774	0.0526660584539	Wei2GO	0.2	1.38203860385	23.8119049294	23.851977844	0.85
0.744295829608	0.0498729653849	Wei2GO	0.2	1.17932891003	23.9047943684	23.9338674366	0.86
0.751899406687	0.0464720002153	Wei2GO	0.2	0.957805936142	24.0052769446	24.024377482	0.87
0.719185948501	0.0326699706536	Wei2GO	0.2	0.72224904688	24.4630323824	24.4736919371	0.88
0.752720917711	0.0209586625357	Wei2GO	0.2	0.474583968733	24.7168590332	24.7214148141	0.89
0.780759803922	0.0148879848563	Wei2GO	0.2	0.309238732153	24.8525691803	24.8544930235	0.9
0.805176470588	0.0147243187352	Wei2GO	0.2	0.250698632418	24.8691223592	24.8703859383	0.91
0.817124183007	0.00929027176981	Wei2GO	0.2	0.13019830249	25.0989281997	25.0992658931	0.92
0.943333333333	0.00664755850926	Wei2GO	0.2	0.0590061159278	25.1691398994	25.1692090658	0.93
0.942708333333	0.00559812527898	Wei2GO	0.2	0.038656015661	25.1972568369	25.1972864887	0.94
0.916666666667	0.00388707037643	Wei2GO	0.2	0.038656015661	25.2260111243	25.2260407422	0.95
1.0	0.00163666121113	Wei2GO	0.2	0	25.2647176537	25.2647176537	0.96
1.0	0.00158551554828	Wei2GO	0.2	0	25.2684408441	25.2684408441	0.97
1.0	0.00092062193126	Wei2GO	0.2	0	25.2918118205	25.2918118205	0.98
1.0	0.00092062193126	Wei2GO	0.2	0	25.2918118205	25.2918118205	0.99
