0.196558442029	0.715209484331	CrowdGO	0.0	330.332545989	21.3326797591	331.020655194	0.0
0.200511497528	0.710969517213	CrowdGO	0.001	314.792350089	21.8205999333	315.547717874	0.001
0.203209558138	0.709966042207	CrowdGO	0.002	305.667235455	21.9327049515	306.4530998	0.002
0.205982307141	0.708095126005	CrowdGO	0.003	297.679385428	22.2880342291	298.512601038	0.003
0.208477328927	0.706950383319	CrowdGO	0.004	290.772495758	22.3801272407	291.632498849	0.004
0.210795790983	0.705787409004	CrowdGO	0.005	284.505211836	22.490637801	285.392789591	0.005
0.213039247062	0.705237353978	CrowdGO	0.006	278.504669205	22.5505894142	279.416141001	0.006
0.214742264817	0.704126788659	CrowdGO	0.007	273.674954082	22.6728853217	274.612527428	0.007
0.215974754982	0.702173936955	CrowdGO	0.008	269.03087239	22.8767803307	270.001772915	0.008
0.217501658477	0.701615835945	CrowdGO	0.009	264.427840146	22.929046593	265.420089334	0.009
0.219255386634	0.701355412567	CrowdGO	0.01	259.596507571	22.956565278	260.609575097	0.01
0.220900022797	0.700609711194	CrowdGO	0.011	255.659078313	23.040161364	256.695175957	0.011
0.222421118964	0.699475128368	CrowdGO	0.012	251.749156984	23.2089702413	252.816720851	0.012
0.224654244718	0.698836293892	CrowdGO	0.013	246.774291693	23.2842968354	247.870348206	0.013
0.226195259576	0.698321161479	CrowdGO	0.014	243.132693004	23.3487017754	244.251240083	0.014
0.22758615161	0.697220811229	CrowdGO	0.015	239.355811259	23.4943371129	240.506108571	0.015
0.229160668983	0.697156081362	CrowdGO	0.016	236.112672846	23.4974891745	237.279005131	0.016
0.230321392015	0.695830083326	CrowdGO	0.017	233.065765197	23.5703462935	234.254588282	0.017
0.231204054225	0.693958301773	CrowdGO	0.018	230.189671921	23.7692113148	231.413613397	0.018
0.232673782373	0.693599955016	CrowdGO	0.019	226.548738858	23.8051916441	227.796001342	0.019
0.234341915455	0.6930872695	CrowdGO	0.02	223.074967548	23.8375967509	224.344984712	0.02
0.236049842602	0.692618769673	CrowdGO	0.021	219.920009182	23.9226814674	221.217325558	0.021
0.237510594549	0.692051278494	CrowdGO	0.022	217.216188996	23.9948427078	218.537468729	0.022
0.239059988756	0.691502516365	CrowdGO	0.023	214.15815989	24.0455329251	215.503840107	0.023
0.240473251257	0.689993045669	CrowdGO	0.024	211.556394462	24.1723338379	212.932876186	0.024
0.242147830915	0.689309509285	CrowdGO	0.025	208.981081084	24.2289703802	210.380928928	0.025
0.244065604246	0.689052540703	CrowdGO	0.026	206.68684585	24.2668490396	208.106540526	0.026
0.245622480881	0.688635116063	CrowdGO	0.027	204.214774774	24.3281899675	205.658783093	0.027
0.246997312404	0.68841389525	CrowdGO	0.028	202.039312162	24.3705105642	203.503821694	0.028
0.248674828118	0.687806090257	CrowdGO	0.029	199.41795726	24.3953713891	200.904593832	0.029
0.249941855242	0.687528279586	CrowdGO	0.03	197.267971817	24.4107011556	198.772571135	0.03
0.250972469341	0.687056918612	CrowdGO	0.031	195.245324485	24.4562771809	196.771050277	0.031
0.252544036581	0.685397339319	CrowdGO	0.032	192.58560251	24.5745274613	194.147165043	0.032
0.25375333813	0.684800330135	CrowdGO	0.033	190.506173719	24.6188576383	192.090318279	0.033
0.254785432362	0.683819090805	CrowdGO	0.034	188.585433029	24.6859204498	190.19426968	0.034
0.256386269758	0.682914303392	CrowdGO	0.035	186.550690918	24.7783777359	188.189075892	0.035
0.257754673447	0.682528284101	CrowdGO	0.036	184.751241946	24.8252851985	186.411684682	0.036
0.259180629872	0.681931723412	CrowdGO	0.037	182.688517558	24.8575520852	184.371885989	0.037
0.260406438897	0.681263753689	CrowdGO	0.038	181.034050466	25.0046054957	182.752722891	0.038
0.261644059902	0.681022394662	CrowdGO	0.039	179.512053489	25.0333206073	181.249122725	0.039
0.261577637966	0.678609210522	CrowdGO	0.039	177.894424925	25.1933123339	179.669500489	0.04
0.262465218253	0.676786565833	CrowdGO	0.041	176.481231966	25.3091922416	178.286792691	0.041
0.2638556441	0.67644027715	CrowdGO	0.042	174.713214067	25.3265246659	176.539344117	0.042
0.265612670054	0.6762293852	CrowdGO	0.043	172.945355257	25.3531043175	174.793809397	0.043
0.266946728872	0.67495338227	CrowdGO	0.044	171.392324816	25.4182395785	173.266892132	0.044
0.268062316699	0.67439028754	CrowdGO	0.045	169.893938055	25.4589081912	171.790879252	0.045
0.269093141895	0.674100605	CrowdGO	0.046	168.568954784	25.4675118277	170.481924777	0.046
0.270590470038	0.672453961784	CrowdGO	0.047	166.861011471	25.5767313537	168.809852603	0.047
0.271548412197	0.672014416798	CrowdGO	0.048	165.593467811	25.6284866982	167.564960276	0.048
0.272482187188	0.672014416798	CrowdGO	0.049	164.429777381	25.6284866982	166.41505647	0.049
0.273521757282	0.671878443874	CrowdGO	0.05	162.815455097	25.6367338419	164.821462621	0.05
0.274159853472	0.670592763156	CrowdGO	0.051	161.433596906	25.8111770129	163.48401472	0.051
0.27568979144	0.669973746531	CrowdGO	0.052	159.42259624	25.87807481	161.509253443	0.052
0.276395555196	0.669739980297	CrowdGO	0.053	158.36882033	25.8975296484	160.472319403	0.053
0.277968270984	0.66963135157	CrowdGO	0.054	156.945662231	25.9089850697	159.069847553	0.054
0.279345367439	0.669119941564	CrowdGO	0.055	155.765294152	25.9398232434	157.910421734	0.055
0.280488691427	0.668252725113	CrowdGO	0.056	154.448145109	26.0519508981	156.629925855	0.056
0.282417362192	0.667834557161	CrowdGO	0.057	153.003480501	26.10017059	155.213671918	0.057
0.283864054595	0.667441751573	CrowdGO	0.058	151.560355472	26.12480746	153.795471051	0.058
0.284683062627	0.666948343939	CrowdGO	0.059	150.523505622	26.1732781461	152.782087411	0.059
0.285541236119	0.666452770459	CrowdGO	0.06	149.564754632	26.2205097003	151.845747247	0.06
0.286743197781	0.665950920648	CrowdGO	0.061	148.131399278	26.2416115846	150.43780652	0.061
0.287484407815	0.665408079404	CrowdGO	0.062	147.172476603	26.2619248112	149.497246009	0.062
0.289739665851	0.664925086033	CrowdGO	0.063	145.32183904	26.2927631753	147.681232041	0.063
0.290669073225	0.664701283583	CrowdGO	0.064	144.127864909	26.3153829892	146.510548512	0.064
0.291678889506	0.663865830128	CrowdGO	0.065	143.104789989	26.4047359402	145.520414368	0.065
0.29291267211	0.663605905064	CrowdGO	0.066	142.210216532	26.44827716	144.648736776	0.066
0.294206913596	0.663007856835	CrowdGO	0.067	140.952218002	26.5134365216	143.424161409	0.067
0.295474008115	0.66288516725	CrowdGO	0.068	139.936860233	26.5323388129	142.429947183	0.068
0.296669430912	0.66192332666	CrowdGO	0.069	139.027743225	26.6221827748	141.553714194	0.069
0.297333166757	0.661515892883	CrowdGO	0.07	137.962536408	26.6948247745	140.521440079	0.07
0.298110828394	0.661361481118	CrowdGO	0.071	137.295123423	26.7011571502	139.867446923	0.071
0.299158643628	0.66113909883	CrowdGO	0.072	136.130465647	26.7224424284	138.728485203	0.072
0.300695586038	0.660677477644	CrowdGO	0.073	134.603281118	26.7460069983	137.234806729	0.073
0.301175739064	0.659810769468	CrowdGO	0.074	133.938296783	26.8003525771	136.593287695	0.074
0.302774925558	0.659726018864	CrowdGO	0.075	132.954203495	26.8095436567	135.630276333	0.075
0.303523709381	0.659085343199	CrowdGO	0.076	132.097611403	26.8386669628	134.796487279	0.076
0.305340474476	0.658558998239	CrowdGO	0.077	130.948375082	26.8615542869	133.675053901	0.077
0.306354048303	0.65819219601	CrowdGO	0.078	130.172113994	26.8825315614	132.918959388	0.078
0.30708202785	0.657562172657	CrowdGO	0.079	129.356550782	26.9390328438	132.131861111	0.079
0.30820093009	0.657366702919	CrowdGO	0.08	128.21265876	26.9668729249	131.017930459	0.08
0.309737193182	0.656745898638	CrowdGO	0.081	127.353391118	26.997238392	130.183474796	0.081
0.310983883646	0.656462774157	CrowdGO	0.082	126.207480935	27.0157290771	129.066563685	0.082
0.311222829713	0.655282710591	CrowdGO	0.082	125.321215309	27.1045565411	128.21881294	0.083
0.312519881482	0.654900748787	CrowdGO	0.084	124.612018108	27.1428051239	127.533865804	0.084
0.313113205035	0.654314252564	CrowdGO	0.085	123.928638283	27.1750984787	126.87313886	0.085
0.314677318288	0.654279769806	CrowdGO	0.086	123.080855596	27.1757707514	126.04530745	0.086
0.316402616815	0.653760872594	CrowdGO	0.087	122.128779994	27.2238308961	125.12623974	0.087
0.317128921605	0.653241641824	CrowdGO	0.088	121.533521803	27.2361404182	124.54799985	0.088
0.317777712737	0.652749508957	CrowdGO	0.089	120.919554365	27.2878232701	123.960332069	0.089
0.318559300959	0.651936874254	CrowdGO	0.09	120.112868916	27.4061654589	123.199834352	0.09
0.319232219148	0.651336768542	CrowdGO	0.091	119.255753299	27.4357995426	122.370984271	0.091
0.320910758709	0.65116895646	CrowdGO	0.092	118.618937443	27.4607886624	121.756097318	0.092
0.323008751149	0.650548736707	CrowdGO	0.093	117.549561831	27.5073328566	120.725112746	0.093
0.324175626114	0.649706514708	CrowdGO	0.094	116.674391762	27.5455092395	119.881895098	0.094
0.32532446907	0.64937583289	CrowdGO	0.095	115.720386198	27.5572629247	118.95633872	0.095
0.325702988595	0.648045257494	CrowdGO	0.096	115.183997335	27.6336988043	118.452414714	0.096
0.32604386104	0.647258602926	CrowdGO	0.097	114.280307816	27.6908239042	117.587288781	0.097
0.326883768778	0.646851619296	CrowdGO	0.098	113.727350445	27.7030861076	117.052856519	0.098
0.328203599846	0.646540485351	CrowdGO	0.099	112.997061282	27.7315593166	116.350226645	0.099
0.328731529275	0.646023145283	CrowdGO	0.1	112.135184317	27.7469137651	115.517058417	0.1
0.329785472588	0.644874874675	CrowdGO	0.101	111.604395256	27.7745864062	115.008559205	0.101
0.331072062225	0.64443052809	CrowdGO	0.102	110.833443585	27.8166125347	114.270801826	0.102
0.331814131557	0.643877331695	CrowdGO	0.103	110.188666532	27.8501046874	113.653730969	0.103
0.332825176663	0.643761370114	CrowdGO	0.104	109.601141159	27.8744719695	113.090213241	0.104
0.333634580963	0.642667329569	CrowdGO	0.105	108.924205144	27.9236569785	112.446489876	0.105
0.334740390747	0.642568770105	CrowdGO	0.106	108.427746833	27.9516667905	111.972639335	0.106
0.335622640819	0.641586025823	CrowdGO	0.107	107.763233688	28.0756969242	111.360492513	0.107
0.335965340183	0.640912692489	CrowdGO	0.108	107.3892595	28.0934174904	111.003122309	0.108
0.336417585625	0.64082755317	CrowdGO	0.109	106.92667472	28.094736192	110.55599472	0.109
0.337047710158	0.640766995755	CrowdGO	0.11	106.541346747	28.1010813134	110.184977822	0.11
0.339666739832	0.640733254258	CrowdGO	0.111	105.718058895	28.1058542723	109.390342448	0.111
0.340911492663	0.640004409757	CrowdGO	0.112	105.176269585	28.1583825603	108.880403159	0.112
0.342902738637	0.63945033551	CrowdGO	0.113	104.577611554	28.2010208552	108.313315966	0.113
0.344418941272	0.639299864387	CrowdGO	0.114	103.885973662	28.2243151962	107.65178815	0.114
0.345309864994	0.637955425242	CrowdGO	0.115	103.367204396	28.2929115151	107.169341635	0.115
0.346530830906	0.636973407128	CrowdGO	0.116	102.65178744	28.3414792289	106.492388975	0.116
0.347096244283	0.636696086988	CrowdGO	0.117	102.179540915	28.3717173659	106.045334306	0.117
0.348058990445	0.636576792116	CrowdGO	0.118	101.617286035	28.384069009	105.50700543	0.118
0.348892383582	0.636095429133	CrowdGO	0.119	101.203070184	28.4284773429	105.120120523	0.119
0.349568213042	0.636028019516	CrowdGO	0.12	100.863165313	28.4431066151	104.796891323	0.12
0.35064657455	0.635710580055	CrowdGO	0.121	100.495566449	28.5273180297	104.466103353	0.121
0.35213040944	0.635243136048	CrowdGO	0.122	99.282436739	28.5789480905	103.313883476	0.122
0.353429929609	0.634961463496	CrowdGO	0.123	98.5267220639	28.6194304805	102.599155755	0.123
0.354458877752	0.63455109808	CrowdGO	0.124	98.0686025189	28.6919241754	102.179632574	0.124
0.355621526186	0.634506880393	CrowdGO	0.125	97.6229425511	28.6962779752	101.753207723	0.125
0.357010174084	0.634330725015	CrowdGO	0.126	97.0630671517	28.7124358042	101.220763555	0.126
0.358446707576	0.634090200366	CrowdGO	0.127	96.3197401972	28.7345619581	100.514513393	0.127
0.359196299007	0.632682880717	CrowdGO	0.128	95.8078764681	28.832195701	100.052209882	0.128
0.361273897479	0.631649052306	CrowdGO	0.129	94.9645612873	28.884801214	99.2602621478	0.129
0.362565001893	0.631121082066	CrowdGO	0.13	94.5491596054	28.9232010748	98.874137885	0.13
0.363477825371	0.630905065296	CrowdGO	0.131	94.1685629514	28.9302449574	98.512320659	0.131
0.364708342907	0.63030481467	CrowdGO	0.132	93.8230025174	28.9632843251	98.191790086	0.132
0.365197425315	0.629690479006	CrowdGO	0.133	93.4784244465	28.992057774	97.8711155089	0.133
0.366502692518	0.629016105951	CrowdGO	0.134	92.7949279879	29.0252551776	97.2284119916	0.134
0.367459049726	0.628201797663	CrowdGO	0.135	92.4419408009	29.1635162058	96.9330856649	0.135
0.36798753695	0.627735774436	CrowdGO	0.136	92.0750768138	29.1862035579	96.5901353575	0.136
0.36892547798	0.627202479403	CrowdGO	0.137	91.6059917422	29.2519893367	96.163072971	0.137
0.371296811603	0.626858165678	CrowdGO	0.138	90.6823626106	29.2766867841	95.2912130141	0.138
0.372349663143	0.626474552783	CrowdGO	0.139	90.1677126285	29.3367152464	94.8201416477	0.139
0.373619957169	0.625760991268	CrowdGO	0.14	89.718286813	29.3843274786	94.4076781307	0.14
0.374165866179	0.62546046115	CrowdGO	0.141	89.3981452873	29.4257242627	94.1164259265	0.141
0.374621946967	0.625028528377	CrowdGO	0.142	89.1254654713	29.459668676	93.8681025375	0.142
0.375983077916	0.624826655805	CrowdGO	0.143	88.7347389945	29.4717834053	93.5010156175	0.143
0.37667381874	0.624599756427	CrowdGO	0.144	88.2006135698	29.5408110746	93.0161693096	0.144
0.37756056713	0.624484255826	CrowdGO	0.145	87.8212374654	29.5579552689	92.6619796337	0.145
0.378766019664	0.623859811382	CrowdGO	0.146	87.3241106298	29.5886544582	92.2008067748	0.146
0.379502232223	0.622792710684	CrowdGO	0.147	87.0243084154	29.7281251512	91.9619034176	0.147
0.380185301672	0.622419050251	CrowdGO	0.148	86.6536707191	29.7886910085	91.6309159678	0.148
0.381076251912	0.622269101769	CrowdGO	0.149	86.1330090436	29.7972502691	91.1414909386	0.149
0.381670228547	0.621832928703	CrowdGO	0.15	85.8184436899	29.8113182226	90.848885362	0.15
0.382359151389	0.621492965238	CrowdGO	0.151	85.4532008993	29.8244571016	90.5082746788	0.151
0.383826095453	0.620883440227	CrowdGO	0.152	84.9064145984	29.8381990488	89.9967630664	0.152
0.384548010333	0.620699614954	CrowdGO	0.153	84.5171432932	29.8501006359	89.6335652443	0.153
0.385521791606	0.620572824503	CrowdGO	0.154	84.1940152612	29.8603822823	89.332382907	0.154
0.386041033643	0.619545793048	CrowdGO	0.155	83.7729517325	29.8855211795	88.9440937789	0.155
0.38723483925	0.619332839391	CrowdGO	0.156	83.3106436584	29.9115690909	88.5175988844	0.156
0.387610812486	0.618970222808	CrowdGO	0.157	82.9100963359	29.9280183105	88.146300855	0.157
0.388024445876	0.618264257371	CrowdGO	0.158	82.5333916906	29.9394688099	87.7959710726	0.158
0.388822792777	0.617853564935	CrowdGO	0.159	82.0666207628	29.9777413217	87.3704481972	0.159
0.389480470652	0.617738246614	CrowdGO	0.16	81.8269660668	29.987037728	87.1485789178	0.16
0.390382358115	0.617589761765	CrowdGO	0.161	81.3411966221	30.0049730217	86.6988389423	0.161
0.391144831395	0.617114473749	CrowdGO	0.162	80.8295025856	30.0435400618	86.2323766788	0.162
0.391584483713	0.61617479121	CrowdGO	0.163	80.4752716751	30.0851158774	85.9149786041	0.163
0.392648835078	0.615907886872	CrowdGO	0.164	79.8676460772	30.0940059784	85.3492242832	0.164
0.393242678731	0.615670671406	CrowdGO	0.165	79.5186078179	30.1134887575	85.029590111	0.165
0.394099998823	0.615302578714	CrowdGO	0.166	79.1418379451	30.1185261758	84.6791363461	0.166
0.395491371023	0.614912598348	CrowdGO	0.167	78.3241242549	30.1702497796	83.9339765057	0.167
0.397214585138	0.61399885389	CrowdGO	0.168	77.6554588009	30.2573344023	83.341925624	0.168
0.397299406621	0.612922748281	CrowdGO	0.168	77.306388482	30.2917412307	83.0293158283	0.169
0.397786021552	0.612437386125	CrowdGO	0.168	76.9238154845	30.3453120104	82.6928736331	0.17
0.398637529673	0.612326511908	CrowdGO	0.171	76.6069026072	30.3500974367	82.3999146934	0.171
0.399182270591	0.612160001303	CrowdGO	0.172	76.283684026	30.3634684514	82.104449727	0.172
0.399947938164	0.611911891726	CrowdGO	0.173	75.9426716195	30.3978847202	81.8004936915	0.173
0.400429759813	0.611754760807	CrowdGO	0.174	75.6242546393	30.4154615866	81.5115218437	0.174
0.401591651092	0.611415543889	CrowdGO	0.175	75.0939542306	30.4360546511	81.0274977074	0.175
0.401937262457	0.611371886818	CrowdGO	0.176	74.8979252419	30.4399214012	80.847313007	0.176
0.402677135867	0.610962462909	CrowdGO	0.177	74.5145886762	30.4715936669	80.5042976877	0.177
0.40357072753	0.610323555153	CrowdGO	0.178	73.9807629619	30.5465505715	80.0390219845	0.178
0.404499445239	0.609409992049	CrowdGO	0.179	73.5418601411	30.5785263566	79.6457875041	0.179
0.405474145924	0.608948160217	CrowdGO	0.18	73.1406589341	30.6107876668	79.2879329463	0.18
0.406473460829	0.608738979111	CrowdGO	0.181	72.7345917072	30.6211232722	78.9175140337	0.181
0.407876958386	0.608542312444	CrowdGO	0.182	72.2702971042	30.6322562675	78.4941460719	0.182
0.408750356343	0.607432695107	CrowdGO	0.183	71.7769613907	30.724509096	78.0764218293	0.183
0.409502963476	0.606815710338	CrowdGO	0.184	71.4946524811	30.7628218688	77.8321048329	0.184
0.410097267861	0.605811717822	CrowdGO	0.185	71.2896665987	30.795996634	77.6570020825	0.185
0.410504304872	0.605303116569	CrowdGO	0.186	71.0293130262	30.8702118738	77.4476164263	0.186
0.411933423347	0.605163380867	CrowdGO	0.187	70.6808116898	30.8802973628	77.132158704	0.187
0.411910304303	0.604470867707	CrowdGO	0.187	70.4539165674	30.9135900636	76.9376657451	0.188
0.412674774922	0.604288393392	CrowdGO	0.189	70.0596266637	30.9416270462	76.5880902786	0.189
0.412699198545	0.602115476725	CrowdGO	0.189	69.8006780544	31.085609947	76.4097493952	0.19
0.41439559512	0.601910445434	CrowdGO	0.191	69.3653340869	31.0990142605	76.0177496442	0.191
0.415225293653	0.601558739852	CrowdGO	0.192	68.9905960067	31.1365540475	75.6913953849	0.192
0.41582992175	0.601316895624	CrowdGO	0.193	68.7208856986	31.1530044838	75.4524341527	0.193
0.415931092996	0.601102231959	CrowdGO	0.193	68.4635978441	31.1672192369	75.2240638674	0.194
0.4170868121	0.60081797454	CrowdGO	0.195	68.009082699	31.183269277	74.8173216064	0.195
0.417436586657	0.600612313404	CrowdGO	0.196	67.7582798871	31.1939733198	74.5938902641	0.196
0.418056661752	0.600312313404	CrowdGO	0.197	67.463583672	31.1981780229	74.3280662591	0.197
0.418625969972	0.600112313404	CrowdGO	0.198	67.1203936992	31.1995691791	74.0172977573	0.198
0.419395881736	0.599796566651	CrowdGO	0.199	66.861470889	31.2126191227	73.7881012219	0.199
0.420217648998	0.599474771779	CrowdGO	0.2	66.5758582577	31.2338183355	73.5384002448	0.2
0.420648984698	0.598608684822	CrowdGO	0.201	66.2088694877	31.2756578519	73.2241843445	0.201
0.421425780752	0.598536159697	CrowdGO	0.202	65.9840910788	31.2893390806	73.0268650265	0.202
0.422282120414	0.598423533434	CrowdGO	0.203	65.759073353	31.2953565933	72.8261977077	0.203
0.42249464328	0.597778138926	CrowdGO	0.203	65.6042954197	31.3188496132	72.696588081	0.204
0.423507385125	0.597728081718	CrowdGO	0.205	65.3324968789	31.3268925821	72.4548780089	0.205
0.423903826706	0.597108473875	CrowdGO	0.206	65.1630382064	31.3411578007	72.3082963468	0.206
0.424035820132	0.596517586503	CrowdGO	0.206	64.9569850998	31.3863254873	72.1422992484	0.207
0.424739065281	0.596107174252	CrowdGO	0.208	64.6824169398	31.4289782433	71.9138076769	0.208
0.424111446132	0.59514853036	CrowdGO	0.208	64.486587074	31.6755257749	71.8460774543	0.209
0.425564293702	0.594808252582	CrowdGO	0.21	64.1336647791	31.6834406535	71.5329809922	0.21
0.426437668923	0.59440575623	CrowdGO	0.211	63.6407338138	31.7212716093	71.1082419475	0.211
0.426852062923	0.593966621531	CrowdGO	0.212	63.3588571205	31.7810348786	70.8828537346	0.212
0.428261056236	0.593133461557	CrowdGO	0.213	63.070087661	31.8295799392	70.6467134174	0.213
0.428852548271	0.593050128224	CrowdGO	0.214	62.9050409302	31.8314282336	70.5002411189	0.214
0.429789067414	0.592806455291	CrowdGO	0.215	62.6223773253	31.8457367485	70.2546303878	0.215
0.430902361923	0.592378810136	CrowdGO	0.216	62.3287842687	31.8611188969	70.0000588984	0.216
0.431289761499	0.591960682856	CrowdGO	0.217	62.1728163758	31.8914596674	69.8750620452	0.217
0.431940868264	0.591505582483	CrowdGO	0.218	62.0172461472	31.934516158	69.75637707	0.218
0.432644138902	0.591297249149	CrowdGO	0.219	61.7252057969	31.9468595197	69.5025385425	0.219
0.433600420095	0.590818835023	CrowdGO	0.22	61.3097434203	31.9890290517	69.1533268754	0.22
0.434702762643	0.5903964256	CrowdGO	0.221	61.1360988992	32.0046034546	69.0066462806	0.221
0.435215063595	0.590322763703	CrowdGO	0.222	60.9174904134	32.0093210573	68.8152401203	0.222
0.435646490206	0.590207728738	CrowdGO	0.223	60.7370257117	32.0174577465	68.6593321614	0.223
0.436352446438	0.590063518781	CrowdGO	0.224	60.5264454307	32.0295455027	68.4787732191	0.224
0.437787212891	0.589921447398	CrowdGO	0.225	60.1626102698	32.0514914078	68.1677179898	0.225
0.438669744191	0.589211304082	CrowdGO	0.226	60.0268553143	32.0845756509	68.0635243991	0.226
0.440165143191	0.588840394991	CrowdGO	0.227	59.4918330958	32.0975195793	67.5982911637	0.227
0.44091691012	0.588433394896	CrowdGO	0.228	59.0987796163	32.1440520177	67.2748528965	0.228
0.441815448707	0.58789990515	CrowdGO	0.229	58.7635476123	32.1603031041	66.9883543889	0.229
0.443230698768	0.586949422959	CrowdGO	0.23	58.4398767989	32.2280843268	66.7373105515	0.23
0.444283828781	0.586587512365	CrowdGO	0.231	58.1840926343	32.2345656133	66.5165833154	0.231
0.445204785081	0.586360392482	CrowdGO	0.232	57.942723049	32.2634068345	66.3195791219	0.232
0.447325699189	0.586054859735	CrowdGO	0.233	57.1897907893	32.2896852183	65.6756876022	0.233
0.447539054531	0.585062774783	CrowdGO	0.233	57.0127956379	32.4481711061	65.5998679464	0.234
0.448025160106	0.584568100095	CrowdGO	0.233	56.8018891363	32.4704765064	65.4277193092	0.235
0.448923074224	0.58444654621	CrowdGO	0.236	56.4239828176	32.490367703	65.1098289851	0.236
0.449825349264	0.584223500543	CrowdGO	0.237	56.1613421431	32.50361908	64.8889944799	0.237
0.451014300112	0.583736407571	CrowdGO	0.238	55.901407086	32.5303923075	64.6776138852	0.238
0.452654273278	0.582309148718	CrowdGO	0.239	55.621086075	32.5573502406	64.4490982936	0.239
0.453012727184	0.581971498888	CrowdGO	0.24	55.49091776	32.6105944687	64.3637539727	0.24
0.45368378899	0.581746576632	CrowdGO	0.241	55.2938233885	32.6229756068	64.200198149	0.241
0.455365745124	0.581293945053	CrowdGO	0.242	55.1166802301	32.6460289391	64.0594383763	0.242
0.456234445902	0.580352795675	CrowdGO	0.243	54.7748564348	32.6930596096	63.7896625175	0.243
0.457109311446	0.580131831717	CrowdGO	0.244	54.4867221237	32.7020915345	63.5470666398	0.244
0.457676463397	0.579829104444	CrowdGO	0.245	54.2777089105	32.7164455219	63.3753539805	0.245
0.458586135985	0.579829104444	CrowdGO	0.246	54.0134155308	32.7164455219	63.1491477764	0.246
0.460506605713	0.579147430167	CrowdGO	0.247	53.6743198161	32.7447244051	62.8740772026	0.247
0.460653169019	0.578176319056	CrowdGO	0.247	53.5442583928	32.7752857875	62.7790328476	0.248
0.460893781142	0.578072985723	CrowdGO	0.247	53.4510448031	32.8016816066	62.7133519018	0.249
0.461159772217	0.577211117937	CrowdGO	0.247	53.2994647527	32.8450505863	62.6069508197	0.25
0.462116810505	0.576312419307	CrowdGO	0.247	52.9540828246	32.9267686573	62.356290637	0.251
0.462151974484	0.575168308516	CrowdGO	0.247	52.848794146	32.972570266	62.2911344625	0.252
0.462824983029	0.574751641849	CrowdGO	0.247	52.7239411686	33.0297388299	62.2155737699	0.253
0.463527690429	0.574462515289	CrowdGO	0.254	52.5649845441	33.0433071113	62.0881449632	0.254
0.465132694567	0.574343946349	CrowdGO	0.255	52.0978256683	33.0528176239	61.69823492	0.255
0.465611036077	0.572721884586	CrowdGO	0.255	51.9175888202	33.1373952932	61.5915821824	0.256
0.465787119687	0.572539088887	CrowdGO	0.255	51.824505589	33.1408364535	61.51499346	0.257
0.465468130952	0.571532203955	CrowdGO	0.255	51.6308488465	33.1688060068	61.3670452648	0.258
0.467546674421	0.570711668423	CrowdGO	0.259	51.3595823716	33.2243134935	61.1691238167	0.259
0.467769617961	0.570435477947	CrowdGO	0.26	51.2675955571	33.2281633574	61.0940029324	0.26
0.468487378706	0.569751336051	CrowdGO	0.261	51.1113566407	33.3156208483	61.010666036	0.261
0.469054487892	0.569593829864	CrowdGO	0.262	50.9072378897	33.3359621304	60.8509099416	0.262
0.469431929772	0.569566687494	CrowdGO	0.263	50.795059392	33.3375238893	60.757950572	0.263
0.469871855648	0.569566687494	CrowdGO	0.264	50.692623443	33.3375238893	60.6723377711	0.264
0.470419286636	0.569105466411	CrowdGO	0.265	50.4408319488	33.3530117538	60.4706616529	0.265
0.472705894619	0.5680443553	CrowdGO	0.266	50.067207427	33.4191346854	60.1960449087	0.266
0.474378697057	0.567563027856	CrowdGO	0.267	49.7776945571	33.4324357458	59.9628771435	0.267
0.474792318377	0.567216563209	CrowdGO	0.268	49.6641305659	33.4512917398	59.8791681967	0.268
0.475731389235	0.566956274785	CrowdGO	0.269	49.3895961715	33.4691166516	59.66166256	0.269
0.476387112228	0.566700134434	CrowdGO	0.27	49.2089403722	33.4859287308	59.5216535012	0.27
0.476857225493	0.566381960088	CrowdGO	0.271	49.0516428358	33.5741357462	59.4414523376	0.271
0.478564444151	0.565600810789	CrowdGO	0.272	48.8986088291	33.6176987425	59.339899007	0.272
0.480229397348	0.565174812126	CrowdGO	0.273	48.5858813641	33.640552674	59.0954706567	0.273
0.480946849238	0.5648847238	CrowdGO	0.274	48.4633877799	33.6629310497	59.0075663112	0.274
0.481880254908	0.564816715767	CrowdGO	0.275	48.263903471	33.6874201244	58.8578512426	0.275
0.483153521208	0.564391650579	CrowdGO	0.276	47.8733488764	33.7128435068	58.5526545082	0.276
0.483950643185	0.563781876143	CrowdGO	0.277	47.6835474748	33.7277683412	58.4061902289	0.277
0.484162293596	0.563415209476	CrowdGO	0.277	47.6096604496	33.7305390266	58.347485217	0.278
0.484925139516	0.563397027658	CrowdGO	0.279	47.4946807855	33.7352829016	58.2564504185	0.279
0.485224284235	0.563190631903	CrowdGO	0.28	47.3921379208	33.742046415	58.1768032207	0.28
0.485920759708	0.563083373839	CrowdGO	0.281	47.1605330909	33.74763332	57.9915393494	0.281
0.486167141169	0.562793869397	CrowdGO	0.282	47.0276899807	33.7651183495	57.8937547761	0.282
0.486919647881	0.562493944558	CrowdGO	0.283	46.7188028023	33.7840443384	57.6542122237	0.283
0.487310626818	0.562317021481	CrowdGO	0.284	46.5797798367	33.8159674324	57.5603643406	0.284
0.488099585666	0.561687584251	CrowdGO	0.285	46.4449652432	33.8351269876	57.4626018791	0.285
0.488497419287	0.561434770399	CrowdGO	0.286	46.2702611194	33.840500734	57.3246592138	0.286
0.48887532154	0.561194128687	CrowdGO	0.287	46.1530404945	33.8461383086	57.2334187804	0.287
0.489265967874	0.561153103046	CrowdGO	0.288	45.9742877972	33.8496042785	57.091425348	0.288
0.490122838191	0.561120844982	CrowdGO	0.289	45.6536150302	33.8513394736	56.8345471477	0.289
0.4908044522	0.561085669102	CrowdGO	0.29	45.5532186334	33.8753516819	56.7682585557	0.29
0.491394145704	0.560988699405	CrowdGO	0.291	45.3255809695	33.8778548645	56.5872542225	0.291
0.491608450969	0.560622927462	CrowdGO	0.291	45.1739733956	33.9454524466	56.5064740906	0.292
0.49223049383	0.56043038778	CrowdGO	0.293	44.8444007436	33.9627843157	56.2538087291	0.293
0.493400074866	0.56019982659	CrowdGO	0.294	44.7796799771	33.9735111895	56.2087110811	0.294
0.494019536967	0.559583680272	CrowdGO	0.295	44.5851245711	34.0552743825	56.1034316802	0.295
0.495162220506	0.559557364483	CrowdGO	0.296	44.4754565707	34.0566597252	56.0171608421	0.296
0.495747063385	0.559296378791	CrowdGO	0.297	44.3248515459	34.0784660015	55.9109498183	0.297
0.496295185196	0.559228811224	CrowdGO	0.298	44.214874595	34.0948083042	55.8337808925	0.298
0.497296544965	0.558079379725	CrowdGO	0.299	44.1458380193	34.1531137204	55.814784701	0.299
0.498455677247	0.557997336382	CrowdGO	0.3	43.9853620751	34.1616667193	55.6931912348	0.3
0.498641115785	0.557343325228	CrowdGO	0.3	43.9245564869	34.2301830818	55.6872705058	0.301
0.499975947833	0.556693638092	CrowdGO	0.302	43.7215135633	34.3308412096	55.5893641484	0.302
0.501868602506	0.556224558153	CrowdGO	0.303	43.5729082452	34.336339284	55.4759635191	0.303
0.502564007152	0.55587191265	CrowdGO	0.304	43.3865852901	34.3466024037	55.3361082821	0.304
0.503792321819	0.55584160962	CrowdGO	0.305	42.9516370508	34.3481902563	54.9967389872	0.305
0.504365719894	0.555723962561	CrowdGO	0.306	42.8000535807	34.3539029967	54.8820119677	0.306
0.504234556926	0.555255500324	CrowdGO	0.306	42.7348985073	34.3782315733	54.8464616592	0.307
0.504770038758	0.555223448172	CrowdGO	0.306	42.5684274492	34.3853649905	54.7213335092	0.308
0.50695783737	0.55427045523	CrowdGO	0.309	42.4032917218	34.4050220827	54.6053540722	0.309
0.507700536434	0.55387327513	CrowdGO	0.31	42.1995409862	34.4316987715	54.4641454513	0.31
0.508038309816	0.553857890515	CrowdGO	0.311	42.1187832627	34.4338222988	54.4029412958	0.311
0.508595680319	0.55362402982	CrowdGO	0.312	41.9516801236	34.4612858903	54.2911013925	0.312
0.508688545316	0.55292619598	CrowdGO	0.312	41.583308238	34.4886644051	54.024434254	0.313
0.509055269595	0.552603253281	CrowdGO	0.312	41.4601632162	34.5211332665	53.9504752149	0.314
0.509079542056	0.552020779055	CrowdGO	0.312	41.355487116	34.5611871542	53.8957509653	0.315
0.509023620032	0.550386426894	CrowdGO	0.312	41.2130027283	34.5907517089	53.805498768	0.316
0.509866928885	0.549941585624	CrowdGO	0.312	41.0217773173	34.6033415978	53.6672848578	0.317
0.510711785978	0.549556781703	CrowdGO	0.312	40.7499166866	34.6175110764	53.468942229	0.318
0.511086451179	0.549482172102	CrowdGO	0.312	40.6885146899	34.6214455148	53.4247107358	0.319
0.511732991434	0.549184034495	CrowdGO	0.312	40.5164289779	34.6497730861	53.3121730193	0.32
0.5124017081	0.548916948469	CrowdGO	0.312	40.3546923603	34.6680733302	53.2012829161	0.321
0.512764190398	0.548893138945	CrowdGO	0.322	40.2163735203	34.6715326747	53.0986993921	0.322
0.512949379655	0.548100560215	CrowdGO	0.322	40.1201244183	34.7053011502	53.047924665	0.323
0.513235752545	0.547920156899	CrowdGO	0.322	40.0372229142	34.7202546424	52.9950497794	0.324
0.513670885945	0.547362076091	CrowdGO	0.322	39.8943987316	34.8148936466	52.9494085877	0.325
0.514609950722	0.547168029225	CrowdGO	0.326	39.6016699506	34.8251984117	52.7360095883	0.326
0.514644168972	0.546669450915	CrowdGO	0.326	39.457965472	34.8537461882	52.6470764862	0.327
0.515398945602	0.546441276312	CrowdGO	0.328	39.250505838	34.8594179783	52.4955353371	0.328
0.515910119006	0.545512682668	CrowdGO	0.328	39.1592813449	34.9128975711	52.4629367483	0.329
0.515975368763	0.545123793779	CrowdGO	0.328	39.1199277603	34.9347848768	52.4481452709	0.33
0.516195218454	0.544808642264	CrowdGO	0.328	39.0535074859	34.9463462074	52.4063312988	0.331
0.516516453099	0.544641975597	CrowdGO	0.328	38.9306372962	34.9484019631	52.3162051381	0.332
0.517596492828	0.544188674609	CrowdGO	0.333	38.7974486785	34.9620486152	52.2263043622	0.333
0.518799302178	0.544078973887	CrowdGO	0.334	38.5896183813	34.9726100252	52.0791906503	0.334
0.519483621442	0.543819999528	CrowdGO	0.335	38.4627065617	34.9817113091	51.9913446851	0.335
0.520093808748	0.543621638516	CrowdGO	0.336	38.3493153182	35.0048108501	51.9230851166	0.336
0.520766056096	0.543547155757	CrowdGO	0.337	38.2632649228	35.0075512868	51.8614123376	0.337
0.520966539194	0.543220579487	CrowdGO	0.337	38.163828436	35.0376560192	51.8084466107	0.338
0.522722325786	0.542784500302	CrowdGO	0.339	37.7509609585	35.0680346994	51.5257422165	0.339
0.523649055969	0.54270914145	CrowdGO	0.34	37.6912171471	35.0757896145	51.4872689809	0.34
0.524331345286	0.542381325358	CrowdGO	0.341	37.4829661187	35.1072008326	51.3564825446	0.341
0.524968216565	0.541992918261	CrowdGO	0.342	37.4078195919	35.1242844215	51.313354234	0.342
0.527352587882	0.54165217752	CrowdGO	0.343	37.1600427602	35.1349758355	51.1403490886	0.343
0.527607086916	0.54105438206	CrowdGO	0.343	37.1019742208	35.1596165607	51.1151164312	0.344
0.528228708599	0.540796403873	CrowdGO	0.345	36.9024286484	35.1732466689	50.9798638815	0.345
0.529263700215	0.540364585691	CrowdGO	0.346	36.8016952392	35.1804948298	50.9120024056	0.346
0.530674571828	0.540288621972	CrowdGO	0.347	36.6125767527	35.1834259597	50.7774973658	0.347
0.53114523682	0.539516734024	CrowdGO	0.347	36.4729140087	35.1957946726	50.6854754237	0.348
0.531572671203	0.538363166608	CrowdGO	0.347	36.3140622283	35.2967489258	50.6415995033	0.349
0.532170719839	0.537455759201	CrowdGO	0.347	36.1173615412	35.3680360669	50.5505863461	0.35
0.532152961853	0.536872060756	CrowdGO	0.347	36.0215183336	35.4091060168	50.5109351722	0.351
0.532871026169	0.536492756727	CrowdGO	0.347	35.8982487674	35.4352235432	50.441444588	0.352
0.533436683495	0.536147211326	CrowdGO	0.347	35.7388747724	35.4468757117	50.3363503616	0.353
0.533556442032	0.535688549118	CrowdGO	0.347	35.6279741184	35.4755667234	50.2779113939	0.354
0.534707639657	0.535347357746	CrowdGO	0.347	35.4156341912	35.4921297668	50.13938991	0.355
0.536078814287	0.535211392833	CrowdGO	0.356	35.224235142	35.4932458445	50.0051721516	0.356
0.537042442566	0.535211392833	CrowdGO	0.357	35.0611055919	35.4932458445	49.8903961289	0.357
0.537588158708	0.535061512394	CrowdGO	0.358	34.98914025	35.496400862	49.8420947552	0.358
0.539387087083	0.53433637057	CrowdGO	0.359	34.8051931003	35.5152390907	49.7265892096	0.359
0.540065699231	0.534046701954	CrowdGO	0.36	34.6974951064	35.5267707161	49.6595167533	0.36
0.542342831794	0.533740341479	CrowdGO	0.361	34.5233060187	35.5353698524	49.5441335479	0.361
0.543390737498	0.53367157691	CrowdGO	0.362	34.4126173531	35.5463772737	49.4749751933	0.362
0.543809396364	0.53351559194	CrowdGO	0.363	34.3604594666	35.5779492367	49.4614157364	0.363
0.543950105718	0.533438668863	CrowdGO	0.364	34.2640727797	35.5816864433	49.3971972241	0.364
0.544697261898	0.533193166217	CrowdGO	0.365	34.118254644	35.594967389	49.305750206	0.365
0.545401973968	0.532949263778	CrowdGO	0.366	33.940658226	35.6199549421	49.2011124965	0.366
0.54607635361	0.532574928207	CrowdGO	0.367	33.8457651874	35.6530036542	49.1596632483	0.367
0.546427889556	0.532432071064	CrowdGO	0.368	33.7548247294	35.6547686572	49.0983779825	0.368
0.546755261668	0.531809358114	CrowdGO	0.368	33.6519449628	35.7054697736	49.0645897928	0.369
0.547165306291	0.530668123712	CrowdGO	0.368	33.6019772779	35.7670961986	49.0752284505	0.37
0.547982593251	0.530668123712	CrowdGO	0.368	33.4722828835	35.7670961986	48.9865174503	0.371
0.548759543979	0.530430371142	CrowdGO	0.372	33.3415096347	35.7727826835	48.9014135342	0.372
0.54921690822	0.530339462051	CrowdGO	0.373	33.2769132574	35.7744886486	48.8586429817	0.373
0.549633277332	0.530079101691	CrowdGO	0.374	33.1954375588	35.7790825552	48.8065551255	0.374
0.549887676703	0.529521928163	CrowdGO	0.374	33.1058721188	35.8033540251	48.7634999584	0.375
0.550261808861	0.528774809066	CrowdGO	0.374	33.0347256495	35.8476701578	48.7478056376	0.376
0.551545040069	0.528562177487	CrowdGO	0.377	32.8444489599	35.8671669272	48.6334400475	0.377
0.552291861378	0.52848525441	CrowdGO	0.378	32.7779053342	35.8714455079	48.5916832485	0.378
0.553505798842	0.528329874893	CrowdGO	0.379	32.6637024875	35.8815516267	48.5221929362	0.379
0.554731862293	0.528296541559	CrowdGO	0.38	32.5406398634	35.8849108315	48.4419246944	0.38
0.555597092045	0.528051051363	CrowdGO	0.381	32.4210058965	35.8951991774	48.3692768949	0.381
0.555893323444	0.527959443798	CrowdGO	0.382	32.3558525563	35.9063974558	48.3339484514	0.382
0.556925300494	0.527826110465	CrowdGO	0.383	32.2597043122	35.9126630421	48.2742984318	0.383
0.55713964482	0.527638808878	CrowdGO	0.384	32.2153189343	35.9414090581	48.2660507927	0.384
0.559171734831	0.527378260535	CrowdGO	0.385	31.830147044	35.9750057434	48.034979953	0.385
0.562355860537	0.526896410187	CrowdGO	0.386	31.4901482913	35.9840820849	47.8171894082	0.386
0.562739971043	0.526605068196	CrowdGO	0.387	31.4006335752	36.0266283201	47.7903519242	0.387
0.563025920386	0.526605068196	CrowdGO	0.388	31.3494958159	36.0266283201	47.7567674369	0.388
0.563551151703	0.524825151126	CrowdGO	0.388	31.3023946417	36.0780895946	47.764719816	0.389
0.564332988527	0.524226700276	CrowdGO	0.388	31.2504735134	36.1302266898	47.7701305783	0.39
0.564768573619	0.524120491126	CrowdGO	0.388	31.15810877	36.1368630793	47.7147840332	0.391
0.565303262196	0.523995224032	CrowdGO	0.388	31.0169546457	36.1451877364	47.6290465157	0.392
0.565528395332	0.523995224032	CrowdGO	0.388	30.9037420389	36.1451877364	47.5553978904	0.393
0.566112303743	0.523953557365	CrowdGO	0.394	30.833255841	36.148848686	47.5124081381	0.394
0.566852345536	0.523941652603	CrowdGO	0.395	30.7162387402	36.1499116823	47.4373633014	0.395
0.567373582899	0.523907169844	CrowdGO	0.396	30.6625527087	36.1514442772	47.4037874219	0.396
0.567835971291	0.523822169844	CrowdGO	0.397	30.528217847	36.2359244124	47.3815818956	0.397
0.569350536174	0.52374809577	CrowdGO	0.398	30.1623784409	36.2410791865	47.1506616477	0.398
0.570296859728	0.522892404099	CrowdGO	0.398	30.0416901346	36.3209172508	47.1350419124	0.399
0.570791294582	0.521795730256	CrowdGO	0.398	29.9504647706	36.3685469955	47.1137087326	0.4
0.571181104967	0.521795730256	CrowdGO	0.398	29.8361109894	36.3685469955	47.041096177	0.401
0.571792592952	0.521795730256	CrowdGO	0.402	29.6690433618	36.3685469955	46.9353102106	0.402
0.573270933786	0.521705530826	CrowdGO	0.403	29.5670827913	36.3946725859	46.8911993601	0.403
0.574716545841	0.521628607749	CrowdGO	0.404	29.4811561287	36.3963785511	46.8383917136	0.404
0.575299294816	0.521492893463	CrowdGO	0.405	29.3702261352	36.4103078897	46.7794902051	0.405
0.575629978864	0.52102938292	CrowdGO	0.405	29.2406307846	36.4625822567	46.7390029152	0.406
0.576890103049	0.520488131696	CrowdGO	0.407	29.0480468897	36.5060690241	46.652782379	0.407
0.577855293494	0.520433644205	CrowdGO	0.408	28.9930194792	36.5118024851	46.6230297089	0.408
0.578480754696	0.519445105593	CrowdGO	0.408	28.8854685082	36.5723262192	46.6037051748	0.409
0.579832223138	0.519305416014	CrowdGO	0.41	28.7905463725	36.5793666902	46.5504632402	0.41
0.581021588625	0.519043511253	CrowdGO	0.411	28.7075303925	36.5985382632	46.5142484002	0.411
0.58176034439	0.517851568079	CrowdGO	0.411	28.6138063066	36.6272037558	46.4790486813	0.412
0.582049043862	0.517568974347	CrowdGO	0.411	28.5518353506	36.6386599136	46.449959119	0.413
0.583106185755	0.517568974347	CrowdGO	0.414	28.492348384	36.6386599136	46.413417421	0.414
0.583563342108	0.517553974347	CrowdGO	0.415	28.4161423069	36.6485398208	46.3744823648	0.415
0.584390240874	0.516905826198	CrowdGO	0.416	28.2952829486	36.6846616048	46.3291208011	0.416
0.585373931998	0.516661574154	CrowdGO	0.417	28.1228986318	36.7053322229	46.2404459434	0.417
0.585998001574	0.51626110577	CrowdGO	0.418	28.0624561023	36.7590978215	46.2464346209	0.418
0.587942499581	0.515963406968	CrowdGO	0.419	27.9887573785	36.7675052915	46.2084406246	0.419
0.588393654118	0.515420140634	CrowdGO	0.419	27.9334281791	36.7949562421	46.1968095726	0.42
0.588691816773	0.514948712063	CrowdGO	0.419	27.8790831355	36.8013326186	46.169051961	0.421
0.589233318893	0.514882045396	CrowdGO	0.419	27.7992973281	36.805515427	46.1242549835	0.422
0.589333791236	0.514393113607	CrowdGO	0.419	27.7286411113	36.8201204227	46.0933705192	0.423
0.590102269192	0.514175909992	CrowdGO	0.419	27.6335182628	36.8632715031	46.070729509	0.424
0.591104232208	0.513639653182	CrowdGO	0.425	27.53145449	36.8831735744	46.025530733	0.425
0.591717625774	0.513576161118	CrowdGO	0.426	27.4669413856	36.8854966163	45.9888326631	0.426
0.591761174176	0.513475945601	CrowdGO	0.426	27.3210932893	36.8896994689	45.905250957	0.427
0.593373227557	0.513311659887	CrowdGO	0.428	27.2139180589	36.9090142665	45.8570896399	0.428
0.595374716296	0.513200804991	CrowdGO	0.429	27.1257527681	36.9273311378	45.8195836755	0.429
0.596274334744	0.511517590722	CrowdGO	0.429	27.0625648235	36.9738799871	45.8197579231	0.43
0.596464197935	0.511497489711	CrowdGO	0.429	27.0444498335	36.9861446476	45.8189607334	0.431
0.597636639485	0.511287039622	CrowdGO	0.429	26.9213502581	36.9997708951	45.7574272223	0.432
0.598748764515	0.511163752125	CrowdGO	0.433	26.7697467556	37.0124375963	45.6786588921	0.433
0.598924067296	0.509755081239	CrowdGO	0.433	26.7111356819	37.1023344749	45.7172614327	0.434
0.600084093095	0.50953332587	CrowdGO	0.433	26.6723533731	37.1101762621	45.7009804781	0.435
0.60138949686	0.509011986838	CrowdGO	0.433	26.521118256	37.1395896898	45.6368144799	0.436
0.601961496467	0.508886085522	CrowdGO	0.437	26.4477585329	37.1494588805	45.6022611997	0.437
0.603143217355	0.507537914369	CrowdGO	0.437	26.3598976592	37.2286038143	45.6159308418	0.438
0.604500163404	0.506859390424	CrowdGO	0.437	26.265502989	37.2595621849	45.58674831	0.439
0.605695209245	0.506487104193	CrowdGO	0.44	26.1856643502	37.2944883664	45.5693743645	0.44
0.607607590468	0.506142105575	CrowdGO	0.441	26.0326603813	37.3125307898	45.4964214029	0.441
0.608209277033	0.505990832451	CrowdGO	0.442	25.9402616845	37.3247955459	45.4536856459	0.442
0.608634442903	0.505523329234	CrowdGO	0.442	25.9025467745	37.3405771989	45.4451387384	0.443
0.609430126164	0.504958799319	CrowdGO	0.442	25.8528821173	37.350987689	45.4254091354	0.444
0.610978696819	0.504809654727	CrowdGO	0.445	25.7607706953	37.3593532792	45.3799359217	0.445
0.6113145954	0.504505306901	CrowdGO	0.445	25.7234338413	37.4139892681	45.4037624162	0.446
0.612341796522	0.504315918417	CrowdGO	0.447	25.6310903937	37.4374494973	45.3708653172	0.447
0.614656380673	0.504136926821	CrowdGO	0.448	25.5138902901	37.4420377949	45.3085509807	0.448
0.614820440542	0.504136926821	CrowdGO	0.449	25.4271911809	37.4420377949	45.2597861858	0.449
0.615933872453	0.503871226338	CrowdGO	0.45	25.352652702	37.4455882365	45.2208920457	0.45
0.616913130397	0.503464559671	CrowdGO	0.451	25.2782940083	37.4518164395	45.1844077375	0.451
0.617783393874	0.503054189301	CrowdGO	0.452	25.1516791375	37.4815642991	45.1383941423	0.452
0.618020324262	0.502336008592	CrowdGO	0.452	25.031823589	37.5451004202	45.124569336	0.453
0.618337818081	0.502220746271	CrowdGO	0.452	24.9296153018	37.5554265569	45.0765546927	0.454
0.621015130584	0.502159410868	CrowdGO	0.455	24.8077210611	37.5588624435	45.0121225038	0.455
0.620769254259	0.501590269521	CrowdGO	0.455	24.704447138	37.5992229185	44.9890127972	0.456
0.621674259233	0.500286319417	CrowdGO	0.455	24.602671311	37.6351699255	44.9632900371	0.457
0.621758305979	0.500088560314	CrowdGO	0.455	24.5619513085	37.6526417136	44.9556545953	0.458
0.62204068712	0.499995132479	CrowdGO	0.455	24.5115256856	37.6654314179	44.9388430573	0.459
0.623672417636	0.49913508653	CrowdGO	0.455	24.4393210825	37.8022771003	45.014359586	0.46
0.625680586855	0.498721680733	CrowdGO	0.455	24.3814811584	37.8089083787	44.9885560589	0.461
0.627323942114	0.497795281041	CrowdGO	0.455	24.123677946	37.8763044121	44.9061941558	0.462
0.627033198892	0.497256874622	CrowdGO	0.455	24.0824180034	37.9084028158	44.9111329287	0.463
0.628852685298	0.496810663705	CrowdGO	0.455	24.0492209726	37.9141076987	44.8981580021	0.464
0.62940304123	0.496810663705	CrowdGO	0.465	23.9847071964	37.9141076987	44.8636349607	0.465
0.629557991617	0.496348313772	CrowdGO	0.465	23.9280485193	37.9502927228	44.8639746756	0.466
0.63068263117	0.496098528549	CrowdGO	0.467	23.8463826179	37.9654397685	44.8332976791	0.467
0.630988057791	0.49606995712	CrowdGO	0.468	23.8070167559	37.9687989733	44.8152177534	0.468
0.631694864039	0.495507478392	CrowdGO	0.468	23.5939305183	37.9957329915	44.7252644806	0.469
0.632024882664	0.495346710974	CrowdGO	0.468	23.5692667109	38.0463248836	44.7552585787	0.47
0.633087239688	0.494791446424	CrowdGO	0.471	23.4004423013	38.0907928031	44.7044650596	0.471
0.633398946838	0.494568589281	CrowdGO	0.471	23.3682601465	38.0979733469	44.6937485049	0.472
0.635001277558	0.494452997884	CrowdGO	0.473	23.2965534406	38.1022685923	44.6599627641	0.473
0.635434779792	0.494168785099	CrowdGO	0.473	23.2552457168	38.1236959809	44.6567200832	0.474
0.635611139549	0.493962028372	CrowdGO	0.473	23.1893015667	38.1343339285	44.6315037986	0.475
0.636752578808	0.493405920857	CrowdGO	0.476	23.1142293425	38.1450692806	44.6017253984	0.476
0.637174029014	0.49334305536	CrowdGO	0.477	22.9361085618	38.1487165443	44.5128032136	0.477
0.638301906581	0.492502328543	CrowdGO	0.477	22.9016158735	38.1758144698	44.5182751244	0.478
0.639518032936	0.491635876401	CrowdGO	0.477	22.750360227	38.218762421	44.4775526693	0.479
0.639512481087	0.490545464485	CrowdGO	0.477	22.7037151666	38.294157957	44.5185491228	0.48
0.639530541051	0.489414629104	CrowdGO	0.477	22.6506866925	38.3388460827	44.5299980529	0.481
0.640679583606	0.488821680737	CrowdGO	0.477	22.5350334875	38.3633197874	44.4923818129	0.482
0.641582581573	0.488238347404	CrowdGO	0.477	22.420833189	38.3674920753	44.4382516425	0.483
0.643657787136	0.487848638021	CrowdGO	0.477	22.3316731335	38.4480672268	44.4629902101	0.484
0.64493893244	0.487489392414	CrowdGO	0.477	22.2519286246	38.4619439201	44.4350026176	0.485
0.645353924013	0.487467494604	CrowdGO	0.477	22.1715301794	38.4716258009	44.4031839203	0.486
0.646277304427	0.487298996436	CrowdGO	0.477	22.1026702272	38.4730677833	44.3700910054	0.487
0.647123606102	0.487148823223	CrowdGO	0.477	22.0074088663	38.4875881167	44.335318698	0.488
0.649459597952	0.487038597994	CrowdGO	0.489	21.9366590935	38.5026868642	44.3133603775	0.489
0.649624467049	0.487038597994	CrowdGO	0.49	21.916319369	38.5026868642	44.3032950292	0.49
0.650391833543	0.486885188903	CrowdGO	0.491	21.8350791383	38.5058246807	44.2658922345	0.491
0.650529612963	0.486885188903	CrowdGO	0.492	21.8069575401	38.5058246807	44.2520274281	0.492
0.651832600468	0.486562917611	CrowdGO	0.493	21.7629341709	38.5226321104	44.2449826358	0.493
0.652730878927	0.486327732426	CrowdGO	0.494	21.7321868253	38.5383367917	44.2435458217	0.494
0.654670244933	0.485248704046	CrowdGO	0.494	21.6374962524	38.6375827771	44.2836769807	0.495
0.654925862698	0.485124219723	CrowdGO	0.496	21.5926843556	38.6486276147	44.2714403897	0.496
0.655961886521	0.48498562952	CrowdGO	0.497	21.4330104098	38.6677796111	44.2105317236	0.497
0.657839357154	0.484469073656	CrowdGO	0.498	21.3570553936	38.6914970967	44.1945218627	0.498
0.658019174013	0.484251939519	CrowdGO	0.498	21.2886770208	38.7004482843	44.1693611761	0.499
0.660517916882	0.483903922464	CrowdGO	0.5	21.1053389586	38.723327899	44.1013770321	0.5
0.661890557441	0.483903922464	CrowdGO	0.501	21.0233903	38.723327899	44.062218093	0.501
0.664301289933	0.483737255797	CrowdGO	0.502	20.92535316	38.7256211329	44.0175435139	0.502
0.664626342239	0.482403636541	CrowdGO	0.502	20.9014931541	38.9048467172	44.1640069984	0.503
0.66443110886	0.482039759697	CrowdGO	0.502	20.8395207819	38.9404603691	44.1661078224	0.504
0.665082299922	0.481876407891	CrowdGO	0.502	20.7226748135	38.952258941	44.1215109446	0.505
0.666010886148	0.481876407891	CrowdGO	0.502	20.5090523354	38.952258941	44.0215822558	0.506
0.668473021032	0.481781501797	CrowdGO	0.507	20.3272799669	38.9620452777	43.945867645	0.507
0.668818298153	0.48148642918	CrowdGO	0.507	20.2899900261	38.9914373443	43.9547026089	0.508
0.670016169032	0.48109410535	CrowdGO	0.509	20.2299032778	39.0192013747	43.9516445944	0.509
0.670932671352	0.48109410535	CrowdGO	0.51	20.1914047447	39.0192013747	43.9339379237	0.51
0.671861065559	0.480411763492	CrowdGO	0.51	20.1665843744	39.0715677827	43.9690633779	0.511
0.673083357777	0.479983045543	CrowdGO	0.51	20.0577290737	39.0786946585	43.9255833405	0.512
0.674309204624	0.478522444575	CrowdGO	0.51	20.0237046237	39.1162958366	43.9435245153	0.513
0.675679922056	0.477979349337	CrowdGO	0.51	19.9467934241	39.1247285477	43.9160443555	0.514
0.676105921646	0.47763678577	CrowdGO	0.51	19.8905463175	39.132576158	43.8975209957	0.515
0.678753419293	0.477414330757	CrowdGO	0.516	19.8101682203	39.1555347551	43.8816438488	0.516
0.681234890406	0.476268668875	CrowdGO	0.517	19.6851574475	39.1856818008	43.8522870775	0.517
0.682368890017	0.476150932997	CrowdGO	0.518	19.6224945451	39.1928013992	43.830559815	0.518
0.682717770767	0.475732999273	CrowdGO	0.518	19.5664129941	39.2508670754	43.8574404591	0.519
0.683189978304	0.474069981132	CrowdGO	0.518	19.4558566746	39.3763565249	43.9206991305	0.52
0.683997862098	0.473864490936	CrowdGO	0.518	19.3951871631	39.3885864774	43.9048292308	0.521
0.685674591423	0.473434450677	CrowdGO	0.518	19.3185060249	39.4121545761	43.8921701829	0.522
0.686110087841	0.473101117343	CrowdGO	0.518	19.2693926739	39.4324761028	43.8888330401	0.523
0.687186161242	0.472711849666	CrowdGO	0.518	19.1799318765	39.4463035466	43.8620639082	0.524
0.688079044712	0.472639820171	CrowdGO	0.518	19.1203946044	39.4507499485	43.8400634275	0.525
0.689078948848	0.472402783134	CrowdGO	0.518	18.9610448919	39.4598926415	43.779040084	0.526
0.689635793552	0.47230870906	CrowdGO	0.518	18.8685751564	39.4783261715	43.7557009513	0.527
0.69086422423	0.471877684529	CrowdGO	0.518	18.8431906281	39.4925257464	43.7575756056	0.528
0.691907712002	0.47112847818	CrowdGO	0.518	18.786596208	39.5244523541	43.7620672612	0.529
0.69302963838	0.47112847818	CrowdGO	0.53	18.7252715752	39.5244523541	43.7357763103	0.53
0.694223887015	0.470917716719	CrowdGO	0.531	18.5630197889	39.532045092	43.6734277661	0.531
0.695011401514	0.470764132953	CrowdGO	0.532	18.4994555208	39.5544110919	43.6667068989	0.532
0.695432464909	0.470254826799	CrowdGO	0.532	18.4056771295	39.5675809251	43.6390010296	0.533
0.695488843842	0.470237585419	CrowdGO	0.532	18.3929155257	39.571448367	43.6371271671	0.534
0.695848634852	0.469757683459	CrowdGO	0.532	18.3414423846	39.6032539532	43.644315007	0.535
0.696463152187	0.469336060936	CrowdGO	0.532	18.3004839427	39.6213518895	43.6435474966	0.536
0.696731677278	0.469249104415	CrowdGO	0.532	18.2648074088	39.6254052948	43.6322808762	0.537
0.696861146599	0.469062606115	CrowdGO	0.532	18.2158679274	39.6484625057	43.6327677717	0.538
0.698371644369	0.468964329088	CrowdGO	0.532	18.1674808519	39.6547382796	43.618294654	0.539
0.698436446149	0.468493440983	CrowdGO	0.532	18.0327786574	39.664151729	43.570931118	0.54
0.700346192291	0.4675695692	CrowdGO	0.532	17.9829152972	39.6819068688	43.5664891325	0.541
0.702308258505	0.467027537526	CrowdGO	0.532	17.8815293206	39.7011521177	43.5422848541	0.542
0.703307367724	0.466925510499	CrowdGO	0.532	17.7977037107	39.7091460856	43.515221937	0.543
0.706335526359	0.466369724998	CrowdGO	0.544	17.7358379308	39.7368937334	43.5152923773	0.544
0.708148705103	0.465253618556	CrowdGO	0.544	17.5990234382	39.7746678279	43.4942505028	0.545
0.710371544677	0.464907339607	CrowdGO	0.546	17.5635773159	39.7964634832	43.49985924	0.546
0.71230089223	0.464907339607	CrowdGO	0.547	17.5172532735	39.7964634832	43.4811760192	0.547
0.714371017271	0.46461081946	CrowdGO	0.548	17.4235743119	39.8255703238	43.4701851091	0.548
0.716891088737	0.463276084177	CrowdGO	0.548	17.3183760602	39.8741867546	43.4727146462	0.549
0.72009324339	0.463053180862	CrowdGO	0.55	17.2397711397	39.884185207	43.4506379536	0.55
0.720895743561	0.463016143825	CrowdGO	0.551	17.2023322422	39.885100537	43.4366375243	0.551
0.721022123348	0.462944715254	CrowdGO	0.551	17.1688425123	39.8908132773	43.4286326879	0.552
0.721727616405	0.462926858111	CrowdGO	0.553	17.0722841111	39.8918477488	43.3915014904	0.553
0.720969912944	0.461670874401	CrowdGO	0.553	17.0237586379	39.9466654409	43.4228561705	0.554
0.721026200105	0.461153127985	CrowdGO	0.553	16.9638674188	39.9980044129	43.4466702385	0.555
0.722331617612	0.460647067379	CrowdGO	0.553	16.9199325146	40.0080969055	43.4388297989	0.556
0.722877205612	0.460440097682	CrowdGO	0.553	16.9092116038	40.0198716379	43.4455010672	0.557
0.724462302929	0.460106764349	CrowdGO	0.553	16.8345010565	40.0219577819	43.4184008286	0.558
0.725020971261	0.460106764349	CrowdGO	0.553	16.7729578865	40.0219577819	43.3945759394	0.559
0.726245034283	0.459790100091	CrowdGO	0.553	16.7131104542	40.0321957794	43.3809262231	0.56
0.726424489953	0.459405550158	CrowdGO	0.553	16.6179298955	40.0647141679	43.3743808644	0.561
0.726475874418	0.45927176331	CrowdGO	0.553	16.5838229496	40.0746203112	43.3704781702	0.562
0.727701348569	0.458955342344	CrowdGO	0.553	16.5362581727	40.0825126048	43.3596085207	0.563
0.728794826665	0.458889213311	CrowdGO	0.553	16.4945691235	40.0844624063	43.3455296077	0.564
0.730267231693	0.458780389782	CrowdGO	0.553	16.4281295412	40.0913487532	43.3266625194	0.565
0.730710675287	0.458002278712	CrowdGO	0.553	16.3903836237	40.1381887756	43.3557248067	0.566
0.731702717597	0.457446536677	CrowdGO	0.553	16.3604355148	40.1680958701	43.3721082732	0.567
0.731721380074	0.457221184632	CrowdGO	0.553	16.3530630849	40.1896150098	43.3892593494	0.568
0.73220940459	0.456884784431	CrowdGO	0.553	16.2889777291	40.2168098343	43.3903513319	0.569
0.73343475185	0.456781609828	CrowdGO	0.553	16.1778896467	40.2191105069	43.3509049893	0.57
0.734160917313	0.456514943162	CrowdGO	0.553	16.0807465219	40.2253728869	43.3205613143	0.571
0.735263966306	0.456248276495	CrowdGO	0.553	16.0305749029	40.2551601406	43.3296347742	0.572
0.73530515372	0.455974850996	CrowdGO	0.553	15.9348324751	40.2997260866	43.3357451611	0.573
0.735621218209	0.455604651303	CrowdGO	0.553	15.9170063926	40.3485922576	43.3746468536	0.574
0.735749442973	0.454761296183	CrowdGO	0.553	15.9043555953	40.4311480362	43.4468210394	0.575
0.736302239939	0.454747211676	CrowdGO	0.553	15.6921387646	40.4320633662	43.3704388617	0.576
0.736532455253	0.454747211676	CrowdGO	0.553	15.668427596	40.4320633662	43.3618654047	0.577
0.736556183236	0.454629564617	CrowdGO	0.553	15.6387860917	40.4341539999	43.3531133843	0.578
0.738393918516	0.453860252448	CrowdGO	0.553	15.5398944009	40.4573506171	43.3391916969	0.579
0.740811283971	0.453187975087	CrowdGO	0.553	15.4655671346	40.4769553945	43.3309091159	0.58
0.741975079506	0.453153648789	CrowdGO	0.553	15.432828591	40.4806491261	43.3226863432	0.581
0.741981888284	0.452486982123	CrowdGO	0.553	15.3594973096	40.517404182	43.3309842867	0.582
0.743457591051	0.451588398227	CrowdGO	0.553	15.3300731808	40.5605182564	43.3608900388	0.583
0.743478199138	0.451071984086	CrowdGO	0.553	15.2997102822	40.5843852003	43.372496548	0.584
0.7436552813	0.450539103704	CrowdGO	0.553	15.2535766868	40.6515819755	43.4191515215	0.585
0.744793680725	0.450467675133	CrowdGO	0.553	15.2377713496	40.6521400144	43.4141240088	0.586
0.744598236162	0.450256789095	CrowdGO	0.553	15.1904325183	40.6794939924	43.4231559375	0.587
0.74620759997	0.449447568416	CrowdGO	0.553	15.0652223818	40.7330191578	43.4297107419	0.588
0.747275123086	0.449314235082	CrowdGO	0.553	15.0276777207	40.7381079959	43.421475571	0.589
0.7469796622	0.448980901749	CrowdGO	0.553	15.0222288577	40.7401941399	43.4215473977	0.59
0.747262286196	0.448748283693	CrowdGO	0.553	15.0050092024	40.7632597928	43.4372380579	0.591
0.748121803858	0.448693478888	CrowdGO	0.553	14.9764582797	40.7680428344	43.4318733092	0.592
0.747979217917	0.448261590343	CrowdGO	0.553	14.9585110541	40.7944891947	43.4505167014	0.593
0.748220836018	0.448037536619	CrowdGO	0.553	14.9183549069	40.8209591263	43.4615694277	0.594
0.748285559768	0.447644679476	CrowdGO	0.553	14.9089161607	40.8603329585	43.4953168808	0.595
0.748631506623	0.447632333797	CrowdGO	0.553	14.8814197484	40.86136743	43.4868716048	0.596
0.750402996398	0.447586179951	CrowdGO	0.553	14.829045839	40.8645165704	43.4719370977	0.597
0.750867157668	0.44614396464	CrowdGO	0.553	14.7710906858	40.949094698	43.5317525105	0.598
0.75028107549	0.445182538854	CrowdGO	0.553	14.739127079	41.0166982826	43.5845317178	0.599
0.750663520022	0.444948412672	CrowdGO	0.553	14.6749502944	41.0369208013	43.5819117868	0.6
0.751882191073	0.444948412672	CrowdGO	0.553	14.595225491	41.0369208013	43.5551314541	0.601
0.752483334977	0.444878506716	CrowdGO	0.553	14.5749381683	41.0530227456	43.5635110977	0.602
0.752973368285	0.444753445621	CrowdGO	0.553	14.5349483102	41.0604281976	43.5571289934	0.603
0.754721056774	0.443329016285	CrowdGO	0.553	14.4746735102	41.1004918864	43.5748391452	0.604
0.755065548701	0.443080437473	CrowdGO	0.553	14.4495333547	41.1297697483	43.5941162741	0.605
0.755043656541	0.442898878866	CrowdGO	0.553	14.4342495772	41.1397827287	43.5985009355	0.606
0.756614104917	0.442734386112	CrowdGO	0.553	14.4119049158	41.1424097106	43.5935876029	0.607
0.757726273575	0.442302122297	CrowdGO	0.553	14.3870483765	41.1555099278	43.5977425839	0.608
0.757453700962	0.441635455631	CrowdGO	0.553	14.3484532385	41.2867900476	43.7090052824	0.609
0.758662213385	0.441043799013	CrowdGO	0.553	14.2646616101	41.3052004071	43.6989719733	0.61
0.759551924957	0.440540282529	CrowdGO	0.553	14.1218040272	41.3821562307	43.7253725345	0.611
0.760677426842	0.440407500811	CrowdGO	0.553	14.0832744202	41.4108860477	43.7401429084	0.612
0.760787526413	0.439237462933	CrowdGO	0.553	14.0661039225	41.4302662253	43.7529683456	0.613
0.761203948184	0.438524069511	CrowdGO	0.553	14.0572137241	41.5049103837	43.8208037768	0.614
0.761767870468	0.436865714026	CrowdGO	0.553	14.0422197865	41.5720720936	43.8796207217	0.615
0.762209638079	0.436301190217	CrowdGO	0.553	14.0216098207	41.5975570883	43.8971786984	0.616
0.76247682261	0.435903094978	CrowdGO	0.553	13.9872803541	41.6520824423	43.9379105498	0.617
0.763525879996	0.435494271449	CrowdGO	0.553	13.961979751	41.6712677444	43.9480538134	0.618
0.763732836966	0.43533929115	CrowdGO	0.553	13.9281179941	41.679952252	43.9455446045	0.619
0.763932762732	0.434996393015	CrowdGO	0.553	13.9103852848	41.7063875137	43.965004017	0.62
0.763652826686	0.434214911533	CrowdGO	0.553	13.8691765981	41.7438462029	43.9875295433	0.621
0.764869002475	0.433829518155	CrowdGO	0.553	13.7801047005	41.7493753234	43.9647771	0.622
0.765206186285	0.43371513907	CrowdGO	0.553	13.7463746133	41.7644751842	43.9685592489	0.623
0.765584756908	0.43371513907	CrowdGO	0.553	13.7107869355	41.7644751842	43.9574460792	0.624
0.766173584102	0.433637105276	CrowdGO	0.553	13.636130278	41.7743081276	43.9435645857	0.625
0.766682779746	0.433136031967	CrowdGO	0.553	13.6205930148	41.7924198749	43.9559656142	0.626
0.769029192021	0.432693200289	CrowdGO	0.553	13.582495042	41.8081159973	43.9591029801	0.627
0.769609047607	0.432571680143	CrowdGO	0.553	13.5580946843	41.8144973867	43.9576401001	0.628
0.771081080244	0.432168797937	CrowdGO	0.553	13.5159269153	41.8622942039	43.9901347621	0.629
0.771560075042	0.432077453223	CrowdGO	0.553	13.3964350292	41.8756671874	43.9663049833	0.63
0.772029695079	0.430091155857	CrowdGO	0.553	13.370088963	41.9822024145	44.0597843668	0.631
0.773514260266	0.42906412883	CrowdGO	0.553	13.3330996265	42.0284529104	44.0926569816	0.632
0.77331776774	0.429029646071	CrowdGO	0.553	13.296782555	42.0290109493	44.0822207663	0.633
0.772893956464	0.428428266017	CrowdGO	0.553	13.2677380467	42.0683287789	44.11096416	0.634
0.773261713521	0.428372710461	CrowdGO	0.553	13.2370945676	42.0713608478	44.1046491447	0.635
0.773125102522	0.427766997737	CrowdGO	0.553	13.2009892934	42.0999236449	44.1210798738	0.636
0.772686288821	0.426549140594	CrowdGO	0.553	13.1796648225	42.1273010444	44.1408320959	0.637
0.772686288821	0.426470193225	CrowdGO	0.553	13.1643706456	42.134260587	44.1429107525	0.638
0.77406565634	0.424814278917	CrowdGO	0.553	13.1094106683	42.2785601539	44.2643569563	0.639
0.774121428942	0.42441785948	CrowdGO	0.553	13.0663260752	42.3068376276	44.2786335285	0.64
0.772712749708	0.423692687455	CrowdGO	0.553	13.0397007043	42.3468667573	44.3090387914	0.641
0.772868822393	0.423609354121	CrowdGO	0.553	13.0210005671	42.3502259621	44.3067499915	0.642
0.773585845447	0.423474116026	CrowdGO	0.553	12.935874156	42.3705106298	44.301207785	0.643
0.773561725231	0.422710257662	CrowdGO	0.553	12.8840737225	42.4002800789	44.3145924776	0.644
0.774014680753	0.422637506339	CrowdGO	0.553	12.7857691967	42.4342575948	44.3186429347	0.645
0.77417051047	0.422563116096	CrowdGO	0.553	12.7622473684	42.4452597409	44.3223987659	0.646
0.774606530885	0.42231750206	CrowdGO	0.553	12.7500130977	42.4649367144	44.3377230375	0.647
0.774813859486	0.422170835394	CrowdGO	0.553	12.7051438253	42.4665798483	44.3264151904	0.648
0.774089160276	0.421605681872	CrowdGO	0.553	12.6562647699	42.4912713957	44.3360934539	0.649
0.775784995232	0.421560227327	CrowdGO	0.553	12.4913947026	42.4950086023	44.292896696	0.65
0.775876029159	0.421533911537	CrowdGO	0.553	12.4550377793	42.498367807	44.2858807335	0.651
0.77621973113	0.421469770123	CrowdGO	0.553	12.4336513144	42.5085592942	44.2896522709	0.652
0.776288290551	0.421210121	CrowdGO	0.553	12.4258726873	42.5476828554	44.325022599	0.653
0.775954568329	0.420433309406	CrowdGO	0.553	12.2938857566	42.5801199319	44.3193664261	0.654
0.777274731325	0.420273194746	CrowdGO	0.553	12.2102993788	42.5901005696	44.3058469894	0.655
0.779567429276	0.419809187402	CrowdGO	0.553	12.1274665761	42.6258263244	44.3174515896	0.656
0.780510207915	0.419711337939	CrowdGO	0.553	12.1082731285	42.6511585471	44.3365718518	0.657
0.782698528411	0.418683168925	CrowdGO	0.553	12.0642551689	42.697800194	44.3694533907	0.658
0.78326591334	0.417983168925	CrowdGO	0.553	12.0244318498	42.7071848954	44.3676752039	0.659
0.782705556946	0.417415434516	CrowdGO	0.553	12.0129755411	42.7363026621	44.3926023857	0.66
0.782737167449	0.417198716249	CrowdGO	0.553	11.9901943314	42.7547550621	44.4042097163	0.661
0.784030820224	0.417032049583	CrowdGO	0.553	11.8847929987	42.755313101	44.3764025466	0.662
0.783562958375	0.416924069328	CrowdGO	0.553	11.8630721313	42.7608094477	44.3758865265	0.663
0.78383721006	0.416900259804	CrowdGO	0.553	11.8385670623	42.7638415167	44.3722639872	0.664
0.783105193004	0.415941942834	CrowdGO	0.553	11.8056017288	42.8076579615	44.4057182391	0.665
0.784570856089	0.415627426705	CrowdGO	0.553	11.7368878827	42.8130324522	44.3926827858	0.666
0.784614697988	0.415627426705	CrowdGO	0.553	11.7316693104	42.8130324522	44.3913033438	0.667
0.785739153245	0.415460760039	CrowdGO	0.553	11.7035302857	42.8198753152	44.3904758158	0.668
0.785820687023	0.415401936509	CrowdGO	0.553	11.6320072579	42.8222338454	44.3739484874	0.669
0.786237313635	0.415369865802	CrowdGO	0.553	11.6248601768	42.826024679	44.3757339538	0.67
0.786862736191	0.414319926852	CrowdGO	0.553	11.5648681885	42.9048823386	44.4361913839	0.671
0.789468021202	0.414319926852	CrowdGO	0.553	11.5152898115	42.9048823386	44.4233140134	0.672
0.789273788549	0.413678260186	CrowdGO	0.553	11.4913089128	42.9500158235	44.4607021961	0.673
0.789372617596	0.413678260186	CrowdGO	0.553	11.4849931982	42.9500158235	44.4590702557	0.674
0.78995996435	0.412810162522	CrowdGO	0.553	11.4688017752	42.997342821	44.5006168927	0.675
0.790214818758	0.41279545664	CrowdGO	0.553	11.4373299758	42.9979008599	44.4930555855	0.676
0.791831563835	0.411512239856	CrowdGO	0.553	11.3064572821	43.0714687517	44.5307466443	0.677
0.793732359992	0.411314714604	CrowdGO	0.553	11.2609065058	43.1501921877	44.595370849	0.678
0.795300349954	0.411168464604	CrowdGO	0.553	11.1519630973	43.2191848586	44.6347871146	0.679
0.797193646137	0.410648895685	CrowdGO	0.553	11.0825116804	43.2272743902	44.6253214706	0.68
0.798265212623	0.41007587843	CrowdGO	0.553	11.0087038284	43.2657069345	44.6442936613	0.681
0.798378573805	0.41005863705	CrowdGO	0.553	10.9983867466	43.2682785934	44.6442431167	0.682
0.799425397142	0.409614264756	CrowdGO	0.553	10.9348987787	43.2756872793	44.635827771	0.683
0.799937242904	0.409050186473	CrowdGO	0.553	10.9154140448	43.3075672959	44.6619709468	0.684
0.800389362267	0.409019883443	CrowdGO	0.553	10.9120548401	43.3090998907	44.6626362207	0.685
0.801525195336	0.408536946275	CrowdGO	0.553	10.9004810475	43.3728024338	44.7215885008	0.686
0.801539139744	0.408256946275	CrowdGO	0.553	10.8966991377	43.3935375907	44.7407773372	0.687
0.800987944767	0.407856669849	CrowdGO	0.553	10.8907297758	43.4194361497	44.764443821	0.688
0.800978007237	0.407141212251	CrowdGO	0.553	10.8661631233	43.4548358424	44.7928148157	0.689
0.801287459658	0.407136212251	CrowdGO	0.553	10.8527237998	43.4578679114	44.7924982254	0.69
0.801325840635	0.406723986438	CrowdGO	0.553	10.8414162349	43.4684660078	44.8000428912	0.691
0.801730247017	0.406697670649	CrowdGO	0.553	10.8348238595	43.4711963157	44.8010972765	0.692
0.801788007992	0.406654514589	CrowdGO	0.553	10.8342658206	43.4751135592	44.8047633055	0.693
0.801542148607	0.405788713723	CrowdGO	0.553	10.8290550789	43.5133125223	44.8405709215	0.694
0.801523930164	0.405537733331	CrowdGO	0.553	10.7881862247	43.5234901985	44.8405972427	0.695
0.801432617406	0.404601392841	CrowdGO	0.553	10.7801833112	43.5731666256	44.8868934323	0.696
0.801787854115	0.404447546687	CrowdGO	0.553	10.7666695938	43.5783435874	44.8886756762	0.697
0.802190830926	0.404417243657	CrowdGO	0.553	10.7545320302	43.5792589173	44.8866546645	0.698
0.801733521217	0.403622463284	CrowdGO	0.553	10.7381902923	43.5982727236	44.9012039397	0.699
0.801867685355	0.402144459126	CrowdGO	0.553	10.7034995697	43.6910128705	44.9829913266	0.7
0.803110648407	0.401713898487	CrowdGO	0.553	10.6709780896	43.712268785	44.9959133225	0.701
0.803054931779	0.401413898487	CrowdGO	0.553	10.6491589103	43.7248326541	45.0029507491	0.702
0.802944997759	0.401380565154	CrowdGO	0.553	10.6436230564	43.727562962	45.0042939547	0.703
0.804075432892	0.400905357929	CrowdGO	0.553	10.576551611	43.7725520586	45.0322080038	0.704
0.804509783411	0.400905357929	CrowdGO	0.553	10.5535195439	43.7725520586	45.0268041114	0.705
0.804988072619	0.400863691262	CrowdGO	0.553	10.5518454273	43.7731100974	45.0269542555	0.706
0.8049708727	0.400180663402	CrowdGO	0.553	10.5446938117	43.8818731699	45.1310243678	0.707
0.805238676113	0.400108893067	CrowdGO	0.553	10.5343345543	43.8897971387	45.1363101879	0.708
0.805367986702	0.400100828551	CrowdGO	0.553	10.5332184766	43.8923687976	45.138550377	0.709
0.805972685225	0.399850828551	CrowdGO	0.553	10.5022195377	43.9054583628	45.1440570759	0.71
0.805383200743	0.398520844528	CrowdGO	0.553	10.4874922149	44.1525658687	45.3810154773	0.711
0.805250399889	0.398429935438	CrowdGO	0.553	10.4760147026	44.1531239075	45.3789073782	0.712
0.805626925545	0.398299593557	CrowdGO	0.553	10.4476839763	44.1773405025	45.3959416065	0.713
0.805805342742	0.397746419658	CrowdGO	0.553	10.4207801691	44.196808848	45.4087059018	0.714
0.80651236166	0.397626049288	CrowdGO	0.553	10.3911010768	44.1984013583	45.4034543203	0.715
0.807204801294	0.397534919697	CrowdGO	0.553	10.3592451695	44.2047316487	45.4023376118	0.716
0.807378588757	0.397445793137	CrowdGO	0.553	10.3461662975	44.2077968384	45.4023397895	0.717
0.807789033079	0.397112459804	CrowdGO	0.553	10.3124478802	44.2098657815	45.396682849	0.718
0.808931055931	0.396662169949	CrowdGO	0.553	10.2938293119	44.2312006708	45.4132363379	0.719
0.811602865845	0.396457513086	CrowdGO	0.553	10.2694009493	44.2338493433	45.4102854383	0.72
0.811638875777	0.396376316505	CrowdGO	0.553	10.2569133087	44.2349654211	45.4085502568	0.721
0.811844177967	0.396376316505	CrowdGO	0.553	10.2335411109	44.2349654211	45.403276638	0.722
0.811950737458	0.396376316505	CrowdGO	0.553	10.2291048379	44.2349654211	45.4022769428	0.723
0.813404957333	0.396219570473	CrowdGO	0.553	10.1980035127	44.2406990328	45.4008670243	0.724
0.813737117686	0.396083605561	CrowdGO	0.553	10.18739871	44.2450389814	45.4027154138	0.725
0.815476967096	0.395809358069	CrowdGO	0.553	10.1463384331	44.2556922538	45.403903802	0.726
0.815865872129	0.395783717043	CrowdGO	0.553	10.1341089839	44.257398219	45.4028353962	0.727
0.815329312492	0.395658508013	CrowdGO	0.553	10.1280146865	44.2590723356	45.4031074432	0.728
0.814843657904	0.395188659587	CrowdGO	0.553	10.1125756501	44.2920417636	45.4318076888	0.729
0.814756570212	0.395029019396	CrowdGO	0.553	10.103064762	44.3212706666	45.4581890432	0.73
0.815354508138	0.394815961282	CrowdGO	0.553	10.0725837134	44.3292735801	45.4592283129	0.731
0.815354508138	0.394508538722	CrowdGO	0.553	10.0725837134	44.376760023	45.5055356281	0.732
0.814560583152	0.393323694372	CrowdGO	0.553	10.0553719889	44.4449423851	45.5682280702	0.733
0.814565896958	0.392812505561	CrowdGO	0.553	10.01781827	44.4527083622	45.5675319018	0.734
0.8137050612	0.391622751058	CrowdGO	0.553	10.0063765732	44.5669703739	45.6764974624	0.735
0.814151592012	0.391325291165	CrowdGO	0.553	9.96836063798	44.5918183154	45.6924334489	0.736
0.813928950388	0.390771012352	CrowdGO	0.553	9.96521149761	44.6340186717	45.7329319307	0.737
0.815634710768	0.39034863064	CrowdGO	0.553	9.9283195654	44.6455515802	45.7361651791	0.738
0.815178740495	0.389711529191	CrowdGO	0.553	9.89758186642	44.7100655384	45.7924894197	0.739
0.815811171692	0.389578195857	CrowdGO	0.553	9.88335281606	44.7115389073	45.790854702	0.74
0.816311512647	0.388973067652	CrowdGO	0.553	9.85029448673	44.7397291569	45.8112613503	0.741
0.81619802624	0.388767156322	CrowdGO	0.553	9.73453006063	44.7570038623	45.8033892876	0.742
0.816446267222	0.388386203941	CrowdGO	0.553	9.70288297241	44.7810229937	45.8201479519	0.743
0.816446267222	0.388386203941	CrowdGO	0.553	9.69185169817	44.7810229937	45.8178132357	0.744
0.816859750642	0.388350648386	CrowdGO	0.553	9.67811070438	44.8004760681	45.8339228382	0.745
0.817127459375	0.38829509283	CrowdGO	0.553	9.66011311122	44.802008663	45.8316240773	0.746
0.818529199389	0.386836070092	CrowdGO	0.553	9.57605153659	44.9305293789	45.9396694949	0.747
0.818681077531	0.386777246563	CrowdGO	0.553	9.56217370884	44.9332596868	45.9394491926	0.748
0.818680512092	0.386692101635	CrowdGO	0.553	9.56217370884	44.9601132834	45.9657149678	0.749
0.81881619918	0.386555772618	CrowdGO	0.553	9.55950100113	44.9864084841	45.9908796142	0.75
0.818896892426	0.386555772618	CrowdGO	0.553	9.54117429652	44.9864084841	45.9870737844	0.751
0.81887465711	0.385863108052	CrowdGO	0.553	9.54117429652	45.175641056	46.172205403	0.752
0.819065853506	0.385863108052	CrowdGO	0.553	9.53223124861	45.175641056	46.1703582117	0.753
0.819955120692	0.385597523636	CrowdGO	0.553	9.52919917967	45.200252085	46.1938137151	0.754
0.820024960897	0.385570496609	CrowdGO	0.553	9.5282838497	45.2039892915	46.1972817489	0.755
0.820844668154	0.38507808912	CrowdGO	0.553	9.47802638713	45.216362572	46.1990522461	0.756
0.821689409304	0.384484058651	CrowdGO	0.553	9.47375894175	45.3432758816	46.3224003714	0.757
0.821715902053	0.384381706735	CrowdGO	0.553	9.47284361178	45.3610857107	46.3396467719	0.758
0.82286374411	0.384358450921	CrowdGO	0.553	9.46159858542	45.3651859778	46.3413632362	0.759
0.823151259965	0.384179942149	CrowdGO	0.553	9.44135430008	45.4462640757	46.4166143688	0.76
0.826272807174	0.382716341773	CrowdGO	0.553	9.42542982474	45.5008551135	46.4668327244	0.761
0.826396752627	0.381824043557	CrowdGO	0.553	9.42172430048	45.6356143031	46.5980491181	0.762
0.826663233096	0.38147110238	CrowdGO	0.553	9.41780705689	45.6495298037	46.6108856499	0.763
0.827241794948	0.380753455321	CrowdGO	0.553	9.39289086893	45.6588589491	46.614995435	0.764
0.826798287119	0.38068235975	CrowdGO	0.553	9.38859562354	45.6608903568	46.6161199153	0.765
0.827512210156	0.380634952343	CrowdGO	0.553	9.37083210361	45.6658007935	46.6173557425	0.766
0.828717442581	0.380493538202	CrowdGO	0.553	9.36235009601	45.6694195324	46.6191964725	0.767
0.827836080461	0.380148184028	CrowdGO	0.553	9.35163255048	45.6979012884	46.6449484245	0.768
0.828122641362	0.379906517361	CrowdGO	0.553	9.3113258925	45.7054548983	46.6442857951	0.769
0.828969336943	0.379578973937	CrowdGO	0.553	9.28145081625	45.7260030818	46.6584685464	0.77
0.829085994876	0.37956488943	CrowdGO	0.553	9.27526911806	45.7297849916	46.660945689	0.771
0.829267582514	0.379333796993	CrowdGO	0.553	9.26237274193	45.7468136937	46.6750737754	0.772
0.829061571214	0.3788636335	CrowdGO	0.553	9.25880873938	45.7879714969	46.7147072459	0.773
0.832184332682	0.37864913745	CrowdGO	0.553	9.11952714776	45.803013139	46.7020533597	0.774
0.832288458706	0.378617766794	CrowdGO	0.553	9.10400835403	45.8119565941	46.7077973693	0.775
0.832550528006	0.378551100127	CrowdGO	0.553	9.07732783733	45.8160795549	46.7066486322	0.776
0.83201220286	0.3783519787	CrowdGO	0.553	9.048770798	45.8223122476	46.707221633	0.777
0.833416340172	0.378185312034	CrowdGO	0.553	9.00462872327	45.8240182128	46.7003638488	0.778
0.836004650682	0.376940867589	CrowdGO	0.553	8.97278984471	45.838643425	46.7085879539	0.779
0.836004650682	0.376940867589	CrowdGO	0.553	8.97278984471	45.838643425	46.7085879539	0.78
0.837221325659	0.376907241858	CrowdGO	0.553	8.95489410957	45.8443439119	46.7107481981	0.781
0.83712032934	0.376348858274	CrowdGO	0.553	8.92830481816	45.8736563088	46.7344302422	0.782
0.837820432794	0.376233889622	CrowdGO	0.553	8.90943039273	45.8864585361	46.7433955432	0.783
0.83855068566	0.376163692577	CrowdGO	0.553	8.86851947456	45.8875746138	46.7367108557	0.784
0.838387664075	0.375163692577	CrowdGO	0.553	8.85855928852	45.9406922617	46.7869776557	0.785
0.837697144694	0.374954043455	CrowdGO	0.553	8.81353119082	45.9438989732	46.7816222988	0.786
0.838255939879	0.374910565194	CrowdGO	0.553	8.77650727586	45.9489365017	46.7796092929	0.787
0.838503116957	0.374672469956	CrowdGO	0.553	8.77340386132	45.9714296877	46.8011213845	0.788
0.838420600123	0.374192055209	CrowdGO	0.553	8.75862569232	46.0014998077	46.8278924209	0.789
0.838765655637	0.373785771787	CrowdGO	0.553	8.75146070692	46.029308077	46.8538714148	0.79
0.838976093347	0.373476864592	CrowdGO	0.553	8.74810150218	46.0430696591	46.8667637407	0.791
0.838400475528	0.373141050809	CrowdGO	0.553	8.74698542447	46.0851443009	46.9078914389	0.792
0.838569345443	0.373073234717	CrowdGO	0.553	8.73079603123	46.0884326475	46.9081061571	0.793
0.839726624856	0.372541781647	CrowdGO	0.553	8.62785753816	46.1767095991	46.9758282003	0.794
0.83952156751	0.372007059424	CrowdGO	0.553	8.59897697435	46.2542354439	47.0467501694	0.795
0.839897563133	0.371913011805	CrowdGO	0.553	8.57408731298	46.2801900678	47.0677274357	0.796
0.839889205032	0.371550890593	CrowdGO	0.553	8.57093768374	46.3464743303	47.1323313197	0.797
0.839521754721	0.371189779482	CrowdGO	0.553	8.55743265178	46.3633518008	47.1464743517	0.798
0.840191498329	0.371032203724	CrowdGO	0.553	8.50986657528	46.3664722482	47.140933146	0.799
0.840215218056	0.370711607242	CrowdGO	0.553	8.49942287832	46.4323004462	47.2037997834	0.8
0.840215218056	0.370691607242	CrowdGO	0.553	8.49003817689	46.4495803927	47.2191091286	0.801
0.841196067287	0.370615457817	CrowdGO	0.553	8.48486624181	46.4520283175	47.2205875647	0.802
0.840141592585	0.370281868074	CrowdGO	0.553	8.47091895009	46.4562918806	47.2222778269	0.803
0.840141592585	0.370271767063	CrowdGO	0.553	8.46944558126	46.4612534774	47.2268947015	0.804
0.84119142444	0.369929376658	CrowdGO	0.553	8.44609784926	46.484972211	47.2460496797	0.805
0.841128282247	0.368977568985	CrowdGO	0.553	8.39653357455	46.528766661	47.2803120026	0.806
0.842187014963	0.368720256732	CrowdGO	0.553	8.34137193706	46.5638148425	47.3050455922	0.807
0.842118231894	0.368270256732	CrowdGO	0.553	8.33801273232	46.5997657051	47.3398417836	0.808
0.842277706338	0.368165605569	CrowdGO	0.553	8.33106745845	46.6217308819	47.3602415051	0.809
0.84267722994	0.367895750294	CrowdGO	0.553	8.32600573909	46.6838576633	47.4205117844	0.81
0.844322398959	0.367775750294	CrowdGO	0.553	8.30828219622	46.6883590456	47.4218348804	0.811
0.844804509239	0.367532934202	CrowdGO	0.553	8.29127645937	46.7041397235	47.4343960923	0.812
0.844532795779	0.366813116428	CrowdGO	0.553	8.27116609604	46.7888759542	47.5143252256	0.813
0.844239359996	0.366338634027	CrowdGO	0.553	8.25331912941	46.8471717001	47.5686322376	0.814
0.843958141254	0.366138784856	CrowdGO	0.553	8.23912417961	46.8555818455	47.5744544617	0.815
0.843385254423	0.365024499142	CrowdGO	0.553	8.23912417961	46.8900086169	47.6083614015	0.816
0.844328962077	0.364857832475	CrowdGO	0.553	8.23609211067	46.8915412118	47.6093462512	0.817
0.847541087789	0.364078388353	CrowdGO	0.553	8.20278160144	46.9354948697	47.6468918679	0.818
0.847727768952	0.36368553121	CrowdGO	0.553	8.1940110736	46.979290152	47.6885260903	0.819
0.848292237443	0.36368553121	CrowdGO	0.553	8.1676387201	46.979290152	47.6840017768	0.82
0.848711581108	0.363594622119	CrowdGO	0.553	8.14191642014	46.9820204599	47.6822928296	0.821
0.851030126713	0.362897559691	CrowdGO	0.553	8.09745026	47.0022132907	47.6946197693	0.822
0.850382819585	0.362288751814	CrowdGO	0.553	8.0842279434	47.0421802089	47.7317657357	0.823
0.85028042536	0.36119266987	CrowdGO	0.553	8.047546302	47.0906755802	47.773368398	0.824
0.851316701902	0.361099964703	CrowdGO	0.553	7.99336306159	47.0930642791	47.7666259665	0.825
0.852178252855	0.360407657011	CrowdGO	0.553	7.97570973645	47.098711156	47.7692425977	0.826
0.853081224184	0.360328181978	CrowdGO	0.553	7.96074995531	47.1076337246	47.775544947	0.827
0.853966602534	0.360160273076	CrowdGO	0.553	7.93372009951	47.1284932179	47.7916183824	0.828
0.855353167083	0.359323260813	CrowdGO	0.553	7.91220724992	47.154183249	47.813387471	0.829
0.855695677031	0.358323260813	CrowdGO	0.553	7.89847998471	47.1641947389	47.8209917446	0.83
0.85673420829	0.358269206758	CrowdGO	0.553	7.87936628898	47.1656681077	47.8192917259	0.831
0.857547162274	0.356951442208	CrowdGO	0.553	7.85776244152	47.2640097134	47.9127440748	0.832
0.859082529409	0.356512226522	CrowdGO	0.553	7.83033783839	47.2732276465	47.9173480358	0.833
0.859191448351	0.355340351522	CrowdGO	0.553	7.77078120549	47.3545450504	47.9878940721	0.834
0.861208568651	0.355253395	CrowdGO	0.553	7.7060072009	47.3593502347	47.982190463	0.835
0.862338814928	0.354959708364	CrowdGO	0.553	7.68558673488	47.4658108809	48.0840040558	0.836
0.862668899184	0.354607506425	CrowdGO	0.553	7.67514303792	47.5269003535	48.1426430295	0.837
0.863292958982	0.354567506425	CrowdGO	0.553	7.6402086752	47.5278156835	48.1379896988	0.838
0.864461002266	0.354210363568	CrowdGO	0.553	7.51065990487	47.539665116	48.129302629	0.839
0.86478114569	0.353477030234	CrowdGO	0.553	7.48490236379	47.5708028448	48.1560489108	0.84
0.866619742025	0.353421474679	CrowdGO	0.553	7.46699141524	47.5713608837	48.1538195486	0.841
0.866619742025	0.353421474679	CrowdGO	0.553	7.46190257715	47.5713608837	48.1530307083	0.842
0.866999050064	0.352398595348	CrowdGO	0.553	7.44243559978	47.6305410687	48.2084877397	0.843
0.866697882913	0.35223585025	CrowdGO	0.553	7.43736347923	47.6363997971	48.2134935588	0.844
0.866825306765	0.352207681236	CrowdGO	0.553	7.3867172068	47.6455475962	48.2147466739	0.845
0.866703470929	0.351321419486	CrowdGO	0.553	7.36744504554	47.6944508231	48.2601272876	0.846
0.868014509388	0.350208721073	CrowdGO	0.553	7.36535890155	47.7262387165	48.2912246042	0.847
0.867908419882	0.34816586216	CrowdGO	0.553	7.33622358683	47.9516186677	48.5095651328	0.848
0.868364090154	0.347731449489	CrowdGO	0.553	7.3230205707	47.9736791696	48.5293779411	0.849
0.870158909229	0.347444629498	CrowdGO	0.553	7.31581093036	47.9813893028	48.53591257	0.85
0.871109798844	0.347379769071	CrowdGO	0.553	7.29551603903	47.986692327	48.5381004445	0.851
0.873349806118	0.347134769071	CrowdGO	0.553	7.17723126677	47.9963449249	48.5300090131	0.852
0.875392797554	0.346434204909	CrowdGO	0.553	7.10884774795	48.0328899787	48.5560937062	0.853
0.87757977104	0.346354727114	CrowdGO	0.553	7.06082614354	48.0400943356	48.5562141194	0.854
0.87848502533	0.346020355751	CrowdGO	0.553	7.02863333498	48.0577376602	48.5690007677	0.855
0.879245676472	0.345798133529	CrowdGO	0.553	7.00477116021	48.0665643228	48.5742876922	0.856
0.880964647106	0.34514550195	CrowdGO	0.553	6.88241722799	48.0776169821	48.5677353968	0.857
0.88117865857	0.34514550195	CrowdGO	0.553	6.8726597412	48.0776169821	48.5663536473	0.858
0.881423852325	0.344376874499	CrowdGO	0.553	6.8696537775	48.1030129341	48.5910691008	0.859
0.881746373857	0.343452588784	CrowdGO	0.553	6.8295481891	48.2344437313	48.7155446498	0.86
0.882596378266	0.342227845291	CrowdGO	0.553	6.8164592418	48.3200397597	48.7984667687	0.861
0.882955104823	0.341935517249	CrowdGO	0.553	6.80047384604	48.3652011475	48.8409574698	0.862
0.884456321152	0.341097170334	CrowdGO	0.553	6.75616626502	48.493876337	48.962248976	0.863
0.885650626635	0.338913311237	CrowdGO	0.553	6.73122112156	48.5970077141	49.0609671383	0.864
0.885598117323	0.33878173229	CrowdGO	0.553	6.70147376526	48.6311818797	49.090748636	0.865
0.885018100512	0.338325824144	CrowdGO	0.553	6.69610927128	48.6674009881	49.1258974301	0.866
0.885130295743	0.338295521114	CrowdGO	0.553	6.68948783833	48.6704330571	49.1279991604	0.867
0.885507207139	0.338266949685	CrowdGO	0.553	6.61309850453	48.671965652	49.1191745885	0.868
0.885846646633	0.338200283018	CrowdGO	0.553	6.60727066427	48.6734982468	49.1199089699	0.869
0.88566056759	0.337933616352	CrowdGO	0.553	6.58588390491	48.6896183591	49.1330113342	0.87
0.886189064195	0.337835997304	CrowdGO	0.553	6.56434007257	48.6935094843	49.1339844353	0.871
0.888018390367	0.335955997304	CrowdGO	0.553	6.53183995206	48.7193318586	49.1552462094	0.872
0.889571470951	0.333599496815	CrowdGO	0.553	6.4555509754	48.900948049	49.3252152401	0.873
0.890257664969	0.332182676818	CrowdGO	0.553	6.42518211705	48.9848266742	49.404414879	0.874
0.892347931293	0.33110165845	CrowdGO	0.553	6.31590973249	49.0318999303	49.4370096842	0.875
0.893793428603	0.330577220899	CrowdGO	0.553	6.28182347991	49.0440540519	49.4447221054	0.876
0.893910146934	0.330392841389	CrowdGO	0.553	6.20720753621	49.0763778246	49.4673658666	0.877
0.893971124882	0.329874219709	CrowdGO	0.553	6.19276695735	49.0942170552	49.4832548531	0.878
0.894867909469	0.329635525071	CrowdGO	0.553	6.1828307055	49.1044828551	49.4921976881	0.879
0.894474220936	0.328748734339	CrowdGO	0.553	6.17785602777	49.144096885	49.5308809102	0.88
0.895808499849	0.327907952563	CrowdGO	0.553	6.14748682803	49.1900925939	49.5727425476	0.881
0.89560339847	0.327752000182	CrowdGO	0.553	6.14748682803	49.2010786397	49.5836438114	0.882
0.895846421498	0.327531899172	CrowdGO	0.553	6.13030615363	49.2823032052	49.6621189917	0.883
0.897272333607	0.327059636074	CrowdGO	0.553	6.10550852604	49.3076910264	49.6842593657	0.884
0.90059035194	0.326498876395	CrowdGO	0.553	6.04008954987	49.3554564355	49.723674057	0.885
0.902590866109	0.326013708931	CrowdGO	0.553	6.03239558313	49.4070089031	49.7739120949	0.886
0.902786714317	0.325456406671	CrowdGO	0.553	5.98841522073	49.4648899722	49.826062024	0.887
0.905745355602	0.324596062895	CrowdGO	0.553	5.96923637101	49.4922676759	49.8509412404	0.888
0.906285390164	0.324082269791	CrowdGO	0.553	5.95970924396	49.6008477908	49.9576043845	0.889
0.905546085574	0.322314123608	CrowdGO	0.553	5.94496690397	49.7207400454	50.0748901362	0.89
0.910490359272	0.319950370694	CrowdGO	0.553	5.89012168073	49.7440084319	50.0915153323	0.891
0.910490359272	0.318964259583	CrowdGO	0.553	5.89012168073	49.8045563437	50.151643702	0.892
0.911764014881	0.31831722859	CrowdGO	0.553	5.87232703187	49.8299322024	50.1747582761	0.893
0.911364858433	0.317758338471	CrowdGO	0.553	5.83761445457	49.8584618828	50.1990434554	0.894
0.912320965291	0.316230259107	CrowdGO	0.553	5.79846244598	49.9093813327	50.2450844536	0.895
0.912839223305	0.315948001042	CrowdGO	0.553	5.79389778217	49.9205665255	50.2556684737	0.896
0.913421560647	0.315928770273	CrowdGO	0.553	5.73205860697	49.9220991204	50.2500992682	0.897
0.914801438762	0.315807216388	CrowdGO	0.553	5.69523060501	49.9385027184	50.2622095157	0.898
0.916818265759	0.312849759153	CrowdGO	0.553	5.68693505548	50.1367823055	50.4582814836	0.899
0.91801502298	0.312667443034	CrowdGO	0.553	5.5690637497	50.1659590389	50.4741311697	0.9
0.918208197292	0.31164208904	CrowdGO	0.553	5.54330778494	50.2316272525	50.5365673313	0.901
0.918119977351	0.310946524524	CrowdGO	0.553	5.53724364706	50.2892536931	50.5931823887	0.902
0.918291492769	0.310722877801	CrowdGO	0.553	5.51803227047	50.3045202073	50.6062588365	0.903
0.919622940328	0.310456645377	CrowdGO	0.553	5.50626354159	50.3116258323	50.6120403864	0.904
0.918911194337	0.308954676431	CrowdGO	0.553	5.50267343379	50.4030780367	50.7025609856	0.905
0.920719767681	0.308149651178	CrowdGO	0.553	5.47698439522	50.5251235745	50.8211124464	0.906
0.920903321278	0.307718882698	CrowdGO	0.553	5.47189228753	50.5735212082	50.8686804685	0.907
0.920745570727	0.307101423322	CrowdGO	0.553	5.41240934427	50.6435224945	50.9319206938	0.908
0.920704830083	0.305904953125	CrowdGO	0.553	5.40428843723	50.7362731925	51.0232863601	0.909
0.921059420033	0.305395892218	CrowdGO	0.553	5.39263739223	50.7601449888	51.045791769	0.91
0.921304623414	0.304853191307	CrowdGO	0.553	5.3911640234	50.8647876336	51.1496947257	0.911
0.924034375734	0.302452702906	CrowdGO	0.553	5.28978572615	50.9624591073	51.2362573896	0.912
0.923863281986	0.302092787967	CrowdGO	0.553	5.28469688806	50.9811988408	51.2543720715	0.913
0.923394232967	0.301516371705	CrowdGO	0.553	5.28316429319	51.0982126932	51.3706060445	0.914
0.923612711419	0.301355081382	CrowdGO	0.553	5.27887595361	51.1295448236	51.4013315508	0.915
0.923556649325	0.300847182492	CrowdGO	0.553	5.26652172521	51.1937028924	51.463885074	0.916
0.923371226447	0.29988225825	CrowdGO	0.553	5.24582836666	51.3067165036	51.5741977508	0.917
0.924551710458	0.297996305869	CrowdGO	0.553	5.22294849381	51.462861422	51.7272200752	0.918
0.924207982487	0.297737972536	CrowdGO	0.553	5.20953102626	51.4730390982	51.7359929596	0.919
0.924087609235	0.295821751082	CrowdGO	0.553	5.19817388764	51.5987935876	51.8599702224	0.92
0.925296670098	0.295382139921	CrowdGO	0.553	5.19538369335	51.6115287394	51.8723617212	0.921
0.926805831528	0.294320870362	CrowdGO	0.553	5.16490338462	51.6683369419	51.9258439441	0.922
0.926635215751	0.293892481259	CrowdGO	0.553	5.16490338462	51.7459196029	52.0030424352	0.923
0.926300831207	0.293136313553	CrowdGO	0.553	5.15083160274	51.8226043276	52.0779548897	0.924
0.926127828463	0.292588630242	CrowdGO	0.553	5.15083160274	51.8586590702	52.1138329693	0.925
0.926127828463	0.292291557642	CrowdGO	0.553	5.15083160274	51.9071948316	52.1621312974	0.926
0.926383226337	0.292151204279	CrowdGO	0.553	5.08859874346	51.9177442853	52.1665219163	0.927
0.926035156485	0.291929852833	CrowdGO	0.553	5.0838816829	51.9375872174	52.1858105133	0.928
0.927437720824	0.291006348036	CrowdGO	0.553	5.07308662971	52.0120938591	52.258914221	0.929
0.927261386462	0.288424443274	CrowdGO	0.553	5.02418035852	52.1684226905	52.4097959764	0.93
0.927500310016	0.287778609941	CrowdGO	0.553	5.00675939904	52.2029794179	52.4425275877	0.931
0.928828435762	0.287005237998	CrowdGO	0.553	4.98934276931	52.2584697025	52.4961064929	0.932
0.929362960484	0.285622125338	CrowdGO	0.553	4.97002875095	52.4300504166	52.6650868458	0.933
0.92919192649	0.285450330466	CrowdGO	0.553	4.97002875095	52.4346482012	52.6696641129	0.934
0.927961380118	0.28252631934	CrowdGO	0.553	4.95466871861	52.6352236607	52.8679062562	0.935
0.928040572649	0.281137798543	CrowdGO	0.553	4.92918687961	52.7553021334	52.9850807915	0.936
0.927682565548	0.279471131877	CrowdGO	0.553	4.92918687961	52.8614692643	53.0907884296	0.937
0.930737107351	0.278586516492	CrowdGO	0.553	4.74855513339	53.0181750679	53.2304016835	0.938
0.930833568118	0.278586516492	CrowdGO	0.553	4.63352624759	53.0181750679	53.2202635565	0.939
0.930404342254	0.278208903493	CrowdGO	0.553	4.63352624759	53.0854415438	53.2872749293	0.94
0.930226945552	0.277500485217	CrowdGO	0.553	4.63116771731	53.2643454725	53.4652991485	0.941
0.933779416939	0.276743229974	CrowdGO	0.553	4.40408166786	53.3216256071	53.5031932946	0.942
0.934746104434	0.276105391371	CrowdGO	0.553	4.40260829903	53.3613186194	53.5426305352	0.943
0.934753368039	0.274831718236	CrowdGO	0.553	4.39544888075	53.4627286178	53.6431106679	0.944
0.934050181578	0.272767607514	CrowdGO	0.553	4.3948908419	53.6626893192	53.842355915	0.945
0.935403749275	0.272074323057	CrowdGO	0.553	4.30762723107	53.747567811	53.9199100329	0.946
0.936913408572	0.2715392549	CrowdGO	0.553	4.28133157664	53.8015284379	53.9716060751	0.947
0.938712192013	0.270791279347	CrowdGO	0.553	4.1904459724	53.9392097353	54.1017391986	0.948
0.938551331624	0.270451199982	CrowdGO	0.553	4.1693901968	53.9553937083	54.1162482516	0.949
0.938551331624	0.270117866649	CrowdGO	0.553	4.1693901968	53.9600697489	54.1209103944	0.95
0.940388190018	0.267659774681	CrowdGO	0.553	4.04861115697	54.1340356597	54.2852196192	0.951
0.940229225192	0.267576441348	CrowdGO	0.553	4.04861115697	54.1391244978	54.2902942863	0.952
0.940004422169	0.266355012777	CrowdGO	0.553	4.0402575365	54.2330467482	54.3833342169	0.953
0.941476467879	0.265603227062	CrowdGO	0.553	3.95396413731	54.2871984367	54.4309998669	0.954
0.940831178508	0.26365978304	CrowdGO	0.553	3.93958250177	54.4003392105	54.5428016929	0.955
0.943330809819	0.263530508074	CrowdGO	0.553	3.83797082253	54.4118488462	54.5470376363	0.956
0.942975738526	0.262468935407	CrowdGO	0.553	3.83797082253	54.4316938755	54.5668334997	0.957
0.942975738526	0.262333800272	CrowdGO	0.553	3.82420924048	54.4442577446	54.578400285	0.958
0.942963699953	0.261041447139	CrowdGO	0.553	3.73079710139	54.6070886274	54.7343856764	0.959
0.942669160044	0.260816560658	CrowdGO	0.553	3.64933160453	54.651684884	54.7733902714	0.96
0.943168660543	0.260588689845	CrowdGO	0.553	3.63331167086	54.7237957182	54.8442774728	0.961
0.943648312327	0.258529642075	CrowdGO	0.553	3.59747695417	54.8214061738	54.9393157521	0.962
0.943379222362	0.257509818672	CrowdGO	0.553	3.57357602298	54.9479663425	55.0640486231	0.963
0.943745953543	0.257432148769	CrowdGO	0.553	3.56188225335	54.9642286439	55.0795192027	0.964
0.943268825691	0.255282634095	CrowdGO	0.553	3.54461267836	55.2390368629	55.3526464822	0.965
0.945780263797	0.254307017848	CrowdGO	0.553	3.48430127955	55.3758444227	55.4853539318	0.966
0.947475387147	0.252014234343	CrowdGO	0.553	3.46296893615	55.4778955271	55.5858709203	0.967
0.950104229497	0.250266759596	CrowdGO	0.553	3.38705504293	55.566602581	55.6697356223	0.968
0.949960437651	0.2492596994	CrowdGO	0.553	3.3840839573	55.7124678559	55.8151511583	0.969
0.949815814639	0.247945014085	CrowdGO	0.553	3.1720820269	55.7622983702	55.8524486832	0.97
0.949670353232	0.246078514294	CrowdGO	0.553	3.1720820269	55.8756887448	55.9656564073	0.971
0.948724726022	0.242002520217	CrowdGO	0.553	3.1720820269	56.19403324	56.2834920395	0.972
0.948491166087	0.241864760081	CrowdGO	0.553	3.1720820269	56.2201555689	56.309572868	0.973
0.948401828576	0.241736319715	CrowdGO	0.553	3.1720820269	56.287898219	56.3772080746	0.974
0.950718676165	0.239051818256	CrowdGO	0.553	3.14570192606	56.625464784	56.7127737164	0.975
0.950570684201	0.238591800041	CrowdGO	0.553	3.14570192606	56.6905408632	56.7777497262	0.976
0.948987851111	0.234449451065	CrowdGO	0.553	3.12912504158	56.9864008834	57.0722464002	0.977
0.948495538358	0.233188344176	CrowdGO	0.553	3.07744938423	57.2284393071	57.3111242276	0.978
0.947738929465	0.229570982668	CrowdGO	0.553	3.07467089682	57.3683517869	57.4506865744	0.979
0.946735698499	0.226712362087	CrowdGO	0.553	3.06028926128	57.5963286209	57.6775731196	0.98
0.946163624563	0.225266829982	CrowdGO	0.553	3.04610530901	57.7067088698	57.7870487751	0.981
0.945666458017	0.223258496649	CrowdGO	0.553	3.04340257495	57.7810045609	57.8610990848	0.982
0.945129352379	0.220849572238	CrowdGO	0.553	3.04131643096	58.0091375428	58.0888082516	0.983
0.944782495397	0.219061640399	CrowdGO	0.553	2.99692252892	58.1258303047	58.2030385225	0.984
0.944232007925	0.214149681568	CrowdGO	0.553	2.98778448693	58.436761654	58.513092285	0.985
0.943473259733	0.2129921276	CrowdGO	0.553	2.9863111181	58.5569716574	58.6330707347	0.986
0.945882470759	0.210542921251	CrowdGO	0.553	2.81527020695	58.8013816069	58.8687372484	0.987
0.945461196639	0.208435189681	CrowdGO	0.553	2.77855687866	58.9461020383	59.0115524608	0.988
0.949590443535	0.20588798871	CrowdGO	0.553	2.61284825826	59.4606436877	59.5180235204	0.989
0.950320597784	0.204193525757	CrowdGO	0.553	2.55992233354	59.7098459779	59.7646961764	0.99
0.948640194916	0.196919083159	CrowdGO	0.553	2.54806390282	60.3859770427	60.4397125494	0.991
0.947175496461	0.191423412995	CrowdGO	0.553	2.524883976	60.9439664449	60.9962464839	0.992
0.946870778299	0.186494943904	CrowdGO	0.553	2.45942332615	61.440331952	61.489536943	0.993
0.94736216724	0.177357340883	CrowdGO	0.553	2.43211566027	62.164152357	62.2117113158	0.994
0.949517172047	0.172295001859	CrowdGO	0.553	2.28142146996	62.8860184727	62.9273883398	0.995
0.948727156514	0.166551448212	CrowdGO	0.553	2.26656303578	63.497239839	63.5376799637	0.996
0.952020935535	0.160581089124	CrowdGO	0.553	2.11902436967	64.2532859891	64.2882183971	0.997
0.951236417479	0.152763348151	CrowdGO	0.553	1.99475207496	65.3479451347	65.3783830419	0.998
0.949387957413	0.138679361644	CrowdGO	0.553	1.63714090826	67.2030724812	67.2230108018	0.999
