0.194580625235	0.632071161547	CrowdGO	0.0	389.694143799	41.0788325729	391.853284019	0.0
0.263775620146	0.526835228463	CrowdGO	0.01	139.640804073	51.0057822118	148.664535048	0.01
0.27954501293	0.501366571817	CrowdGO	0.02	117.275947707	53.1648282602	128.763919149	0.02
0.292089175687	0.478589338048	CrowdGO	0.03	102.221249167	54.927400023	116.04397035	0.03
0.306400047724	0.46079221927	CrowdGO	0.04	90.2456734788	56.2384802688	106.334605113	0.04
0.318303775667	0.445678869165	CrowdGO	0.05	80.7016822014	57.1307181992	98.8770978138	0.05
0.329477176908	0.429705790858	CrowdGO	0.06	73.0260741574	58.2114949453	93.3883592885	0.06
0.337049696545	0.415993319282	CrowdGO	0.06	67.2541508313	59.0743689179	89.5148136739	0.07
0.344040749537	0.401829554705	CrowdGO	0.06	63.0963896837	59.9296336891	87.0213501689	0.08
0.350725821018	0.390173405306	CrowdGO	0.06	58.8625863284	60.656569465	84.5223253852	0.09
0.356150604065	0.376508758723	CrowdGO	0.06	55.061971339	61.4700519501	82.5250748227	0.1
0.361387996085	0.364243306382	CrowdGO	0.06	52.1589962881	62.0402213294	81.0527603255	0.11
0.363770518409	0.350384864262	CrowdGO	0.06	49.242600595	62.8307895896	79.8282019953	0.12
0.366378599794	0.339463311997	CrowdGO	0.06	46.8513481845	63.5171635575	78.9270479183	0.13
0.370132283492	0.327601681917	CrowdGO	0.06	44.1976500583	64.2523503529	77.985875622	0.14
0.372153498835	0.317070157007	CrowdGO	0.06	42.1103056504	64.825583498	77.3022258271	0.15
0.375034346124	0.308333697147	CrowdGO	0.06	40.0493243824	65.2298533077	76.5433350856	0.16
0.377525632104	0.300529644442	CrowdGO	0.06	38.0721794951	65.6160217296	75.8614075742	0.17
0.381223167861	0.29246655343	CrowdGO	0.06	36.340508305	66.0045399128	75.3474076061	0.18
0.385375071619	0.286186402906	CrowdGO	0.06	34.6312299158	66.3105805911	74.8091918404	0.19
0.38667665034	0.276832584368	CrowdGO	0.06	33.0434155523	66.8316315328	74.5542372015	0.2
0.39029319836	0.272395556433	CrowdGO	0.06	31.9617625528	67.0703489248	74.2966080678	0.21
0.393148100411	0.266087567356	CrowdGO	0.06	30.6518166259	67.4324344601	74.072039797	0.22
0.393052435819	0.257124674099	CrowdGO	0.06	29.6436502621	67.8794698456	74.0700238111	0.23
0.39614415309	0.252475109514	CrowdGO	0.06	28.5097184162	68.0926954184	73.8201816139	0.24
0.397869650353	0.245231505193	CrowdGO	0.06	27.5007136717	68.4244607064	73.744125701	0.25
0.400994332548	0.238379642582	CrowdGO	0.06	26.4715206404	68.7676301632	73.6866905436	0.26
0.404012555053	0.232616259048	CrowdGO	0.06	25.6463828371	69.0205396616	73.6313238222	0.27
0.406970137649	0.227758597631	CrowdGO	0.06	24.7534489796	69.2373340819	73.5291892186	0.28
0.408428525458	0.223949377294	CrowdGO	0.06	24.0855907884	69.3987603167	73.4595372781	0.29
0.4133547386	0.22019274174	CrowdGO	0.06	23.1616292237	69.557144121	73.3120547152	0.3
0.418609689892	0.216016387335	CrowdGO	0.06	22.4848008264	69.7713936176	73.3049359563	0.31
0.421989193312	0.212359908031	CrowdGO	0.06	21.7685299785	69.9308371372	73.2406368087	0.32
0.425705445871	0.207518765771	CrowdGO	0.06	21.0266999771	70.1115014383	73.1966170383	0.33
0.429638267177	0.202496755166	CrowdGO	0.06	20.365374806	70.3324501048	73.2215953714	0.34
0.435641517218	0.198193576523	CrowdGO	0.06	19.8205940344	70.5369297891	73.268781974	0.35
0.439245489863	0.192702534115	CrowdGO	0.06	19.1480365242	70.7132122377	73.2598504483	0.36
0.444603832005	0.189064675523	CrowdGO	0.06	18.7309019015	70.8804331567	73.3135900807	0.37
0.44878092228	0.184141740767	CrowdGO	0.06	18.214042984	71.0539803631	73.3513427775	0.38
0.454596174446	0.180315278674	CrowdGO	0.06	17.732204271	71.1962963869	73.3712729038	0.39
0.460065710642	0.176453814135	CrowdGO	0.06	17.13882909	71.3266876377	73.3569071864	0.4
0.462871340794	0.171379677957	CrowdGO	0.06	16.6423863627	71.6857827875	73.5922582729	0.41
0.467513646556	0.168539486277	CrowdGO	0.06	16.2964608591	71.7825577815	73.6091722422	0.42
0.469230804834	0.164270372516	CrowdGO	0.06	16.0244280882	71.9785422048	73.7407135406	0.43
0.470805785257	0.160683532011	CrowdGO	0.06	15.5464072066	72.1318633967	73.788186684	0.44
0.476695050457	0.155311136364	CrowdGO	0.06	15.1533095127	72.3022786095	73.8731499349	0.45
0.489745469055	0.151975086681	CrowdGO	0.06	14.6270570563	72.4259049364	73.888175671	0.46
0.494737341714	0.147615200424	CrowdGO	0.06	14.1650157888	72.5813847388	73.9506935931	0.47
0.500066396575	0.145042268052	CrowdGO	0.06	13.6956848939	72.6709648207	73.9502597202	0.48
0.508744693827	0.140593268955	CrowdGO	0.06	13.2925524913	72.869574774	74.0720384455	0.49
0.516139280678	0.134898027217	CrowdGO	0.06	12.9612020684	73.0251070708	74.1664278616	0.5
0.53201108238	0.130813472528	CrowdGO	0.06	12.5090891586	73.2055494593	74.2666128433	0.51
0.54220038222	0.127251478377	CrowdGO	0.06	12.0102263065	73.3794642778	74.3558424983	0.52
0.551118962036	0.12392961012	CrowdGO	0.06	11.536868743	73.5042152095	74.4040925887	0.53
0.562125076963	0.119105320337	CrowdGO	0.06	11.0816810119	73.6397699812	74.4689155079	0.54
0.573598722867	0.113935752633	CrowdGO	0.06	10.6810676198	73.7794705573	74.5486115311	0.55
0.585068604919	0.110119150207	CrowdGO	0.06	10.1710155373	73.9259931575	74.6223962453	0.56
0.594494427749	0.106430879353	CrowdGO	0.06	9.89492105278	74.1086819081	74.7663440111	0.57
0.603539830569	0.102822232996	CrowdGO	0.06	9.61107105428	74.2115178777	74.8312907314	0.58
0.616591132659	0.10077758812	CrowdGO	0.06	9.29969076466	74.2739141385	74.8538480626	0.59
0.627097594354	0.0962610079963	CrowdGO	0.06	8.92331179169	74.4699074663	75.0026173634	0.6
0.63952930837	0.0927727815319	CrowdGO	0.06	8.56370717918	74.589502659	75.0794977844	0.61
0.652113467049	0.0895464074701	CrowdGO	0.06	8.12911597148	74.7049429028	75.1459314972	0.62
0.663799508826	0.0860179671557	CrowdGO	0.06	7.90039665239	74.7775425997	75.1937307527	0.63
0.672006784251	0.0834187065465	CrowdGO	0.06	7.59124382991	74.8520119822	75.2359666693	0.64
0.686405048584	0.0809013307871	CrowdGO	0.06	7.30656130363	74.9217252244	75.2771595418	0.65
0.697741830322	0.078360737107	CrowdGO	0.06	7.07958236431	74.9793049653	75.3127921374	0.66
0.70638169694	0.0739090720514	CrowdGO	0.06	6.85449508069	75.1340932356	75.4461136782	0.67
0.719936442413	0.0719272979941	CrowdGO	0.06	6.60546094274	75.2061271342	75.4956533371	0.68
0.727753134899	0.0683548251751	CrowdGO	0.06	6.39321000866	75.3374821859	75.6082624872	0.69
0.729207211558	0.0650820409234	CrowdGO	0.06	6.2138776183	75.4289527916	75.684471289	0.7
0.738153366675	0.0616695643707	CrowdGO	0.06	5.96107722236	75.5236846015	75.7585729633	0.71
0.74544814918	0.0580092842313	CrowdGO	0.06	5.65294186621	75.6548266156	75.8657270576	0.72
0.746577740317	0.0539305018273	CrowdGO	0.06	5.4286265554	75.7620142491	75.9562557618	0.73
0.753223233981	0.0522504251036	CrowdGO	0.06	5.27775582887	75.8052329828	75.9887363638	0.74
0.763011330528	0.0509421447342	CrowdGO	0.06	4.91268409746	75.8665715213	76.0254637568	0.75
0.760253792498	0.046809590058	CrowdGO	0.06	4.77168645432	75.9752213007	76.1249186752	0.76
0.761888166264	0.0459642600714	CrowdGO	0.06	4.55126692019	76.0194593145	76.1555790803	0.77
0.765427362973	0.0439771515445	CrowdGO	0.06	4.43491282433	76.1179958206	76.247083482	0.78
0.762635912603	0.0429137703654	CrowdGO	0.06	4.27905724673	76.153342	76.2734673966	0.79
0.777002649828	0.0411216200137	CrowdGO	0.06	4.06375823176	76.1987403205	76.3070256097	0.8
0.797479782794	0.0391726719748	CrowdGO	0.06	3.86111766295	76.2612541682	76.3589360646	0.81
0.802622014547	0.037728252673	CrowdGO	0.06	3.73097719958	76.3275852282	76.4187179795	0.82
0.800289800162	0.0358217378876	CrowdGO	0.06	3.47944803614	76.4080637254	76.48724574	0.83
0.814264454352	0.0339891788637	CrowdGO	0.06	3.2806734964	76.5106330003	76.5809361441	0.84
0.831172825984	0.03092287584	CrowdGO	0.06	3.01552799956	76.6441261109	76.7034254543	0.85
0.832511305155	0.0299324705322	CrowdGO	0.06	2.84264179906	76.7233342218	76.7759768841	0.86
0.846677922471	0.0267770980418	CrowdGO	0.06	2.57740485789	76.8780035526	76.9211963378	0.87
0.859616317989	0.0250734921047	CrowdGO	0.06	2.2601811172	76.991682767	77.0248507559	0.88
0.884771119783	0.0214751614361	CrowdGO	0.06	1.93742952793	77.1959798122	77.2202883466	0.89
0.886664004297	0.0199317637266	CrowdGO	0.06	1.79585365552	77.2592224125	77.2800914733	0.9
0.894417702099	0.01633020075	CrowdGO	0.06	1.566001029	77.3981779901	77.4140188559	0.91
0.887011124595	0.0136226402559	CrowdGO	0.06	1.41434812345	77.4997850275	77.5126896703	0.92
0.897087667363	0.0120821276427	CrowdGO	0.06	1.3114856265	77.544686885	77.5557764363	0.93
0.904838063171	0.00945355302986	CrowdGO	0.06	1.09359011066	77.603994273	77.6116992885	0.94
0.92436611008	0.00763759273637	CrowdGO	0.06	0.89609391016	77.6266415417	77.6318134616	0.95
0.88645364154	0.00493997040004	CrowdGO	0.06	0.755934363685	77.6892911385	77.6929687575	0.96
0.877152080344	0.00401844897407	CrowdGO	0.06	0.655753274862	77.7189895071	77.721755914	0.97
0.802083333333	0.00173749683223	CrowdGO	0.06	0.407120556802	77.7862653401	77.7873307339	0.98
0.583333333333	0.00107676415099	CrowdGO	0.06	0.346243396084	77.8010181925	77.8017886445	0.99
