0.371508525503	0.727696576217	CrowdGO	0.0	46.3337664595	7.53316340317	46.9421608491	0.0
0.621519645106	0.535924134283	CrowdGO	0.01	8.81969980022	12.774974764	15.5237587197	0.01
0.639063274236	0.508503475154	CrowdGO	0.01	7.99395592632	13.2133335926	15.4433000353	0.02
0.642916080925	0.490515903389	CrowdGO	0.01	7.58929322407	13.5012980058	15.4881380251	0.03
0.651136420802	0.479648696429	CrowdGO	0.01	7.22449535338	13.7864082503	15.5646517968	0.04
0.656926524625	0.475467759603	CrowdGO	0.01	6.96482008659	13.8698088302	15.5203194498	0.05
0.662841045541	0.471268284143	CrowdGO	0.01	6.72448823142	13.9733257961	15.5071782017	0.06
0.664089162433	0.466952291459	CrowdGO	0.01	6.58160627505	14.0398098468	15.5059279533	0.07
0.669786275564	0.458475961133	CrowdGO	0.01	6.47628153869	14.1715196386	15.5812127716	0.08
0.675487393372	0.454070674789	CrowdGO	0.01	6.30237805191	14.2399362224	15.5722751301	0.09
0.675233447238	0.451672678146	CrowdGO	0.01	6.28190541034	14.2945434861	15.6139780025	0.1
0.674882509616	0.447303840302	CrowdGO	0.01	6.21272523246	14.352281843	15.6392438729	0.11
0.675610147918	0.443109453935	CrowdGO	0.01	6.13742637673	14.5047274185	15.749765713	0.12
0.678129112294	0.440822030282	CrowdGO	0.01	6.06006305596	14.5726756066	15.7824978561	0.13
0.683540369059	0.437971772366	CrowdGO	0.01	5.95429986773	14.6336234142	15.7986271917	0.14
0.68568772723	0.436351176858	CrowdGO	0.01	5.89187968209	14.6760083374	15.8145334078	0.15
0.685328701389	0.432602853514	CrowdGO	0.01	5.85706151054	14.7758598741	15.8943765073	0.16
0.688040783277	0.431004857487	CrowdGO	0.01	5.77054275932	14.8163479913	15.9004192252	0.17
0.688104703819	0.429295259385	CrowdGO	0.01	5.67554048995	14.848252261	15.8959855014	0.18
0.690692087696	0.427808475244	CrowdGO	0.01	5.58825338839	14.865014275	15.8807186654	0.19
0.692574027369	0.424566132052	CrowdGO	0.01	5.56376701748	14.8875933196	15.8932670736	0.2
0.699411935202	0.422914149673	CrowdGO	0.01	5.4571624983	14.9101975962	15.8774876756	0.21
0.698726419065	0.421152035135	CrowdGO	0.01	5.44629958892	14.9251487469	15.8878017462	0.22
0.699368826894	0.421152035135	CrowdGO	0.01	5.41080791589	14.9251487469	15.8756702982	0.23
0.699499634401	0.419128955266	CrowdGO	0.01	5.38420822431	14.950833336	15.8907871311	0.24
0.705623770006	0.418174476558	CrowdGO	0.01	5.26053381867	14.9639642713	15.8616973484	0.25
0.706341147866	0.417440262167	CrowdGO	0.01	5.21171412211	14.9816575321	15.8622831427	0.26
0.709112741352	0.417440262167	CrowdGO	0.01	5.18829383361	14.9816575321	15.8546036	0.27
0.710769711215	0.416969044532	CrowdGO	0.01	5.15591466747	14.9965511949	15.8581210677	0.28
0.711804144085	0.416969044532	CrowdGO	0.01	5.11011914088	14.9965511949	15.8432908632	0.29
0.711850177334	0.415514521327	CrowdGO	0.01	5.09220168562	15.046082275	15.8844297925	0.3
0.710858489373	0.412885469028	CrowdGO	0.01	5.08664655215	15.0705161499	15.9057986335	0.31
0.713034859565	0.412365400501	CrowdGO	0.01	5.06785792843	15.0773459916	15.9062737978	0.32
0.717972151365	0.411071347638	CrowdGO	0.01	4.98771259209	15.0848801379	15.8880736931	0.33
0.717596965163	0.410046506718	CrowdGO	0.01	4.95907477138	15.114831827	15.9075630989	0.34
0.721354828763	0.410046506718	CrowdGO	0.01	4.92662188406	15.114831827	15.897476037	0.35
0.720986124851	0.409312292327	CrowdGO	0.01	4.92100120305	15.1191840876	15.8998735943	0.36
0.721409386895	0.408010730453	CrowdGO	0.01	4.88459382087	15.1697598574	15.9367773068	0.37
0.721534371272	0.408010730453	CrowdGO	0.01	4.88185452242	15.1697598574	15.9359379301	0.38
0.722629613263	0.404856945911	CrowdGO	0.01	4.86632833099	15.2141314714	15.9734450841	0.39
0.721834198163	0.399732224817	CrowdGO	0.01	4.85255705423	15.2807206998	16.0327082887	0.4
0.721988907653	0.398186798878	CrowdGO	0.01	4.84891938919	15.3012408734	16.0511679173	0.41
0.7219725556	0.39517902288	CrowdGO	0.01	4.83638698145	15.332019448	16.0767365901	0.42
0.723839663992	0.393490329781	CrowdGO	0.01	4.80612520004	15.3472876817	16.0822286584	0.43
0.725269826283	0.391654793805	CrowdGO	0.01	4.79311120589	15.3568360795	16.0874587616	0.44
0.728567155897	0.389259419356	CrowdGO	0.01	4.71838018389	15.3799423464	16.087440385	0.45
0.730423156205	0.388194808489	CrowdGO	0.01	4.61895607427	15.3993331255	16.0771333242	0.46
0.730053932599	0.385793315587	CrowdGO	0.01	4.57602321331	15.4212779659	16.0858883046	0.47
0.72961762046	0.382489350829	CrowdGO	0.01	4.54878430068	15.4625668337	16.1177669576	0.48
0.730160840116	0.381999874569	CrowdGO	0.01	4.52364970748	15.4758070641	16.1233994852	0.49
0.732747563212	0.381045395861	CrowdGO	0.01	4.4837641161	15.4961020605	16.1317488115	0.5
0.733562448809	0.380957290134	CrowdGO	0.01	4.44809772144	15.5036391017	16.1291164896	0.51
0.734537499321	0.379174198042	CrowdGO	0.01	4.3861087114	15.5102710101	16.1185128481	0.52
0.737022203445	0.378990644445	CrowdGO	0.01	4.32854095548	15.5150970805	16.107591509	0.53
0.734849926408	0.376950577317	CrowdGO	0.01	4.32442986783	15.5204543185	16.1116478342	0.54
0.735205210855	0.376318514493	CrowdGO	0.01	4.26220359727	15.5354689658	16.109536787	0.55
0.743764976364	0.374042449882	CrowdGO	0.01	4.18660251666	15.5593721891	16.1127807516	0.56
0.746000974972	0.373018045995	CrowdGO	0.01	4.16805365015	15.5691830047	16.1174480196	0.57
0.747097558897	0.371476195774	CrowdGO	0.01	4.08466133138	15.572308762	16.0991073781	0.58
0.748538505076	0.369961455009	CrowdGO	0.01	4.02733184753	15.5979551954	16.1094881386	0.59
0.747826149566	0.369777901411	CrowdGO	0.01	4.01702463145	15.5990950193	16.1080182614	0.6
0.748709722288	0.369538202007	CrowdGO	0.01	3.90582977827	15.6017253464	16.0832005534	0.61
0.752070921029	0.368978800566	CrowdGO	0.01	3.85717616111	15.6082778987	16.0778153647	0.62
0.752567334848	0.365486812562	CrowdGO	0.01	3.79778489953	15.6840879416	16.1373413146	0.63
0.753662056185	0.362257937912	CrowdGO	0.01	3.77516381536	15.7512940668	16.1973802391	0.64
0.754009989055	0.361413591363	CrowdGO	0.01	3.7681279214	15.7680709194	16.2120587388	0.65
0.753111550326	0.36086293057	CrowdGO	0.01	3.7681279214	15.7780524668	16.2217670948	0.66
0.751787814304	0.359237170134	CrowdGO	0.01	3.71577547126	15.7986080446	16.2296951142	0.67
0.755171297512	0.352294525234	CrowdGO	0.01	3.70010114119	15.9692014041	16.3922585979	0.68
0.755371492631	0.350327207188	CrowdGO	0.01	3.66325285905	15.9880107383	16.4023141318	0.69
0.756994433996	0.346621307116	CrowdGO	0.01	3.62101927741	16.0277896947	16.4317322003	0.7
0.756412163411	0.339726190326	CrowdGO	0.01	3.61368601015	16.1079038671	16.5082795461	0.71
0.758766477948	0.337468401614	CrowdGO	0.01	3.57619261955	16.1399738551	16.5314218897	0.72
0.764426532719	0.334348578498	CrowdGO	0.01	3.55067175599	16.1699709471	16.555217617	0.73
0.766572284637	0.333721437039	CrowdGO	0.01	3.52842378499	16.1813138193	16.5615425407	0.74
0.768348027454	0.333320956463	CrowdGO	0.01	3.45718317222	16.1913131998	16.5562900017	0.75
0.767380504602	0.331779106242	CrowdGO	0.01	3.45604334837	16.2048391773	16.5692802616	0.76
0.762607930804	0.319712745657	CrowdGO	0.01	3.40790873386	16.2959696243	16.6484974678	0.77
0.765006408597	0.319590376592	CrowdGO	0.01	3.35190357601	16.3036650898	16.6446613947	0.78
0.765006408597	0.319039715799	CrowdGO	0.01	3.3452017185	16.3091571743	16.6486931101	0.79
0.768003254023	0.318648134791	CrowdGO	0.01	3.32665285199	16.3318717354	16.6672329311	0.8
0.77039597077	0.317743477774	CrowdGO	0.01	3.24517174905	16.3466267724	16.6656336968	0.81
0.778134134734	0.317743477774	CrowdGO	0.01	3.12143176046	16.3466267724	16.6419813445	0.82
0.781064329907	0.316072060308	CrowdGO	0.01	3.08185018266	16.3704916796	16.6580550599	0.83
0.784408635477	0.313738307424	CrowdGO	0.01	3.02885338832	16.4004251135	16.6777665396	0.84
0.782954849632	0.312065074054	CrowdGO	0.01	3.00243243247	16.450092136	16.7218459446	0.85
0.784177837533	0.308917129854	CrowdGO	0.01	2.96743440367	16.469975312	16.7351651835	0.86
0.785346459005	0.307517533672	CrowdGO	0.01	2.93709034581	16.5016653661	16.7610100995	0.87
0.790048371066	0.304686358484	CrowdGO	0.01	2.86730209676	16.529037215	16.7758902169	0.88
0.790376437007	0.300338760414	CrowdGO	0.01	2.83743192398	16.604198359	16.8448930856	0.89
0.795219353516	0.293795948722	CrowdGO	0.01	2.75160617269	16.6875358535	16.9128705249	0.9
0.79931597214	0.290691270728	CrowdGO	0.01	2.68398027838	16.7303223846	16.9442449589	0.91
0.797636043154	0.288415921261	CrowdGO	0.01	2.65865775713	16.7529013409	16.9625518248	0.92
0.801485366377	0.284525257348	CrowdGO	0.01	2.6171051091	16.7906765596	16.9934122083	0.93
0.807531279053	0.279626288523	CrowdGO	0.01	2.55896143063	16.8563442332	17.0494757841	0.94
0.810679576299	0.268441763919	CrowdGO	0.01	2.42253312796	16.9306682859	17.1031048457	0.95
0.817465298923	0.262548492688	CrowdGO	0.01	2.28549188906	17.0054859367	17.1583806089	0.96
0.826256011527	0.250077973137	CrowdGO	0.01	2.16075367217	17.1175099003	17.2533475482	0.97
0.837669246383	0.232432120243	CrowdGO	0.01	2.00531286837	17.3181934446	17.4339067304	0.98
0.849513942017	0.203875928291	CrowdGO	0.01	1.79588460189	17.6177459074	17.7090421073	0.99
