0.5297652421037394	0.000001	InterProScan
0.5297652421037394	0.1471951401956703	InterProScan
0.5297652421037394	0.1471951401956703	InterProScan
0.5297652421037394	0.1471951401956703	InterProScan
0.5297652421037394	0.1471951401956703	InterProScan
0.5297652421037394	0.1471951401956703	InterProScan
0.5297652421037394	0.1471951401956703	InterProScan
0.5297652421037394	0.1471951401956703	InterProScan
0.5297652421037394	0.1471951401956703	InterProScan
0.5297652421037394	0.1471951401956703	InterProScan
0.5297652421037394	0.1471951401956703	InterProScan
0.5297652421037394	0.1471951401956703	InterProScan
0.5297652421037394	0.1471951401956703	InterProScan
0.5297652421037394	0.1471951401956703	InterProScan
0.5297652421037394	0.1471951401956703	InterProScan
0.5297652421037394	0.1471951401956703	InterProScan
0.5297652421037394	0.1471951401956703	InterProScan
0.5297652421037394	0.1471951401956703	InterProScan
0.5297652421037394	0.1471951401956703	InterProScan
0.5297652421037394	0.1471951401956703	InterProScan
0.5297652421037394	0.1471951401956703	InterProScan
0.5297652421037394	0.1471951401956703	InterProScan
0.5297652421037394	0.1471951401956703	InterProScan
0.5297652421037394	0.1471951401956703	InterProScan
0.5297652421037394	0.1471951401956703	InterProScan
0.5297652421037394	0.1471951401956703	InterProScan
0.5297652421037394	0.1471951401956703	InterProScan
0.5297652421037394	0.1471951401956703	InterProScan
0.5297652421037394	0.1471951401956703	InterProScan
0.5297652421037394	0.1471951401956703	InterProScan
0.5297652421037394	0.1471951401956703	InterProScan
0.5297652421037394	0.1471951401956703	InterProScan
0.5297652421037394	0.1471951401956703	InterProScan
0.5297652421037394	0.1471951401956703	InterProScan
0.5297652421037394	0.1471951401956703	InterProScan
0.5297652421037394	0.1471951401956703	InterProScan
0.5297652421037394	0.1471951401956703	InterProScan
0.5297652421037394	0.1471951401956703	InterProScan
0.5297652421037394	0.1471951401956703	InterProScan
0.5297652421037394	0.1471951401956703	InterProScan
0.5297652421037394	0.1471951401956703	InterProScan
0.5297652421037394	0.1471951401956703	InterProScan
0.5297652421037394	0.1471951401956703	InterProScan
0.5297652421037394	0.1471951401956703	InterProScan
0.5297652421037394	0.1471951401956703	InterProScan
0.5297652421037394	0.1471951401956703	InterProScan
0.5297652421037394	0.1471951401956703	InterProScan
0.5297652421037394	0.1471951401956703	InterProScan
0.5297652421037394	0.1471951401956703	InterProScan
0.5297652421037394	0.1471951401956703	InterProScan
0.5297652421037394	0.1471951401956703	InterProScan
0.5297652421037394	0.1471951401956703	InterProScan
0.5297652421037394	0.1471951401956703	InterProScan
0.5297652421037394	0.1471951401956703	InterProScan
0.5297652421037394	0.1471951401956703	InterProScan
0.5297652421037394	0.1471951401956703	InterProScan
0.5297652421037394	0.1471951401956703	InterProScan
0.5297652421037394	0.1471951401956703	InterProScan
0.5297652421037394	0.1471951401956703	InterProScan
0.5297652421037394	0.1471951401956703	InterProScan
0.5297652421037394	0.1471951401956703	InterProScan
0.5297652421037394	0.1471951401956703	InterProScan
0.5297652421037394	0.1471951401956703	InterProScan
0.5297652421037394	0.1471951401956703	InterProScan
0.5297652421037394	0.1471951401956703	InterProScan
0.5297652421037394	0.1471951401956703	InterProScan
0.5297652421037394	0.1471951401956703	InterProScan
0.5297652421037394	0.1471951401956703	InterProScan
0.5297652421037394	0.1471951401956703	InterProScan
0.5297652421037394	0.1471951401956703	InterProScan
0.5297652421037394	0.1471951401956703	InterProScan
0.5297652421037394	0.1471951401956703	InterProScan
0.5297652421037394	0.1471951401956703	InterProScan
0.5297652421037394	0.1471951401956703	InterProScan
0.5297652421037394	0.1471951401956703	InterProScan
0.5297652421037394	0.1471951401956703	InterProScan
0.5297652421037394	0.1471951401956703	InterProScan
0.5297652421037394	0.1471951401956703	InterProScan
0.5297652421037394	0.1471951401956703	InterProScan
0.5297652421037394	0.1471951401956703	InterProScan
0.5297652421037394	0.1471951401956703	InterProScan
0.5297652421037394	0.1471951401956703	InterProScan
0.5297652421037394	0.1471951401956703	InterProScan
0.5297652421037394	0.1471951401956703	InterProScan
0.5297652421037394	0.1471951401956703	InterProScan
0.5297652421037394	0.1471951401956703	InterProScan
0.5297652421037394	0.1471951401956703	InterProScan
0.5297652421037394	0.1471951401956703	InterProScan
0.5297652421037394	0.1471951401956703	InterProScan
0.5297652421037394	0.1471951401956703	InterProScan
0.5297652421037394	0.1471951401956703	InterProScan
0.5297652421037394	0.1471951401956703	InterProScan
0.5297652421037394	0.1471951401956703	InterProScan
0.5297652421037394	0.1471951401956703	InterProScan
0.5297652421037394	0.1471951401956703	InterProScan
0.5297652421037394	0.1471951401956703	InterProScan
0.5297652421037394	0.1471951401956703	InterProScan
0.5297652421037394	0.1471951401956703	InterProScan
0.5297652421037394	0.1471951401956703	InterProScan
0.5297652421037394	0.1471951401956703	InterProScan
0.5297652421037394	0.1471951401956703	InterProScan
0.5297652421037394	0.1471951401956703	InterProScan
0.5297652421037394	0.1471951401956703	InterProScan
0.5297652421037394	0.1471951401956703	InterProScan
0.5297652421037394	0.1471951401956703	InterProScan
0.5297652421037394	0.1471951401956703	InterProScan
0.5297652421037394	0.1471951401956703	InterProScan
0.5297652421037394	0.1471951401956703	InterProScan
0.5297652421037394	0.1471951401956703	InterProScan
0.5297652421037394	0.1471951401956703	InterProScan
0.5297652421037394	0.1471951401956703	InterProScan
0.5297652421037394	0.1471951401956703	InterProScan
0.5297652421037394	0.1471951401956703	InterProScan
0.5297652421037394	0.1471951401956703	InterProScan
0.5297652421037394	0.1471951401956703	InterProScan
0.5297652421037394	0.1471951401956703	InterProScan
0.5297652421037394	0.1471951401956703	InterProScan
0.5297652421037394	0.1471951401956703	InterProScan
0.5297652421037394	0.1471951401956703	InterProScan
0.5297652421037394	0.1471951401956703	InterProScan
0.5297652421037394	0.1471951401956703	InterProScan
0.5297652421037394	0.1471951401956703	InterProScan
0.5297652421037394	0.1471951401956703	InterProScan
0.5297652421037394	0.1471951401956703	InterProScan
0.5297652421037394	0.1471951401956703	InterProScan
0.5297652421037394	0.1471951401956703	InterProScan
0.5297652421037394	0.1471951401956703	InterProScan
0.5297652421037394	0.1471951401956703	InterProScan
0.5297652421037394	0.1471951401956703	InterProScan
0.5297652421037394	0.1471951401956703	InterProScan
0.5297652421037394	0.1471951401956703	InterProScan
0.5297652421037394	0.1471951401956703	InterProScan
0.5297652421037394	0.1471951401956703	InterProScan
0.5297652421037394	0.1471951401956703	InterProScan
0.5297652421037394	0.1471951401956703	InterProScan
0.5297652421037394	0.1471951401956703	InterProScan
0.5297652421037394	0.1471951401956703	InterProScan
0.5297652421037394	0.1471951401956703	InterProScan
0.5297652421037394	0.1471951401956703	InterProScan
0.5297652421037394	0.1471951401956703	InterProScan
0.5297652421037394	0.1471951401956703	InterProScan
0.5297652421037394	0.1471951401956703	InterProScan
0.5297652421037394	0.1471951401956703	InterProScan
0.5297652421037394	0.1471951401956703	InterProScan
0.5297652421037394	0.1471951401956703	InterProScan
0.5297652421037394	0.1471951401956703	InterProScan
0.5297652421037394	0.1471951401956703	InterProScan
0.5297652421037394	0.1471951401956703	InterProScan
0.5297652421037394	0.1471951401956703	InterProScan
0.5297652421037394	0.1471951401956703	InterProScan
0.5297652421037394	0.1471951401956703	InterProScan
0.5297652421037394	0.1471951401956703	InterProScan
0.5297652421037394	0.1471951401956703	InterProScan
0.5297652421037394	0.1471951401956703	InterProScan
0.5297652421037394	0.1471951401956703	InterProScan
0.5297652421037394	0.1471951401956703	InterProScan
0.5297652421037394	0.1471951401956703	InterProScan
0.5297652421037394	0.1471951401956703	InterProScan
0.5297652421037394	0.1471951401956703	InterProScan
0.5297652421037394	0.1471951401956703	InterProScan
0.5297652421037394	0.1471951401956703	InterProScan
0.5297652421037394	0.1471951401956703	InterProScan
0.5297652421037394	0.1471951401956703	InterProScan
0.5297652421037394	0.1471951401956703	InterProScan
0.5297652421037394	0.1471951401956703	InterProScan
0.5297652421037394	0.1471951401956703	InterProScan
0.5297652421037394	0.1471951401956703	InterProScan
0.5297652421037394	0.1471951401956703	InterProScan
0.5297652421037394	0.1471951401956703	InterProScan
0.5297652421037394	0.1471951401956703	InterProScan
0.5297652421037394	0.1471951401956703	InterProScan
0.5297652421037394	0.1471951401956703	InterProScan
0.5297652421037394	0.1471951401956703	InterProScan
0.5297652421037394	0.1471951401956703	InterProScan
0.5297652421037394	0.1471951401956703	InterProScan
0.5297652421037394	0.1471951401956703	InterProScan
0.5297652421037394	0.1471951401956703	InterProScan
0.5297652421037394	0.1471951401956703	InterProScan
0.5297652421037394	0.1471951401956703	InterProScan
0.5297652421037394	0.1471951401956703	InterProScan
0.5297652421037394	0.1471951401956703	InterProScan
0.5297652421037394	0.1471951401956703	InterProScan
0.5297652421037394	0.1471951401956703	InterProScan
0.5297652421037394	0.1471951401956703	InterProScan
0.5297652421037394	0.1471951401956703	InterProScan
0.5297652421037394	0.1471951401956703	InterProScan
0.5297652421037394	0.1471951401956703	InterProScan
0.5297652421037394	0.1471951401956703	InterProScan
0.5297652421037394	0.1471951401956703	InterProScan
0.5297652421037394	0.1471951401956703	InterProScan
0.5297652421037394	0.1471951401956703	InterProScan
0.5297652421037394	0.1471951401956703	InterProScan
0.5297652421037394	0.1471951401956703	InterProScan
0.5297652421037394	0.1471951401956703	InterProScan
0.5297652421037394	0.1471951401956703	InterProScan
0.5297652421037394	0.1471951401956703	InterProScan
0.5297652421037394	0.1471951401956703	InterProScan
0.5297652421037394	0.1471951401956703	InterProScan
0.5297652421037394	0.1471951401956703	InterProScan
0.5297652421037394	0.1471951401956703	InterProScan
0.5297652421037394	0.1471951401956703	InterProScan
0.5297652421037394	0.1471951401956703	InterProScan
0.5297652421037394	0.1471951401956703	InterProScan
0.5297652421037394	0.1471951401956703	InterProScan
0.5297652421037394	0.1471951401956703	InterProScan
0.5297652421037394	0.1471951401956703	InterProScan
0.5297652421037394	0.1471951401956703	InterProScan
0.5297652421037394	0.1471951401956703	InterProScan
0.5297652421037394	0.1471951401956703	InterProScan
0.5297652421037394	0.1471951401956703	InterProScan
0.5297652421037394	0.1471951401956703	InterProScan
0.5297652421037394	0.1471951401956703	InterProScan
0.5297652421037394	0.1471951401956703	InterProScan
0.5297652421037394	0.1471951401956703	InterProScan
0.5297652421037394	0.1471951401956703	InterProScan
0.5297652421037394	0.1471951401956703	InterProScan
0.5297652421037394	0.1471951401956703	InterProScan
0.5297652421037394	0.1471951401956703	InterProScan
0.5297652421037394	0.1471951401956703	InterProScan
0.5297652421037394	0.1471951401956703	InterProScan
0.5297652421037394	0.1471951401956703	InterProScan
0.5297652421037394	0.1471951401956703	InterProScan
0.5297652421037394	0.1471951401956703	InterProScan
0.5297652421037394	0.1471951401956703	InterProScan
0.5297652421037394	0.1471951401956703	InterProScan
0.5297652421037394	0.1471951401956703	InterProScan
0.5297652421037394	0.1471951401956703	InterProScan
0.5297652421037394	0.1471951401956703	InterProScan
0.5297652421037394	0.1471951401956703	InterProScan
0.5297652421037394	0.1471951401956703	InterProScan
0.5297652421037394	0.1471951401956703	InterProScan
0.5297652421037394	0.1471951401956703	InterProScan
0.5297652421037394	0.1471951401956703	InterProScan
0.5297652421037394	0.1471951401956703	InterProScan
0.5297652421037394	0.1471951401956703	InterProScan
0.5297652421037394	0.1471951401956703	InterProScan
0.5297652421037394	0.1471951401956703	InterProScan
0.5297652421037394	0.1471951401956703	InterProScan
0.5297652421037394	0.1471951401956703	InterProScan
0.5297652421037394	0.1471951401956703	InterProScan
0.5297652421037394	0.1471951401956703	InterProScan
0.5297652421037394	0.1471951401956703	InterProScan
0.5297652421037394	0.1471951401956703	InterProScan
0.5297652421037394	0.1471951401956703	InterProScan
0.5297652421037394	0.1471951401956703	InterProScan
0.5297652421037394	0.1471951401956703	InterProScan
0.5297652421037394	0.1471951401956703	InterProScan
0.5297652421037394	0.1471951401956703	InterProScan
0.5297652421037394	0.1471951401956703	InterProScan
0.5297652421037394	0.1471951401956703	InterProScan
0.5297652421037394	0.1471951401956703	InterProScan
0.5297652421037394	0.1471951401956703	InterProScan
0.5297652421037394	0.1471951401956703	InterProScan
0.5297652421037394	0.1471951401956703	InterProScan
0.5297652421037394	0.1471951401956703	InterProScan
0.5297652421037394	0.1471951401956703	InterProScan
0.5297652421037394	0.1471951401956703	InterProScan
0.5297652421037394	0.1471951401956703	InterProScan
0.5297652421037394	0.1471951401956703	InterProScan
0.5297652421037394	0.1471951401956703	InterProScan
0.5297652421037394	0.1471951401956703	InterProScan
0.5297652421037394	0.1471951401956703	InterProScan
0.5297652421037394	0.1471951401956703	InterProScan
0.5297652421037394	0.1471951401956703	InterProScan
0.5297652421037394	0.1471951401956703	InterProScan
0.5297652421037394	0.1471951401956703	InterProScan
0.5297652421037394	0.1471951401956703	InterProScan
0.5297652421037394	0.1471951401956703	InterProScan
0.5297652421037394	0.1471951401956703	InterProScan
0.5297652421037394	0.1471951401956703	InterProScan
0.5297652421037394	0.1471951401956703	InterProScan
0.5297652421037394	0.1471951401956703	InterProScan
0.5297652421037394	0.1471951401956703	InterProScan
0.5297652421037394	0.1471951401956703	InterProScan
0.5297652421037394	0.1471951401956703	InterProScan
0.5297652421037394	0.1471951401956703	InterProScan
0.5297652421037394	0.1471951401956703	InterProScan
0.5297652421037394	0.1471951401956703	InterProScan
0.5297652421037394	0.1471951401956703	InterProScan
0.5297652421037394	0.1471951401956703	InterProScan
0.5297652421037394	0.1471951401956703	InterProScan
0.5297652421037394	0.1471951401956703	InterProScan
0.5297652421037394	0.1471951401956703	InterProScan
0.5297652421037394	0.1471951401956703	InterProScan
0.5297652421037394	0.1471951401956703	InterProScan
0.5297652421037394	0.1471951401956703	InterProScan
0.5297652421037394	0.1471951401956703	InterProScan
0.5297652421037394	0.1471951401956703	InterProScan
0.5297652421037394	0.1471951401956703	InterProScan
0.5297652421037394	0.1471951401956703	InterProScan
0.5297652421037394	0.1471951401956703	InterProScan
0.5297652421037394	0.1471951401956703	InterProScan
0.5297652421037394	0.1471951401956703	InterProScan
0.5297652421037394	0.1471951401956703	InterProScan
0.5297652421037394	0.1471951401956703	InterProScan
0.5297652421037394	0.1471951401956703	InterProScan
0.5297652421037394	0.1471951401956703	InterProScan
0.5297652421037394	0.1471951401956703	InterProScan
0.5297652421037394	0.1471951401956703	InterProScan
0.5297652421037394	0.1471951401956703	InterProScan
0.5297652421037394	0.1471951401956703	InterProScan
0.5297652421037394	0.1471951401956703	InterProScan
0.5297652421037394	0.1471951401956703	InterProScan
0.5297652421037394	0.1471951401956703	InterProScan
0.5297652421037394	0.1471951401956703	InterProScan
0.5297652421037394	0.1471951401956703	InterProScan
0.5297652421037394	0.1471951401956703	InterProScan
0.5297652421037394	0.1471951401956703	InterProScan
0.5297652421037394	0.1471951401956703	InterProScan
0.5297652421037394	0.1471951401956703	InterProScan
0.5297652421037394	0.1471951401956703	InterProScan
0.5297652421037394	0.1471951401956703	InterProScan
0.5297652421037394	0.1471951401956703	InterProScan
0.5297652421037394	0.1471951401956703	InterProScan
0.5297652421037394	0.1471951401956703	InterProScan
0.5297652421037394	0.1471951401956703	InterProScan
0.5297652421037394	0.1471951401956703	InterProScan
0.5297652421037394	0.1471951401956703	InterProScan
0.5297652421037394	0.1471951401956703	InterProScan
0.5297652421037394	0.1471951401956703	InterProScan
0.5297652421037394	0.1471951401956703	InterProScan
0.5297652421037394	0.1471951401956703	InterProScan
0.5297652421037394	0.1471951401956703	InterProScan
0.5297652421037394	0.1471951401956703	InterProScan
0.5297652421037394	0.1471951401956703	InterProScan
0.5297652421037394	0.1471951401956703	InterProScan
0.5297652421037394	0.1471951401956703	InterProScan
0.5297652421037394	0.1471951401956703	InterProScan
0.5297652421037394	0.1471951401956703	InterProScan
0.5297652421037394	0.1471951401956703	InterProScan
0.5297652421037394	0.1471951401956703	InterProScan
0.5297652421037394	0.1471951401956703	InterProScan
0.5297652421037394	0.1471951401956703	InterProScan
0.5297652421037394	0.1471951401956703	InterProScan
0.5297652421037394	0.1471951401956703	InterProScan
0.5297652421037394	0.1471951401956703	InterProScan
0.5297652421037394	0.1471951401956703	InterProScan
0.5297652421037394	0.1471951401956703	InterProScan
0.5297652421037394	0.1471951401956703	InterProScan
0.5297652421037394	0.1471951401956703	InterProScan
0.5297652421037394	0.1471951401956703	InterProScan
0.5297652421037394	0.1471951401956703	InterProScan
0.5297652421037394	0.1471951401956703	InterProScan
0.5297652421037394	0.1471951401956703	InterProScan
0.5297652421037394	0.1471951401956703	InterProScan
0.5297652421037394	0.1471951401956703	InterProScan
0.5297652421037394	0.1471951401956703	InterProScan
0.5297652421037394	0.1471951401956703	InterProScan
0.5297652421037394	0.1471951401956703	InterProScan
0.5297652421037394	0.1471951401956703	InterProScan
0.5297652421037394	0.1471951401956703	InterProScan
0.5297652421037394	0.1471951401956703	InterProScan
0.5297652421037394	0.1471951401956703	InterProScan
0.5297652421037394	0.1471951401956703	InterProScan
0.5297652421037394	0.1471951401956703	InterProScan
0.5297652421037394	0.1471951401956703	InterProScan
0.5297652421037394	0.1471951401956703	InterProScan
0.5297652421037394	0.1471951401956703	InterProScan
0.5297652421037394	0.1471951401956703	InterProScan
0.5297652421037394	0.1471951401956703	InterProScan
0.5297652421037394	0.1471951401956703	InterProScan
0.5297652421037394	0.1471951401956703	InterProScan
0.5297652421037394	0.1471951401956703	InterProScan
0.5297652421037394	0.1471951401956703	InterProScan
0.5297652421037394	0.1471951401956703	InterProScan
0.5297652421037394	0.1471951401956703	InterProScan
0.5297652421037394	0.1471951401956703	InterProScan
0.5297652421037394	0.1471951401956703	InterProScan
0.5297652421037394	0.1471951401956703	InterProScan
0.5297652421037394	0.1471951401956703	InterProScan
0.5297652421037394	0.1471951401956703	InterProScan
0.5297652421037394	0.1471951401956703	InterProScan
0.5297652421037394	0.1471951401956703	InterProScan
0.5297652421037394	0.1471951401956703	InterProScan
0.5297652421037394	0.1471951401956703	InterProScan
0.5297652421037394	0.1471951401956703	InterProScan
0.5297652421037394	0.1471951401956703	InterProScan
0.5297652421037394	0.1471951401956703	InterProScan
0.5297652421037394	0.1471951401956703	InterProScan
0.5297652421037394	0.1471951401956703	InterProScan
0.5297652421037394	0.1471951401956703	InterProScan
0.5297652421037394	0.1471951401956703	InterProScan
0.5297652421037394	0.1471951401956703	InterProScan
0.5297652421037394	0.1471951401956703	InterProScan
0.5297652421037394	0.1471951401956703	InterProScan
0.5297652421037394	0.1471951401956703	InterProScan
0.5297652421037394	0.1471951401956703	InterProScan
0.5297652421037394	0.1471951401956703	InterProScan
0.5297652421037394	0.1471951401956703	InterProScan
0.5297652421037394	0.1471951401956703	InterProScan
0.5297652421037394	0.1471951401956703	InterProScan
0.5297652421037394	0.1471951401956703	InterProScan
0.5297652421037394	0.1471951401956703	InterProScan
0.5297652421037394	0.1471951401956703	InterProScan
0.5297652421037394	0.1471951401956703	InterProScan
0.5297652421037394	0.1471951401956703	InterProScan
0.5297652421037394	0.1471951401956703	InterProScan
0.5297652421037394	0.1471951401956703	InterProScan
0.5297652421037394	0.1471951401956703	InterProScan
0.5297652421037394	0.1471951401956703	InterProScan
0.5297652421037394	0.1471951401956703	InterProScan
0.5297652421037394	0.1471951401956703	InterProScan
0.5297652421037394	0.1471951401956703	InterProScan
0.5297652421037394	0.1471951401956703	InterProScan
0.5297652421037394	0.1471951401956703	InterProScan
0.5297652421037394	0.1471951401956703	InterProScan
0.5297652421037394	0.1471951401956703	InterProScan
0.5297652421037394	0.1471951401956703	InterProScan
0.5297652421037394	0.1471951401956703	InterProScan
0.5297652421037394	0.1471951401956703	InterProScan
0.5297652421037394	0.1471951401956703	InterProScan
0.5297652421037394	0.1471951401956703	InterProScan
0.5297652421037394	0.1471951401956703	InterProScan
0.5297652421037394	0.1471951401956703	InterProScan
0.5297652421037394	0.1471951401956703	InterProScan
0.5297652421037394	0.1471951401956703	InterProScan
0.5297652421037394	0.1471951401956703	InterProScan
0.5297652421037394	0.1471951401956703	InterProScan
0.5297652421037394	0.1471951401956703	InterProScan
0.5297652421037394	0.1471951401956703	InterProScan
0.5297652421037394	0.1471951401956703	InterProScan
0.5297652421037394	0.1471951401956703	InterProScan
0.5297652421037394	0.1471951401956703	InterProScan
0.5297652421037394	0.1471951401956703	InterProScan
0.5297652421037394	0.1471951401956703	InterProScan
0.5297652421037394	0.1471951401956703	InterProScan
0.5297652421037394	0.1471951401956703	InterProScan
0.5297652421037394	0.1471951401956703	InterProScan
0.5297652421037394	0.1471951401956703	InterProScan
0.5297652421037394	0.1471951401956703	InterProScan
0.5297652421037394	0.1471951401956703	InterProScan
0.5297652421037394	0.1471951401956703	InterProScan
0.5297652421037394	0.1471951401956703	InterProScan
0.5297652421037394	0.1471951401956703	InterProScan
0.5297652421037394	0.1471951401956703	InterProScan
0.5297652421037394	0.1471951401956703	InterProScan
0.5297652421037394	0.1471951401956703	InterProScan
0.5297652421037394	0.1471951401956703	InterProScan
0.5297652421037394	0.1471951401956703	InterProScan
0.5297652421037394	0.1471951401956703	InterProScan
0.5297652421037394	0.1471951401956703	InterProScan
0.5297652421037394	0.1471951401956703	InterProScan
0.5297652421037394	0.1471951401956703	InterProScan
0.5297652421037394	0.1471951401956703	InterProScan
0.5297652421037394	0.1471951401956703	InterProScan
0.5297652421037394	0.1471951401956703	InterProScan
0.5297652421037394	0.1471951401956703	InterProScan
0.5297652421037394	0.1471951401956703	InterProScan
0.5297652421037394	0.1471951401956703	InterProScan
0.5297652421037394	0.1471951401956703	InterProScan
0.5297652421037394	0.1471951401956703	InterProScan
0.5297652421037394	0.1471951401956703	InterProScan
0.5297652421037394	0.1471951401956703	InterProScan
0.5297652421037394	0.1471951401956703	InterProScan
0.5297652421037394	0.1471951401956703	InterProScan
0.5297652421037394	0.1471951401956703	InterProScan
0.5297652421037394	0.1471951401956703	InterProScan
0.5297652421037394	0.1471951401956703	InterProScan
0.5297652421037394	0.1471951401956703	InterProScan
0.5297652421037394	0.1471951401956703	InterProScan
0.5297652421037394	0.1471951401956703	InterProScan
0.5297652421037394	0.1471951401956703	InterProScan
0.5297652421037394	0.1471951401956703	InterProScan
0.5297652421037394	0.1471951401956703	InterProScan
0.5297652421037394	0.1471951401956703	InterProScan
0.5297652421037394	0.1471951401956703	InterProScan
0.5297652421037394	0.1471951401956703	InterProScan
0.5297652421037394	0.1471951401956703	InterProScan
0.5297652421037394	0.1471951401956703	InterProScan
0.5297652421037394	0.1471951401956703	InterProScan
0.5297652421037394	0.1471951401956703	InterProScan
0.5297652421037394	0.1471951401956703	InterProScan
0.5297652421037394	0.1471951401956703	InterProScan
0.5297652421037394	0.1471951401956703	InterProScan
0.5297652421037394	0.1471951401956703	InterProScan
0.5297652421037394	0.1471951401956703	InterProScan
0.5297652421037394	0.1471951401956703	InterProScan
0.5297652421037394	0.1471951401956703	InterProScan
0.5297652421037394	0.1471951401956703	InterProScan
0.5297652421037394	0.1471951401956703	InterProScan
0.5297652421037394	0.1471951401956703	InterProScan
0.5297652421037394	0.1471951401956703	InterProScan
0.5297652421037394	0.1471951401956703	InterProScan
0.5297652421037394	0.1471951401956703	InterProScan
0.5297652421037394	0.1471951401956703	InterProScan
0.5297652421037394	0.1471951401956703	InterProScan
0.5297652421037394	0.1471951401956703	InterProScan
0.5297652421037394	0.1471951401956703	InterProScan
0.5297652421037394	0.1471951401956703	InterProScan
0.5297652421037394	0.1471951401956703	InterProScan
0.5297652421037394	0.1471951401956703	InterProScan
0.5297652421037394	0.1471951401956703	InterProScan
0.5297652421037394	0.1471951401956703	InterProScan
0.5297652421037394	0.1471951401956703	InterProScan
0.5297652421037394	0.1471951401956703	InterProScan
0.5297652421037394	0.1471951401956703	InterProScan
0.5297652421037394	0.1471951401956703	InterProScan
0.5297652421037394	0.1471951401956703	InterProScan
0.5297652421037394	0.1471951401956703	InterProScan
0.5297652421037394	0.1471951401956703	InterProScan
0.5297652421037394	0.1471951401956703	InterProScan
0.5297652421037394	0.1471951401956703	InterProScan
0.5297652421037394	0.1471951401956703	InterProScan
0.5297652421037394	0.1471951401956703	InterProScan
0.5297652421037394	0.1471951401956703	InterProScan
0.5297652421037394	0.1471951401956703	InterProScan
0.5297652421037394	0.1471951401956703	InterProScan
0.5297652421037394	0.1471951401956703	InterProScan
0.5297652421037394	0.1471951401956703	InterProScan
0.5297652421037394	0.1471951401956703	InterProScan
0.5297652421037394	0.1471951401956703	InterProScan
0.5297652421037394	0.1471951401956703	InterProScan
0.5297652421037394	0.1471951401956703	InterProScan
0.5297652421037394	0.1471951401956703	InterProScan
0.5297652421037394	0.1471951401956703	InterProScan
0.5297652421037394	0.1471951401956703	InterProScan
0.5297652421037394	0.1471951401956703	InterProScan
0.5297652421037394	0.1471951401956703	InterProScan
0.5297652421037394	0.1471951401956703	InterProScan
0.5297652421037394	0.1471951401956703	InterProScan
0.5297652421037394	0.1471951401956703	InterProScan
0.5297652421037394	0.1471951401956703	InterProScan
0.5297652421037394	0.1471951401956703	InterProScan
0.5297652421037394	0.1471951401956703	InterProScan
0.5297652421037394	0.1471951401956703	InterProScan
0.5297652421037394	0.1471951401956703	InterProScan
0.5297652421037394	0.1471951401956703	InterProScan
0.5297652421037394	0.1471951401956703	InterProScan
0.5297652421037394	0.1471951401956703	InterProScan
0.5297652421037394	0.1471951401956703	InterProScan
0.5297652421037394	0.1471951401956703	InterProScan
0.5297652421037394	0.1471951401956703	InterProScan
0.5297652421037394	0.1471951401956703	InterProScan
0.5297652421037394	0.1471951401956703	InterProScan
0.5297652421037394	0.1471951401956703	InterProScan
0.5297652421037394	0.1471951401956703	InterProScan
0.5297652421037394	0.1471951401956703	InterProScan
0.5297652421037394	0.1471951401956703	InterProScan
0.5297652421037394	0.1471951401956703	InterProScan
0.5297652421037394	0.1471951401956703	InterProScan
0.5297652421037394	0.1471951401956703	InterProScan
0.5297652421037394	0.1471951401956703	InterProScan
0.5297652421037394	0.1471951401956703	InterProScan
0.5297652421037394	0.1471951401956703	InterProScan
0.5297652421037394	0.1471951401956703	InterProScan
0.5297652421037394	0.1471951401956703	InterProScan
0.5297652421037394	0.1471951401956703	InterProScan
0.5297652421037394	0.1471951401956703	InterProScan
0.5297652421037394	0.1471951401956703	InterProScan
0.5297652421037394	0.1471951401956703	InterProScan
0.5297652421037394	0.1471951401956703	InterProScan
0.5297652421037394	0.1471951401956703	InterProScan
0.5297652421037394	0.1471951401956703	InterProScan
0.5297652421037394	0.1471951401956703	InterProScan
0.5297652421037394	0.1471951401956703	InterProScan
0.5297652421037394	0.1471951401956703	InterProScan
0.5297652421037394	0.1471951401956703	InterProScan
0.5297652421037394	0.1471951401956703	InterProScan
0.5297652421037394	0.1471951401956703	InterProScan
0.5297652421037394	0.1471951401956703	InterProScan
0.5297652421037394	0.1471951401956703	InterProScan
0.5297652421037394	0.1471951401956703	InterProScan
0.5297652421037394	0.1471951401956703	InterProScan
0.5297652421037394	0.1471951401956703	InterProScan
0.5297652421037394	0.1471951401956703	InterProScan
0.5297652421037394	0.1471951401956703	InterProScan
0.5297652421037394	0.1471951401956703	InterProScan
0.5297652421037394	0.1471951401956703	InterProScan
0.5297652421037394	0.1471951401956703	InterProScan
0.5297652421037394	0.1471951401956703	InterProScan
0.5297652421037394	0.1471951401956703	InterProScan
0.5297652421037394	0.1471951401956703	InterProScan
0.5297652421037394	0.1471951401956703	InterProScan
0.5297652421037394	0.1471951401956703	InterProScan
0.5297652421037394	0.1471951401956703	InterProScan
0.5297652421037394	0.1471951401956703	InterProScan
0.5297652421037394	0.1471951401956703	InterProScan
0.5297652421037394	0.1471951401956703	InterProScan
0.5297652421037394	0.1471951401956703	InterProScan
0.5297652421037394	0.1471951401956703	InterProScan
0.5297652421037394	0.1471951401956703	InterProScan
0.5297652421037394	0.1471951401956703	InterProScan
0.5297652421037394	0.1471951401956703	InterProScan
0.5297652421037394	0.1471951401956703	InterProScan
0.5297652421037394	0.1471951401956703	InterProScan
0.5297652421037394	0.1471951401956703	InterProScan
0.5297652421037394	0.1471951401956703	InterProScan
0.5297652421037394	0.1471951401956703	InterProScan
0.5297652421037394	0.1471951401956703	InterProScan
0.5297652421037394	0.1471951401956703	InterProScan
0.5297652421037394	0.1471951401956703	InterProScan
0.5297652421037394	0.1471951401956703	InterProScan
0.5297652421037394	0.1471951401956703	InterProScan
0.5297652421037394	0.1471951401956703	InterProScan
0.5297652421037394	0.1471951401956703	InterProScan
0.5297652421037394	0.1471951401956703	InterProScan
0.5297652421037394	0.1471951401956703	InterProScan
0.5297652421037394	0.1471951401956703	InterProScan
0.5297652421037394	0.1471951401956703	InterProScan
0.5297652421037394	0.1471951401956703	InterProScan
0.5297652421037394	0.1471951401956703	InterProScan
0.5297652421037394	0.1471951401956703	InterProScan
0.5297652421037394	0.1471951401956703	InterProScan
0.5297652421037394	0.1471951401956703	InterProScan
0.5297652421037394	0.1471951401956703	InterProScan
0.5297652421037394	0.1471951401956703	InterProScan
0.5297652421037394	0.1471951401956703	InterProScan
0.5297652421037394	0.1471951401956703	InterProScan
0.5297652421037394	0.1471951401956703	InterProScan
0.5297652421037394	0.1471951401956703	InterProScan
0.5297652421037394	0.1471951401956703	InterProScan
0.5297652421037394	0.1471951401956703	InterProScan
0.5297652421037394	0.1471951401956703	InterProScan
0.5297652421037394	0.1471951401956703	InterProScan
0.5297652421037394	0.1471951401956703	InterProScan
0.5297652421037394	0.1471951401956703	InterProScan
0.5297652421037394	0.1471951401956703	InterProScan
0.5297652421037394	0.1471951401956703	InterProScan
0.5297652421037394	0.1471951401956703	InterProScan
0.5297652421037394	0.1471951401956703	InterProScan
0.5297652421037394	0.1471951401956703	InterProScan
0.5297652421037394	0.1471951401956703	InterProScan
0.5297652421037394	0.1471951401956703	InterProScan
0.5297652421037394	0.1471951401956703	InterProScan
0.5297652421037394	0.1471951401956703	InterProScan
0.5297652421037394	0.1471951401956703	InterProScan
0.5297652421037394	0.1471951401956703	InterProScan
0.5297652421037394	0.1471951401956703	InterProScan
0.5297652421037394	0.1471951401956703	InterProScan
0.5297652421037394	0.1471951401956703	InterProScan
0.5297652421037394	0.1471951401956703	InterProScan
0.5297652421037394	0.1471951401956703	InterProScan
0.5297652421037394	0.1471951401956703	InterProScan
0.5297652421037394	0.1471951401956703	InterProScan
0.5297652421037394	0.1471951401956703	InterProScan
0.5297652421037394	0.1471951401956703	InterProScan
0.5297652421037394	0.1471951401956703	InterProScan
0.5297652421037394	0.1471951401956703	InterProScan
0.5297652421037394	0.1471951401956703	InterProScan
0.5297652421037394	0.1471951401956703	InterProScan
0.5297652421037394	0.1471951401956703	InterProScan
0.5297652421037394	0.1471951401956703	InterProScan
0.5297652421037394	0.1471951401956703	InterProScan
0.5297652421037394	0.1471951401956703	InterProScan
0.5297652421037394	0.1471951401956703	InterProScan
0.5297652421037394	0.1471951401956703	InterProScan
0.5297652421037394	0.1471951401956703	InterProScan
0.5297652421037394	0.1471951401956703	InterProScan
0.5297652421037394	0.1471951401956703	InterProScan
0.5297652421037394	0.1471951401956703	InterProScan
0.5297652421037394	0.1471951401956703	InterProScan
0.5297652421037394	0.1471951401956703	InterProScan
0.5297652421037394	0.1471951401956703	InterProScan
0.5297652421037394	0.1471951401956703	InterProScan
0.5297652421037394	0.1471951401956703	InterProScan
0.5297652421037394	0.1471951401956703	InterProScan
0.5297652421037394	0.1471951401956703	InterProScan
0.5297652421037394	0.1471951401956703	InterProScan
0.5297652421037394	0.1471951401956703	InterProScan
0.5297652421037394	0.1471951401956703	InterProScan
0.5297652421037394	0.1471951401956703	InterProScan
0.5297652421037394	0.1471951401956703	InterProScan
0.5297652421037394	0.1471951401956703	InterProScan
0.5297652421037394	0.1471951401956703	InterProScan
0.5297652421037394	0.1471951401956703	InterProScan
0.5297652421037394	0.1471951401956703	InterProScan
0.5297652421037394	0.1471951401956703	InterProScan
0.5297652421037394	0.1471951401956703	InterProScan
0.5297652421037394	0.1471951401956703	InterProScan
0.5297652421037394	0.1471951401956703	InterProScan
0.5297652421037394	0.1471951401956703	InterProScan
0.5297652421037394	0.1471951401956703	InterProScan
0.5297652421037394	0.1471951401956703	InterProScan
0.5297652421037394	0.1471951401956703	InterProScan
0.5297652421037394	0.1471951401956703	InterProScan
0.5297652421037394	0.1471951401956703	InterProScan
0.5297652421037394	0.1471951401956703	InterProScan
0.5297652421037394	0.1471951401956703	InterProScan
0.5297652421037394	0.1471951401956703	InterProScan
0.5297652421037394	0.1471951401956703	InterProScan
0.5297652421037394	0.1471951401956703	InterProScan
0.5297652421037394	0.1471951401956703	InterProScan
0.5297652421037394	0.1471951401956703	InterProScan
0.5297652421037394	0.1471951401956703	InterProScan
0.5297652421037394	0.1471951401956703	InterProScan
0.5297652421037394	0.1471951401956703	InterProScan
0.5297652421037394	0.1471951401956703	InterProScan
0.5297652421037394	0.1471951401956703	InterProScan
0.5297652421037394	0.1471951401956703	InterProScan
0.5297652421037394	0.1471951401956703	InterProScan
0.5297652421037394	0.1471951401956703	InterProScan
0.5297652421037394	0.1471951401956703	InterProScan
0.5297652421037394	0.1471951401956703	InterProScan
0.5297652421037394	0.1471951401956703	InterProScan
0.5297652421037394	0.1471951401956703	InterProScan
0.5297652421037394	0.1471951401956703	InterProScan
0.5297652421037394	0.1471951401956703	InterProScan
0.5297652421037394	0.1471951401956703	InterProScan
0.5297652421037394	0.1471951401956703	InterProScan
0.5297652421037394	0.1471951401956703	InterProScan
0.5297652421037394	0.1471951401956703	InterProScan
0.5297652421037394	0.1471951401956703	InterProScan
0.5297652421037394	0.1471951401956703	InterProScan
0.5297652421037394	0.1471951401956703	InterProScan
0.5297652421037394	0.1471951401956703	InterProScan
0.5297652421037394	0.1471951401956703	InterProScan
0.5297652421037394	0.1471951401956703	InterProScan
0.5297652421037394	0.1471951401956703	InterProScan
0.5297652421037394	0.1471951401956703	InterProScan
0.5297652421037394	0.1471951401956703	InterProScan
0.5297652421037394	0.1471951401956703	InterProScan
0.5297652421037394	0.1471951401956703	InterProScan
0.5297652421037394	0.1471951401956703	InterProScan
0.5297652421037394	0.1471951401956703	InterProScan
0.5297652421037394	0.1471951401956703	InterProScan
0.5297652421037394	0.1471951401956703	InterProScan
0.5297652421037394	0.1471951401956703	InterProScan
0.5297652421037394	0.1471951401956703	InterProScan
0.5297652421037394	0.1471951401956703	InterProScan
0.5297652421037394	0.1471951401956703	InterProScan
0.5297652421037394	0.1471951401956703	InterProScan
0.5297652421037394	0.1471951401956703	InterProScan
0.5297652421037394	0.1471951401956703	InterProScan
0.5297652421037394	0.1471951401956703	InterProScan
0.5297652421037394	0.1471951401956703	InterProScan
0.5297652421037394	0.1471951401956703	InterProScan
0.5297652421037394	0.1471951401956703	InterProScan
0.5297652421037394	0.1471951401956703	InterProScan
0.5297652421037394	0.1471951401956703	InterProScan
0.5297652421037394	0.1471951401956703	InterProScan
0.5297652421037394	0.1471951401956703	InterProScan
0.5297652421037394	0.1471951401956703	InterProScan
0.5297652421037394	0.1471951401956703	InterProScan
0.5297652421037394	0.1471951401956703	InterProScan
0.5297652421037394	0.1471951401956703	InterProScan
0.5297652421037394	0.1471951401956703	InterProScan
0.5297652421037394	0.1471951401956703	InterProScan
0.5297652421037394	0.1471951401956703	InterProScan
0.5297652421037394	0.1471951401956703	InterProScan
0.5297652421037394	0.1471951401956703	InterProScan
0.5297652421037394	0.1471951401956703	InterProScan
0.5297652421037394	0.1471951401956703	InterProScan
0.5297652421037394	0.1471951401956703	InterProScan
0.5297652421037394	0.1471951401956703	InterProScan
0.5297652421037394	0.1471951401956703	InterProScan
0.5297652421037394	0.1471951401956703	InterProScan
0.5297652421037394	0.1471951401956703	InterProScan
0.5297652421037394	0.1471951401956703	InterProScan
0.5297652421037394	0.1471951401956703	InterProScan
0.5297652421037394	0.1471951401956703	InterProScan
0.5297652421037394	0.1471951401956703	InterProScan
0.5297652421037394	0.1471951401956703	InterProScan
0.5297652421037394	0.1471951401956703	InterProScan
0.5297652421037394	0.1471951401956703	InterProScan
0.5297652421037394	0.1471951401956703	InterProScan
0.5297652421037394	0.1471951401956703	InterProScan
0.5297652421037394	0.1471951401956703	InterProScan
0.5297652421037394	0.1471951401956703	InterProScan
0.5297652421037394	0.1471951401956703	InterProScan
0.5297652421037394	0.1471951401956703	InterProScan
0.5297652421037394	0.1471951401956703	InterProScan
0.5297652421037394	0.1471951401956703	InterProScan
0.5297652421037394	0.1471951401956703	InterProScan
0.5297652421037394	0.1471951401956703	InterProScan
0.5297652421037394	0.1471951401956703	InterProScan
0.5297652421037394	0.1471951401956703	InterProScan
0.5297652421037394	0.1471951401956703	InterProScan
0.5297652421037394	0.1471951401956703	InterProScan
0.5297652421037394	0.1471951401956703	InterProScan
0.5297652421037394	0.1471951401956703	InterProScan
0.5297652421037394	0.1471951401956703	InterProScan
0.5297652421037394	0.1471951401956703	InterProScan
0.5297652421037394	0.1471951401956703	InterProScan
0.5297652421037394	0.1471951401956703	InterProScan
0.5297652421037394	0.1471951401956703	InterProScan
0.5297652421037394	0.1471951401956703	InterProScan
0.5297652421037394	0.1471951401956703	InterProScan
0.5297652421037394	0.1471951401956703	InterProScan
0.5297652421037394	0.1471951401956703	InterProScan
0.5297652421037394	0.1471951401956703	InterProScan
0.5297652421037394	0.1471951401956703	InterProScan
0.5297652421037394	0.1471951401956703	InterProScan
0.5297652421037394	0.1471951401956703	InterProScan
0.5297652421037394	0.1471951401956703	InterProScan
0.5297652421037394	0.1471951401956703	InterProScan
0.5297652421037394	0.1471951401956703	InterProScan
0.5297652421037394	0.1471951401956703	InterProScan
0.5297652421037394	0.1471951401956703	InterProScan
0.5297652421037394	0.1471951401956703	InterProScan
0.5297652421037394	0.1471951401956703	InterProScan
0.5297652421037394	0.1471951401956703	InterProScan
0.5297652421037394	0.1471951401956703	InterProScan
0.5297652421037394	0.1471951401956703	InterProScan
0.5297652421037394	0.1471951401956703	InterProScan
0.5297652421037394	0.1471951401956703	InterProScan
0.5297652421037394	0.1471951401956703	InterProScan
0.5297652421037394	0.1471951401956703	InterProScan
0.5297652421037394	0.1471951401956703	InterProScan
0.5297652421037394	0.1471951401956703	InterProScan
0.5297652421037394	0.1471951401956703	InterProScan
0.5297652421037394	0.1471951401956703	InterProScan
0.5297652421037394	0.1471951401956703	InterProScan
0.5297652421037394	0.1471951401956703	InterProScan
0.5297652421037394	0.1471951401956703	InterProScan
0.5297652421037394	0.1471951401956703	InterProScan
0.5297652421037394	0.1471951401956703	InterProScan
0.5297652421037394	0.1471951401956703	InterProScan
0.5297652421037394	0.1471951401956703	InterProScan
0.5297652421037394	0.1471951401956703	InterProScan
0.5297652421037394	0.1471951401956703	InterProScan
0.5297652421037394	0.1471951401956703	InterProScan
0.5297652421037394	0.1471951401956703	InterProScan
0.5297652421037394	0.1471951401956703	InterProScan
0.5297652421037394	0.1471951401956703	InterProScan
0.5297652421037394	0.1471951401956703	InterProScan
0.5297652421037394	0.1471951401956703	InterProScan
0.5297652421037394	0.1471951401956703	InterProScan
0.5297652421037394	0.1471951401956703	InterProScan
0.5297652421037394	0.1471951401956703	InterProScan
0.5297652421037394	0.1471951401956703	InterProScan
0.5297652421037394	0.1471951401956703	InterProScan
0.5297652421037394	0.1471951401956703	InterProScan
0.5297652421037394	0.1471951401956703	InterProScan
0.5297652421037394	0.1471951401956703	InterProScan
0.5297652421037394	0.1471951401956703	InterProScan
0.5297652421037394	0.1471951401956703	InterProScan
0.5297652421037394	0.1471951401956703	InterProScan
0.5297652421037394	0.1471951401956703	InterProScan
0.5297652421037394	0.1471951401956703	InterProScan
0.5297652421037394	0.1471951401956703	InterProScan
0.5297652421037394	0.1471951401956703	InterProScan
0.5297652421037394	0.1471951401956703	InterProScan
0.5297652421037394	0.1471951401956703	InterProScan
0.5297652421037394	0.1471951401956703	InterProScan
0.5297652421037394	0.1471951401956703	InterProScan
0.5297652421037394	0.1471951401956703	InterProScan
0.5297652421037394	0.1471951401956703	InterProScan
0.5297652421037394	0.1471951401956703	InterProScan
0.5297652421037394	0.1471951401956703	InterProScan
0.5297652421037394	0.1471951401956703	InterProScan
0.5297652421037394	0.1471951401956703	InterProScan
0.5297652421037394	0.1471951401956703	InterProScan
0.5297652421037394	0.1471951401956703	InterProScan
0.5297652421037394	0.1471951401956703	InterProScan
0.5297652421037394	0.1471951401956703	InterProScan
0.5297652421037394	0.1471951401956703	InterProScan
0.5297652421037394	0.1471951401956703	InterProScan
0.5297652421037394	0.1471951401956703	InterProScan
0.5297652421037394	0.1471951401956703	InterProScan
0.5297652421037394	0.1471951401956703	InterProScan
0.5297652421037394	0.1471951401956703	InterProScan
0.5297652421037394	0.1471951401956703	InterProScan
0.5297652421037394	0.1471951401956703	InterProScan
0.5297652421037394	0.1471951401956703	InterProScan
0.5297652421037394	0.1471951401956703	InterProScan
0.5297652421037394	0.1471951401956703	InterProScan
0.5297652421037394	0.1471951401956703	InterProScan
0.5297652421037394	0.1471951401956703	InterProScan
0.5297652421037394	0.1471951401956703	InterProScan
0.5297652421037394	0.1471951401956703	InterProScan
0.5297652421037394	0.1471951401956703	InterProScan
0.5297652421037394	0.1471951401956703	InterProScan
0.5297652421037394	0.1471951401956703	InterProScan
0.5297652421037394	0.1471951401956703	InterProScan
0.5297652421037394	0.1471951401956703	InterProScan
0.5297652421037394	0.1471951401956703	InterProScan
0.5297652421037394	0.1471951401956703	InterProScan
0.5297652421037394	0.1471951401956703	InterProScan
0.5297652421037394	0.1471951401956703	InterProScan
0.5297652421037394	0.1471951401956703	InterProScan
0.5297652421037394	0.1471951401956703	InterProScan
0.5297652421037394	0.1471951401956703	InterProScan
0.5297652421037394	0.1471951401956703	InterProScan
0.5297652421037394	0.1471951401956703	InterProScan
0.5297652421037394	0.1471951401956703	InterProScan
0.5297652421037394	0.1471951401956703	InterProScan
0.5297652421037394	0.1471951401956703	InterProScan
0.5297652421037394	0.1471951401956703	InterProScan
0.5297652421037394	0.1471951401956703	InterProScan
0.5297652421037394	0.1471951401956703	InterProScan
0.5297652421037394	0.1471951401956703	InterProScan
0.5297652421037394	0.1471951401956703	InterProScan
0.5297652421037394	0.1471951401956703	InterProScan
0.5297652421037394	0.1471951401956703	InterProScan
0.5297652421037394	0.1471951401956703	InterProScan
0.5297652421037394	0.1471951401956703	InterProScan
0.5297652421037394	0.1471951401956703	InterProScan
0.5297652421037394	0.1471951401956703	InterProScan
0.5297652421037394	0.1471951401956703	InterProScan
0.5297652421037394	0.1471951401956703	InterProScan
0.5297652421037394	0.1471951401956703	InterProScan
0.5297652421037394	0.1471951401956703	InterProScan
0.5297652421037394	0.1471951401956703	InterProScan
0.5297652421037394	0.1471951401956703	InterProScan
0.5297652421037394	0.1471951401956703	InterProScan
0.5297652421037394	0.1471951401956703	InterProScan
0.5297652421037394	0.1471951401956703	InterProScan
0.5297652421037394	0.1471951401956703	InterProScan
0.5297652421037394	0.1471951401956703	InterProScan
0.5297652421037394	0.1471951401956703	InterProScan
0.5297652421037394	0.1471951401956703	InterProScan
0.5297652421037394	0.1471951401956703	InterProScan
0.5297652421037394	0.1471951401956703	InterProScan
0.5297652421037394	0.1471951401956703	InterProScan
0.5297652421037394	0.1471951401956703	InterProScan
0.5297652421037394	0.1471951401956703	InterProScan
0.5297652421037394	0.1471951401956703	InterProScan
0.5297652421037394	0.1471951401956703	InterProScan
0.5297652421037394	0.1471951401956703	InterProScan
0.5297652421037394	0.1471951401956703	InterProScan
0.5297652421037394	0.1471951401956703	InterProScan
0.5297652421037394	0.1471951401956703	InterProScan
0.5297652421037394	0.1471951401956703	InterProScan
0.5297652421037394	0.1471951401956703	InterProScan
0.5297652421037394	0.1471951401956703	InterProScan
0.5297652421037394	0.1471951401956703	InterProScan
0.5297652421037394	0.1471951401956703	InterProScan
0.5297652421037394	0.1471951401956703	InterProScan
0.5297652421037394	0.1471951401956703	InterProScan
0.5297652421037394	0.1471951401956703	InterProScan
0.5297652421037394	0.1471951401956703	InterProScan
0.5297652421037394	0.1471951401956703	InterProScan
0.5297652421037394	0.1471951401956703	InterProScan
0.5297652421037394	0.1471951401956703	InterProScan
0.5297652421037394	0.1471951401956703	InterProScan
0.5297652421037394	0.1471951401956703	InterProScan
0.5297652421037394	0.1471951401956703	InterProScan
0.5297652421037394	0.1471951401956703	InterProScan
0.5297652421037394	0.1471951401956703	InterProScan
0.5297652421037394	0.1471951401956703	InterProScan
0.5297652421037394	0.1471951401956703	InterProScan
0.5297652421037394	0.1471951401956703	InterProScan
0.5297652421037394	0.1471951401956703	InterProScan
0.5297652421037394	0.1471951401956703	InterProScan
0.5297652421037394	0.1471951401956703	InterProScan
0.5297652421037394	0.1471951401956703	InterProScan
0.5297652421037394	0.1471951401956703	InterProScan
0.5297652421037394	0.1471951401956703	InterProScan
0.5297652421037394	0.1471951401956703	InterProScan
0.5297652421037394	0.1471951401956703	InterProScan
0.5297652421037394	0.1471951401956703	InterProScan
0.5297652421037394	0.1471951401956703	InterProScan
0.5297652421037394	0.1471951401956703	InterProScan
0.5297652421037394	0.1471951401956703	InterProScan
0.5297652421037394	0.1471951401956703	InterProScan
0.5297652421037394	0.1471951401956703	InterProScan
0.5297652421037394	0.1471951401956703	InterProScan
0.5297652421037394	0.1471951401956703	InterProScan
0.5297652421037394	0.1471951401956703	InterProScan
0.5297652421037394	0.1471951401956703	InterProScan
0.5297652421037394	0.1471951401956703	InterProScan
0.5297652421037394	0.1471951401956703	InterProScan
0.5297652421037394	0.1471951401956703	InterProScan
0.5297652421037394	0.1471951401956703	InterProScan
0.5297652421037394	0.1471951401956703	InterProScan
0.5297652421037394	0.1471951401956703	InterProScan
0.5297652421037394	0.1471951401956703	InterProScan
0.5297652421037394	0.1471951401956703	InterProScan
0.5297652421037394	0.1471951401956703	InterProScan
0.5297652421037394	0.1471951401956703	InterProScan
0.5297652421037394	0.1471951401956703	InterProScan
0.5297652421037394	0.1471951401956703	InterProScan
0.5297652421037394	0.1471951401956703	InterProScan
0.5297652421037394	0.1471951401956703	InterProScan
0.5297652421037394	0.1471951401956703	InterProScan
0.5297652421037394	0.1471951401956703	InterProScan
0.5297652421037394	0.1471951401956703	InterProScan
0.5297652421037394	0.1471951401956703	InterProScan
0.5297652421037394	0.1471951401956703	InterProScan
0.5297652421037394	0.1471951401956703	InterProScan
0.5297652421037394	0.1471951401956703	InterProScan
0.5297652421037394	0.1471951401956703	InterProScan
0.5297652421037394	0.1471951401956703	InterProScan
0.5297652421037394	0.1471951401956703	InterProScan
0.5297652421037394	0.1471951401956703	InterProScan
0.5297652421037394	0.1471951401956703	InterProScan
0.5297652421037394	0.1471951401956703	InterProScan
0.5297652421037394	0.1471951401956703	InterProScan
0.5297652421037394	0.1471951401956703	InterProScan
0.5297652421037394	0.1471951401956703	InterProScan
0.5297652421037394	0.1471951401956703	InterProScan
0.5297652421037394	0.1471951401956703	InterProScan
0.5297652421037394	0.1471951401956703	InterProScan
0.5297652421037394	0.1471951401956703	InterProScan
0.5297652421037394	0.1471951401956703	InterProScan
0.5297652421037394	0.1471951401956703	InterProScan
0.5297652421037394	0.1471951401956703	InterProScan
0.5297652421037394	0.1471951401956703	InterProScan
0.5297652421037394	0.1471951401956703	InterProScan
0.5297652421037394	0.1471951401956703	InterProScan
0.5297652421037394	0.1471951401956703	InterProScan
0.5297652421037394	0.1471951401956703	InterProScan
0.5297652421037394	0.1471951401956703	InterProScan
0.5297652421037394	0.1471951401956703	InterProScan
0.5297652421037394	0.1471951401956703	InterProScan
0.5297652421037394	0.1471951401956703	InterProScan
0.5297652421037394	0.1471951401956703	InterProScan
0.5297652421037394	0.1471951401956703	InterProScan
0.5297652421037394	0.1471951401956703	InterProScan
0.5297652421037394	0.1471951401956703	InterProScan
0.5297652421037394	0.1471951401956703	InterProScan
