0.35083014644126115	0.41290611203806554	Wei2GO
0.35083014644126115	0.41290611203806554	Wei2GO
0.35083014644126115	0.41290611203806554	Wei2GO
0.35083014644126115	0.41290611203806554	Wei2GO
0.35083014644126115	0.41290611203806554	Wei2GO
0.35083014644126115	0.41290611203806554	Wei2GO
0.35083014644126115	0.41290611203806554	Wei2GO
0.35083014644126115	0.41290611203806554	Wei2GO
0.35083014644126115	0.41290611203806554	Wei2GO
0.35083014644126115	0.41290611203806554	Wei2GO
0.35083014644126115	0.41290611203806554	Wei2GO
0.35083014644126115	0.41290611203806554	Wei2GO
0.35083014644126115	0.41290611203806554	Wei2GO
0.35083014644126115	0.41290611203806554	Wei2GO
0.35083014644126115	0.41290611203806554	Wei2GO
0.35083014644126115	0.41290611203806554	Wei2GO
0.35083014644126115	0.41290611203806554	Wei2GO
0.35083014644126115	0.41290611203806554	Wei2GO
0.35083014644126115	0.41290611203806554	Wei2GO
0.35083014644126115	0.41290611203806554	Wei2GO
0.35083014644126115	0.41290611203806554	Wei2GO
0.35083014644126115	0.41290611203806554	Wei2GO
0.35083014644126115	0.41290611203806554	Wei2GO
0.35083014644126115	0.41290611203806554	Wei2GO
0.35083014644126115	0.41290611203806554	Wei2GO
0.35083014644126115	0.41290611203806554	Wei2GO
0.35083014644126115	0.41290611203806554	Wei2GO
0.35083014644126115	0.41290611203806554	Wei2GO
0.35083014644126115	0.41290611203806554	Wei2GO
0.35083014644126115	0.41290611203806554	Wei2GO
0.35083014644126115	0.41290611203806554	Wei2GO
0.35083014644126115	0.41290611203806554	Wei2GO
0.35083014644126115	0.41290611203806554	Wei2GO
0.35083014644126115	0.41290611203806554	Wei2GO
0.35083014644126115	0.41290611203806554	Wei2GO
0.35083014644126115	0.41290611203806554	Wei2GO
0.35083014644126115	0.41290611203806554	Wei2GO
0.35083014644126115	0.41290611203806554	Wei2GO
0.35083014644126115	0.41290611203806554	Wei2GO
0.35083014644126115	0.41290611203806554	Wei2GO
0.35083014644126115	0.41290611203806554	Wei2GO
0.35083014644126115	0.41290611203806554	Wei2GO
0.35083014644126115	0.41290611203806554	Wei2GO
0.35083014644126115	0.41290611203806554	Wei2GO
0.35083014644126115	0.41290611203806554	Wei2GO
0.35083014644126115	0.41290611203806554	Wei2GO
0.35083014644126115	0.41290611203806554	Wei2GO
0.35083014644126115	0.41290611203806554	Wei2GO
0.35083014644126115	0.41290611203806554	Wei2GO
0.35083014644126115	0.41290611203806554	Wei2GO
0.35083014644126115	0.41290611203806554	Wei2GO
0.35083014644126115	0.41290611203806554	Wei2GO
0.35083014644126115	0.41290611203806554	Wei2GO
0.35083014644126115	0.41290611203806554	Wei2GO
0.35083014644126115	0.41290611203806554	Wei2GO
0.35083014644126115	0.41290611203806554	Wei2GO
0.35083014644126115	0.41290611203806554	Wei2GO
0.35083014644126115	0.41290611203806554	Wei2GO
0.35083014644126115	0.41290611203806554	Wei2GO
0.35083014644126115	0.41290611203806554	Wei2GO
0.35083014644126115	0.41290611203806554	Wei2GO
0.35083014644126115	0.41290611203806554	Wei2GO
0.35083014644126115	0.41290611203806554	Wei2GO
0.35083014644126115	0.41290611203806554	Wei2GO
0.35083014644126115	0.41290611203806554	Wei2GO
0.35083014644126115	0.41290611203806554	Wei2GO
0.35083014644126115	0.41290611203806554	Wei2GO
0.35083014644126115	0.41290611203806554	Wei2GO
0.35083014644126115	0.41290611203806554	Wei2GO
0.35083014644126115	0.41290611203806554	Wei2GO
0.35083014644126115	0.41290611203806554	Wei2GO
0.35083014644126115	0.41290611203806554	Wei2GO
0.35083014644126115	0.41290611203806554	Wei2GO
0.35083014644126115	0.41290611203806554	Wei2GO
0.35083014644126115	0.41290611203806554	Wei2GO
0.35083014644126115	0.41290611203806554	Wei2GO
0.35083014644126115	0.41290611203806554	Wei2GO
0.35083014644126115	0.41290611203806554	Wei2GO
0.35083014644126115	0.41290611203806554	Wei2GO
0.35083014644126115	0.41290611203806554	Wei2GO
0.35083014644126115	0.41290611203806554	Wei2GO
0.35083014644126115	0.41290611203806554	Wei2GO
0.35083014644126115	0.41290611203806554	Wei2GO
0.35083014644126115	0.41290611203806554	Wei2GO
0.35083014644126115	0.41290611203806554	Wei2GO
0.35083014644126115	0.41290611203806554	Wei2GO
0.35083014644126115	0.41290611203806554	Wei2GO
0.35083014644126115	0.41290611203806554	Wei2GO
0.35083014644126115	0.41290611203806554	Wei2GO
0.35083014644126115	0.41290611203806554	Wei2GO
0.35083014644126115	0.41290611203806554	Wei2GO
0.35083014644126115	0.41290611203806554	Wei2GO
0.35083014644126115	0.41290611203806554	Wei2GO
0.35083014644126115	0.41290611203806554	Wei2GO
0.35083014644126115	0.41290611203806554	Wei2GO
0.35083014644126115	0.41290611203806554	Wei2GO
0.35083014644126115	0.41290611203806554	Wei2GO
0.35083014644126115	0.41290611203806554	Wei2GO
0.35083014644126115	0.41290611203806554	Wei2GO
0.35083014644126115	0.41290611203806554	Wei2GO
0.35083014644126115	0.41290611203806554	Wei2GO
0.35083014644126115	0.41290611203806554	Wei2GO
0.35083014644126115	0.41290611203806554	Wei2GO
0.35083014644126115	0.41290611203806554	Wei2GO
0.35083014644126115	0.41290611203806554	Wei2GO
0.35083014644126115	0.41290611203806554	Wei2GO
0.35083014644126115	0.41290611203806554	Wei2GO
0.35083014644126115	0.41290611203806554	Wei2GO
0.35083014644126115	0.41290611203806554	Wei2GO
0.35083014644126115	0.41290611203806554	Wei2GO
0.35083014644126115	0.41290611203806554	Wei2GO
0.35083014644126115	0.41290611203806554	Wei2GO
0.35083014644126115	0.41290611203806554	Wei2GO
0.35083014644126115	0.41290611203806554	Wei2GO
0.35083014644126115	0.41290611203806554	Wei2GO
0.35083014644126115	0.41290611203806554	Wei2GO
0.35083014644126115	0.41290611203806554	Wei2GO
0.35083014644126115	0.41290611203806554	Wei2GO
0.35083014644126115	0.41290611203806554	Wei2GO
0.35083014644126115	0.41290611203806554	Wei2GO
0.35083014644126115	0.41290611203806554	Wei2GO
0.35083014644126115	0.41290611203806554	Wei2GO
0.35083014644126115	0.41290611203806554	Wei2GO
0.35083014644126115	0.41290611203806554	Wei2GO
0.35083014644126115	0.41290611203806554	Wei2GO
0.35083014644126115	0.41290611203806554	Wei2GO
0.35083014644126115	0.41290611203806554	Wei2GO
0.35083014644126115	0.41290611203806554	Wei2GO
0.35083014644126115	0.41290611203806554	Wei2GO
0.35083014644126115	0.41290611203806554	Wei2GO
0.35083014644126115	0.41290611203806554	Wei2GO
0.35083014644126115	0.41290611203806554	Wei2GO
0.35083014644126115	0.41290611203806554	Wei2GO
0.35083014644126115	0.41290611203806554	Wei2GO
0.35083014644126115	0.41290611203806554	Wei2GO
0.35083014644126115	0.41290611203806554	Wei2GO
0.35083014644126115	0.41290611203806554	Wei2GO
0.35083014644126115	0.41290611203806554	Wei2GO
0.35083014644126115	0.41290611203806554	Wei2GO
0.35083014644126115	0.41290611203806554	Wei2GO
0.35083014644126115	0.41290611203806554	Wei2GO
0.35083014644126115	0.41290611203806554	Wei2GO
0.35083014644126115	0.41290611203806554	Wei2GO
0.35083014644126115	0.41290611203806554	Wei2GO
0.35083014644126115	0.41290611203806554	Wei2GO
0.35083014644126115	0.41290611203806554	Wei2GO
0.35083014644126115	0.41290611203806554	Wei2GO
0.35083014644126115	0.41290611203806554	Wei2GO
0.35083014644126115	0.41290611203806554	Wei2GO
0.35083014644126115	0.41290611203806554	Wei2GO
0.35083014644126115	0.41290611203806554	Wei2GO
0.35083014644126115	0.41290611203806554	Wei2GO
0.35083014644126115	0.41290611203806554	Wei2GO
0.35083014644126115	0.41290611203806554	Wei2GO
0.35083014644126115	0.41290611203806554	Wei2GO
0.35083014644126115	0.41290611203806554	Wei2GO
0.35083014644126115	0.41290611203806554	Wei2GO
0.35083014644126115	0.41290611203806554	Wei2GO
0.35083014644126115	0.41290611203806554	Wei2GO
0.35083014644126115	0.41290611203806554	Wei2GO
0.35083014644126115	0.41290611203806554	Wei2GO
0.35083014644126115	0.41290611203806554	Wei2GO
0.35083014644126115	0.41290611203806554	Wei2GO
0.35083014644126115	0.41290611203806554	Wei2GO
0.35083014644126115	0.41290611203806554	Wei2GO
0.35083014644126115	0.41290611203806554	Wei2GO
0.35083014644126115	0.41290611203806554	Wei2GO
0.35083014644126115	0.41290611203806554	Wei2GO
0.35083014644126115	0.41290611203806554	Wei2GO
0.35083014644126115	0.41290611203806554	Wei2GO
0.35083014644126115	0.41290611203806554	Wei2GO
0.35083014644126115	0.41290611203806554	Wei2GO
0.35083014644126115	0.41290611203806554	Wei2GO
0.35083014644126115	0.41290611203806554	Wei2GO
0.35083014644126115	0.41290611203806554	Wei2GO
0.35083014644126115	0.41290611203806554	Wei2GO
0.35083014644126115	0.41290611203806554	Wei2GO
0.35083014644126115	0.41290611203806554	Wei2GO
0.35083014644126115	0.41290611203806554	Wei2GO
0.35083014644126115	0.41290611203806554	Wei2GO
0.35083014644126115	0.41290611203806554	Wei2GO
0.35083014644126115	0.41290611203806554	Wei2GO
0.35083014644126115	0.41290611203806554	Wei2GO
0.35083014644126115	0.41290611203806554	Wei2GO
0.35083014644126115	0.41290611203806554	Wei2GO
0.35083014644126115	0.41290611203806554	Wei2GO
0.35083014644126115	0.41290611203806554	Wei2GO
0.35083014644126115	0.41290611203806554	Wei2GO
0.35083014644126115	0.41290611203806554	Wei2GO
0.35083014644126115	0.41290611203806554	Wei2GO
0.35083014644126115	0.41290611203806554	Wei2GO
0.35083014644126115	0.41290611203806554	Wei2GO
0.35083014644126115	0.41290611203806554	Wei2GO
0.35083014644126115	0.41290611203806554	Wei2GO
0.35083014644126115	0.41290611203806554	Wei2GO
0.35083014644126115	0.41290611203806554	Wei2GO
0.35083014644126115	0.41290611203806554	Wei2GO
0.35083014644126115	0.41290611203806554	Wei2GO
0.35083014644126115	0.41290611203806554	Wei2GO
0.35083014644126115	0.41290611203806554	Wei2GO
0.35083014644126115	0.41290611203806554	Wei2GO
0.35083014644126115	0.41290611203806554	Wei2GO
0.35083014644126115	0.41290611203806554	Wei2GO
0.35083014644126115	0.41290611203806554	Wei2GO
0.35083014644126115	0.41290611203806554	Wei2GO
0.35083014644126115	0.41290611203806554	Wei2GO
0.35083014644126115	0.41290611203806554	Wei2GO
0.35083014644126115	0.41290611203806554	Wei2GO
0.35083014644126115	0.41290611203806554	Wei2GO
0.35083014644126115	0.41290611203806554	Wei2GO
0.35083014644126115	0.41290611203806554	Wei2GO
0.35083014644126115	0.41290611203806554	Wei2GO
0.35083014644126115	0.41290611203806554	Wei2GO
0.35083014644126115	0.41290611203806554	Wei2GO
0.35083014644126115	0.41290611203806554	Wei2GO
0.35083014644126115	0.41290611203806554	Wei2GO
0.35083014644126115	0.41290611203806554	Wei2GO
0.35083014644126115	0.41290611203806554	Wei2GO
0.35083014644126115	0.41290611203806554	Wei2GO
0.35083014644126115	0.41290611203806554	Wei2GO
0.35083014644126115	0.41290611203806554	Wei2GO
0.35083014644126115	0.41290611203806554	Wei2GO
0.35083014644126115	0.41290611203806554	Wei2GO
0.35083014644126115	0.41290611203806554	Wei2GO
0.35083014644126115	0.41290611203806554	Wei2GO
0.35083014644126115	0.41290611203806554	Wei2GO
0.35083014644126115	0.41290611203806554	Wei2GO
0.35083014644126115	0.41290611203806554	Wei2GO
0.35083014644126115	0.41290611203806554	Wei2GO
0.35083014644126115	0.41290611203806554	Wei2GO
0.35083014644126115	0.41290611203806554	Wei2GO
0.35083014644126115	0.41290611203806554	Wei2GO
0.35083014644126115	0.41290611203806554	Wei2GO
0.35083014644126115	0.41290611203806554	Wei2GO
0.35083014644126115	0.41290611203806554	Wei2GO
0.35083014644126115	0.41290611203806554	Wei2GO
0.35083014644126115	0.41290611203806554	Wei2GO
0.35083014644126115	0.41290611203806554	Wei2GO
0.35083014644126115	0.41290611203806554	Wei2GO
0.35083014644126115	0.41290611203806554	Wei2GO
0.35083014644126115	0.41290611203806554	Wei2GO
0.35144548743973864	0.4123618449843646	Wei2GO
0.35144548743973864	0.4123618449843646	Wei2GO
0.35144548743973864	0.4123618449843646	Wei2GO
0.35175441716339456	0.41208971145751405	Wei2GO
0.35175441716339456	0.41208971145751405	Wei2GO
0.35175441716339456	0.41208971145751405	Wei2GO
0.35175441716339456	0.41208971145751405	Wei2GO
0.35175441716339456	0.41208971145751405	Wei2GO
0.35175441716339456	0.41208971145751405	Wei2GO
0.35175441716339456	0.41208971145751405	Wei2GO
0.35206419095733366	0.4118175779306636	Wei2GO
0.35206419095733366	0.4118175779306636	Wei2GO
0.35206419095733366	0.4118175779306636	Wei2GO
0.35206419095733366	0.4118175779306636	Wei2GO
0.35206419095733366	0.4118175779306636	Wei2GO
0.35206419095733366	0.4118175779306636	Wei2GO
0.3520800694820826	0.4118175779306636	Wei2GO
0.3520800694820826	0.4118175779306636	Wei2GO
0.3520800694820826	0.4118175779306636	Wei2GO
0.3520800694820826	0.4118175779306636	Wei2GO
0.3520800694820826	0.4118175779306636	Wei2GO
0.3520800694820826	0.4118175779306636	Wei2GO
0.3520800694820826	0.4118175779306636	Wei2GO
0.3520800694820826	0.4118175779306636	Wei2GO
0.3520800694820826	0.4118175779306636	Wei2GO
0.3520800694820826	0.4118175779306636	Wei2GO
0.3520800694820826	0.4118175779306636	Wei2GO
0.3520800694820826	0.4118175779306636	Wei2GO
0.3521407914544352	0.41159295978151716	Wei2GO
0.35216366274481914	0.41159295978151716	Wei2GO
0.35216366274481914	0.41159295978151716	Wei2GO
0.35216366274481914	0.41159295978151716	Wei2GO
0.35216366274481914	0.41159295978151716	Wei2GO
0.35216366274481914	0.41159295978151716	Wei2GO
0.35216366274481914	0.41159295978151716	Wei2GO
0.35216366274481914	0.41159295978151716	Wei2GO
0.35216366274481914	0.41159295978151716	Wei2GO
0.35216366274481914	0.41159295978151716	Wei2GO
0.35216366274481914	0.41159295978151716	Wei2GO
0.35216366274481914	0.41159295978151716	Wei2GO
0.35216366274481914	0.41159295978151716	Wei2GO
0.35216366274481914	0.41159295978151716	Wei2GO
0.35216366274481914	0.41159295978151716	Wei2GO
0.35216366274481914	0.41159295978151716	Wei2GO
0.35216366274481914	0.41159295978151716	Wei2GO
0.35216366274481914	0.41159295978151716	Wei2GO
0.35216366274481914	0.41159295978151716	Wei2GO
0.35216366274481914	0.41159295978151716	Wei2GO
0.35216366274481914	0.41159295978151716	Wei2GO
0.35216366274481914	0.41159295978151716	Wei2GO
0.35216366274481914	0.41159295978151716	Wei2GO
0.35216366274481914	0.41159295978151716	Wei2GO
0.35216366274481914	0.41159295978151716	Wei2GO
0.35216366274481914	0.41159295978151716	Wei2GO
0.35216366274481914	0.41159295978151716	Wei2GO
0.35216366274481914	0.41159295978151716	Wei2GO
0.35216366274481914	0.41159295978151716	Wei2GO
0.35216366274481914	0.41159295978151716	Wei2GO
0.35216366274481914	0.41159295978151716	Wei2GO
0.35216510182440686	0.41159295978151716	Wei2GO
0.35216510182440686	0.41159295978151716	Wei2GO
0.35216510182440686	0.41159295978151716	Wei2GO
0.35216510182440686	0.41159295978151716	Wei2GO
0.35216510182440686	0.41159295978151716	Wei2GO
0.35216510182440686	0.41159295978151716	Wei2GO
0.35216510182440686	0.41159295978151716	Wei2GO
0.35216510182440686	0.41159295978151716	Wei2GO
0.35216510182440686	0.41159295978151716	Wei2GO
0.35216510182440686	0.41159295978151716	Wei2GO
0.3521696603633837	0.41159295978151716	Wei2GO
0.3521696603633837	0.41159295978151716	Wei2GO
0.3521696603633837	0.41159295978151716	Wei2GO
0.3521696603633837	0.41159295978151716	Wei2GO
0.3521696603633837	0.41159295978151716	Wei2GO
0.3521696603633837	0.41159295978151716	Wei2GO
0.3521696603633837	0.41159295978151716	Wei2GO
0.3521696603633837	0.41159295978151716	Wei2GO
0.3521696603633837	0.41159295978151716	Wei2GO
0.3521696603633837	0.41159295978151716	Wei2GO
0.3521696603633837	0.41159295978151716	Wei2GO
0.3521696603633837	0.41159295978151716	Wei2GO
0.3521696603633837	0.41159295978151716	Wei2GO
0.3521696603633837	0.41159295978151716	Wei2GO
0.3521696603633837	0.41159295978151716	Wei2GO
0.3521696603633837	0.41159295978151716	Wei2GO
0.3521696603633837	0.41159295978151716	Wei2GO
0.3521696603633837	0.41159295978151716	Wei2GO
0.3521696603633837	0.41159295978151716	Wei2GO
0.35224026625014954	0.41159295978151716	Wei2GO
0.35224026625014954	0.41159295978151716	Wei2GO
0.35224026625014954	0.41159295978151716	Wei2GO
0.35224026625014954	0.41159295978151716	Wei2GO
0.352349167590241	0.41159295978151716	Wei2GO
0.352349167590241	0.41159295978151716	Wei2GO
0.352349167590241	0.41159295978151716	Wei2GO
0.352349167590241	0.41159295978151716	Wei2GO
0.352349167590241	0.41159295978151716	Wei2GO
0.352349167590241	0.41159295978151716	Wei2GO
0.352349167590241	0.41159295978151716	Wei2GO
0.352349167590241	0.41159295978151716	Wei2GO
0.352349167590241	0.41159295978151716	Wei2GO
0.352349167590241	0.41159295978151716	Wei2GO
0.352349167590241	0.41159295978151716	Wei2GO
0.352349167590241	0.41159295978151716	Wei2GO
0.352349167590241	0.41159295978151716	Wei2GO
0.3523552333880732	0.41159295978151716	Wei2GO
0.3523552333880732	0.41159295978151716	Wei2GO
0.3523552333880732	0.41159295978151716	Wei2GO
0.3523552333880732	0.41159295978151716	Wei2GO
0.35339046834943666	0.4115707098705168	Wei2GO
0.35339046834943666	0.4115707098705168	Wei2GO
0.35339046834943666	0.4115707098705168	Wei2GO
0.35339046834943666	0.4115707098705168	Wei2GO
0.35339046834943666	0.4115707098705168	Wei2GO
0.35339046834943666	0.4115707098705168	Wei2GO
0.35339046834943666	0.4115707098705168	Wei2GO
0.35339046834943666	0.4115707098705168	Wei2GO
0.35339046834943666	0.4115707098705168	Wei2GO
0.35339046834943666	0.4115707098705168	Wei2GO
0.35339046834943666	0.4115707098705168	Wei2GO
0.35339046834943666	0.4115707098705168	Wei2GO
0.35339046834943666	0.4115707098705168	Wei2GO
0.35339046834943666	0.4115707098705168	Wei2GO
0.35339046834943666	0.4115707098705168	Wei2GO
0.35300233655713026	0.4104535301287094	Wei2GO
0.35300233655713026	0.4104535301287094	Wei2GO
0.35300233655713026	0.4104535301287094	Wei2GO
0.35300233655713026	0.4104535301287094	Wei2GO
0.35329020668548644	0.41034632601207127	Wei2GO
0.35329020668548644	0.41034632601207127	Wei2GO
0.35329020668548644	0.41034632601207127	Wei2GO
0.35329020668548644	0.41034632601207127	Wei2GO
0.35329020668548644	0.41034632601207127	Wei2GO
0.35272887637915645	0.4096885854753316	Wei2GO
0.35272887637915645	0.4096885854753316	Wei2GO
0.352761869610498	0.4096885854753316	Wei2GO
0.352761869610498	0.4096885854753316	Wei2GO
0.3527841381512852	0.4096885854753316	Wei2GO
0.3527841381512852	0.4096885854753316	Wei2GO
0.3527841381512852	0.4096885854753316	Wei2GO
0.3527841381512852	0.4096885854753316	Wei2GO
0.352815314108387	0.4096885854753316	Wei2GO
0.3532570247046897	0.40952012186347175	Wei2GO
0.3532570247046897	0.40952012186347175	Wei2GO
0.3532570247046897	0.40952012186347175	Wei2GO
0.3532570247046897	0.40952012186347175	Wei2GO
0.3532570247046897	0.40952012186347175	Wei2GO
0.3532570247046897	0.40952012186347175	Wei2GO
0.3532570247046897	0.40952012186347175	Wei2GO
0.3532570247046897	0.40952012186347175	Wei2GO
0.3532570247046897	0.40952012186347175	Wei2GO
0.35369708480286216	0.4094864291410998	Wei2GO
0.35369708480286216	0.4094864291410998	Wei2GO
0.35369708480286216	0.4094864291410998	Wei2GO
0.35369708480286216	0.4094864291410998	Wei2GO
0.35369708480286216	0.4094864291410998	Wei2GO
0.35330681748487597	0.4089927915807663	Wei2GO
0.35330681748487597	0.4089927915807663	Wei2GO
0.35330681748487597	0.4089927915807663	Wei2GO
0.3536506964394839	0.40893072603955477	Wei2GO
0.3536506964394839	0.40893072603955477	Wei2GO
0.3536506964394839	0.40893072603955477	Wei2GO
0.3536506964394839	0.40893072603955477	Wei2GO
0.3536506964394839	0.40893072603955477	Wei2GO
0.3536496553733814	0.4089026487709114	Wei2GO
0.3536496553733814	0.4089026487709114	Wei2GO
0.3537388091764279	0.40888733389710596	Wei2GO
0.3541767036742633	0.40888733389710596	Wei2GO
0.3541894493730998	0.40888733389710596	Wei2GO
0.3541894493730998	0.40888733389710596	Wei2GO
0.3541894493730998	0.40888733389710596	Wei2GO
0.3541894493730998	0.40888733389710596	Wei2GO
0.3541894493730998	0.40888733389710596	Wei2GO
0.3541894493730998	0.40888733389710596	Wei2GO
0.35424415738860554	0.40888733389710596	Wei2GO
0.3543333111916521	0.40887201902330056	Wei2GO
0.3544224649946986	0.4088567041494951	Wei2GO
0.35353323973987033	0.4086787048614922	Wei2GO
0.35363801234141595	0.4086787048614922	Wei2GO
0.35363801234141595	0.4086787048614922	Wei2GO
0.35363801234141595	0.4086787048614922	Wei2GO
0.35363801234141595	0.4086787048614922	Wei2GO
0.35363801234141595	0.4086787048614922	Wei2GO
0.35363801234141595	0.4086787048614922	Wei2GO
0.35363801234141595	0.4086787048614922	Wei2GO
0.3537272889458441	0.4086633899876868	Wei2GO
0.3537272889458441	0.4086633899876868	Wei2GO
0.35377527565390987	0.4086633899876868	Wei2GO
0.35377527565390987	0.4086633899876868	Wei2GO
0.3532999672632409	0.40820194618128813	Wei2GO
0.3532999672632409	0.40820194618128813	Wei2GO
0.3528434326910937	0.4076576791275871	Wei2GO
0.3528434326910937	0.4076576791275871	Wei2GO
0.35283048710398546	0.40751027346720975	Wei2GO
0.35283048710398546	0.40751027346720975	Wei2GO
0.35283048710398546	0.40751027346720975	Wei2GO
0.35283048710398546	0.40751027346720975	Wei2GO
0.3526674602611167	0.40662583950494563	Wei2GO
0.3526698269457702	0.40662583950494563	Wei2GO
0.3526837592944133	0.40643563865284577	Wei2GO
0.35262274806045185	0.40634828715039994	Wei2GO
0.35262274806045185	0.40634828715039994	Wei2GO
0.3526233259949141	0.40634828715039994	Wei2GO
0.3526233259949141	0.40634828715039994	Wei2GO
0.3526233259949141	0.40634828715039994	Wei2GO
0.3526233259949141	0.40634828715039994	Wei2GO
0.3526233259949141	0.40634828715039994	Wei2GO
0.35301774897329785	0.4062970156163556	Wei2GO
0.35301774897329785	0.4062970156163556	Wei2GO
0.353464912638923	0.40626677855781673	Wei2GO
0.3536338832552769	0.40603092950121294	Wei2GO
0.35375100386527336	0.40603092950121294	Wei2GO
0.35329059870873564	0.4056214693334981	Wei2GO
0.35329059870873564	0.4056214693334981	Wei2GO
0.3533264744352191	0.4056214693334981	Wei2GO
0.3533264744352191	0.4056214693334981	Wei2GO
0.35335693733279455	0.4056214693334981	Wei2GO
0.35335693733279455	0.4056214693334981	Wei2GO
0.35335693733279455	0.4056214693334981	Wei2GO
0.35335693733279455	0.4056214693334981	Wei2GO
0.35345477342855885	0.40550808036397706	Wei2GO
0.35345477342855885	0.40550808036397706	Wei2GO
0.35345477342855885	0.40550808036397706	Wei2GO
0.3535167620508335	0.4053606747035997	Wei2GO
0.3535167620508335	0.4053606747035997	Wei2GO
0.3535206715851298	0.4053606747035997	Wei2GO
0.3535206715851298	0.4053606747035997	Wei2GO
0.3535206715851298	0.4053606747035997	Wei2GO
0.3535206715851298	0.4053606747035997	Wei2GO
0.3535786159972651	0.4053606747035997	Wei2GO
0.35390413977406426	0.40531929767612535	Wei2GO
0.35364657705329616	0.4048934591017019	Wei2GO
0.3537667981075642	0.4048443238815761	Wei2GO
0.3532238141391658	0.4043952559627053	Wei2GO
0.35365979885053933	0.4040195160440963	Wei2GO
0.35390171489715816	0.40362643428309003	Wei2GO
0.35416454081910476	0.40348207671329117	Wei2GO
0.35400807054671596	0.4031645875986323	Wei2GO
0.35396104051936456	0.4029680467181291	Wei2GO
0.3539900159482009	0.4029680467181291	Wei2GO
0.3539900159482009	0.4029680467181291	Wei2GO
0.35374932314765845	0.4018508669763217	Wei2GO
0.35396791318662546	0.4018508669763217	Wei2GO
0.35396791318662546	0.4018508669763217	Wei2GO
0.35396791318662546	0.4018508669763217	Wei2GO
0.35396914618359726	0.4018508669763217	Wei2GO
0.35435169224336716	0.40141998889214175	Wei2GO
0.35435169224336716	0.40141998889214175	Wei2GO
0.35453292929786323	0.40141998889214175	Wei2GO
0.35462577980854104	0.4012784794581795	Wei2GO
0.35532722554162244	0.4010966985647497	Wei2GO
0.35537862726666436	0.4010966985647497	Wei2GO
0.3553096203308102	0.40073779782643965	Wei2GO
0.35666038816543366	0.40069244223863126	Wei2GO
0.35666038816543366	0.40069244223863126	Wei2GO
0.35646160108817326	0.4005683111562081	Wei2GO
0.3569520309992757	0.40038405408073646	Wei2GO
0.35700805374326716	0.4003445263058867	Wei2GO
0.3567161474685177	0.40028135245143925	Wei2GO
0.35585282835179266	0.39979578086431383	Wei2GO
0.35719111096056033	0.39979578086431383	Wei2GO
0.35719111096056033	0.39979578086431383	Wei2GO
0.35707057341681075	0.39768555246312215	Wei2GO
0.35707057341681075	0.39768555246312215	Wei2GO
0.35685478897927875	0.39650919394946205	Wei2GO
0.35685478897927875	0.39650919394946205	Wei2GO
0.3569106117867863	0.39650919394946205	Wei2GO
0.3574880311837478	0.39650919394946205	Wei2GO
0.3576283622252482	0.39650919394946205	Wei2GO
0.3576283622252482	0.39650919394946205	Wei2GO
0.3576283622252482	0.39650919394946205	Wei2GO
0.3576283622252482	0.39650919394946205	Wei2GO
0.35801710086570726	0.39636178828908464	Wei2GO
0.3580342698467114	0.39636178828908464	Wei2GO
0.3580342698467114	0.39636178828908464	Wei2GO
0.3580342698467114	0.39636178828908464	Wei2GO
0.3580342698467114	0.3962307610354159	Wei2GO
0.35805429828709673	0.3962307610354159	Wei2GO
0.35855484652355607	0.3962033367265085	Wei2GO
0.3587990707301	0.3962033367265085	Wei2GO
0.3587777779168192	0.3955683584971907	Wei2GO
0.3598436325038005	0.39506596039373393	Wei2GO
0.35988538499503253	0.39506596039373393	Wei2GO
0.35988538499503253	0.39506596039373393	Wei2GO
0.3592905279741192	0.39464480136408436	Wei2GO
0.3592987500248774	0.39463856197105257	Wei2GO
0.3593057131519544	0.39463856197105257	Wei2GO
0.3599152743653889	0.394420091265988	Wei2GO
0.359939350445803	0.394420091265988	Wei2GO
0.360488823213103	0.39423446932329054	Wei2GO
0.3604819631161525	0.39389297954341634	Wei2GO
0.3606380110866555	0.3938309140022048	Wei2GO
0.3606938874137183	0.3937615466326155	Wei2GO
0.3606848334627186	0.39374282845351993	Wei2GO
0.3601025785435446	0.3917994493615832	Wei2GO
0.3602042275000412	0.3915831097367108	Wei2GO
0.3601115171120611	0.39087762882897237	Wei2GO
0.36011190560201034	0.39087762882897237	Wei2GO
0.3601911279022993	0.39075970430067053	Wei2GO
0.36019452015133846	0.39072946724213153	Wei2GO
0.3598614856345844	0.39015578034768994	Wei2GO
0.359465969892534	0.3895820934532483	Wei2GO
0.359470832323555	0.3895820934532483	Wei2GO
0.3598988532786541	0.3888113984264605	Wei2GO
0.3601176470512498	0.38841831666545423	Wei2GO
0.36066120229766635	0.38841831666545423	Wei2GO
0.36039661407508133	0.3875666395166073	Wei2GO
0.36041053696781017	0.3875666395166073	Wei2GO
0.36082739925058627	0.3872048256229538	Wei2GO
0.36114026803432714	0.3866152029814443	Wei2GO
0.3611649347256605	0.3866152029814443	Wei2GO
0.3611649347256605	0.3866152029814443	Wei2GO
0.36263014357753587	0.3860148195043961	Wei2GO
0.36151991997789007	0.3845587953363713	Wei2GO
0.36216890324887746	0.3844562522682827	Wei2GO
0.3621654316617017	0.38440354856848297	Wei2GO
0.36220489378629883	0.38440354856848297	Wei2GO
0.36220577596903064	0.38440354856848297	Wei2GO
0.36169867651346294	0.3831730317514198	Wei2GO
0.36157836910065916	0.3829077015627405	Wei2GO
0.3619346761864277	0.3827976705627023	Wei2GO
0.3610807688158485	0.38236885409614996	Wei2GO
0.360795351511746	0.3819757723351436	Wei2GO
0.36078026841354477	0.3816129276326763	Wei2GO
0.3607897426654433	0.3816129276326763	Wei2GO
0.36157603778318753	0.38150713332099495	Wei2GO
0.3606521246685467	0.3808332788735556	Wei2GO
0.3597995001420521	0.38031441094902735	Wei2GO
0.35981013737748646	0.38030123502407737	Wei2GO
0.3596708395511076	0.38020015685696146	Wei2GO
0.36041586618051125	0.38010944568134464	Wei2GO
0.3613904418328931	0.37978620726682266	Wei2GO
0.3614013308584513	0.37978620726682266	Wei2GO
0.36142073226052596	0.37978620726682266	Wei2GO
0.3619992884329668	0.3793145091536151	Wei2GO
0.3623015824672678	0.37840352975951247	Wei2GO
0.35992858571359926	0.37531844693650024	Wei2GO
0.36074053857621835	0.3744519164957394	Wei2GO
0.3608676476288206	0.3742676594202677	Wei2GO
0.3608902586189112	0.3741404859093539	Wei2GO
0.3606392834574099	0.3737127204635529	Wei2GO
0.36158927436966987	0.3726899168535291	Wei2GO
0.3618466273108464	0.3726899168535291	Wei2GO
0.3619948386560375	0.371922471510612	Wei2GO
0.362212834659384	0.3719002215996116	Wei2GO
0.36225255348068747	0.37149004932725727	Wei2GO
0.36277490291965114	0.3713215857153974	Wei2GO
0.36240224966864937	0.37083601412827205	Wei2GO
0.3624295661022158	0.37083601412827205	Wei2GO
0.36111183061105445	0.36939315267588074	Wei2GO
0.3617293829385982	0.36930750916370614	Wei2GO
0.36097140443629955	0.36887922282740093	Wei2GO
0.36115778378385166	0.36887922282740093	Wei2GO
0.36113179056662553	0.36737006963782315	Wei2GO
0.36241237336346127	0.3670903768463379	Wei2GO
0.3629490710060561	0.3669364198232772	Wei2GO
0.36296587885868487	0.3669364198232772	Wei2GO
0.36333377308180576	0.36636438404234645	Wei2GO
0.3630153997736228	0.36527691315912975	Wei2GO
0.3631037454717723	0.3650129868338826	Wei2GO
0.3636574627215027	0.364390607378956	Wei2GO
0.36380705141275804	0.36434042672861483	Wei2GO
0.3643007882889449	0.3638724860145933	Wei2GO
0.3650956689607827	0.36369339857135496	Wei2GO
0.3650979847544737	0.36369339857135496	Wei2GO
0.36594384132788443	0.36369339857135496	Wei2GO
0.36512101686764464	0.36201754959794313	Wei2GO
0.36428154576095756	0.3592309712241134	Wei2GO
0.3644296454921255	0.3592309712241134	Wei2GO
0.3640403388278677	0.3581092491097195	Wei2GO
0.36444049831102504	0.358079767977644	Wei2GO
0.3651642482692102	0.3576341493274264	Wei2GO
0.36547557489784327	0.3571896645669038	Wei2GO
0.36502330161974744	0.35677174522209765	Wei2GO
0.36422208001328976	0.35519518498987707	Wei2GO
0.3644281461748258	0.35454324450820807	Wei2GO
0.3651254454855035	0.3542042114893401	Wei2GO
0.3648501521718169	0.35122168098474627	Wei2GO
0.3652402803106026	0.3511596154435347	Wei2GO
0.36557112787530754	0.35085006355674225	Wei2GO
0.3670055866358716	0.35047449771090317	Wei2GO
0.36791416871655414	0.3499102387887251	Wei2GO
0.369968578565257	0.3494199784812479	Wei2GO
0.36999798115957894	0.3494199784812479	Wei2GO
0.368226802690536	0.3463452515696293	Wei2GO
0.3687411181898244	0.3455771904971367	Wei2GO
0.3689182932346715	0.34528804862485807	Wei2GO
0.36867073280924156	0.3444034246660392	Wei2GO
0.3666559177126318	0.34405182643708243	Wei2GO
0.36684779773212617	0.3439044207767051	Wei2GO
0.36805857029948513	0.3428548668534049	Wei2GO
0.3684916583962154	0.3428548668534049	Wei2GO
0.3689335067655694	0.3424860681355496	Wei2GO
0.36921139257514457	0.3424860681355496	Wei2GO
0.3699043447751716	0.34244921672045525	Wei2GO
0.3707505771868067	0.3417975285377343	Wei2GO
0.37045177662066464	0.33978845305036515	Wei2GO
0.3708152233233441	0.33959191216986195	Wei2GO
0.37082123309764103	0.33959191216986195	Wei2GO
0.3719260688382151	0.3395115090823835	Wei2GO
0.37204894102564035	0.3395115090823835	Wei2GO
0.3724003540360529	0.3390956699562663	Wei2GO
0.3719568505072294	0.33857975014494557	Wei2GO
0.3718070193975087	0.3380248111882308	Wei2GO
0.3731742157668892	0.33642946454007444	Wei2GO
0.37256463950396784	0.3351629543898173	Wei2GO
0.371997656511147	0.33398168700350866	Wei2GO
0.36979785251899283	0.33165422920807663	Wei2GO
0.3697986243303827	0.33165422920807663	Wei2GO
0.37115788424340584	0.3314050928806783	Wei2GO
0.37178382440318003	0.33044204256621285	Wei2GO
0.37309199406697996	0.32973746745510574	Wei2GO
0.37407694547316006	0.3297087053750321	Wei2GO
0.37300138043084874	0.32831505185873705	Wei2GO
0.37291846252797556	0.32700103568623035	Wei2GO
0.3729775901282529	0.32700103568623035	Wei2GO
0.37295368847689125	0.32602059448173254	Wei2GO
0.3729876054975749	0.32590828540715927	Wei2GO
0.37311304750097984	0.3251291412023075	Wei2GO
0.3736554955220917	0.32423444263524653	Wei2GO
0.37326812637301815	0.32385922822701324	Wei2GO
0.37376862687351864	0.3234661464660069	Wei2GO
0.3726235130442905	0.3225440986455775	Wei2GO
0.3730115127726188	0.32101727880981784	Wei2GO
0.3740251758144777	0.3190226457498497	Wei2GO
0.3744051143913937	0.31830636342979385	Wei2GO
0.377374026387473	0.31653561943322434	Wei2GO
0.3780928115206506	0.3150107993466697	Wei2GO
0.37788861241685606	0.3145128957827284	Wei2GO
0.3783980173286187	0.31434226918128416	Wei2GO
0.3789197604490461	0.31426856635109546	Wei2GO
0.3791457338954248	0.3135040007280393	Wei2GO
0.37955165524963447	0.312339334026816	Wei2GO
0.3791030081201031	0.310770453544061	Wei2GO
0.3787104778121389	0.3106774475916801	Wei2GO
0.37766902152891096	0.31028058619835647	Wei2GO
0.37618569786296924	0.30760227001768176	Wei2GO
0.3764677163897721	0.3075402044764702	Wei2GO
0.3758104310148787	0.3064854350844367	Wei2GO
0.3749606299346188	0.30556279691298144	Wei2GO
0.3745746781747359	0.3049977418815349	Wei2GO
0.37423965954108934	0.30368619103017735	Wei2GO
0.3750171887099789	0.3035510691748314	Wei2GO
0.3750499516281316	0.3026795155945669	Wei2GO
0.37472586623482135	0.29995513865251616	Wei2GO
0.3751122003982909	0.2990727285665959	Wei2GO
0.3759672733396697	0.29875891693202955	Wei2GO
0.3749988594120377	0.29803024288720803	Wei2GO
0.375001307656157	0.29803024288720803	Wei2GO
0.37501928193521505	0.29803024288720803	Wei2GO
0.373473668493166	0.29679871579361194	Wei2GO
0.37279612685965485	0.29583032465923087	Wei2GO
0.3734894679691766	0.2949087032507317	Wei2GO
0.37234545405685654	0.2940411156496535	Wei2GO
0.3720068888520723	0.2935536942660057	Wei2GO
0.3723770489233246	0.2931560150575023	Wei2GO
0.3729653384861026	0.29291114824285197	Wei2GO
0.37181575517424076	0.2917474906848385	Wei2GO
0.37220849359424674	0.29098951003437395	Wei2GO
0.3712770145999195	0.29011263533674453	Wei2GO
0.37036794528528455	0.2886499888570367	Wei2GO
0.3711659669226704	0.2872459094458818	Wei2GO
0.37205699214161614	0.2871510870912531	Wei2GO
0.37276428473176615	0.2870940848154317	Wei2GO
0.3729101860249057	0.2870940848154317	Wei2GO
0.3736357840474819	0.2870940848154317	Wei2GO
0.37385042950589764	0.28705196891246676	Wei2GO
0.3739648421739361	0.2860411872413077	Wei2GO
0.3735427697646522	0.2858234804198273	Wei2GO
0.3737737434830198	0.28568990458113297	Wei2GO
0.37386613077052905	0.28568990458113297	Wei2GO
0.37432855434447654	0.28511184316788846	Wei2GO
0.37416560945464844	0.284834373689531	Wei2GO
0.3745371807316719	0.2842040606733255	Wei2GO
0.37437714229142877	0.2838020452359327	Wei2GO
0.3739197792503626	0.28324049986306654	Wei2GO
0.3753029320531161	0.2828554894459122	Wei2GO
0.37584244899554126	0.2824483690505843	Wei2GO
0.3762211487133567	0.2812606499972992	Wei2GO
0.37636690486722824	0.2798848638337772	Wei2GO
0.37656603050871107	0.2798848638337772	Wei2GO
0.37563197925040287	0.2787877471904977	Wei2GO
0.3762145032533339	0.27781831040053445	Wei2GO
0.3762327042328532	0.27781831040053445	Wei2GO
0.3759253489754982	0.2776296311552514	Wei2GO
0.3767821569397304	0.2774330902747483	Wei2GO
0.3757288114031087	0.27602521580420536	Wei2GO
0.3757727189825326	0.27602521580420536	Wei2GO
0.3756339784739044	0.2759614728159341	Wei2GO
0.3761095464458887	0.27402414127954594	Wei2GO
0.376128530626685	0.27380556209600154	Wei2GO
0.37693876474352783	0.2732564846011693	Wei2GO
0.3762272284651766	0.2726875480157452	Wei2GO
0.37596916078785647	0.27182991508264054	Wei2GO
0.3752479066588212	0.2705158989101338	Wei2GO
0.3764898740195016	0.27042857101620216	Wei2GO
0.3766190224823008	0.2701534137834977	Wei2GO
0.3780388757783629	0.26978354674740324	Wei2GO
0.3753621195692039	0.26703603854113056	Wei2GO
0.37559189855386077	0.2658182665205559	Wei2GO
0.37655514998579137	0.26575325684469714	Wei2GO
0.37690253979444316	0.26477816047626546	Wei2GO
0.37704637794544876	0.2640035183162134	Wei2GO
0.3789356337805183	0.26245775467756643	Wei2GO
0.37887401948600197	0.26222951365504665	Wei2GO
0.37887401948600197	0.26222951365504665	Wei2GO
0.3780049638258726	0.2619037302024334	Wei2GO
0.3786124688874086	0.26184476793828243	Wei2GO
0.37734336990508033	0.2593509959869633	Wei2GO
0.3777885494852838	0.2592122612477846	Wei2GO
0.3765958598855431	0.25764828149984265	Wei2GO
0.37666059903510474	0.25672364599383923	Wei2GO
0.37528202965627094	0.2551021837296883	Wei2GO
0.37511650761820764	0.25499497961305023	Wei2GO
0.3754947015405347	0.2541877956760106	Wei2GO
0.3747918075132583	0.2537150022885463	Wei2GO
0.3732884165970309	0.25039921083804345	Wei2GO
0.37330023501555065	0.24865539461441669	Wei2GO
0.37220541895589565	0.2479087945164015	Wei2GO
0.37147398562419615	0.24778466343397845	Wei2GO
0.36870592384098955	0.24475945017523684	Wei2GO
0.36755484481730016	0.2425295239445658	Wei2GO
0.36607392201489963	0.2403254583560663	Wei2GO
0.3659843391562055	0.23870314276316246	Wei2GO
0.36580011360801507	0.23662562876027637	Wei2GO
0.3655750243438428	0.2362204521758545	Wei2GO
0.36447491388180686	0.23521101119356494	Wei2GO
0.36365991225520927	0.2328626432217486	Wei2GO
0.36179141389097413	0.23082406835784075	Wei2GO
0.36057376311741085	0.23076583402287687	Wei2GO
0.36116887390176633	0.2281400332122182	Wei2GO
0.36111851213872787	0.22771121674566588	Wei2GO
0.3590362754122824	0.22434142324455314	Wei2GO
0.35889312376049665	0.22255992054913537	Wei2GO
0.35818798200460045	0.2204327548482358	Wei2GO
0.3591299044645075	0.2193061453308856	Wei2GO
0.3607037258192097	0.2185596679482054	Wei2GO
0.3625933608913617	0.21771143888498126	Wei2GO
0.3613756569843707	0.2173464343926183	Wei2GO
0.3600657382431393	0.21616718910959942	Wei2GO
0.3611669416330101	0.21546079261776616	Wei2GO
0.36095621609555817	0.21422794527642824	Wei2GO
0.36099040759715967	0.21258218537595136	Wei2GO
0.3609648421637854	0.21125338923583445	Wei2GO
0.3584295495605269	0.2090859905529154	Wei2GO
0.36035770446885795	0.20752108187390453	Wei2GO
0.3617781334945344	0.206640422232999	Wei2GO
0.3630513348730026	0.20628095930681564	Wei2GO
0.36287189068255943	0.2055734121370043	Wei2GO
0.364566755056391	0.20433042386571415	Wei2GO
0.36634575073409353	0.2032325181482432	Wei2GO
0.36421103629050927	0.2017771373747436	Wei2GO
0.3660982622818733	0.20119668986033382	Wei2GO
0.366019472311779	0.2010228951215164	Wei2GO
0.3674804014867128	0.2008165271969881	Wei2GO
0.3691286689446934	0.19991422588195093	Wei2GO
0.3705943725532054	0.19788330345008515	Wei2GO
0.37154582947676096	0.19669635068155633	Wei2GO
0.3716215572136937	0.19592068561651474	Wei2GO
0.37379498450338006	0.19529961643412477	Wei2GO
0.3696274359907198	0.19265764506372499	Wei2GO
0.36917995580053403	0.19049195145031045	Wei2GO
0.36878887055708276	0.18881974047593525	Wei2GO
0.3653200913200779	0.1871416387034939	Wei2GO
0.36242772295022124	0.18515501650755567	Wei2GO
0.363737228608691	0.18334651316603343	Wei2GO
0.3650937221589958	0.18117722337881917	Wei2GO
0.3647045710393182	0.17871468175839741	Wei2GO
0.3663248853047392	0.17787889706353252	Wei2GO
0.3662442418202922	0.17550393637215436	Wei2GO
0.36808587928101005	0.17416284531243675	Wei2GO
0.36812932818851984	0.17356398519117094	Wei2GO
0.3702277986675858	0.17312527786861928	Wei2GO
0.3689874723099794	0.17210150110818637	Wei2GO
0.37037235825901516	0.17101080787421485	Wei2GO
0.3743398029804188	0.16922501394514258	Wei2GO
0.3741044411401116	0.16886581854284374	Wei2GO
0.37597749452589596	0.16856440526973238	Wei2GO
0.3781524078417086	0.1683959416578725	Wei2GO
0.3794943403733241	0.1662437080440383	Wei2GO
0.3820298673358101	0.1660836294988321	Wei2GO
0.3844673896641228	0.16419395078132318	Wei2GO
0.3835263558558787	0.16274842430536457	Wei2GO
0.3865252388565646	0.16161508632998048	Wei2GO
0.3918045445381801	0.16029920834928563	Wei2GO
0.39410148249743615	0.15894803602478808	Wei2GO
0.3935407636334461	0.1579849104073033	Wei2GO
0.3918358963462782	0.15618917001659163	Wei2GO
0.39438119290469453	0.15521922219957332	Wei2GO
0.39731316464165706	0.1536322867420505	Wei2GO
0.4009251688856222	0.1531377018606732	Wei2GO
0.4054262870284559	0.1518874093714795	Wei2GO
0.4066471307859287	0.15185553787734385	Wei2GO
0.4040424702985205	0.14883843342095499	Wei2GO
0.404842059621623	0.14753338606017274	Wei2GO
0.4043497218190869	0.14425790766718877	Wei2GO
0.401558845010849	0.14256797524358458	Wei2GO
0.3990453059471514	0.14014701275481553	Wei2GO
0.40331741311010666	0.13778538854407893	Wei2GO
0.40880091453221407	0.13679238914306066	Wei2GO
0.41262424519528956	0.13457243670757238	Wei2GO
0.4136033366524478	0.12984091520885174	Wei2GO
0.41675653275634617	0.12951036918255102	Wei2GO
0.4154018091734782	0.12880409001842036	Wei2GO
0.41962392582851743	0.1278044009029601	Wei2GO
0.42459432953039966	0.12598607906229523	Wei2GO
0.4266237662591251	0.12428108483515878	Wei2GO
0.4302413729409041	0.12202792186692776	Wei2GO
0.43160813817612764	0.12099827045246998	Wei2GO
0.4345894946444038	0.11806734575858273	Wei2GO
0.435756878424781	0.11799245417306843	Wei2GO
0.43859869536822094	0.11422970421338448	Wei2GO
0.43787564847160626	0.11214998434671493	Wei2GO
0.4469262351608947	0.11085284060910403	Wei2GO
0.4461917743872337	0.1051634919364156	Wei2GO
0.45182826992413044	0.10371122686793387	Wei2GO
0.45502660341004714	0.10279296822576879	Wei2GO
0.4564782208781008	0.10125975962926546	Wei2GO
0.44714669233201787	0.0988790456978628	Wei2GO
0.44852031870564424	0.09878655587174368	Wei2GO
0.44764536652038395	0.0982515279192629	Wei2GO
0.4451363720555606	0.09573237604869593	Wei2GO
0.44169162756330743	0.09290707037269295	Wei2GO
0.43568067518996506	0.08864656651871843	Wei2GO
0.43490877162083974	0.0876180025774186	Wei2GO
0.43926417254768924	0.08517258046808138	Wei2GO
0.4396953746527442	0.08419626540919407	Wei2GO
0.43770062050619934	0.08214895361516365	Wei2GO
0.443114120279318	0.08112183941518597	Wei2GO
0.4454869571843385	0.07917248262984973	Wei2GO
0.446877050947608	0.07595434486676192	Wei2GO
0.446877050947608	0.07595434486676192	Wei2GO
0.4387626151932042	0.07296910585904788	Wei2GO
0.4402934369428819	0.0713364764994138	Wei2GO
0.44593100363594246	0.06977532530937805	Wei2GO
0.4501284763558485	0.06921377993651191	Wei2GO
0.4498094612361641	0.06745267020463505	Wei2GO
0.45504956845200695	0.06547378393654063	Wei2GO
0.45911748051908036	0.06437118200846702	Wei2GO
0.45045381708266313	0.06269063812335511	Wei2GO
0.4569954642277848	0.06082642159119151	Wei2GO
0.4710196284951929	0.06045285378213534	Wei2GO
0.4642696839940267	0.056186705567227234	Wei2GO
0.4598791959709642	0.05350591751218396	Wei2GO
0.47363152176323875	0.052343615408518826	Wei2GO
0.46712880101779997	0.04998884848024561	Wei2GO
0.4690738195763549	0.049807426129011935	Wei2GO
0.46321561702478004	0.048592921020254955	Wei2GO
0.4495228680060844	0.046730249493668344	Wei2GO
0.44606511460418374	0.04534786970060687	Wei2GO
0.4407007657502256	0.04431980971028272	Wei2GO
0.4359982482325511	0.04302409575733607	Wei2GO
0.4302951121259676	0.04180681030389725	Wei2GO
0.43126339514920004	0.040791536269755284	Wei2GO
0.4122346692290159	0.03801020354643337	Wei2GO
0.4065765666002817	0.03656103546490056	Wei2GO
0.4149008127708774	0.03646276502464899	Wei2GO
0.4159243426673806	0.03577455023531807	Wei2GO
0.39859555980074973	0.03389308119056808	Wei2GO
0.3789821682113155	0.031035376788052352	Wei2GO
0.3826747195697793	0.030754604101619284	Wei2GO
0.374332486050452	0.029575358818600416	Wei2GO
0.37696966830020906	0.028985736177090982	Wei2GO
0.369712042488514	0.02678106021318614	Wei2GO
0.36973687558938195	0.02678106021318614	Wei2GO
0.3757613378079089	0.026282552837015957	Wei2GO
0.3824777202131266	0.02585016289990904	Wei2GO
0.39043955933605506	0.02519790635142607	Wei2GO
0.4096367502180112	0.023984968346035234	Wei2GO
0.41447158812191487	0.023931366287716197	Wei2GO
0.4313098253771637	0.022986339768283095	Wei2GO
0.4424369640326373	0.02131171183737854	Wei2GO
0.44950464228672316	0.021008194029710645	Wei2GO
0.48055031917825736	0.02000711177862839	Wei2GO
0.48953989625557365	0.0198879054619754	Wei2GO
0.48953989625557365	0.0198879054619754	Wei2GO
0.49725898575874866	0.0196828193257982	Wei2GO
0.49875545007663596	0.019177428490218685	Wei2GO
0.473290640098071	0.01723496512769574	Wei2GO
0.46523984696326287	0.01609376001509684	Wei2GO
0.46523984696326287	0.01609376001509684	Wei2GO
0.4507868698541619	0.014914514732077971	Wei2GO
0.4513110303783224	0.014914514732077971	Wei2GO
0.45491194977929694	0.013825521618094704	Wei2GO
0.45491194977929694	0.013825521618094704	Wei2GO
0.4918055620775292	0.01338139027773695	Wei2GO
0.4840475618486683	0.011702247537786167	Wei2GO
0.49456784191713754	0.011603977097534593	Wei2GO
0.44666659703316147	0.008443716785722246	Wei2GO
0.46451262171403	0.008286484081319729	Wei2GO
0.49388695421354945	0.008097732930836526	Wei2GO
0.5128634605756661	0.007916310579602855	Wei2GO
0.5122553459515629	0.007497868704983256	Wei2GO
0.5124953198424036	0.007497868704983256	Wei2GO
0.509057234822704	0.00686953346579896	Wei2GO
0.5349135757300763	0.006806640384037953	Wei2GO
0.5696535214439413	0.006678461548927207	Wei2GO
0.5696535214439413	0.006678461548927207	Wei2GO
0.5696535214439413	0.006678461548927207	Wei2GO
0.5365499461703983	0.005546386077229094	Wei2GO
0.5365499461703983	0.005546386077229094	Wei2GO
0.5365499461703983	0.005546386077229094	Wei2GO
0.5365499461703983	0.005546386077229094	Wei2GO
0.5365499461703983	0.005546386077229094	Wei2GO
0.5744579491517592	0.004996071611820288	Wei2GO
0.5610248334180807	0.00484866595144293	Wei2GO
0.5610248334180807	0.00484866595144293	Wei2GO
0.5610248334180807	0.00484866595144293	Wei2GO
0.5610248334180807	0.00484866595144293	Wei2GO
0.5543852649699195	0.004040664553818891	Wei2GO
0.6183642741549891	0.0038441236733157465	Wei2GO
0.563844884748559	0.0033668101063795385	Wei2GO
0.563844884748559	0.0033668101063795385	Wei2GO
0.563844884748559	0.0033668101063795385	Wei2GO
0.563844884748559	0.0033668101063795385	Wei2GO
0.4911523655399855	0.0022256049937806333	Wei2GO
0.4911523655399855	0.0022256049937806333	Wei2GO
0.4911523655399855	0.0022256049937806333	Wei2GO
0.5393828386479826	0.0021105566734861093	Wei2GO
0.4373864430468204	0.0015662896197850937	Wei2GO
0.4373864430468204	0.0015662896197850937	Wei2GO
0.4373864430468204	0.0015662896197850937	Wei2GO
0.4373864430468204	0.0015662896197850937	Wei2GO
0.4373864430468204	0.0015662896197850937	Wei2GO
0.4373864430468204	0.0015662896197850937	Wei2GO
0.4373864430468204	0.0015662896197850937	Wei2GO
0.5580246913580247	0.0013978260079252553	Wei2GO
0.5580246913580247	0.0013978260079252553	Wei2GO
0.5580246913580247	0.0013978260079252553	Wei2GO
0.8	0.0012405933035227396	Wei2GO
0.8	0.0012405933035227396	Wei2GO
0.8	0.0012405933035227396	Wei2GO
0.8	0.0012405933035227396	Wei2GO
0.8	0.0012405933035227396	Wei2GO
0.8	0.0012405933035227396	Wei2GO
0.8	0.0012405933035227396	Wei2GO
0.8	0.0012405933035227396	Wei2GO
0.8	0.0012405933035227396	Wei2GO
0.8	0.0012405933035227396	Wei2GO
0.8	0.0012405933035227396	Wei2GO
1.0	0.0011792452830188679	Wei2GO
1.0	0.0011792452830188679	Wei2GO
1.0	0.0011792452830188679	Wei2GO
1.0	0.0011792452830188679	Wei2GO
1.0	0.0011792452830188679	Wei2GO
1.0	0.0011792452830188679	Wei2GO
1.0	0.0011792452830188679	Wei2GO
1.0	0.0011792452830188679	Wei2GO
1.0	0.0011792452830188679	Wei2GO
1.0	0.0011792452830188679	Wei2GO
1.0	0.0011792452830188679	Wei2GO
1.0	0.0011792452830188679	Wei2GO
1.0	0.0011792452830188679	Wei2GO
1.0	0.0011792452830188679	Wei2GO
1.0	0.0011792452830188679	Wei2GO
1.0	0.0011792452830188679	Wei2GO
1.0	0.0011792452830188679	Wei2GO
1.0	0.0011792452830188679	Wei2GO
1.0	0.0011792452830188679	Wei2GO
