0.13805872354	0.708149442929	CrowdGO	0.0	557.867165182	35.7019363465	559.008409818	0.0
0.138203640772	0.707510604649	CrowdGO	0.001	555.297615049	35.792993298	556.449979467	0.001
0.138331712178	0.707493262807	CrowdGO	0.002	552.860112219	35.8027128707	554.01817473	0.002
0.138474171495	0.707364362619	CrowdGO	0.003	550.810483999	35.8207172392	551.974014848	0.003
0.138563701337	0.707351259894	CrowdGO	0.004	549.649731361	35.8293718473	550.816277058	0.004
0.138634052452	0.707155995974	CrowdGO	0.005	548.460849474	35.8701747668	549.63257986	0.005
0.138645696969	0.706837786929	CrowdGO	0.005	547.381824393	35.9062452469	548.558219448	0.006
0.138680551097	0.706837786929	CrowdGO	0.007	546.633025505	35.9062452469	547.811028568	0.007
0.138762810069	0.706739516489	CrowdGO	0.008	545.520450881	35.9129954778	546.701294651	0.008
0.138820721047	0.706629819253	CrowdGO	0.009	544.15668938	35.9313890824	545.341697762	0.009
0.138877567534	0.706629819253	CrowdGO	0.01	542.85562655	35.9313890824	544.04346885	0.01
0.138932747232	0.706629819253	CrowdGO	0.011	541.793616712	35.9313890824	542.983782291	0.011
0.139007942107	0.706459456122	CrowdGO	0.012	540.333473622	35.9678103293	541.52926615	0.012
0.139122442905	0.706432655093	CrowdGO	0.013	538.894571239	35.9718207223	540.093816663	0.013
0.13903727903	0.705562709252	CrowdGO	0.013	537.492634332	36.0989027945	538.703501701	0.014
0.139141551103	0.705562709252	CrowdGO	0.013	535.891484275	36.0989027945	537.105961335	0.015
0.139224517723	0.705562709252	CrowdGO	0.016	534.831549067	36.0989027945	536.048427533	0.016
0.139262545468	0.705378047216	CrowdGO	0.017	533.096079314	36.1157316035	534.318047467	0.017
0.139210279647	0.703969562838	CrowdGO	0.017	531.667026217	36.3446501745	532.907834773	0.018
0.139420647341	0.703876624902	CrowdGO	0.019	529.870565557	36.359110561	531.116560808	0.019
0.139368236808	0.703594772321	CrowdGO	0.019	529.208081419	36.3868571971	530.457535356	0.02
0.139554132501	0.703594772321	CrowdGO	0.021	527.773646894	36.3868571971	529.026488687	0.021
0.13933103406	0.702893459663	CrowdGO	0.021	526.717753054	36.4618955547	527.978277213	0.022
0.139554356032	0.702701873594	CrowdGO	0.021	524.496878956	36.4824403283	525.764152911	0.023
0.139616673187	0.702609984351	CrowdGO	0.024	523.339755229	36.5022276893	524.611200824	0.024
0.139672275227	0.702559803701	CrowdGO	0.025	521.943741325	36.5139145837	523.219394773	0.025
0.139789865105	0.702559803701	CrowdGO	0.026	520.256542008	36.5139145837	521.536322283	0.026
0.139875383719	0.702225548347	CrowdGO	0.027	518.863800854	36.5344999467	520.148453351	0.027
0.139875222573	0.701518001177	CrowdGO	0.027	517.364034856	36.5809915582	518.655679142	0.028
0.140014971248	0.70147321971	CrowdGO	0.029	516.004838099	36.5958927652	517.300930126	0.029
0.140111941883	0.701366015594	CrowdGO	0.03	514.167260429	36.5989005472	515.468186427	0.03
0.14026181217	0.701326707418	CrowdGO	0.031	512.659062229	36.6034544352	513.964130035	0.031
0.140549092529	0.701306720209	CrowdGO	0.032	510.67148173	36.611353173	511.982180777	0.032
0.140607478297	0.701079209251	CrowdGO	0.033	509.495063653	36.6446446235	510.811168502	0.033
0.140692520265	0.701079209251	CrowdGO	0.034	507.74931867	36.6446446235	509.069936836	0.034
0.140897985529	0.700897786899	CrowdGO	0.035	506.137709081	36.6512517525	507.462998463	0.035
0.141067919684	0.700806604191	CrowdGO	0.036	504.413546823	36.6629590695	505.744202919	0.036
0.141184042944	0.700806604191	CrowdGO	0.037	503.156895686	36.6629590695	504.490866363	0.037
0.141252821202	0.700791677035	CrowdGO	0.038	502.030796504	36.6661510235	503.367983954	0.038
0.141487777755	0.700791677035	CrowdGO	0.039	500.693811374	36.6661510235	502.034559945	0.039
0.141629592921	0.700748001284	CrowdGO	0.04	499.42933772	36.6772484871	500.774284415	0.04
0.141640065963	0.700347448671	CrowdGO	0.04	498.27937856	36.7040418389	499.629388432	0.041
0.141735931125	0.700322752435	CrowdGO	0.042	497.093624181	36.7192287177	498.447964143	0.042
0.141783692694	0.699959907732	CrowdGO	0.043	495.887135192	36.7345967036	497.245896357	0.043
0.141727120305	0.69945562521	CrowdGO	0.043	495.18852963	36.7639221153	496.551372817	0.044
0.141859317761	0.699388417929	CrowdGO	0.045	493.806731302	36.774697907	495.174177725	0.045
0.141941302473	0.699271652469	CrowdGO	0.046	493.066155373	36.7967555436	494.437291062	0.046
0.142030077622	0.699112499988	CrowdGO	0.047	492.169448984	36.8351298851	493.545938395	0.047
0.141719025617	0.698140139842	CrowdGO	0.047	491.126452591	36.9161350542	492.511922152	0.048
0.141851305163	0.698140139842	CrowdGO	0.047	490.102753472	36.9161350542	491.491108758	0.049
0.141856455806	0.697560793848	CrowdGO	0.047	489.184330239	36.9910888758	490.580930741	0.05
0.141699457643	0.696870934909	CrowdGO	0.047	488.620950225	37.060453792	490.024397591	0.051
0.141794661355	0.696644073071	CrowdGO	0.047	487.100410714	37.1046655595	488.511582589	0.052
0.141817097177	0.69635661362	CrowdGO	0.047	486.071530296	37.1448378067	487.488739911	0.053
0.1420185329	0.69635661362	CrowdGO	0.047	485.00105307	37.1448378067	486.421381577	0.054
0.142078168981	0.696285144209	CrowdGO	0.047	484.104517718	37.1537815347	485.528153207	0.055
0.142136834442	0.696080696511	CrowdGO	0.047	483.086288255	37.1693615242	484.514110564	0.056
0.142274084589	0.696022467001	CrowdGO	0.057	481.811460523	37.1846602066	483.2442265	0.057
0.142460777483	0.695966475704	CrowdGO	0.058	480.55136629	37.1949008042	481.988668217	0.058
0.142399860613	0.695485924831	CrowdGO	0.058	479.355200164	37.271652708	480.802021647	0.059
0.142277975232	0.694503220429	CrowdGO	0.058	478.15827455	37.3035401852	479.61118589	0.06
0.142140617448	0.693500485663	CrowdGO	0.058	477.028543781	37.4073460698	478.492989627	0.061
0.142170851177	0.693374468275	CrowdGO	0.058	476.378971992	37.4344084009	477.847527867	0.062
0.142174521756	0.692976803615	CrowdGO	0.058	475.341477621	37.4583692571	476.815110682	0.063
0.142294762572	0.692901232262	CrowdGO	0.058	474.272934365	37.4734811588	475.751067326	0.064
0.142281567131	0.692449905326	CrowdGO	0.058	473.412644061	37.5199248269	474.897121823	0.065
0.142315038703	0.692284737168	CrowdGO	0.058	472.531658976	37.5537968786	474.021577984	0.066
0.142481209898	0.692115796394	CrowdGO	0.058	471.279830687	37.6071843788	472.777938497	0.067
0.142751783248	0.692115796394	CrowdGO	0.068	470.464040851	37.6071843788	471.964738144	0.068
0.142606679233	0.691549301824	CrowdGO	0.068	469.738897509	37.6563569457	471.245830806	0.069
0.142655666272	0.691549301824	CrowdGO	0.068	469.382855062	37.6563569457	470.890927758	0.07
0.142778426374	0.691354479432	CrowdGO	0.068	468.214366012	37.6820457038	469.728250277	0.071
0.14290598015	0.691329389107	CrowdGO	0.072	467.101896653	37.6862689283	468.619714398	0.072
0.142932725643	0.69117800747	CrowdGO	0.073	466.7205507	37.7122733008	468.241698275	0.073
0.142995542873	0.691019262912	CrowdGO	0.074	465.629920614	37.7283322408	467.155916183	0.074
0.142998580972	0.690069777103	CrowdGO	0.074	464.785226831	37.892833203	466.327324836	0.075
0.14312426589	0.689819425897	CrowdGO	0.076	463.658632584	37.9572700616	465.209718213	0.076
0.143178248825	0.689062805151	CrowdGO	0.077	462.648621886	38.0222807266	464.20840273	0.077
0.143246653539	0.689062805151	CrowdGO	0.078	461.790453932	38.0222807266	463.353123627	0.078
0.143473242905	0.688982364369	CrowdGO	0.079	460.617653957	38.03914798	462.185676883	0.079
0.143742703313	0.688920298828	CrowdGO	0.08	459.494112364	38.0427525734	461.066253721	0.08
0.14380835727	0.688920298828	CrowdGO	0.081	458.747203833	38.0427525734	460.321896121	0.081
0.14402592568	0.688592631985	CrowdGO	0.082	457.45069956	38.0870922478	459.03351634	0.082
0.144100941279	0.688036048543	CrowdGO	0.083	456.516814173	38.1176250026	458.105397216	0.083
0.14419421472	0.687949550436	CrowdGO	0.084	455.67354065	38.14133684	457.267030546	0.084
0.144272951566	0.687949550436	CrowdGO	0.085	455.081635566	38.14133684	456.677190809	0.085
0.144338398344	0.687895870505	CrowdGO	0.086	454.343558241	38.1512961742	455.942529618	0.086
0.144892162715	0.687034960894	CrowdGO	0.087	453.415006953	38.2105088644	455.022209917	0.087
0.144842579278	0.686728841021	CrowdGO	0.087	452.670424837	38.2851881034	454.286549603	0.088
0.144896475538	0.686680445182	CrowdGO	0.087	452.046100437	38.3013668611	453.665814916	0.089
0.145013300841	0.686646091818	CrowdGO	0.09	451.214593435	38.3205392911	452.838904093	0.09
0.145046066884	0.686504046363	CrowdGO	0.091	450.272513928	38.3421617071	451.902044876	0.091
0.1451196668	0.685712641751	CrowdGO	0.092	449.312034107	38.3850109142	450.948681178	0.092
0.145341731379	0.685712641751	CrowdGO	0.093	448.432376078	38.3850109142	450.072221957	0.093
0.145438945406	0.685696032662	CrowdGO	0.094	447.53879526	38.3866024721	449.182039392	0.094
0.145565675325	0.684870826959	CrowdGO	0.095	445.932004402	38.4460351387	447.586248859	0.095
0.145623850004	0.684661913148	CrowdGO	0.096	445.333670529	38.494335097	446.994286252	0.096
0.145748802288	0.684497499142	CrowdGO	0.097	444.538749278	38.5025847983	446.203035227	0.097
0.145953110742	0.684428097754	CrowdGO	0.098	443.557112488	38.522029334	445.226749851	0.098
0.146262148593	0.684428097754	CrowdGO	0.099	442.8336344	38.522029334	444.505989273	0.099
0.146566903313	0.684275445452	CrowdGO	0.1	441.734006117	38.5368662236	443.411797564	0.1
0.146653497288	0.684019677853	CrowdGO	0.101	440.551125993	38.5595970087	442.23538657	0.101
0.146808927194	0.684019677853	CrowdGO	0.102	439.938211805	38.5595970087	441.62480991	0.102
0.146892067408	0.683757715131	CrowdGO	0.103	439.209238146	38.6005358306	440.902207115	0.103
0.146937618808	0.683462668851	CrowdGO	0.104	438.746979744	38.6299572517	440.444305028	0.104
0.147374844836	0.683439083945	CrowdGO	0.105	437.98565412	38.6327896376	439.686167226	0.105
0.147464129682	0.68310355185	CrowdGO	0.106	437.148716234	38.6769097626	438.856358566	0.106
0.147690914195	0.683005219495	CrowdGO	0.107	436.054994985	38.7034186057	437.769246593	0.107
0.147804767129	0.682943153954	CrowdGO	0.108	435.142143735	38.7088175543	436.860455765	0.108
0.147811878827	0.682617485951	CrowdGO	0.108	434.281872489	38.7726649444	436.009247975	0.109
0.147721412763	0.681677879174	CrowdGO	0.108	433.475712028	38.8618765265	435.214244213	0.11
0.147838090243	0.681677879174	CrowdGO	0.108	432.675959438	38.8618765265	434.41769223	0.111
0.147885738799	0.681531840614	CrowdGO	0.112	431.950398743	38.8746297334	433.696188375	0.112
0.148085102994	0.681435803593	CrowdGO	0.113	431.35058994	38.8852720336	433.099752739	0.113
0.148408598261	0.681402110871	CrowdGO	0.114	429.940052164	38.8867172581	431.695060469	0.114
0.149142136573	0.680891805174	CrowdGO	0.115	427.995121145	38.989923149	429.767422952	0.115
0.149230912688	0.680069843135	CrowdGO	0.116	426.959593597	39.0322481826	428.740027246	0.116
0.149476427078	0.67950258248	CrowdGO	0.117	424.9690465	39.0771630059	426.76189515	0.117
0.149555809191	0.679328378625	CrowdGO	0.118	424.1181389	39.1029479843	425.916935898	0.118
0.14965331665	0.678219671322	CrowdGO	0.119	422.100479272	39.1411645196	423.911364982	0.119
0.149997722983	0.678101746794	CrowdGO	0.12	421.069946997	39.1440049264	422.885508602	0.12
0.150202610219	0.677724672888	CrowdGO	0.121	420.2318498	39.1691946117	422.053353728	0.121
0.150184200446	0.676465867277	CrowdGO	0.121	419.062338661	39.2146106746	420.893132962	0.122
0.150268896082	0.676094532974	CrowdGO	0.121	418.049342348	39.2621786781	419.888998798	0.123
0.150495502715	0.674661651822	CrowdGO	0.124	417.238741951	39.3526145228	419.090438992	0.124
0.150683807573	0.674365150099	CrowdGO	0.125	416.246859493	39.4023978532	418.107638048	0.125
0.150765771039	0.673847167016	CrowdGO	0.126	415.327535607	39.4505019001	417.1969606	0.126
0.150879987629	0.673562698081	CrowdGO	0.127	414.509237981	39.4660186705	416.383807324	0.127
0.151115155056	0.673235257557	CrowdGO	0.128	413.296283607	39.5087317276	415.18039203	0.128
0.15125758312	0.673235257557	CrowdGO	0.129	412.948733863	39.5087317276	414.834420802	0.129
0.151441717523	0.673130435754	CrowdGO	0.13	411.877360405	39.5158180921	413.768606704	0.13
0.15164240517	0.672968343229	CrowdGO	0.131	411.062036892	39.5261743892	412.95800832	0.131
0.15173775697	0.672672205797	CrowdGO	0.132	410.094450823	39.5887619186	412.000884302	0.132
0.15191676439	0.672571390088	CrowdGO	0.133	409.014237947	39.6054364581	410.927289725	0.133
0.152173980739	0.671776227201	CrowdGO	0.134	407.668110993	39.6333129005	409.590146625	0.134
0.152234041217	0.671304912906	CrowdGO	0.135	406.722941564	39.6710937042	408.653088659	0.135
0.152386606199	0.671264938489	CrowdGO	0.136	405.950859051	39.6793359482	407.885461454	0.136
0.152615578816	0.671036031623	CrowdGO	0.137	404.984492501	39.6911729848	406.924843649	0.137
0.152744932906	0.670255098558	CrowdGO	0.138	403.543205127	39.8419954475	405.505244116	0.138
0.153070689401	0.670140990846	CrowdGO	0.139	402.406027214	39.8534371844	404.374711367	0.139
0.153271617973	0.670042808126	CrowdGO	0.14	401.619927442	39.8770812349	403.594781589	0.14
0.153572259223	0.669971075233	CrowdGO	0.141	400.832594662	39.882608995	402.811856136	0.141
0.15390179632	0.669764621864	CrowdGO	0.142	399.967200406	39.8999459143	401.952443809	0.142
0.154255943827	0.669621665067	CrowdGO	0.143	398.997645358	39.9047437249	400.988166376	0.143
0.154508850181	0.669621665067	CrowdGO	0.144	397.87245751	39.9047437249	399.868579682	0.144
0.154715285175	0.669547251408	CrowdGO	0.145	397.038487358	39.9079120329	399.039098192	0.145
0.155239821785	0.668631746438	CrowdGO	0.146	395.256963526	39.9346104997	397.269229027	0.146
0.155794535056	0.668224373934	CrowdGO	0.147	392.9243989	39.9573394377	394.950847861	0.147
0.155944436683	0.667533280668	CrowdGO	0.148	391.655894361	40.0375646274	393.697023317	0.148
0.156201103496	0.667496642778	CrowdGO	0.149	390.902184442	40.0524875712	392.948749282	0.149
0.156405845025	0.666240468917	CrowdGO	0.15	388.545211005	40.161283981	390.615296329	0.15
0.156617732165	0.66614820519	CrowdGO	0.151	387.896408002	40.182756333	389.972149323	0.151
0.156779282958	0.666078967224	CrowdGO	0.152	386.905150675	40.2027010395	388.988242482	0.152
0.156887983045	0.665973185128	CrowdGO	0.153	386.405092738	40.2158479002	388.492226584	0.153
0.157135948934	0.665915200511	CrowdGO	0.154	385.798990671	40.2188379785	387.88969583	0.154
0.157291421389	0.665651631596	CrowdGO	0.155	384.863106301	40.2434321484	386.96142498	0.155
0.158118994989	0.665526416035	CrowdGO	0.156	383.794529551	40.2478849311	385.899123029	0.156
0.158288397369	0.665515077138	CrowdGO	0.157	382.926451109	40.250729076	385.036086815	0.157
0.158419206269	0.665164304804	CrowdGO	0.158	382.200302175	40.3060537173	384.3197223	0.158
0.158595550161	0.664863683228	CrowdGO	0.159	381.725617211	40.319942655	383.849116986	0.159
0.158995740452	0.66449275868	CrowdGO	0.16	379.476494696	40.3604624296	381.616793334	0.16
0.159156862476	0.664214830823	CrowdGO	0.161	378.62036005	40.3837108006	380.767936074	0.161
0.159312056114	0.664214830823	CrowdGO	0.162	377.76755988	40.3837108006	379.919956564	0.162
0.159449589034	0.663739077105	CrowdGO	0.163	377.267513661	40.4189637798	379.426500784	0.163
0.159795130945	0.663561569756	CrowdGO	0.164	376.014233838	40.4296402616	378.181517079	0.164
0.160344230282	0.663173658946	CrowdGO	0.165	374.193610023	40.4746793445	376.376217965	0.165
0.160648032669	0.662290689406	CrowdGO	0.166	372.699865726	40.535445714	374.897735751	0.166
0.161022543734	0.66166857694	CrowdGO	0.167	371.375396807	40.5624290923	373.58398789	0.167
0.161498506507	0.661062442046	CrowdGO	0.168	368.506128032	40.625421219	370.738710208	0.168
0.161890823481	0.66030706979	CrowdGO	0.169	366.535428599	40.6991316472	368.788068862	0.169
0.162096615678	0.66004846808	CrowdGO	0.17	365.092208981	40.7297700166	367.357094969	0.17
0.162265366696	0.659609156945	CrowdGO	0.171	363.904540318	40.7643002839	366.180614781	0.171
0.162521581304	0.659334080644	CrowdGO	0.172	363.087660191	40.7815567124	365.370749172	0.172
0.162489228351	0.658687638478	CrowdGO	0.172	362.36827418	40.8116951864	364.659239011	0.173
0.162818131333	0.65772759923	CrowdGO	0.174	360.297751558	40.9181421649	362.613794741	0.174
0.16293716681	0.657003780983	CrowdGO	0.175	359.541534347	40.9861215856	361.87011079	0.175
0.163153486993	0.656767931927	CrowdGO	0.176	358.654759739	40.9905219456	360.989556043	0.176
0.16360641813	0.65659713297	CrowdGO	0.177	357.658023783	41.0043832223	360.000863082	0.177
0.164535590502	0.656070529385	CrowdGO	0.178	356.241089331	41.0295858936	358.596068922	0.178
0.164908553277	0.654843938912	CrowdGO	0.179	355.309156676	41.0984266987	357.678175872	0.179
0.165235842222	0.654604525144	CrowdGO	0.18	354.121356522	41.1134617865	356.500002644	0.18
0.164989091282	0.653273088302	CrowdGO	0.18	353.412809002	41.1880163401	355.804814831	0.181
0.165500195098	0.652726496833	CrowdGO	0.182	352.112471646	41.2235937598	354.517386557	0.182
0.165695177441	0.652705438881	CrowdGO	0.183	351.727628546	41.2251521419	354.135338326	0.183
0.165950343006	0.65261038183	CrowdGO	0.184	350.604252849	41.2463574319	353.022101457	0.184
0.166020341009	0.652392782998	CrowdGO	0.185	350.015601042	41.270043958	352.440260897	0.185
0.166313005369	0.652163198885	CrowdGO	0.186	348.941960961	41.2846495946	351.375745338	0.186
0.166515431596	0.652098570577	CrowdGO	0.187	347.64623979	41.2890952466	350.089556294	0.187
0.166639413991	0.65075873567	CrowdGO	0.188	346.178528971	41.4389018148	348.649905355	0.188
0.166778106303	0.650390762337	CrowdGO	0.189	345.055666038	41.4844006905	347.540455437	0.189
0.166855018578	0.650174364226	CrowdGO	0.19	344.323045788	41.5831373733	346.824908527	0.19
0.167857600474	0.649422922304	CrowdGO	0.191	342.10070907	41.6567027797	344.627590353	0.191
0.167940511628	0.648533631605	CrowdGO	0.192	340.901709316	41.7189202561	343.444964619	0.192
0.169635813235	0.64810336279	CrowdGO	0.193	339.210655184	41.739735064	341.769036154	0.193
0.16957611252	0.64695278766	CrowdGO	0.193	338.644820612	41.7947736183	341.214181459	0.194
0.170134680259	0.646319097695	CrowdGO	0.195	336.579352191	41.869654773	339.173596131	0.195
0.170237656328	0.645941933905	CrowdGO	0.196	335.43004697	41.8996453394	338.036827417	0.196
0.170345821029	0.645147896971	CrowdGO	0.197	334.647014743	41.9707833463	337.268692782	0.197
0.170811708078	0.645033922684	CrowdGO	0.198	333.837824093	41.9822308933	336.467235412	0.198
0.172013250804	0.643720798818	CrowdGO	0.199	331.811482093	42.0717986022	334.468079025	0.199
0.172216507243	0.643229446617	CrowdGO	0.2	331.180520613	42.0811838205	333.843321433	0.2
0.172290714584	0.643135711735	CrowdGO	0.201	330.625377966	42.0977571579	333.294706998	0.201
0.172623396533	0.643062001532	CrowdGO	0.202	329.791116961	42.1075205518	332.468380622	0.202
0.172590856302	0.64224946509	CrowdGO	0.202	329.072730422	42.1366267239	331.759487007	0.203
0.172812871664	0.642049796389	CrowdGO	0.204	328.471050376	42.1434680049	331.163559032	0.204
0.172932889523	0.641838181561	CrowdGO	0.205	327.984957665	42.1584139987	330.683329373	0.205
0.173766640351	0.640883736554	CrowdGO	0.206	325.646035137	42.2503254528	328.375440923	0.206
0.174079509624	0.640487266717	CrowdGO	0.207	324.870159197	42.2756681457	327.609298485	0.207
0.174306693024	0.640224284006	CrowdGO	0.208	323.763857608	42.3051447513	326.516095722	0.208
0.174561070194	0.639965132042	CrowdGO	0.209	322.920958246	42.3348338198	325.684177432	0.209
0.174590917204	0.639755516749	CrowdGO	0.21	322.337472194	42.3513586992	325.107802989	0.21
0.17466895044	0.639755516749	CrowdGO	0.211	321.600849228	42.3513586992	324.377471178	0.211
0.174842818423	0.639546725845	CrowdGO	0.212	320.690912532	42.3819076542	323.479346292	0.212
0.174907677817	0.638988135974	CrowdGO	0.213	319.908779908	42.4153381215	322.708364271	0.213
0.175326752511	0.638168905985	CrowdGO	0.214	318.975970308	42.4490106567	321.788110625	0.214
0.17583975042	0.637651882917	CrowdGO	0.215	318.04503593	42.4678434281	320.867827314	0.215
0.175708942713	0.636438086078	CrowdGO	0.215	317.143055854	42.5354996917	319.982791116	0.216
0.176420830706	0.636171280049	CrowdGO	0.217	316.093833167	42.5668272692	318.947089891	0.217
0.17684591049	0.63597970261	CrowdGO	0.218	315.002362994	42.5758832398	317.866630091	0.218
0.177655652744	0.635565103182	CrowdGO	0.219	313.377606055	42.609320893	316.261091827	0.219
0.178186378761	0.634932067007	CrowdGO	0.22	312.614146951	42.6258126362	315.506837924	0.22
0.180016922029	0.633715040215	CrowdGO	0.221	310.459339863	42.71380935	313.38390389	0.221
0.18090685613	0.633133286882	CrowdGO	0.222	309.468641888	42.7499739294	312.407427221	0.222
0.182132990124	0.631988851634	CrowdGO	0.223	308.445754113	42.7928852379	311.400087119	0.223
0.183190546447	0.630972326324	CrowdGO	0.224	305.759910856	42.8929784795	308.753835101	0.224
0.183836166602	0.630696035316	CrowdGO	0.225	304.522061598	42.9207897187	307.531917352	0.225
0.184653832889	0.629967443549	CrowdGO	0.226	303.296088057	42.9599652752	306.323482037	0.226
0.184980031642	0.629569843161	CrowdGO	0.227	302.095960711	42.9829251733	305.138495334	0.227
0.184721849173	0.628777454362	CrowdGO	0.227	301.51622409	43.0207359027	304.569888707	0.228
0.184934941885	0.628457662031	CrowdGO	0.227	300.679397489	43.0464889079	303.745123882	0.229
0.185497777964	0.628090727478	CrowdGO	0.23	299.502105984	43.0856086879	302.585328734	0.23
0.185853881795	0.627067518548	CrowdGO	0.231	298.123116995	43.1298277798	301.226783223	0.231
0.186029629822	0.626874739913	CrowdGO	0.232	297.542849389	43.1675464565	300.657919054	0.232
0.186161697272	0.626736386702	CrowdGO	0.233	296.89617339	43.1768581613	300.01929747	0.233
0.186380175019	0.626613362062	CrowdGO	0.234	295.797494082	43.1893021741	298.933894578	0.234
0.186853115368	0.62565498853	CrowdGO	0.235	294.136287422	43.2880817553	297.304580523	0.235
0.187003524497	0.625072797672	CrowdGO	0.236	293.292569809	43.3216544808	296.474783501	0.236
0.188575801753	0.623282739935	CrowdGO	0.237	291.618111486	43.386173377	294.827887058	0.237
0.189101786959	0.621973522479	CrowdGO	0.238	289.422534066	43.5262891067	292.677196017	0.238
0.189222205039	0.621844359361	CrowdGO	0.239	288.919117927	43.5514204584	292.183132517	0.239
0.189507425396	0.621369683356	CrowdGO	0.24	287.594966001	43.644221743	290.887749073	0.24
0.189672006437	0.621225101558	CrowdGO	0.241	286.703635965	43.6511222751	290.007578093	0.241
0.190147604859	0.621178306111	CrowdGO	0.242	285.505313731	43.6585835871	288.824091948	0.242
0.190328552142	0.6211342104	CrowdGO	0.243	285.037878975	43.6636990633	288.362811518	0.243
0.190641251418	0.620630206377	CrowdGO	0.244	283.936925521	43.7028866455	287.280559689	0.244
0.191411234767	0.620080009719	CrowdGO	0.245	282.70275698	43.7247536028	286.064158681	0.245
0.191485285279	0.619437016062	CrowdGO	0.246	281.819170511	43.8199534978	285.205598108	0.246
0.191567308968	0.619191065621	CrowdGO	0.247	281.351862082	43.8798604385	284.753072765	0.247
0.191992137421	0.618510715095	CrowdGO	0.248	280.494237177	43.9046609852	283.909556629	0.248
0.192223900835	0.617860821071	CrowdGO	0.249	279.618167694	43.9703568312	283.054256256	0.249
0.192345563758	0.617659718792	CrowdGO	0.25	278.678299651	44.0062194975	282.131426911	0.25
0.192729258898	0.616739541243	CrowdGO	0.251	277.4510048	44.0621492287	280.927985539	0.251
0.192991526438	0.616399451909	CrowdGO	0.252	276.784519567	44.1075118632	280.276903927	0.252
0.193494530988	0.616314669569	CrowdGO	0.253	275.800311164	44.1193276003	279.306868348	0.253
0.193750518908	0.614519507968	CrowdGO	0.254	274.376186318	44.1992294984	277.913410088	0.254
0.194557435593	0.614201725773	CrowdGO	0.255	273.31967261	44.2205485058	276.87379859	0.255
0.195041263293	0.613980099774	CrowdGO	0.256	272.395033008	44.24601556	275.965149793	0.256
0.195558151958	0.613679421134	CrowdGO	0.257	271.127537378	44.2641397156	274.717046412	0.257
0.195841364043	0.613075625023	CrowdGO	0.258	269.865677938	44.3205900585	273.480892993	0.258
0.196644033171	0.612775242006	CrowdGO	0.259	268.640537129	44.3509485795	272.276963456	0.259
0.196813769404	0.612264552914	CrowdGO	0.26	267.501417103	44.4120328875	271.163118468	0.26
0.197372103226	0.612063594889	CrowdGO	0.261	266.509583448	44.4427154157	270.18977224	0.261
0.198134387345	0.61170970692	CrowdGO	0.262	265.596230732	44.4606448682	269.291861595	0.262
0.198748567974	0.61147748507	CrowdGO	0.263	265.108062475	44.4708778137	268.8120975	0.263
0.199549735075	0.610394134408	CrowdGO	0.264	263.133392367	44.5612979043	266.879919533	0.264
0.199825331305	0.609850865321	CrowdGO	0.265	262.334759497	44.5916221585	266.097611427	0.265
0.201162885941	0.607751665649	CrowdGO	0.266	259.608228065	44.6984164971	263.428131596	0.266
0.201450471195	0.607137317622	CrowdGO	0.267	258.811278813	44.736609595	262.649276182	0.267
0.201968237445	0.606292716751	CrowdGO	0.268	258.010624491	44.7934048162	261.870065997	0.268
0.202367128581	0.60611550599	CrowdGO	0.269	257.050730573	44.8092181599	260.927085831	0.269
0.203842948392	0.605288567589	CrowdGO	0.27	253.981831566	44.8900101973	257.918366506	0.27
0.204459388793	0.604591607203	CrowdGO	0.271	253.014943305	44.9355634635	256.974252405	0.271
0.206156458976	0.603559072556	CrowdGO	0.272	251.51671409	45.010979901	255.512515894	0.272
0.206929392625	0.603264336531	CrowdGO	0.273	250.732306004	45.0327091078	254.744252465	0.273
0.207295107334	0.602776971647	CrowdGO	0.274	249.830028468	45.0592693949	253.860947928	0.274
0.207473373899	0.602514355595	CrowdGO	0.275	249.256421539	45.0895631167	253.301860199	0.275
0.207691328515	0.602407151478	CrowdGO	0.276	248.762966612	45.0935192619	252.817007017	0.276
0.208433900225	0.602226527641	CrowdGO	0.277	248.409419238	45.1115485671	252.472357656	0.277
0.208767891185	0.601722500366	CrowdGO	0.278	247.305480749	45.1752948851	251.397708972	0.278
0.208822043859	0.600556762702	CrowdGO	0.278	246.70199024	45.237483908	250.815274532	0.279
0.20903665685	0.600455684534	CrowdGO	0.28	246.168378748	45.259239887	250.294365679	0.28
0.209705223432	0.600237728993	CrowdGO	0.281	245.451978853	45.2783264738	249.593270685	0.281
0.210086981626	0.599965705246	CrowdGO	0.282	244.640727374	45.3075272482	248.800839057	0.282
0.210191778538	0.599576766258	CrowdGO	0.283	243.974864556	45.3325208496	248.150704174	0.283
0.210518761888	0.59924387469	CrowdGO	0.284	243.15405301	45.3562589859	247.348102326	0.284
0.210688581425	0.598308430552	CrowdGO	0.285	242.09225195	45.4189376075	246.315931981	0.285
0.210747919511	0.598308430552	CrowdGO	0.286	241.57706265	45.4189376075	245.809595199	0.286
0.210804466372	0.597830227941	CrowdGO	0.286	241.166487695	45.4763328749	245.416730561	0.287
0.210881662766	0.597816673398	CrowdGO	0.288	240.796613608	45.4798640605	245.053927045	0.288
0.211133443917	0.597755684994	CrowdGO	0.289	240.177628926	45.4933889694	244.448239667	0.289
0.211481893293	0.597649203278	CrowdGO	0.29	239.678343351	45.4971679834	243.958399253	0.29
0.211961033935	0.597203966378	CrowdGO	0.291	238.826987741	45.5303480468	243.128243252	0.291
0.212884566744	0.595911466345	CrowdGO	0.292	238.048521187	45.5667492693	242.370433589	0.292
0.214438655837	0.595341599711	CrowdGO	0.293	236.405496209	45.6254556897	240.768022886	0.293
0.214819416821	0.594474532337	CrowdGO	0.294	235.706923838	45.6555280621	240.087861392	0.294
0.21554617308	0.593805551453	CrowdGO	0.295	234.713183466	45.6947434594	239.119819489	0.295
0.217693324776	0.592506520935	CrowdGO	0.296	233.84230677	45.7347665965	238.272728844	0.296
0.21844331429	0.591358514064	CrowdGO	0.297	232.62181571	45.8788230549	237.102879673	0.297
0.219276896352	0.59087793695	CrowdGO	0.298	231.652236193	45.8949227097	236.154827315	0.298
0.219652384857	0.590097045981	CrowdGO	0.299	230.858379262	45.9909469809	235.394899009	0.299
0.21999631677	0.589993541331	CrowdGO	0.3	230.341894369	46.0022119573	234.890595398	0.3
0.220559225064	0.588731230938	CrowdGO	0.301	229.09926532	46.1207085682	233.695513712	0.301
0.220996066589	0.58866609938	CrowdGO	0.302	228.237697286	46.1277449751	232.852346604	0.302
0.221778696606	0.587645579675	CrowdGO	0.303	226.748666506	46.1967096692	231.406771177	0.303
0.221975302296	0.586293713459	CrowdGO	0.304	226.212195351	46.225349198	230.886855914	0.304
0.222257629296	0.586087813489	CrowdGO	0.305	225.491617939	46.2406962458	230.183995425	0.305
0.222630727091	0.585992634992	CrowdGO	0.306	224.81075288	46.2627846011	229.521501933	0.306
0.222988447955	0.585361250035	CrowdGO	0.307	224.316389889	46.2898704571	229.042779585	0.307
0.22454766718	0.583392859963	CrowdGO	0.308	222.800580504	46.4841718871	227.598059985	0.308
0.224880161811	0.583288974069	CrowdGO	0.309	221.973606869	46.4878108473	226.789326697	0.309
0.22529969534	0.582960581392	CrowdGO	0.31	221.195286026	46.5061901528	226.031370129	0.31
0.225695542025	0.582688464613	CrowdGO	0.311	220.788307649	46.5754061371	225.647391413	0.311
0.225954040374	0.582086828908	CrowdGO	0.312	219.927522398	46.7847627569	224.848680526	0.312
0.22632745838	0.58169645439	CrowdGO	0.313	219.124860195	46.8163722423	224.070250291	0.313
0.226336012479	0.580674122884	CrowdGO	0.313	218.464871638	46.856175038	223.433214359	0.314
0.226811875275	0.580649555274	CrowdGO	0.315	218.098035418	46.8599207064	223.075335306	0.315
0.226976090838	0.58060220092	CrowdGO	0.316	217.468496769	46.867019898	222.461377864	0.316
0.227390625889	0.580400880429	CrowdGO	0.317	216.829134516	46.8782283918	221.838774501	0.317
0.227776267255	0.58023237144	CrowdGO	0.318	215.993350648	46.9040651283	221.027416512	0.318
0.227878060307	0.579934029228	CrowdGO	0.319	215.357448118	46.9360494003	220.41284716	0.319
0.228208634521	0.579619755255	CrowdGO	0.32	214.87543796	46.9587123901	219.946753801	0.32
0.228537729937	0.579485467963	CrowdGO	0.321	213.882710699	46.9800273762	218.981590341	0.321
0.22905605652	0.578573541547	CrowdGO	0.322	212.167985888	47.0904029622	217.330992468	0.322
0.228829588812	0.576926894996	CrowdGO	0.322	211.495111371	47.1838802544	216.694486985	0.323
0.229821460343	0.576105959084	CrowdGO	0.324	210.713230428	47.2385771022	215.943392221	0.324
0.229931460842	0.575809797888	CrowdGO	0.325	210.337373678	47.2602246437	215.58139901	0.325
0.229833514657	0.575075536902	CrowdGO	0.325	209.74051027	47.312314702	215.01055037	0.326
0.230202927284	0.574672975603	CrowdGO	0.327	208.530638128	47.3656639299	213.842309091	0.327
0.230558308202	0.573906690472	CrowdGO	0.328	207.924390671	47.4176725155	213.262720377	0.328
0.231886584509	0.57241469794	CrowdGO	0.329	206.856355197	47.5203585999	212.244519756	0.329
0.232545465498	0.569975173976	CrowdGO	0.33	205.408654306	47.63631477	210.859986125	0.33
0.232664168229	0.568802025585	CrowdGO	0.33	204.732514967	47.6848364188	210.212383815	0.331
0.23340592722	0.568190163471	CrowdGO	0.332	203.787884675	47.7360129761	209.304153985	0.332
0.234520401858	0.567770062574	CrowdGO	0.333	202.72376316	47.7769141294	208.277597628	0.333
0.235650959714	0.565955236829	CrowdGO	0.334	201.572773075	47.8584270306	207.176282144	0.334
0.236224813735	0.565734421733	CrowdGO	0.335	200.232508365	47.9036058524	205.8830077	0.335
0.236591738604	0.565418680373	CrowdGO	0.336	199.872668982	47.921392198	205.537207425	0.336
0.237007902322	0.565169210046	CrowdGO	0.337	199.066068277	47.9343759814	204.755961915	0.337
0.238056116347	0.565073062522	CrowdGO	0.338	198.161728108	47.9420845697	203.878674607	0.338
0.23842689805	0.564353126488	CrowdGO	0.339	197.28682133	47.9812752331	203.037663116	0.339
0.238770008891	0.563604130277	CrowdGO	0.34	196.326073957	48.0592883597	202.122790682	0.34
0.23967521575	0.561884978493	CrowdGO	0.341	195.495325148	48.1384591706	201.334878762	0.341
0.239916854679	0.561663676537	CrowdGO	0.342	194.774445742	48.1635344386	200.640999708	0.342
0.241046912183	0.561335137855	CrowdGO	0.343	193.702312429	48.1892950127	199.606598073	0.343
0.241745210754	0.561195490387	CrowdGO	0.344	193.407462063	48.201465221	199.323424692	0.344
0.241871556489	0.560886527229	CrowdGO	0.345	192.71501794	48.239855005	198.660921549	0.345
0.242580967142	0.559066229962	CrowdGO	0.346	191.512017892	48.321748085	197.514162366	0.346
0.242970467767	0.556492320025	CrowdGO	0.346	190.220475087	48.5320078028	196.31399574	0.347
0.243012410041	0.556072437235	CrowdGO	0.346	189.759677449	48.5483412257	195.871581964	0.348
0.243469641665	0.555763862094	CrowdGO	0.349	189.089121136	48.5817245711	195.23032473	0.349
0.24425658029	0.552579888871	CrowdGO	0.35	187.842028987	48.6892608482	194.049663684	0.35
0.245097683701	0.551681926378	CrowdGO	0.351	186.867087664	48.7083351091	193.110875823	0.351
0.245521581962	0.55062738221	CrowdGO	0.352	186.055409673	48.7497561634	192.33604497	0.352
0.245904461024	0.547868077348	CrowdGO	0.352	184.956961019	48.8620142424	191.302310141	0.353
0.246860838768	0.547089800388	CrowdGO	0.354	184.047788627	48.9166553938	190.437463944	0.354
0.249591148262	0.545001352025	CrowdGO	0.355	182.466987733	49.0028658187	188.932481249	0.355
0.250481198792	0.544315574546	CrowdGO	0.356	181.840494694	49.0300746619	188.334579226	0.356
0.251156562031	0.544212250198	CrowdGO	0.357	181.259649519	49.04741884	187.778352955	0.357
0.252017727943	0.543336310804	CrowdGO	0.358	180.469454573	49.1119842586	187.032646967	0.358
0.252004135543	0.542460761432	CrowdGO	0.358	179.701397935	49.2792230668	186.335810422	0.359
0.252860613994	0.541792413201	CrowdGO	0.36	178.326342591	49.336958837	185.025457625	0.36
0.253325547198	0.541488552056	CrowdGO	0.361	177.681835262	49.3627938438	184.411279476	0.361
0.253623917565	0.540127626532	CrowdGO	0.361	176.954995008	49.402604899	183.72176689	0.362
0.253755839509	0.539698706793	CrowdGO	0.363	176.426550789	49.4529384508	183.226419887	0.363
0.254009372187	0.539326095769	CrowdGO	0.364	175.788431593	49.4994278521	182.624658904	0.364
0.254318803271	0.539107304978	CrowdGO	0.365	175.185619592	49.5234452873	182.051017424	0.365
0.255009619518	0.538944604134	CrowdGO	0.366	174.645436689	49.5355382851	181.534564504	0.366
0.255348277556	0.538604066072	CrowdGO	0.367	173.95814015	49.5582771315	180.879676462	0.367
0.255495447823	0.53848255835	CrowdGO	0.368	173.394527469	49.5710150573	180.341197983	0.368
0.255808084844	0.537694701591	CrowdGO	0.369	173.066424274	49.6216703641	180.039710566	0.369
0.256546763974	0.535927891381	CrowdGO	0.37	172.292226068	49.7125437438	179.320796811	0.37
0.257035934425	0.535495397783	CrowdGO	0.371	171.288401686	49.7382736394	178.363708239	0.371
0.257181999327	0.535108907746	CrowdGO	0.372	170.811122396	49.7712971331	177.914646819	0.372
0.257651814343	0.535056708334	CrowdGO	0.373	170.103224486	49.7810739725	177.237869278	0.373
0.257787006553	0.535026471275	CrowdGO	0.374	169.706935341	49.7880383303	176.859528054	0.374
0.258295532369	0.534331502101	CrowdGO	0.375	169.017051903	49.8302058315	176.209571951	0.375
0.258266632298	0.533807727275	CrowdGO	0.375	168.636295129	49.8849905123	175.859922419	0.376
0.25811883593	0.532097343689	CrowdGO	0.375	167.807182254	49.9652113825	175.087900109	0.377
0.258885059923	0.531240050934	CrowdGO	0.375	167.186933525	50.0239474936	174.510360908	0.378
0.259141636518	0.531202010763	CrowdGO	0.379	166.726572011	50.0261557534	174.070003372	0.379
0.259436178035	0.530667084257	CrowdGO	0.38	166.190730914	50.0909981694	173.575537272	0.38
0.259654198157	0.530438875664	CrowdGO	0.381	165.700887242	50.1047972042	173.110585279	0.381
0.259679633098	0.529949722521	CrowdGO	0.381	165.101809371	50.1237140531	172.542731426	0.382
0.26005972733	0.528835687913	CrowdGO	0.383	164.480699773	50.2035980099	171.971805395	0.383
0.260153341022	0.528744976737	CrowdGO	0.384	164.18084287	50.2087791882	171.686547734	0.384
0.259850497683	0.526781978364	CrowdGO	0.384	163.760628162	50.2975063931	171.310777494	0.385
0.26295939082	0.525379429366	CrowdGO	0.386	162.941451691	50.3418045864	170.540945137	0.386
0.263616725801	0.524948118618	CrowdGO	0.387	162.424669128	50.378021362	170.057984751	0.387
0.263846150369	0.524804159687	CrowdGO	0.388	162.042653846	50.3984878715	169.699231717	0.388
0.264030631584	0.524494208135	CrowdGO	0.389	161.806671638	50.4159970032	169.479118892	0.389
0.264099613466	0.523380670211	CrowdGO	0.389	160.700392569	50.482800465	168.443252505	0.39
0.264571496862	0.523170980287	CrowdGO	0.391	160.268166216	50.4962689466	168.034991236	0.391
0.265958563738	0.521674890224	CrowdGO	0.392	158.987654255	50.6022202882	166.846213333	0.392
0.266059870371	0.52111716773	CrowdGO	0.392	158.646406721	50.6488667477	166.535251729	0.393
0.266635857809	0.520085734856	CrowdGO	0.394	158.162868433	50.6948429657	166.088711399	0.394
0.266965083768	0.519279258614	CrowdGO	0.395	157.484568413	50.732224912	165.454368129	0.395
0.269959750951	0.516905041931	CrowdGO	0.396	156.398676814	50.8353959682	164.452982923	0.396
0.269996964034	0.516089946832	CrowdGO	0.396	155.964157901	50.9138302941	164.064123638	0.397
0.270421010216	0.515363863429	CrowdGO	0.398	155.570504109	50.9655365171	163.706040394	0.398
0.27154895429	0.514333063415	CrowdGO	0.399	154.677480609	51.009863895	162.871511389	0.399
0.272240408797	0.513999562054	CrowdGO	0.4	153.843585252	51.0490340342	162.092111464	0.4
0.272914218762	0.513924874919	CrowdGO	0.401	153.362144071	51.0597370321	161.63862156	0.401
0.273150291909	0.513796123573	CrowdGO	0.402	152.974133643	51.0615235369	161.271090868	0.402
0.27333645435	0.513263038341	CrowdGO	0.403	152.289421628	51.1264063581	160.642389695	0.403
0.274026687964	0.512548013722	CrowdGO	0.404	151.332623302	51.1857225481	159.754627689	0.404
0.274536620955	0.511260899144	CrowdGO	0.405	150.574640944	51.2810660721	159.067502127	0.405
0.2745859189	0.511004976454	CrowdGO	0.405	150.36996639	51.2944111496	158.878077177	0.406
0.274495379948	0.510318614701	CrowdGO	0.405	149.852390352	51.4015063209	158.423021516	0.407
0.275308584829	0.509977058345	CrowdGO	0.408	149.272842066	51.4289593895	157.883878982	0.408
0.276830453651	0.509907270192	CrowdGO	0.409	148.784447698	51.4389570536	157.42546865	0.409
0.277505887982	0.509350369795	CrowdGO	0.41	148.121993624	51.4836375103	156.814189175	0.41
0.277665411662	0.508974359374	CrowdGO	0.411	147.611190297	51.5155080066	156.342288156	0.411
0.27855403007	0.508624095447	CrowdGO	0.412	147.195356026	51.5317465461	155.955101673	0.412
0.278979143747	0.50839884004	CrowdGO	0.413	146.418940696	51.5525301334	155.229409448	0.413
0.279215278066	0.50673766943	CrowdGO	0.413	145.808774663	51.5786318403	154.662710539	0.414
0.279419721575	0.505218179444	CrowdGO	0.413	144.971621677	51.7394336268	153.927710577	0.415
0.279256280141	0.504353742948	CrowdGO	0.413	144.321350402	51.8042887236	153.337329154	0.416
0.28015885086	0.503995478243	CrowdGO	0.413	143.828247317	51.8684879088	152.895077632	0.417
0.280521724135	0.502412228168	CrowdGO	0.413	142.800714701	51.9106957688	151.943293549	0.418
0.281955898481	0.501324878111	CrowdGO	0.419	142.003980725	51.9539578967	151.209603805	0.419
0.282558365507	0.500902256921	CrowdGO	0.42	141.400847653	51.9971527188	150.658234451	0.42
0.282535364029	0.500244993064	CrowdGO	0.42	140.953248346	52.0199415567	150.246106568	0.421
0.283096153599	0.499454558417	CrowdGO	0.422	140.444983327	52.0466377277	149.778656158	0.422
0.283388283829	0.499056678205	CrowdGO	0.423	139.728456391	52.0912260587	149.122558178	0.423
0.283558380447	0.498693908151	CrowdGO	0.424	139.256121498	52.1189487724	148.689785109	0.424
0.284127316345	0.498244204642	CrowdGO	0.425	138.260941694	52.146206309	147.767773316	0.425
0.285357763521	0.497048016788	CrowdGO	0.426	137.849121378	52.2083280018	147.404510709	0.426
0.286837012649	0.496653161272	CrowdGO	0.427	136.885961433	52.2358436832	146.513991833	0.427
0.287567259536	0.496327857635	CrowdGO	0.428	136.477581028	52.2465478505	146.136346901	0.428
0.288410537425	0.49550804634	CrowdGO	0.429	135.793666286	52.3484629973	145.534468019	0.429
0.288580717578	0.495099798077	CrowdGO	0.43	135.383852369	52.3772579285	145.162545549	0.43
0.291411850658	0.493809764372	CrowdGO	0.431	134.149863146	52.4706870704	144.046377198	0.431
0.29108790788	0.491576504304	CrowdGO	0.431	133.770193672	52.5202887646	143.710978867	0.432
0.291332017617	0.491516940942	CrowdGO	0.431	133.474727925	52.5230871284	143.437016408	0.433
0.292079717265	0.490878275788	CrowdGO	0.431	133.068825958	52.5865928444	143.082711006	0.434
0.292124026698	0.490273799855	CrowdGO	0.431	132.682968848	52.6718359348	142.755358999	0.435
0.292172562158	0.490041220144	CrowdGO	0.431	132.458630777	52.6922280999	142.554409856	0.436
0.292900379282	0.489758201276	CrowdGO	0.437	131.891611592	52.697315851	142.029589545	0.437
0.293052281854	0.489702675339	CrowdGO	0.438	131.618189481	52.7095512757	141.780268718	0.438
0.293297521921	0.48957528059	CrowdGO	0.439	131.202751144	52.7214580548	141.399130291	0.439
0.293372352049	0.48957528059	CrowdGO	0.44	130.990371017	52.7214580548	141.202087231	0.44
0.293920562147	0.489023133556	CrowdGO	0.441	130.534378423	52.7360092247	140.784624939	0.441
0.294185780672	0.488974504885	CrowdGO	0.442	130.146091763	52.7500080281	140.429941779	0.442
0.295175618243	0.488408182086	CrowdGO	0.443	129.56642606	52.7902817786	139.908086301	0.443
0.295482419672	0.488320830584	CrowdGO	0.444	129.292069049	52.8038939046	139.659193505	0.444
0.295493686538	0.487874419133	CrowdGO	0.444	129.12992082	52.8476481928	139.52566205	0.445
0.296093444689	0.487213485408	CrowdGO	0.446	128.500027815	52.8918000736	138.959705179	0.446
0.298388384392	0.486179938171	CrowdGO	0.447	127.692886341	52.9426817186	138.233139187	0.447
0.300525697455	0.485410130359	CrowdGO	0.448	127.227487096	53.0636313954	137.849854732	0.448
0.300665889512	0.484655634253	CrowdGO	0.448	126.872491965	53.1198126	137.54397009	0.449
0.301787180021	0.483950935	CrowdGO	0.45	126.207257283	53.1574246621	136.945184609	0.45
0.302221111997	0.483285737986	CrowdGO	0.451	125.701788772	53.2735662371	136.524769035	0.451
0.302850821915	0.482841298461	CrowdGO	0.452	125.244259354	53.3020720454	136.114787534	0.452
0.303451940591	0.482223419771	CrowdGO	0.453	124.971073416	53.3571820468	135.885091407	0.453
0.303665714492	0.48190563614	CrowdGO	0.454	124.665905831	53.4021572904	135.622190219	0.454
0.303907740408	0.48190563614	CrowdGO	0.455	124.369744734	53.4021572904	135.350004833	0.455
0.304500474666	0.480983301643	CrowdGO	0.456	123.725576102	53.4604427065	134.781442032	0.456
0.304906444513	0.480399905237	CrowdGO	0.457	123.52966081	53.4925066622	134.614357959	0.457
0.305172428407	0.479546647774	CrowdGO	0.457	123.337199003	53.5379873715	134.455869153	0.458
0.305423225192	0.478703867852	CrowdGO	0.457	122.742376637	53.6552970777	133.957388475	0.459
0.306196466192	0.478037770192	CrowdGO	0.46	122.145863207	53.7041451647	133.430682778	0.46
0.306636224127	0.476871973942	CrowdGO	0.46	121.154517486	53.8351652491	132.576929081	0.461
0.307131720034	0.476711303263	CrowdGO	0.462	120.788733749	53.8511387638	132.249247056	0.462
0.307768810256	0.476312596506	CrowdGO	0.463	120.13094526	53.8857474634	131.662894502	0.463
0.307794898629	0.474847893989	CrowdGO	0.463	119.779813225	53.9782128087	131.380558357	0.464
0.30766455606	0.472828938459	CrowdGO	0.463	118.690830009	54.043603128	130.415582533	0.465
0.307925593027	0.472669072671	CrowdGO	0.463	118.37326998	54.0546925093	130.131244627	0.466
0.308171005463	0.472612155855	CrowdGO	0.463	117.693538686	54.064186781	129.517200945	0.467
0.308295890701	0.47257642115	CrowdGO	0.463	117.514560209	54.0678296015	129.356105611	0.468
0.309328023389	0.470235397184	CrowdGO	0.463	116.66125399	54.1215597463	128.604010093	0.469
0.309806954832	0.469886427387	CrowdGO	0.463	116.471577824	54.138187548	128.438980811	0.47
0.310129416873	0.468530566018	CrowdGO	0.463	116.013153252	54.1937666371	128.046929169	0.471
0.310684244127	0.467976170076	CrowdGO	0.463	115.613095368	54.2453278947	127.706473677	0.472
0.310892509885	0.465420079483	CrowdGO	0.463	114.994527565	54.4179002241	127.220474903	0.473
0.311463493819	0.4643423735	CrowdGO	0.463	114.483819868	54.4817453743	126.786456653	0.474
0.311924443531	0.464310502006	CrowdGO	0.463	114.046835606	54.4827901147	126.39246469	0.475
0.31210231101	0.464092951583	CrowdGO	0.463	113.736360659	54.4953147383	126.117798365	0.476
0.312665531606	0.463935196759	CrowdGO	0.463	113.186321438	54.5082073198	125.627576694	0.477
0.312682650876	0.463642873309	CrowdGO	0.463	112.784032382	54.5371066823	125.277827111	0.478
0.31283811744	0.463309021602	CrowdGO	0.463	112.52010763	54.5778004655	125.058030229	0.479
0.314030091815	0.461330310563	CrowdGO	0.463	111.917321686	54.6539341983	124.549345309	0.48
0.314615116186	0.461159920652	CrowdGO	0.481	111.594862808	54.6679398405	124.265832196	0.481
0.316087633362	0.460983752911	CrowdGO	0.482	111.106209971	54.6777892869	123.831540955	0.482
0.316413535073	0.460890721961	CrowdGO	0.483	110.653010413	54.687937083	123.429571723	0.483
0.316586665131	0.460825208334	CrowdGO	0.484	110.414763411	54.6895353207	123.21674096	0.484
0.31674887779	0.460555564658	CrowdGO	0.485	110.142808231	54.713563932	122.983788701	0.485
0.316900974075	0.460447764963	CrowdGO	0.486	109.822009671	54.7179533372	122.698525767	0.486
0.317546527007	0.459221440956	CrowdGO	0.487	109.434432898	54.8390715099	122.405959282	0.487
0.317682989558	0.459094878629	CrowdGO	0.488	109.25049311	54.8438436654	122.243680543	0.488
0.318097214953	0.458757028027	CrowdGO	0.489	108.904032145	54.8723842978	121.946983464	0.489
0.318373083225	0.458750403053	CrowdGO	0.49	108.446073675	54.876611676	121.540089701	0.49
0.318986316059	0.458246704316	CrowdGO	0.491	108.081046665	54.9255389763	121.236658978	0.491
0.321608999479	0.457397772193	CrowdGO	0.492	107.330667065	54.9949678014	120.599828259	0.492
0.321945454729	0.456377364724	CrowdGO	0.492	106.63676687	55.1001404717	120.030935715	0.493
0.32257033601	0.456125186318	CrowdGO	0.494	106.122149603	55.1080470618	119.577621181	0.494
0.32296254989	0.454423424429	CrowdGO	0.494	105.40948994	55.1903285424	118.983750714	0.495
0.323282348409	0.454332590671	CrowdGO	0.494	105.188528719	55.1949452925	118.790187137	0.496
0.323535829879	0.454235963549	CrowdGO	0.497	104.98304984	55.2111334016	118.615808412	0.497
0.323781142731	0.453084664354	CrowdGO	0.497	104.588563508	55.3678509679	118.340046212	0.498
0.323992402042	0.452101712945	CrowdGO	0.497	104.323648856	55.4957378911	118.165987639	0.499
0.324617800266	0.451748745206	CrowdGO	0.497	104.136090145	55.5327256055	118.017832906	0.5
0.324995429588	0.450750922274	CrowdGO	0.497	103.86758587	55.5466759647	117.787557089	0.501
0.325246909282	0.450542720464	CrowdGO	0.497	103.477864768	55.5585052984	117.449631791	0.502
0.325347261327	0.450542720464	CrowdGO	0.497	103.260543084	55.5585052984	117.258207683	0.503
0.325286595193	0.45027864237	CrowdGO	0.497	103.157292772	55.5916074737	117.182993107	0.504
0.325601824019	0.448790060682	CrowdGO	0.497	102.603169992	55.7551244426	116.773474702	0.505
0.326496400629	0.447988876907	CrowdGO	0.497	101.703203421	55.8156493074	116.012621269	0.506
0.326870064627	0.447895789865	CrowdGO	0.507	100.868560447	55.8315869941	115.289342929	0.507
0.327288745572	0.447731440016	CrowdGO	0.508	100.476972688	55.8607025505	114.961037443	0.508
0.327345503881	0.447115480406	CrowdGO	0.508	100.104040764	55.930213989	114.669123194	0.509
0.328210827047	0.446773435071	CrowdGO	0.51	99.833785423	55.9472369693	114.441592249	0.51
0.328473019807	0.445876663695	CrowdGO	0.51	99.3927233117	56.0497534902	114.107354336	0.511
0.328552295336	0.444676554841	CrowdGO	0.51	99.141125693	56.0997017996	113.912858562	0.512
0.329159120724	0.444282239444	CrowdGO	0.51	98.6908165448	56.1124589671	113.527465054	0.513
0.329463578739	0.443735140059	CrowdGO	0.51	98.4866882862	56.1520942119	113.369684898	0.514
0.329200007596	0.443287636757	CrowdGO	0.51	98.3071298857	56.1855208567	113.230316348	0.515
0.32953834083	0.442957929059	CrowdGO	0.51	98.0493769897	56.212013238	113.019780394	0.516
0.330037902305	0.442070282001	CrowdGO	0.51	97.7160816851	56.3092369373	112.779265755	0.517
0.330514047323	0.440970728981	CrowdGO	0.51	97.1037828541	56.3472792029	112.268252494	0.518
0.330781860545	0.440553447078	CrowdGO	0.51	96.8889363724	56.3882585839	112.103085138	0.519
0.330977618986	0.439783450282	CrowdGO	0.51	96.629461268	56.4274972827	111.898682899	0.52
0.331367058857	0.439230901584	CrowdGO	0.51	96.2559099189	56.4582264991	111.591807646	0.521
0.333158666393	0.438349983433	CrowdGO	0.522	96.0761604695	56.4888115157	111.452296688	0.522
0.333378803532	0.438349983433	CrowdGO	0.523	95.8888558388	56.4888115157	111.290873393	0.523
0.335243923389	0.437871497844	CrowdGO	0.524	95.6261011972	56.5177577174	111.079287752	0.524
0.336032399984	0.435762789096	CrowdGO	0.524	95.019823694	56.6097174902	110.604823625	0.525
0.337134189966	0.43509538493	CrowdGO	0.526	94.8904862294	56.6202513876	110.499127798	0.526
0.342808703066	0.432964911863	CrowdGO	0.527	94.5455131126	56.6863898495	110.237021204	0.527
0.34406704159	0.431456170128	CrowdGO	0.528	93.8943708752	56.7642915676	109.719358726	0.528
0.343899663284	0.430817663484	CrowdGO	0.528	93.8041172789	56.8071389745	109.664321714	0.529
0.344308457763	0.430504115038	CrowdGO	0.528	93.4624165907	56.8283839642	109.383218726	0.53
0.346775021261	0.429603386016	CrowdGO	0.531	93.0052960254	56.8828827434	109.021316438	0.531
0.346958595691	0.429027459594	CrowdGO	0.531	92.7045174812	56.9194305557	108.783956245	0.532
0.346953467504	0.428466832432	CrowdGO	0.531	92.5260301297	56.9576459983	108.65191986	0.533
0.347398364117	0.428212001097	CrowdGO	0.531	92.0311025156	56.9663418518	108.235335885	0.534
0.347513103347	0.427789065025	CrowdGO	0.531	91.8459979924	56.9829738461	108.086755227	0.535
0.348804009738	0.42549592293	CrowdGO	0.531	91.1812267659	57.0730550237	107.570208349	0.536
0.350326909724	0.42467755392	CrowdGO	0.537	90.7726014178	57.1458821722	107.262840804	0.537
0.350800946497	0.42467755392	CrowdGO	0.538	90.7429555471	57.1458821722	107.237753756	0.538
0.351080967601	0.424663346146	CrowdGO	0.539	90.6243587134	57.1502333338	107.139738484	0.539
0.351203137804	0.424211871138	CrowdGO	0.539	90.4466548058	57.1831121965	107.007035685	0.54
0.351730377799	0.423768216387	CrowdGO	0.541	90.0166369237	57.2074826524	106.656884421	0.541
0.352117324962	0.423265785282	CrowdGO	0.542	89.7706873641	57.2511576342	106.47286678	0.542
0.353678517749	0.422883322113	CrowdGO	0.543	89.6360375521	57.2597171284	106.363971502	0.543
0.353956411963	0.422672859587	CrowdGO	0.544	89.4563853136	57.2842320316	106.22583543	0.544
0.354372229342	0.422469169	CrowdGO	0.545	89.2578154011	57.3089883401	106.072040401	0.545
0.354462866914	0.422074665061	CrowdGO	0.545	89.1085460975	57.3201602988	105.952507117	0.546
0.354582271699	0.422074665061	CrowdGO	0.545	88.9227289784	57.3201602988	105.796278317	0.547
0.35503128072	0.421910328526	CrowdGO	0.548	88.7411669849	57.3436272829	105.65645417	0.548
0.356265503317	0.420976945074	CrowdGO	0.549	88.4103291927	57.3773914973	105.397112688	0.549
0.358014903721	0.420592728505	CrowdGO	0.55	88.3037206012	57.392429052	105.315896163	0.55
0.358185173566	0.42011425453	CrowdGO	0.55	87.988985265	57.4211799663	105.067851585	0.551
0.359558550748	0.419582125936	CrowdGO	0.552	87.7628577819	57.4512063774	104.894996641	0.552
0.359583279196	0.418612476299	CrowdGO	0.552	87.4446986971	57.5069654673	104.659573893	0.553
0.36067038096	0.41847908205	CrowdGO	0.554	87.1261255083	57.5161855397	104.398627123	0.554
0.361547098959	0.417449134395	CrowdGO	0.555	86.6995174092	57.579584999	104.077927187	0.555
0.361736984201	0.417393752382	CrowdGO	0.556	86.3369856628	57.5836754137	103.778392585	0.556
0.362934656533	0.416637571585	CrowdGO	0.557	85.8845109343	57.6578772449	103.443607955	0.557
0.363408696531	0.416451669465	CrowdGO	0.558	85.6284618196	57.6800890423	103.243528347	0.558
0.363927342548	0.415345039672	CrowdGO	0.558	84.7978798352	57.8015764894	102.624084255	0.559
0.36523313301	0.414784891978	CrowdGO	0.56	84.3298770785	57.8691126504	102.275912937	0.56
0.365781508466	0.414677687861	CrowdGO	0.561	83.8344021695	57.8712278332	101.868964842	0.561
0.366457161639	0.413017132084	CrowdGO	0.561	83.3804359224	57.9314921418	101.530068829	0.562
0.367184446268	0.411927070479	CrowdGO	0.561	83.0097288801	58.1341428269	101.341963919	0.563
0.36838863545	0.410521856276	CrowdGO	0.561	82.3903725552	58.1717740482	100.856971924	0.564
0.36927977066	0.410087451857	CrowdGO	0.561	82.2303179688	58.2069139208	100.746563323	0.565
0.370072657755	0.40927877756	CrowdGO	0.561	81.8994611504	58.2591297156	100.506954645	0.566
0.369918838822	0.408599467142	CrowdGO	0.561	81.697066032	58.3195009545	100.377162691	0.567
0.374293942047	0.406227777702	CrowdGO	0.568	81.4055392748	58.396189323	100.184713166	0.568
0.374476069418	0.405701361442	CrowdGO	0.568	81.2026190496	58.4411101113	100.046132817	0.569
0.374923229799	0.405562303204	CrowdGO	0.57	80.8084111855	58.4486276748	99.7308447542	0.57
0.374643868252	0.404739360253	CrowdGO	0.57	80.6239215938	58.5149284846	99.6203472626	0.571
0.374502914247	0.404109234363	CrowdGO	0.57	80.5337700909	58.5545769782	99.5707116081	0.572
0.375713494907	0.403483929316	CrowdGO	0.57	80.0615422072	58.5942059439	99.2125572233	0.573
0.376383800928	0.402475040762	CrowdGO	0.57	79.6579803963	58.6869970695	98.9421925462	0.574
0.376582916211	0.401728067661	CrowdGO	0.57	79.4121430325	58.7219552555	98.7651582798	0.575
0.375084165071	0.39552624122	CrowdGO	0.57	78.9922554719	58.9940744087	98.5904520726	0.576
0.375330173868	0.39552624122	CrowdGO	0.57	78.8343907017	58.9940744087	98.464013592	0.577
0.37571567734	0.395175549211	CrowdGO	0.57	78.6269715327	59.008641732	98.3067670685	0.578
0.378595781634	0.3929653999	CrowdGO	0.57	78.1586985327	59.1041259122	97.9902028581	0.579
0.379249188118	0.391451386006	CrowdGO	0.57	77.7637582055	59.1702871713	97.715530875	0.58
0.37962309695	0.391229320336	CrowdGO	0.57	77.4106427356	59.1803696214	97.4408731348	0.581
0.379471592367	0.390463508323	CrowdGO	0.57	77.2240992714	59.2163390319	97.3146253994	0.582
0.379932094242	0.390232966721	CrowdGO	0.57	76.7249515593	59.2330900529	96.9292378439	0.583
0.380052496789	0.388082186441	CrowdGO	0.57	76.145922888	59.3130091754	96.5206435427	0.584
0.3802669251	0.388012961451	CrowdGO	0.57	75.9716354157	59.326692693	96.3916275079	0.585
0.380404827388	0.387523964974	CrowdGO	0.57	75.5897344576	59.3507899555	96.105797035	0.586
0.381014594891	0.387013819834	CrowdGO	0.57	75.2064574001	59.389780696	95.8287915285	0.587
0.380926575099	0.385837596549	CrowdGO	0.57	74.991229521	59.451899904	95.6985522736	0.588
0.381417909412	0.384791688524	CrowdGO	0.57	74.6411158202	59.5196214545	95.4666512923	0.589
0.381607171676	0.384352806579	CrowdGO	0.57	74.4082744316	59.5477996796	95.3023176558	0.59
0.381948293678	0.38383997348	CrowdGO	0.57	74.1145167151	59.5756380527	95.0905791196	0.591
0.383319199677	0.383287375452	CrowdGO	0.57	73.6007518332	59.6267881972	94.7228828802	0.592
0.383157119807	0.383110243281	CrowdGO	0.57	73.4755834711	59.6412264746	94.6347571551	0.593
0.384210900327	0.381883923346	CrowdGO	0.57	72.8228759713	59.6954609161	94.1632588578	0.594
0.384652767535	0.381755415847	CrowdGO	0.57	72.6480362632	59.7056631814	94.034586131	0.595
0.384931141512	0.381263060295	CrowdGO	0.57	72.3915167372	59.7501724957	93.8648752664	0.596
0.388216508477	0.378156290574	CrowdGO	0.57	71.3919753188	59.9486002314	93.2236494116	0.597
0.388350391153	0.378133828759	CrowdGO	0.57	71.2379113166	59.9586388219	93.1121816849	0.598
0.388657731115	0.377601254436	CrowdGO	0.57	71.0187702017	59.9879752546	92.9635568172	0.599
0.389012551435	0.376265194352	CrowdGO	0.57	70.6127798529	60.092282576	92.7213411451	0.6
0.389359222334	0.376099874241	CrowdGO	0.57	70.3070975832	60.1074405359	92.49860744	0.601
0.389106311945	0.37479807987	CrowdGO	0.57	70.0687008249	60.182715798	92.3665638428	0.602
0.389179058332	0.374470549914	CrowdGO	0.57	69.8085798271	60.2007127073	92.1811457292	0.603
0.390179313152	0.374009132606	CrowdGO	0.57	69.5842366298	60.210815801	92.0179782802	0.604
0.390848739243	0.373135072249	CrowdGO	0.57	68.9827512326	60.2658445034	91.6001745705	0.605
0.390991057052	0.371238222547	CrowdGO	0.57	68.541658786	60.403628144	91.3594947562	0.606
0.391812121388	0.369833811955	CrowdGO	0.57	67.4612706115	60.45443288	90.5856582874	0.607
0.39343728898	0.369221940555	CrowdGO	0.57	67.1030188426	60.5289415701	90.3690649802	0.608
0.393269878587	0.367887030415	CrowdGO	0.57	66.891803399	60.5506292091	90.2268921087	0.609
0.395516326966	0.366970111229	CrowdGO	0.57	66.0088089327	60.6140680305	89.6171194578	0.61
0.396476754689	0.365892096569	CrowdGO	0.57	65.6529382575	60.6728625294	89.3952154724	0.611
0.397206797102	0.364054989747	CrowdGO	0.57	65.3530588729	60.7405547504	89.2212827493	0.612
0.397568994356	0.363152856613	CrowdGO	0.57	64.9390911582	60.8038945761	88.9617848072	0.613
0.398993470984	0.362319368648	CrowdGO	0.57	64.7429555687	60.8471825641	88.8483535118	0.614
0.399631251312	0.361801669302	CrowdGO	0.57	64.2905078054	60.9081768529	88.5611393412	0.615
0.401096348482	0.360983666447	CrowdGO	0.57	64.0738000709	60.9863340186	88.457813632	0.616
0.401258361978	0.360446776905	CrowdGO	0.57	63.6169825448	61.0261473985	88.1550403233	0.617
0.400907333713	0.358416660795	CrowdGO	0.57	63.3848137344	61.0604534002	88.0114400609	0.618
0.401078286997	0.357675420903	CrowdGO	0.57	63.0290447252	61.0726816696	87.7640753685	0.619
0.401244253914	0.357603951492	CrowdGO	0.57	62.9032548704	61.0791985275	87.6783209582	0.62
0.4018541766	0.355925423387	CrowdGO	0.57	62.5811870389	61.134974994	87.4865140391	0.621
0.402667812632	0.355320995013	CrowdGO	0.57	62.3254672352	61.1557058181	87.3182925863	0.622
0.403184330112	0.354793471095	CrowdGO	0.57	62.161847954	61.1942652605	87.2286274215	0.623
0.405893775842	0.351985305131	CrowdGO	0.57	60.9168914699	61.4275904554	86.5113665105	0.624
0.406653874912	0.351456034342	CrowdGO	0.57	60.5139325226	61.4780363368	86.264042226	0.625
0.407774982038	0.350749072139	CrowdGO	0.57	59.9826262541	61.5503916431	85.9439710728	0.626
0.409920232642	0.347568886732	CrowdGO	0.57	59.0438914867	61.7152837841	85.4105226213	0.627
0.410322128229	0.346877211585	CrowdGO	0.57	58.7956814934	61.7605411591	85.2718981056	0.628
0.410337203246	0.346175279869	CrowdGO	0.57	58.4578935446	61.7808303155	85.0540787508	0.629
0.410427768557	0.345396750475	CrowdGO	0.57	58.1924424589	61.8241945537	84.9034239094	0.63
0.410303769567	0.342648651129	CrowdGO	0.57	57.7551482567	61.9742871034	84.714044952	0.631
0.411512752907	0.339939797601	CrowdGO	0.57	56.748256051	62.1334021721	84.1482277313	0.632
0.411932007356	0.339583985539	CrowdGO	0.57	56.2158548444	62.1846290235	83.8281004358	0.633
0.413959960185	0.33829506465	CrowdGO	0.57	55.1841254588	62.2797833113	83.2109314451	0.634
0.414562010415	0.337265585243	CrowdGO	0.57	55.0160914374	62.3179389147	83.1281891276	0.635
0.415138721261	0.33572668536	CrowdGO	0.57	54.0540148963	62.4514527463	82.5955233444	0.636
0.415639483422	0.334336660552	CrowdGO	0.57	53.2763577566	62.5075070198	82.1313504676	0.637
0.419570465351	0.331985057437	CrowdGO	0.57	52.3513629614	62.6513558504	81.6447034032	0.638
0.419565038142	0.331109405302	CrowdGO	0.57	51.8634768581	62.7616491054	81.4177181592	0.639
0.420611789466	0.329228191996	CrowdGO	0.57	51.3183815151	62.8848439662	81.1669876364	0.64
0.421798516171	0.327249540622	CrowdGO	0.57	51.093466751	62.9873421621	81.1045474513	0.641
0.423103606716	0.326409249531	CrowdGO	0.57	50.6427661906	63.0457844948	80.8669321169	0.642
0.423312019765	0.32588551848	CrowdGO	0.57	50.5451334201	63.06559704	80.8212845881	0.643
0.425134115144	0.324612547906	CrowdGO	0.57	49.8316556814	63.1805149395	80.4672068359	0.644
0.427075604097	0.321382347009	CrowdGO	0.57	49.2670177539	63.2418339591	80.1671291794	0.645
0.427798173001	0.319381902596	CrowdGO	0.57	48.8090139295	63.3407904744	79.9648396403	0.646
0.430236033255	0.318335211158	CrowdGO	0.57	48.4639822076	63.3889522084	79.7929623056	0.647
0.430967720301	0.31783338947	CrowdGO	0.57	48.0757628984	63.4469945849	79.6040206278	0.648
0.432342727293	0.317397772177	CrowdGO	0.57	47.7001329693	63.4863012996	79.4091502158	0.649
0.432843462166	0.316915261124	CrowdGO	0.57	47.3781264014	63.5276618755	79.2492945374	0.65
0.433121207161	0.315034580122	CrowdGO	0.57	46.9334953929	63.6425567998	79.0767224017	0.651
0.434225678131	0.313478231672	CrowdGO	0.57	46.6227283602	63.7299255483	78.96316996	0.652
0.435157525159	0.313035934009	CrowdGO	0.57	46.4546060891	63.7923941141	78.9145105395	0.653
0.436341511383	0.312145771171	CrowdGO	0.57	45.9549224358	63.859284372	78.6756830068	0.654
0.436340713834	0.311757224969	CrowdGO	0.57	45.8970917072	63.8788904538	78.6578392329	0.655
0.437127755021	0.308781407365	CrowdGO	0.57	45.1636351586	63.989993087	78.322877603	0.656
0.438001507959	0.306068369795	CrowdGO	0.57	44.9400246563	64.0967323008	78.2815234123	0.657
0.437673758858	0.3045459422	CrowdGO	0.57	44.6443805157	64.1653100808	78.1684573814	0.658
0.437786100576	0.304416777374	CrowdGO	0.57	44.5991676843	64.19189914	78.1644783347	0.659
0.438936823577	0.303918871434	CrowdGO	0.57	43.9514449791	64.2314212034	77.829332424	0.66
0.439692725365	0.302623272321	CrowdGO	0.57	43.7471250575	64.2613909158	77.7389047596	0.661
0.440829551106	0.302133914455	CrowdGO	0.57	43.5802488484	64.2772099605	77.6582114781	0.662
0.441153247421	0.300920536022	CrowdGO	0.57	43.3858655318	64.325731984	77.5895168384	0.663
0.441910999859	0.300136016693	CrowdGO	0.57	43.0699408684	64.3758009453	77.4549130383	0.664
0.44540021878	0.29717204978	CrowdGO	0.57	42.521678553	64.4792467507	77.2377265881	0.665
0.445834425123	0.296225612523	CrowdGO	0.57	42.288157983	64.4946630774	77.1223046275	0.666
0.446022025971	0.294451071699	CrowdGO	0.57	42.0791305539	64.5473168397	77.0519911448	0.667
0.447883882979	0.294039689644	CrowdGO	0.57	41.9093484529	64.5600712818	76.9700999847	0.668
0.450488716112	0.293601047615	CrowdGO	0.57	41.5100002885	64.5856405881	76.7748988546	0.669
0.4514928927	0.291955794082	CrowdGO	0.57	41.266364002	64.6841123837	76.7264438952	0.67
0.451861244285	0.291741385849	CrowdGO	0.57	40.9674071231	64.6891104031	76.5702909171	0.671
0.451788379058	0.290919571201	CrowdGO	0.57	40.7258129708	64.7319999214	76.4776023157	0.672
0.452880881297	0.290625414503	CrowdGO	0.57	40.3840612543	64.7511138946	76.3123787729	0.673
0.452583056171	0.289402164769	CrowdGO	0.57	40.2220174738	64.789557602	76.259409019	0.674
0.452459590389	0.28782952931	CrowdGO	0.57	39.8706186573	64.9419024206	76.2044416168	0.675
0.452735194147	0.287775927251	CrowdGO	0.57	39.6838135453	64.9426211135	76.1074838277	0.676
0.453337702705	0.286516905009	CrowdGO	0.57	39.5406085583	65.0546054728	76.1285847654	0.677
0.453497724222	0.286411802934	CrowdGO	0.57	39.4783996343	65.0698394061	76.1093163681	0.678
0.453927408655	0.285968140439	CrowdGO	0.57	39.2725569303	65.0784213638	76.0100957442	0.679
0.454765666162	0.285732266356	CrowdGO	0.57	39.0311154829	65.0936937966	75.8987282366	0.68
0.45469926549	0.285064710448	CrowdGO	0.57	38.7886372088	65.1377048357	75.8121294239	0.681
0.455080158062	0.284668526308	CrowdGO	0.57	38.6045599593	65.2153002625	75.7848760504	0.682
0.455074696438	0.28321003481	CrowdGO	0.57	38.4043465708	65.309361385	75.7641506258	0.683
0.465125298101	0.281203254021	CrowdGO	0.57	37.9565110725	65.3802555709	75.5994348611	0.684
0.469286065078	0.278754330293	CrowdGO	0.57	37.5783190162	65.4718224526	75.489665487	0.685
0.470353198572	0.278104558682	CrowdGO	0.57	37.3577449719	65.5169706408	75.419324787	0.686
0.470477416523	0.277676409126	CrowdGO	0.57	37.2193468563	65.5295191961	75.3617785517	0.687
0.471295976804	0.275634753303	CrowdGO	0.57	36.5575488175	65.7239138568	75.2069626312	0.688
0.472098823872	0.274038425765	CrowdGO	0.57	36.1594157979	65.7900126946	75.0721594282	0.689
0.473914677204	0.272632948453	CrowdGO	0.57	35.9644647768	65.8544666455	75.0350151852	0.69
0.475250695811	0.271468858546	CrowdGO	0.57	35.4918136241	65.9155897459	74.8634343714	0.691
0.476128297174	0.271076930482	CrowdGO	0.57	35.2709300701	65.9589065825	74.797164823	0.692
0.477069579644	0.270136746326	CrowdGO	0.57	35.0016826687	65.9927199088	74.700447593	0.693
0.479483268137	0.267364386717	CrowdGO	0.57	34.349991564	66.1647522123	74.5499587911	0.694
0.481368601603	0.266794675185	CrowdGO	0.57	33.9973854626	66.2282959027	74.4446733922	0.695
0.482242835127	0.264731937151	CrowdGO	0.57	33.6982184292	66.3681445728	74.433195144	0.696
0.48263251697	0.264126973426	CrowdGO	0.57	33.6159822739	66.3897916085	74.4153122285	0.697
0.482295011149	0.262966105992	CrowdGO	0.57	33.4704426913	66.4669015021	74.4185429127	0.698
0.483317620106	0.262480021627	CrowdGO	0.57	32.9683362606	66.5070199407	74.2300134527	0.699
0.483119831182	0.259067724931	CrowdGO	0.57	32.5492111997	66.6888021778	74.2081362495	0.7
0.483219181981	0.255969606991	CrowdGO	0.57	31.9820069013	66.8558474955	74.111760941	0.701
0.485373243161	0.255353090926	CrowdGO	0.57	31.7924321848	66.8782539326	74.050385504	0.702
0.48612638976	0.254798857201	CrowdGO	0.57	31.5949335663	66.9365933962	74.0185609327	0.703
0.486197628423	0.254384510889	CrowdGO	0.57	31.4683806634	66.966782183	73.9919515726	0.704
0.48614291347	0.249712113479	CrowdGO	0.57	31.1269783426	67.1447843333	74.0088565235	0.705
0.486190600223	0.248724733087	CrowdGO	0.57	31.0075697253	67.2247963046	74.0313623977	0.706
0.486598329982	0.247966646834	CrowdGO	0.57	30.9530501073	67.2604038293	74.0408889346	0.707
0.486300690869	0.246746161189	CrowdGO	0.57	30.8003704432	67.3293843362	74.0399136583	0.708
0.486395240062	0.246602875877	CrowdGO	0.57	30.6941732519	67.3452182882	74.0102067143	0.709
0.486276834789	0.242401882461	CrowdGO	0.57	30.4780496145	67.5802239868	74.1349997127	0.71
0.487232294921	0.239893006577	CrowdGO	0.57	30.1302403351	67.6721304901	74.0766402297	0.711
0.487896116312	0.239366439979	CrowdGO	0.57	29.9256314654	67.7016879357	74.0206860813	0.712
0.488971193987	0.239075615071	CrowdGO	0.57	29.6743091721	67.7184985233	73.9348339221	0.713
0.491582225629	0.236685899873	CrowdGO	0.57	29.3102772172	67.7878324681	73.8531149056	0.714
0.492233975928	0.236483792686	CrowdGO	0.57	29.1456677294	67.8018060494	73.8007781189	0.715
0.493192026081	0.235420960079	CrowdGO	0.57	28.8682106619	67.8618085531	73.7468551663	0.716
0.494008612002	0.234324966263	CrowdGO	0.57	28.6703435157	67.8961610603	73.7012705727	0.717
0.493646769439	0.23250724967	CrowdGO	0.57	28.5153733318	67.9674382387	73.7068462016	0.718
0.497870263834	0.22915707168	CrowdGO	0.57	27.6502064988	68.1785863147	73.572097641	0.719
0.49866134485	0.227824744772	CrowdGO	0.57	27.3084679061	68.3042805589	73.5610437803	0.72
0.500109778916	0.225341704061	CrowdGO	0.57	26.6827296422	68.5189015214	73.5309997678	0.721
0.500892992836	0.224195335588	CrowdGO	0.57	26.4336084505	68.5830932322	73.5008594032	0.722
0.502656259176	0.221760538349	CrowdGO	0.57	26.090354157	68.7548852292	73.5387028912	0.723
0.502895711002	0.221511045742	CrowdGO	0.57	25.9002259508	68.7730985825	73.4885078971	0.724
0.504435731088	0.220415575107	CrowdGO	0.57	25.4724114051	68.824599392	73.387118926	0.725
0.506930440655	0.220158227994	CrowdGO	0.57	25.1126238253	68.8625299227	73.2986487103	0.726
0.507755489689	0.21897874462	CrowdGO	0.57	24.9845701165	68.9327653703	73.320903469	0.727
0.508800742775	0.218735426934	CrowdGO	0.57	24.8978064873	68.9484761062	73.3061602135	0.728
0.509807105085	0.217923627645	CrowdGO	0.57	24.8307854085	68.9710450349	73.304658496	0.729
0.510231619124	0.217470031981	CrowdGO	0.57	24.6896852565	68.9824908439	73.2677596292	0.73
0.511218092814	0.215529614809	CrowdGO	0.57	24.5264411808	69.0849885782	73.3094943636	0.731
0.511856279336	0.215402128833	CrowdGO	0.57	24.4558243547	69.1182058758	73.3172130428	0.732
0.511703386855	0.214447501699	CrowdGO	0.57	24.4187132156	69.1387659272	73.3242286631	0.733
0.518966937951	0.212139445005	CrowdGO	0.57	24.050075654	69.2214073429	73.2803477987	0.734
0.519689655016	0.21168296296	CrowdGO	0.57	23.8487205794	69.2672825978	73.2578863451	0.735
0.520697636039	0.21168296296	CrowdGO	0.57	23.7399742348	69.2672825978	73.2225567373	0.736
0.521062877757	0.210697376594	CrowdGO	0.57	23.3587857946	69.3410773994	73.1697880871	0.737
0.521694870365	0.20972822122	CrowdGO	0.57	23.2737639613	69.4518850092	73.2477468613	0.738
0.52384478943	0.208442704407	CrowdGO	0.57	22.7619037596	69.5298012683	73.1607649439	0.739
0.524240594405	0.208316356698	CrowdGO	0.57	22.6888632497	69.5397252693	73.1475078598	0.74
0.526494993299	0.207961889779	CrowdGO	0.57	22.464154812	69.5788175712	73.1153205971	0.741
0.526767826422	0.207503765575	CrowdGO	0.57	22.4015432119	69.6138822118	73.1294860837	0.742
0.527693138249	0.199718092286	CrowdGO	0.57	21.689516321	70.0365342772	73.3181509027	0.743
0.527165159669	0.199198328346	CrowdGO	0.57	21.631362474	70.0713532003	73.3342374461	0.744
0.527606979912	0.195460678558	CrowdGO	0.57	20.9816427436	70.2878817515	73.3526799328	0.745
0.527729308316	0.194520783707	CrowdGO	0.57	20.9408113828	70.3547114423	73.4050611572	0.746
0.528179388413	0.193616676844	CrowdGO	0.57	20.8511732945	70.3924979594	73.4157694009	0.747
0.528532153862	0.192592162836	CrowdGO	0.57	20.7196221844	70.4437565299	73.4276894469	0.748
0.537522623902	0.188967423749	CrowdGO	0.57	20.1444533702	70.6883901572	73.5027040632	0.749
0.5372677302	0.188313021319	CrowdGO	0.57	20.0567953954	70.730316376	73.5190634882	0.75
0.537369030704	0.187795112359	CrowdGO	0.57	19.9301408435	70.7708082285	73.5235867688	0.751
0.536492407077	0.18655084436	CrowdGO	0.57	19.8468316097	70.8116027059	73.5403277306	0.752
0.539889176288	0.184907497185	CrowdGO	0.57	19.5323314486	70.9145697888	73.5553409355	0.753
0.541567117968	0.184289240085	CrowdGO	0.57	19.3470186198	70.9466782886	73.5373258262	0.754
0.541373236327	0.183442624241	CrowdGO	0.57	19.2826851616	70.9833083372	73.5557748212	0.755
0.541469645562	0.181000813384	CrowdGO	0.57	19.1116571216	71.0985947729	73.6224532097	0.756
0.542121876694	0.179934206708	CrowdGO	0.57	18.9942375342	71.138761204	73.6308658454	0.757
0.543192951525	0.179774128163	CrowdGO	0.57	18.938001949	71.1428535614	73.6203336767	0.758
0.543228635449	0.177737823582	CrowdGO	0.57	18.6448816523	71.1937502807	73.5947123838	0.759
0.543969166449	0.175696826584	CrowdGO	0.57	18.2677280899	71.2714303604	73.5753129466	0.76
0.544161839901	0.175678684349	CrowdGO	0.57	18.2162279767	71.2738822263	73.5649186046	0.761
0.545343166723	0.175231419516	CrowdGO	0.57	18.0361637485	71.3765991075	73.6201202316	0.762
0.548411505493	0.172765887923	CrowdGO	0.57	17.928948236	71.4283191297	73.6440897733	0.763
0.549145114092	0.171910850415	CrowdGO	0.57	17.8542993586	71.4926908714	73.6884037934	0.764
0.549701660063	0.170976453979	CrowdGO	0.57	17.8031739553	71.5396244318	73.7215766701	0.765
0.561038221825	0.167285275818	CrowdGO	0.57	17.6126648438	71.635776817	73.769170275	0.766
0.561643712403	0.166171788705	CrowdGO	0.57	17.4256979015	71.6725950095	73.7605302499	0.767
0.562331048375	0.165643366603	CrowdGO	0.57	17.3128503942	71.7071808695	73.7675713103	0.768
0.56250697213	0.164985698159	CrowdGO	0.57	17.244536514	71.7567422412	73.799756752	0.769
0.564193437795	0.162987244687	CrowdGO	0.57	17.1222553112	71.8131298447	73.8261284712	0.77
0.564302429137	0.162548537134	CrowdGO	0.57	17.0504681325	71.8268020851	73.8228146396	0.771
0.563474148731	0.162015813522	CrowdGO	0.57	16.9863645094	71.8709831634	73.8510311378	0.772
0.563878677088	0.161293386613	CrowdGO	0.57	16.9197267614	71.8816895633	73.8461539158	0.773
0.569683471092	0.158123112192	CrowdGO	0.57	16.8130203481	71.9230246411	73.8620276376	0.774
0.570946646086	0.157779189861	CrowdGO	0.57	16.6416065405	71.9510121976	73.8504652964	0.775
0.573777944795	0.155761598204	CrowdGO	0.57	16.4982745574	71.9887568791	73.8550890621	0.776
0.575425660276	0.154484005455	CrowdGO	0.57	16.2989485276	72.0556464199	73.8760577189	0.777
0.575103647149	0.153801892987	CrowdGO	0.57	16.2431690191	72.0961948637	73.9033277574	0.778
0.57528051223	0.151661324445	CrowdGO	0.57	16.0342415993	72.173560991	73.9332118184	0.779
0.575574841525	0.15139541414	CrowdGO	0.57	16.0069811351	72.1806196189	73.9341956988	0.78
0.576720995004	0.151316941773	CrowdGO	0.57	15.9052557067	72.1876444598	73.9190988294	0.781
0.577850980167	0.150840928007	CrowdGO	0.57	15.79548214	72.2470175487	73.9535584047	0.782
0.578088335838	0.150807235285	CrowdGO	0.57	15.7044310204	72.2477313087	73.9348620945	0.783
0.578756283639	0.149151664591	CrowdGO	0.57	15.5000141469	72.3677904668	74.0091044102	0.784
0.579787255705	0.149003851358	CrowdGO	0.57	15.4246704606	72.3721888368	73.9976633134	0.785
0.579856532761	0.148563713106	CrowdGO	0.57	15.3127209589	72.4079906354	74.0094354189	0.786
0.579247603983	0.147998658074	CrowdGO	0.57	15.118675176	72.4554098503	74.0159493329	0.787
0.591332941088	0.1457740525	CrowdGO	0.57	14.6853763865	72.6046157999	74.0748980091	0.788
0.591401767256	0.145690788333	CrowdGO	0.57	14.6729343397	72.6184482837	74.0859908031	0.789
0.593360047925	0.143305663109	CrowdGO	0.57	14.5347550456	72.7773370658	74.2145531188	0.79
0.593833841336	0.142520238502	CrowdGO	0.57	14.1500707895	72.8587643514	74.2201054038	0.791
0.594538315978	0.142319993448	CrowdGO	0.57	14.03415776	72.8699516338	74.2090791962	0.792
0.594597068062	0.139540728141	CrowdGO	0.57	13.8451007596	73.000013668	74.3013378788	0.793
0.596554129208	0.138955964652	CrowdGO	0.57	13.7200394409	73.0161143405	74.2939596175	0.794
0.597094557657	0.136694516647	CrowdGO	0.57	13.6135766437	73.1597130766	74.4155433124	0.795
0.596921777891	0.135061644783	CrowdGO	0.57	13.4872077001	73.2575547587	74.4887515049	0.796
0.597939516878	0.134698321132	CrowdGO	0.57	13.3881798464	73.2694417323	74.4825781735	0.797
0.599404184447	0.134048830686	CrowdGO	0.57	13.2774345645	73.3146103947	74.5071967392	0.798
0.599150827393	0.132422382362	CrowdGO	0.57	13.2622122763	73.3679308942	74.5569551293	0.799
0.598916111763	0.131967235059	CrowdGO	0.57	13.1981188448	73.3988919902	74.576053036	0.8
0.599867226019	0.131718972895	CrowdGO	0.57	12.9610512374	73.4118828463	74.5472561012	0.801
0.599412795899	0.130618782175	CrowdGO	0.57	12.8656278143	73.4780015578	74.5958517077	0.802
0.598740635998	0.12823005455	CrowdGO	0.57	12.7462359441	73.5400285517	74.6364678299	0.803
0.601700215007	0.127341169044	CrowdGO	0.57	12.5809224821	73.5594125916	74.6275203348	0.804
0.604629065723	0.125756052804	CrowdGO	0.57	12.3272606621	73.6318546893	74.6566231517	0.805
0.60512634885	0.125346806914	CrowdGO	0.57	12.1461645072	73.648515335	74.6433729362	0.806
0.607847916019	0.123433430777	CrowdGO	0.57	12.083885873	73.7004271548	74.6844914329	0.807
0.609978161537	0.12322028379	CrowdGO	0.57	11.9539688217	73.7254163246	74.6882479566	0.808
0.615582166688	0.121105665775	CrowdGO	0.57	11.7224209223	73.784970815	74.7103545062	0.809
0.616467279822	0.121084607823	CrowdGO	0.57	11.6593345358	73.7871790748	74.7026631228	0.81
0.619511769455	0.120594492341	CrowdGO	0.57	11.5890502847	73.8119197376	74.7161668038	0.811
0.619886926659	0.119631625415	CrowdGO	0.57	11.4433865244	73.9181685545	74.7987081279	0.812
0.625364667166	0.117783697071	CrowdGO	0.57	11.4201885073	73.9457194793	74.8223905983	0.813
0.626310789167	0.116752827665	CrowdGO	0.57	11.2870134731	74.0095433992	74.8652735739	0.814
0.628791161198	0.116474862705	CrowdGO	0.57	11.1589403225	74.0115616503	74.8480674903	0.815
0.639284157682	0.113058589444	CrowdGO	0.57	10.8414359565	74.180697698	74.968744451	0.816
0.639597009334	0.112872906065	CrowdGO	0.57	10.703878047	74.2060881161	74.9741056549	0.817
0.640962898949	0.112567175806	CrowdGO	0.57	10.6323635024	74.2165651913	74.9743002797	0.818
0.641840521017	0.112399960073	CrowdGO	0.57	10.5360058148	74.2278818205	74.9719004567	0.819
0.642420843088	0.111874979191	CrowdGO	0.57	10.437510164	74.2446081963	74.9746854922	0.82
0.642970170076	0.111874979191	CrowdGO	0.57	10.380220629	74.2446081963	74.9667314649	0.821
0.643335669051	0.111677990887	CrowdGO	0.57	10.2495768004	74.2546137119	74.9586651568	0.822
0.643239816927	0.111021208766	CrowdGO	0.57	10.0575260836	74.3202068798	74.9976465069	0.823
0.659350899592	0.106671695084	CrowdGO	0.57	9.91480712996	74.3621650474	75.0202305446	0.824
0.660022500892	0.106256371356	CrowdGO	0.57	9.89555766682	74.3829370478	75.0382794672	0.825
0.659647031226	0.104669709352	CrowdGO	0.57	9.83542232144	74.4795888001	75.1261917049	0.826
0.664236563188	0.104106065171	CrowdGO	0.57	9.58386752245	74.5011967936	75.115103943	0.827
0.664080993483	0.104059820258	CrowdGO	0.57	9.53232672118	74.5024229802	75.109761567	0.828
0.664930630546	0.104019156627	CrowdGO	0.57	9.4923347277	74.5068233403	75.109061656	0.829
0.664974482364	0.103539365958	CrowdGO	0.57	9.40864059549	74.5371301917	75.1285983835	0.83
0.664974482364	0.103539365958	CrowdGO	0.57	9.40864059549	74.5371301917	75.1285983835	0.831
0.666093965152	0.100936359378	CrowdGO	0.57	9.25886051031	74.6204123406	75.1926355159	0.832
0.667000312626	0.10010120049	CrowdGO	0.57	9.04545136169	74.6891349923	75.234879386	0.833
0.667697695643	0.0984790700285	CrowdGO	0.57	8.92000670747	74.7717636264	75.3019465582	0.834
0.677237172366	0.0960970469129	CrowdGO	0.57	8.61568143196	74.8472188416	75.3414635832	0.835
0.676383280976	0.0950458098051	CrowdGO	0.57	8.60486728073	74.919055824	75.41159504	0.836
0.684449756566	0.0928557329857	CrowdGO	0.57	8.4880826075	74.9509000954	75.4300004737	0.837
0.684873139623	0.0927081346382	CrowdGO	0.57	8.3295683217	74.9565931526	75.4179856895	0.838
0.686782142531	0.0919268846382	CrowdGO	0.57	8.28255285522	74.9658220602	75.4219806088	0.839
0.690593771075	0.0905149195942	CrowdGO	0.57	8.17781671562	75.0082980945	75.4527764185	0.84
0.689976844779	0.0894126528227	CrowdGO	0.57	8.11511020241	75.0413162596	75.4788325266	0.841
0.690183378724	0.0885776898376	CrowdGO	0.57	8.02198022678	75.0537752115	75.4812648295	0.842
0.691668145028	0.0885776898376	CrowdGO	0.57	7.87336020918	75.0537752115	75.4656145173	0.843
0.693460841742	0.0883239734282	CrowdGO	0.57	7.78523384215	75.0574152479	75.4600917682	0.844
0.696005647758	0.085378776903	CrowdGO	0.57	7.72219048673	75.1264579473	75.5222941232	0.845
0.696837170168	0.0851735046633	CrowdGO	0.57	7.58035411182	75.1365206545	75.5179349858	0.846
0.697302597971	0.0831811922266	CrowdGO	0.57	7.04470365528	75.2525216825	75.581544501	0.847
0.690447134897	0.0820245128809	CrowdGO	0.57	6.90795536263	75.291347387	75.6075845312	0.848
0.701684244787	0.0788670281952	CrowdGO	0.57	6.86933901239	75.3562665208	75.6687169338	0.849
0.703093672094	0.0787024101928	CrowdGO	0.57	6.76302046295	75.3715507267	75.6743622684	0.85
0.732726629311	0.0706523539662	CrowdGO	0.57	6.4752283564	75.5857162009	75.8625670267	0.851
0.732730142768	0.0706523539662	CrowdGO	0.57	6.4698490157	75.5857162009	75.8621080639	0.852
0.73274390808	0.0705454443663	CrowdGO	0.57	6.39300689924	75.5967711004	75.8666088475	0.853
0.734327960107	0.0704799307395	CrowdGO	0.57	6.28035220656	75.5978438451	75.8582679598	0.854
0.736984033312	0.070283389859	CrowdGO	0.57	6.18707166542	75.6025247512	75.8552674806	0.855
0.737773045293	0.0700770349619	CrowdGO	0.57	6.10897156864	75.610412269	75.8567991489	0.856
0.737985182135	0.0699725390721	CrowdGO	0.57	5.95315333256	75.6262308496	75.8601794561	0.857
0.742758804652	0.0681217227012	CrowdGO	0.57	5.80546908119	75.7191806411	75.9414102333	0.858
0.742849846651	0.0681217227012	CrowdGO	0.57	5.78898641565	75.7191806411	75.9401519664	0.859
0.745235923327	0.067486265243	CrowdGO	0.57	5.68289428849	75.7987273225	76.0114619726	0.86
0.745583709967	0.067078873418	CrowdGO	0.57	5.57295448629	75.8146493632	76.019200731	0.861
0.757964210931	0.0651619142459	CrowdGO	0.57	5.45723333457	75.9018732746	76.0978039254	0.862
0.760655856064	0.0650097535642	CrowdGO	0.57	5.09297840063	75.9240737055	76.0947001901	0.863
0.76063278482	0.0649740188587	CrowdGO	0.57	5.08907314569	75.9293972093	76.0997504993	0.864
0.778695582001	0.0622810097926	CrowdGO	0.57	4.6591196761	76.0825837533	76.2251070628	0.865
0.779734065365	0.0621859093665	CrowdGO	0.57	4.55676401689	76.1030820651	76.2393808875	0.866
0.779648601568	0.0617318211537	CrowdGO	0.57	4.51049833813	76.1328082191	76.2663037166	0.867
0.779152551667	0.0603718850612	CrowdGO	0.57	4.39587750882	76.1953410157	76.3220396188	0.868
0.781382927835	0.0601360360046	CrowdGO	0.57	4.2624059398	76.1991444706	76.3182659817	0.869
0.781917255575	0.0599714901511	CrowdGO	0.57	4.17165945365	76.218166559	76.332245193	0.87
0.782222276438	0.0590189853897	CrowdGO	0.57	4.08775776013	76.2422540309	76.3517587434	0.871
0.795926139945	0.0576945076235	CrowdGO	0.57	3.96480106402	76.2803859491	76.3833550456	0.872
0.796056288807	0.0572904419555	CrowdGO	0.57	3.94378379372	76.328905962	76.4307223306	0.873
0.79507453385	0.0566152440981	CrowdGO	0.57	3.9134906453	76.3665395744	76.4667494772	0.874
0.796044883186	0.0551246164005	CrowdGO	0.57	3.82679452042	76.4639477504	76.5596477387	0.875
0.789159746742	0.053349251674	CrowdGO	0.57	3.79268689521	76.488460607	76.5824332332	0.876
0.790536756144	0.053349251674	CrowdGO	0.57	3.66805615149	76.488460607	76.5763621619	0.877
0.790851727797	0.0528509015169	CrowdGO	0.57	3.62999745911	76.5289347482	76.6149772254	0.878
0.793437468176	0.052248680101	CrowdGO	0.57	3.26933164221	76.5494090253	76.6191917962	0.879
0.793423829332	0.052197408567	CrowdGO	0.57	3.26933164221	76.5533142802	76.6230934946	0.88
0.793423829332	0.052197408567	CrowdGO	0.57	3.26059198647	76.5533142802	76.622721091	0.881
0.796131964852	0.0511495649651	CrowdGO	0.57	3.1832953443	76.6070824837	76.6731925507	0.882
0.796131964852	0.0511495649651	CrowdGO	0.57	3.17847009696	76.6070824837	76.6729923691	0.883
0.7897494901	0.0489817214332	CrowdGO	0.57	3.10533732751	76.6305947969	76.6934885036	0.884
0.793696864921	0.0467575481314	CrowdGO	0.57	2.98772091126	76.7422235126	76.800360324	0.885
0.798491362242	0.0466441591619	CrowdGO	0.57	2.27607573993	76.7518498615	76.7855909526	0.886
0.798370977009	0.046299014201	CrowdGO	0.57	2.25429746941	76.7789957646	76.8120826935	0.887
0.799605697345	0.0462860554616	CrowdGO	0.57	2.24405991646	76.7821550065	76.8149408146	0.888
0.800055135547	0.0461924645662	CrowdGO	0.57	2.23580683353	76.7980428357	76.8305812525	0.889
0.801815435173	0.0452660470967	CrowdGO	0.57	2.18394751533	76.8476480429	76.8786747835	0.89
0.80355835087	0.0442291161037	CrowdGO	0.57	2.10879839827	76.8740714817	76.9029901685	0.891
0.80582398919	0.0440197970235	CrowdGO	0.57	2.0120726475	76.8807781503	76.9071029576	0.892
0.820393905845	0.0426770954906	CrowdGO	0.57	1.89332901496	76.90647249	76.9297745065	0.893
0.823055099409	0.0416162046736	CrowdGO	0.57	1.79390430339	76.9842629594	77.0051611001	0.894
0.823248229293	0.0416032459342	CrowdGO	0.57	1.74137169553	76.987009392	77.0067009455	0.895
0.823248229293	0.0416032459342	CrowdGO	0.57	1.73746644059	76.987009392	77.0066127339	0.896
0.827051112328	0.039878621686	CrowdGO	0.57	1.65999310481	77.1563361616	77.1741911975	0.897
0.831464317683	0.0394632964771	CrowdGO	0.57	1.60477986124	77.1612524735	77.1779385685	0.898
0.844973138271	0.0351315318022	CrowdGO	0.57	1.56617387547	77.2061896578	77.2220734122	0.899
0.844973138271	0.0351315318022	CrowdGO	0.57	1.53728983759	77.2061896578	77.2214930024	0.9
0.857407349595	0.0300963381595	CrowdGO	0.57	1.50902104392	77.2898304505	77.3045602508	0.901
0.857490021553	0.0299073565436	CrowdGO	0.57	1.49164568149	77.2973125376	77.3117037219	0.902
0.856981271044	0.0296125452228	CrowdGO	0.57	1.39825069881	77.3059641792	77.3186083857	0.903
0.85740722793	0.0290229225813	CrowdGO	0.57	1.39825069881	77.3202343537	77.3328762269	0.904
0.857490146669	0.0288290440158	CrowdGO	0.57	1.37963030889	77.3264257986	77.3387322535	0.905
0.861928739923	0.0287799087957	CrowdGO	0.57	1.28401237318	77.3269332925	77.3375930593	0.906
0.861928739923	0.0287799087957	CrowdGO	0.57	1.28401237318	77.3269332925	77.3375930593	0.907
0.861928739923	0.0287799087957	CrowdGO	0.57	1.28401237318	77.3269332925	77.3375930593	0.908
0.947879604672	0.0194236902634	CrowdGO	0.57	1.15312062428	77.4209577584	77.4295446674	0.909
0.947921533393	0.0187862603807	CrowdGO	0.57	1.12927328857	77.4802312628	77.488460397	0.91
0.947921533393	0.0187862603807	CrowdGO	0.57	1.12444804123	77.4802312628	77.4883902268	0.911
0.950766696616	0.018449333157	CrowdGO	0.57	1.08148480582	77.4819185465	77.4894658069	0.912
0.953421115921	0.017663169635	CrowdGO	0.57	0.979236554489	77.487824221	77.494011425	0.913
0.953631553632	0.0176336885029	CrowdGO	0.57	0.962695542315	77.48843876	77.4944186646	0.914
0.956878306878	0.0169612426141	CrowdGO	0.57	0.943673453946	77.5233486775	77.529092022	0.915
0.961195606253	0.0169470348396	CrowdGO	0.57	0.872715341861	77.5239632165	77.5288752973	0.916
0.965868055556	0.0152868119893	CrowdGO	0.57	0.794150769279	77.5530987936	77.557164775	0.917
0.9696875	0.0152714971155	CrowdGO	0.57	0.76500258439	77.5562330528	77.5600058941	0.918
0.9696875	0.0151157477385	CrowdGO	0.57	0.755964046864	77.5796029692	77.5832860769	0.919
0.973326359833	0.0150085436218	CrowdGO	0.57	0.729801846886	77.5802175082	77.5836500775	0.92
0.973214285714	0.0149854211653	CrowdGO	0.57	0.698178847605	77.5808320472	77.5839735695	0.921
0.973214285714	0.0149854211653	CrowdGO	0.57	0.674808931252	77.5808320472	77.5837667829	0.922
0.973101265823	0.0149597853983	CrowdGO	0.57	0.674808931252	77.5816157909	77.584550497	0.923
0.976293103448	0.0144348273358	CrowdGO	0.57	0.62917342949	77.6069071136	77.6094574839	0.924
0.980519480519	0.014226725227	CrowdGO	0.57	0.622121167331	77.6159470472	77.6184402754	0.925
0.980519480519	0.014226725227	CrowdGO	0.57	0.617773339347	77.6159470472	77.6184055488	0.926
0.980519480519	0.014226725227	CrowdGO	0.57	0.60465692544	77.6159470472	77.618302262	0.927
0.98057960558	0.0139984842045	CrowdGO	0.57	0.600751670495	77.6349691356	77.6372934565	0.928
0.98057960558	0.0139591760284	CrowdGO	0.57	0.600751670495	77.6355836746	77.6379079771	0.929
0.989160310589	0.0137229248421	CrowdGO	0.57	0.547600600342	77.6505542654	77.6524851125	0.93
0.989017683097	0.0136115094096	CrowdGO	0.57	0.515983419277	77.6529054967	77.6546197658	0.931
0.989017683097	0.0136115094096	CrowdGO	0.57	0.515983419277	77.6529054967	77.6546197658	0.932
0.991210665553	0.0133904009191	CrowdGO	0.57	0.477976939015	77.6616388492	77.6631097156	0.933
0.991093474427	0.013230333849	CrowdGO	0.57	0.474841963925	77.6639900805	77.6654416721	0.934
0.989984882842	0.0114135399719	CrowdGO	0.57	0.427026955597	77.7123488448	77.7135220859	0.935
0.984857142857	0.00766848885622	CrowdGO	0.57	0.37709765511	77.7625084462	77.7634227802	0.936
0.984857142857	0.00766848885622	CrowdGO	0.57	0.368446013528	77.7625084462	77.7633813071	0.937
0.986	0.007412131186	CrowdGO	0.57	0.360442441245	77.773078454	77.773913692	0.938
0.985042735043	0.00690262235144	CrowdGO	0.57	0.317657118791	77.7793484042	77.7799970701	0.939
0.985195360195	0.00690262235144	CrowdGO	0.57	0.313309290807	77.7793484042	77.7799794349	0.94
0.985195360195	0.00690262235144	CrowdGO	0.57	0.313309290807	77.7793484042	77.7799794349	0.941
0.422619047619	0.000622804868088	CrowdGO	0.57	0.258447226733	77.8686951943	77.869124088	0.942
0.422619047619	0.000622804868088	CrowdGO	0.57	0.258447226733	77.8686951943	77.869124088	0.943
0.422619047619	0.000622804868088	CrowdGO	0.57	0.258447226733	77.8686951943	77.869124088	0.944
0.422619047619	0.000622804868088	CrowdGO	0.57	0.258447226733	77.8686951943	77.869124088	0.945
0.422619047619	0.000622804868088	CrowdGO	0.57	0.258447226733	77.8686951943	77.869124088	0.946
0.5625	0.000454341256228	CrowdGO	0.57	0.17219713205	77.8694789381	77.8696693324	0.947
0.5625	0.000454341256228	CrowdGO	0.57	0.17219713205	77.8694789381	77.8696693324	0.948
0.5625	0.000454341256228	CrowdGO	0.57	0.168291877106	77.8694789381	77.8696607944	0.949
0.5625	0.000454341256228	CrowdGO	0.57	0.168291877106	77.8694789381	77.8696607944	0.95
1.0	0.000285877644368	CrowdGO	0.57	0.096614640502	77.8702626818	77.8703226173	0.951
1.0	0.000285877644368	CrowdGO	0.57	0.096614640502	77.8702626818	77.8703226173	0.952
0.0	0.0	CrowdGO	0.57	0	77.894416342	77.894416342	0.953
0.0	0.0	CrowdGO	0.57	0	77.894416342	77.894416342	0.954
0.0	0.0	CrowdGO	0.57	0	77.894416342	77.894416342	0.955
0.0	0.0	CrowdGO	0.57	0	77.894416342	77.894416342	0.956
0.0	0.0	CrowdGO	0.57	0	77.894416342	77.894416342	0.957
0.0	0.0	CrowdGO	0.57	0	77.894416342	77.894416342	0.958
0.0	0.0	CrowdGO	0.57	0	77.894416342	77.894416342	0.959
0.0	0.0	CrowdGO	0.57	0	77.894416342	77.894416342	0.96
0.0	0.0	CrowdGO	0.57	0	77.894416342	77.894416342	0.961
0.0	0.0	CrowdGO	0.57	0	77.894416342	77.894416342	0.962
0.0	0.0	CrowdGO	0.57	0	77.894416342	77.894416342	0.963
0.0	0.0	CrowdGO	0.57	0	77.894416342	77.894416342	0.964
0.0	0.0	CrowdGO	0.57	0	77.894416342	77.894416342	0.965
0.0	0.0	CrowdGO	0.57	0	77.894416342	77.894416342	0.966
0.0	0.0	CrowdGO	0.57	0	77.894416342	77.894416342	0.967
0.0	0.0	CrowdGO	0.57	0	77.894416342	77.894416342	0.968
0.0	0.0	CrowdGO	0.57	0	77.894416342	77.894416342	0.969
0.0	0.0	CrowdGO	0.57	0	77.894416342	77.894416342	0.97
0.0	0.0	CrowdGO	0.57	0	77.894416342	77.894416342	0.971
0.0	0.0	CrowdGO	0.57	0	77.894416342	77.894416342	0.972
0.0	0.0	CrowdGO	0.57	0	77.894416342	77.894416342	0.973
0.0	0.0	CrowdGO	0.57	0	77.894416342	77.894416342	0.974
0.0	0.0	CrowdGO	0.57	0	77.894416342	77.894416342	0.975
0.0	0.0	CrowdGO	0.57	0	77.894416342	77.894416342	0.976
0.0	0.0	CrowdGO	0.57	0	77.894416342	77.894416342	0.977
0.0	0.0	CrowdGO	0.57	0	77.894416342	77.894416342	0.978
0.0	0.0	CrowdGO	0.57	0	77.894416342	77.894416342	0.979
0.0	0.0	CrowdGO	0.57	0	77.894416342	77.894416342	0.98
0.0	0.0	CrowdGO	0.57	0	77.894416342	77.894416342	0.981
0.0	0.0	CrowdGO	0.57	0	77.894416342	77.894416342	0.982
0.0	0.0	CrowdGO	0.57	0	77.894416342	77.894416342	0.983
0.0	0.0	CrowdGO	0.57	0	77.894416342	77.894416342	0.984
0.0	0.0	CrowdGO	0.57	0	77.894416342	77.894416342	0.985
0.0	0.0	CrowdGO	0.57	0	77.894416342	77.894416342	0.986
0.0	0.0	CrowdGO	0.57	0	77.894416342	77.894416342	0.987
0.0	0.0	CrowdGO	0.57	0	77.894416342	77.894416342	0.988
0.0	0.0	CrowdGO	0.57	0	77.894416342	77.894416342	0.989
0.0	0.0	CrowdGO	0.57	0	77.894416342	77.894416342	0.99
0.0	0.0	CrowdGO	0.57	0	77.894416342	77.894416342	0.991
0.0	0.0	CrowdGO	0.57	0	77.894416342	77.894416342	0.992
0.0	0.0	CrowdGO	0.57	0	77.894416342	77.894416342	0.993
0.0	0.0	CrowdGO	0.57	0	77.894416342	77.894416342	0.994
0.0	0.0	CrowdGO	0.57	0	77.894416342	77.894416342	0.995
0.0	0.0	CrowdGO	0.57	0	77.894416342	77.894416342	0.996
0.0	0.0	CrowdGO	0.57	0	77.894416342	77.894416342	0.997
0.0	0.0	CrowdGO	0.57	0	77.894416342	77.894416342	0.998
0.0	0.0	CrowdGO	0.57	0	77.894416342	77.894416342	0.999
