0.5829382429209091	0.6368359122916192	Wei2GO
0.5829382429209091	0.6368359122916192	Wei2GO
0.5829382429209091	0.6368359122916192	Wei2GO
0.5829382429209091	0.6368359122916192	Wei2GO
0.5829382429209091	0.6368359122916192	Wei2GO
0.5829382429209091	0.6368359122916192	Wei2GO
0.5829382429209091	0.6368359122916192	Wei2GO
0.5829382429209091	0.6368359122916192	Wei2GO
0.5829382429209091	0.6368359122916192	Wei2GO
0.5829382429209091	0.6368359122916192	Wei2GO
0.5829382429209091	0.6368359122916192	Wei2GO
0.5829382429209091	0.6368359122916192	Wei2GO
0.5829382429209091	0.6368359122916192	Wei2GO
0.5829382429209091	0.6368359122916192	Wei2GO
0.5829382429209091	0.6368359122916192	Wei2GO
0.5829382429209091	0.6368359122916192	Wei2GO
0.5829382429209091	0.6368359122916192	Wei2GO
0.5829382429209091	0.6368359122916192	Wei2GO
0.5829382429209091	0.6368359122916192	Wei2GO
0.5829382429209091	0.6368359122916192	Wei2GO
0.5829382429209091	0.6368359122916192	Wei2GO
0.5829382429209091	0.6368359122916192	Wei2GO
0.5829382429209091	0.6368359122916192	Wei2GO
0.5829382429209091	0.6368359122916192	Wei2GO
0.5829382429209091	0.6368359122916192	Wei2GO
0.5829382429209091	0.6368359122916192	Wei2GO
0.5829382429209091	0.6368359122916192	Wei2GO
0.5829382429209091	0.6368359122916192	Wei2GO
0.5829382429209091	0.6368359122916192	Wei2GO
0.5829382429209091	0.6368359122916192	Wei2GO
0.5829382429209091	0.6368359122916192	Wei2GO
0.5829382429209091	0.6368359122916192	Wei2GO
0.5829382429209091	0.6368359122916192	Wei2GO
0.5829382429209091	0.6368359122916192	Wei2GO
0.5829382429209091	0.6368359122916192	Wei2GO
0.5829382429209091	0.6368359122916192	Wei2GO
0.5829382429209091	0.6368359122916192	Wei2GO
0.5829382429209091	0.6368359122916192	Wei2GO
0.5829382429209091	0.6368359122916192	Wei2GO
0.5829382429209091	0.6368359122916192	Wei2GO
0.5829382429209091	0.6368359122916192	Wei2GO
0.5829382429209091	0.6368359122916192	Wei2GO
0.5829382429209091	0.6368359122916192	Wei2GO
0.5829382429209091	0.6368359122916192	Wei2GO
0.5829382429209091	0.6368359122916192	Wei2GO
0.5829382429209091	0.6368359122916192	Wei2GO
0.5829382429209091	0.6368359122916192	Wei2GO
0.5829382429209091	0.6368359122916192	Wei2GO
0.5829382429209091	0.6368359122916192	Wei2GO
0.5829382429209091	0.6368359122916192	Wei2GO
0.5829382429209091	0.6368359122916192	Wei2GO
0.5829382429209091	0.6368359122916192	Wei2GO
0.5829382429209091	0.6368359122916192	Wei2GO
0.5829382429209091	0.6368359122916192	Wei2GO
0.5829382429209091	0.6368359122916192	Wei2GO
0.5829382429209091	0.6368359122916192	Wei2GO
0.5829382429209091	0.6368359122916192	Wei2GO
0.5829382429209091	0.6368359122916192	Wei2GO
0.5829382429209091	0.6368359122916192	Wei2GO
0.5829382429209091	0.6368359122916192	Wei2GO
0.5829382429209091	0.6368359122916192	Wei2GO
0.5829382429209091	0.6368359122916192	Wei2GO
0.5829382429209091	0.6368359122916192	Wei2GO
0.5829382429209091	0.6368359122916192	Wei2GO
0.5829382429209091	0.6368359122916192	Wei2GO
0.5829382429209091	0.6368359122916192	Wei2GO
0.5829382429209091	0.6368359122916192	Wei2GO
0.5829382429209091	0.6368359122916192	Wei2GO
0.5829382429209091	0.6368359122916192	Wei2GO
0.5829382429209091	0.6368359122916192	Wei2GO
0.5829382429209091	0.6368359122916192	Wei2GO
0.5829382429209091	0.6368359122916192	Wei2GO
0.5829382429209091	0.6368359122916192	Wei2GO
0.5829382429209091	0.6368359122916192	Wei2GO
0.5829382429209091	0.6368359122916192	Wei2GO
0.5829382429209091	0.6368359122916192	Wei2GO
0.5829382429209091	0.6368359122916192	Wei2GO
0.5829382429209091	0.6368359122916192	Wei2GO
0.5829382429209091	0.6368359122916192	Wei2GO
0.5829382429209091	0.6368359122916192	Wei2GO
0.5829382429209091	0.6368359122916192	Wei2GO
0.5829382429209091	0.6368359122916192	Wei2GO
0.5829382429209091	0.6368359122916192	Wei2GO
0.5829382429209091	0.6368359122916192	Wei2GO
0.5829382429209091	0.6368359122916192	Wei2GO
0.5829382429209091	0.6368359122916192	Wei2GO
0.5829382429209091	0.6368359122916192	Wei2GO
0.5829382429209091	0.6368359122916192	Wei2GO
0.5829382429209091	0.6368359122916192	Wei2GO
0.5829382429209091	0.6368359122916192	Wei2GO
0.5829382429209091	0.6368359122916192	Wei2GO
0.5829382429209091	0.6368359122916192	Wei2GO
0.5829382429209091	0.6368359122916192	Wei2GO
0.5829382429209091	0.6368359122916192	Wei2GO
0.5829382429209091	0.6368359122916192	Wei2GO
0.5829382429209091	0.6368359122916192	Wei2GO
0.5829382429209091	0.6368359122916192	Wei2GO
0.5829382429209091	0.6368359122916192	Wei2GO
0.5829382429209091	0.6368359122916192	Wei2GO
0.5829382429209091	0.6368359122916192	Wei2GO
0.5829382429209091	0.6368359122916192	Wei2GO
0.5829382429209091	0.6368359122916192	Wei2GO
0.5829382429209091	0.6368359122916192	Wei2GO
0.5829382429209091	0.6368359122916192	Wei2GO
0.5829382429209091	0.6368359122916192	Wei2GO
0.5829382429209091	0.6368359122916192	Wei2GO
0.5829382429209091	0.6368359122916192	Wei2GO
0.5829382429209091	0.6368359122916192	Wei2GO
0.5829382429209091	0.6368359122916192	Wei2GO
0.5829382429209091	0.6368359122916192	Wei2GO
0.5829382429209091	0.6368359122916192	Wei2GO
0.5829382429209091	0.6368359122916192	Wei2GO
0.5829382429209091	0.6368359122916192	Wei2GO
0.5829382429209091	0.6368359122916192	Wei2GO
0.5829382429209091	0.6368359122916192	Wei2GO
0.5829382429209091	0.6368359122916192	Wei2GO
0.5829382429209091	0.6368359122916192	Wei2GO
0.5829382429209091	0.6368359122916192	Wei2GO
0.5829382429209091	0.6368359122916192	Wei2GO
0.5829382429209091	0.6368359122916192	Wei2GO
0.5829382429209091	0.6368359122916192	Wei2GO
0.5829382429209091	0.6368359122916192	Wei2GO
0.5829382429209091	0.6368359122916192	Wei2GO
0.5829382429209091	0.6368359122916192	Wei2GO
0.5829382429209091	0.6368359122916192	Wei2GO
0.5829382429209091	0.6368359122916192	Wei2GO
0.5829382429209091	0.6368359122916192	Wei2GO
0.5829382429209091	0.6368359122916192	Wei2GO
0.5829382429209091	0.6368359122916192	Wei2GO
0.5829382429209091	0.6368359122916192	Wei2GO
0.5829382429209091	0.6368359122916192	Wei2GO
0.5829382429209091	0.6368359122916192	Wei2GO
0.5829382429209091	0.6368359122916192	Wei2GO
0.5829382429209091	0.6368359122916192	Wei2GO
0.5829382429209091	0.6368359122916192	Wei2GO
0.5829382429209091	0.6368359122916192	Wei2GO
0.5829382429209091	0.6368359122916192	Wei2GO
0.5829382429209091	0.6368359122916192	Wei2GO
0.5829382429209091	0.6368359122916192	Wei2GO
0.5829382429209091	0.6368359122916192	Wei2GO
0.5829382429209091	0.6368359122916192	Wei2GO
0.5829382429209091	0.6368359122916192	Wei2GO
0.5829382429209091	0.6368359122916192	Wei2GO
0.5829382429209091	0.6368359122916192	Wei2GO
0.5829382429209091	0.6368359122916192	Wei2GO
0.5829382429209091	0.6368359122916192	Wei2GO
0.5829382429209091	0.6368359122916192	Wei2GO
0.5829382429209091	0.6368359122916192	Wei2GO
0.5829382429209091	0.6368359122916192	Wei2GO
0.5829382429209091	0.6368359122916192	Wei2GO
0.5829382429209091	0.6368359122916192	Wei2GO
0.5829382429209091	0.6368359122916192	Wei2GO
0.5829382429209091	0.6368359122916192	Wei2GO
0.5829382429209091	0.6368359122916192	Wei2GO
0.5829382429209091	0.6368359122916192	Wei2GO
0.5829382429209091	0.6368359122916192	Wei2GO
0.5829382429209091	0.6368359122916192	Wei2GO
0.5829382429209091	0.6368359122916192	Wei2GO
0.5829382429209091	0.6368359122916192	Wei2GO
0.5829382429209091	0.6368359122916192	Wei2GO
0.5829382429209091	0.6368359122916192	Wei2GO
0.5829382429209091	0.6368359122916192	Wei2GO
0.5829382429209091	0.6368359122916192	Wei2GO
0.5829382429209091	0.6368359122916192	Wei2GO
0.5829382429209091	0.6368359122916192	Wei2GO
0.5829382429209091	0.6368359122916192	Wei2GO
0.5829382429209091	0.6368359122916192	Wei2GO
0.5829382429209091	0.6368359122916192	Wei2GO
0.5829382429209091	0.6368359122916192	Wei2GO
0.5829382429209091	0.6368359122916192	Wei2GO
0.5829382429209091	0.6368359122916192	Wei2GO
0.5829382429209091	0.6368359122916192	Wei2GO
0.5829382429209091	0.6368359122916192	Wei2GO
0.5829382429209091	0.6368359122916192	Wei2GO
0.5829382429209091	0.6368359122916192	Wei2GO
0.5829382429209091	0.6368359122916192	Wei2GO
0.5829382429209091	0.6368359122916192	Wei2GO
0.5829382429209091	0.6368359122916192	Wei2GO
0.5829382429209091	0.6368359122916192	Wei2GO
0.5829382429209091	0.6368359122916192	Wei2GO
0.5829382429209091	0.6368359122916192	Wei2GO
0.5829382429209091	0.6368359122916192	Wei2GO
0.5829382429209091	0.6368359122916192	Wei2GO
0.5829382429209091	0.6368359122916192	Wei2GO
0.5829382429209091	0.6368359122916192	Wei2GO
0.5829382429209091	0.6368359122916192	Wei2GO
0.5829382429209091	0.6368359122916192	Wei2GO
0.5829382429209091	0.6368359122916192	Wei2GO
0.5829382429209091	0.6368359122916192	Wei2GO
0.5829382429209091	0.6368359122916192	Wei2GO
0.5829382429209091	0.6368359122916192	Wei2GO
0.5829382429209091	0.6368359122916192	Wei2GO
0.5829382429209091	0.6368359122916192	Wei2GO
0.5829382429209091	0.6368359122916192	Wei2GO
0.5829382429209091	0.6368359122916192	Wei2GO
0.5829382429209091	0.6368359122916192	Wei2GO
0.5829382429209091	0.6368359122916192	Wei2GO
0.5829382429209091	0.6368359122916192	Wei2GO
0.5829382429209091	0.6368359122916192	Wei2GO
0.5829382429209091	0.6368359122916192	Wei2GO
0.5829382429209091	0.6368359122916192	Wei2GO
0.5829382429209091	0.6368359122916192	Wei2GO
0.5829382429209091	0.6368359122916192	Wei2GO
0.5829382429209091	0.6368359122916192	Wei2GO
0.5829382429209091	0.6368359122916192	Wei2GO
0.5829382429209091	0.6368359122916192	Wei2GO
0.5829382429209091	0.6368359122916192	Wei2GO
0.5829382429209091	0.6368359122916192	Wei2GO
0.5829382429209091	0.6368359122916192	Wei2GO
0.5829382429209091	0.6368359122916192	Wei2GO
0.582969891161267	0.6368359122916192	Wei2GO
0.582969891161267	0.6368359122916192	Wei2GO
0.582969891161267	0.6368359122916192	Wei2GO
0.582969891161267	0.6368359122916192	Wei2GO
0.582969891161267	0.6368359122916192	Wei2GO
0.582969891161267	0.6368359122916192	Wei2GO
0.582969891161267	0.6368359122916192	Wei2GO
0.582969891161267	0.6368359122916192	Wei2GO
0.582969891161267	0.6368359122916192	Wei2GO
0.582969891161267	0.6368359122916192	Wei2GO
0.5831055855774419	0.6368359122916192	Wei2GO
0.5831055855774419	0.6368359122916192	Wei2GO
0.5831055855774419	0.6368359122916192	Wei2GO
0.5831055855774419	0.6368359122916192	Wei2GO
0.5831055855774419	0.6368359122916192	Wei2GO
0.5831055855774419	0.6368359122916192	Wei2GO
0.5831055855774419	0.6368359122916192	Wei2GO
0.5831055855774419	0.6368359122916192	Wei2GO
0.5831055855774419	0.6368359122916192	Wei2GO
0.5831055855774419	0.6368359122916192	Wei2GO
0.5831055855774419	0.6368359122916192	Wei2GO
0.5831055855774419	0.6368359122916192	Wei2GO
0.5831055855774419	0.6368359122916192	Wei2GO
0.5831055855774419	0.6368359122916192	Wei2GO
0.5837695467309555	0.6367155318895487	Wei2GO
0.5837695467309555	0.6367155318895487	Wei2GO
0.5837695467309555	0.6367155318895487	Wei2GO
0.5837695467309555	0.6367155318895487	Wei2GO
0.5837695467309555	0.6367155318895487	Wei2GO
0.5842028222942137	0.6367155318895487	Wei2GO
0.5842028222942137	0.6367155318895487	Wei2GO
0.5842028222942137	0.6367155318895487	Wei2GO
0.5842028222942137	0.6367155318895487	Wei2GO
0.5842028222942137	0.6367155318895487	Wei2GO
0.5842028222942137	0.6367155318895487	Wei2GO
0.5842028222942137	0.6367155318895487	Wei2GO
0.5842028222942137	0.6367155318895487	Wei2GO
0.5842028222942137	0.6367155318895487	Wei2GO
0.5842028222942137	0.6367155318895487	Wei2GO
0.5842028222942137	0.6367155318895487	Wei2GO
0.5842028222942137	0.6367155318895487	Wei2GO
0.5842028222942137	0.6367155318895487	Wei2GO
0.5842028222942137	0.6367155318895487	Wei2GO
0.5839843640270247	0.6364025428441653	Wei2GO
0.5839843640270247	0.6364025428441653	Wei2GO
0.5839843640270247	0.6364025428441653	Wei2GO
0.5839843640270247	0.6364025428441653	Wei2GO
0.5839843640270247	0.6364025428441653	Wei2GO
0.5839843640270247	0.6364025428441653	Wei2GO
0.5839843640270247	0.6364025428441653	Wei2GO
0.5841760435388809	0.6364025428441653	Wei2GO
0.5841760435388809	0.6364025428441653	Wei2GO
0.5841760435388809	0.6364025428441653	Wei2GO
0.5841760435388809	0.6364025428441653	Wei2GO
0.5841760435388809	0.6364025428441653	Wei2GO
0.5841760435388809	0.6364025428441653	Wei2GO
0.5841760435388809	0.6364025428441653	Wei2GO
0.5841760435388809	0.6364025428441653	Wei2GO
0.5841760435388809	0.6364025428441653	Wei2GO
0.5841760435388809	0.6364025428441653	Wei2GO
0.5841760435388809	0.6364025428441653	Wei2GO
0.5841760435388809	0.6364025428441653	Wei2GO
0.5841760435388809	0.6364025428441653	Wei2GO
0.5841760435388809	0.6364025428441653	Wei2GO
0.5849008862070618	0.636011306537436	Wei2GO
0.5848746268787264	0.6358436338345521	Wei2GO
0.5848746268787264	0.6358436338345521	Wei2GO
0.5848746268787264	0.6358436338345521	Wei2GO
0.5848746268787264	0.6358436338345521	Wei2GO
0.5848746268787264	0.6358436338345521	Wei2GO
0.5848746268787264	0.6358436338345521	Wei2GO
0.5848746268787264	0.6358436338345521	Wei2GO
0.5848746268787264	0.6358436338345521	Wei2GO
0.5848746268787264	0.6358436338345521	Wei2GO
0.5848746268787264	0.6358436338345521	Wei2GO
0.5848746268787264	0.6358436338345521	Wei2GO
0.5848746268787264	0.6358436338345521	Wei2GO
0.5848746268787264	0.6358436338345521	Wei2GO
0.5848746268787264	0.6358436338345521	Wei2GO
0.5848746268787264	0.6358436338345521	Wei2GO
0.5848746268787264	0.6358436338345521	Wei2GO
0.5848746268787264	0.6358436338345521	Wei2GO
0.5848746268787264	0.6358436338345521	Wei2GO
0.5848746268787264	0.6358436338345521	Wei2GO
0.5848746268787264	0.6358436338345521	Wei2GO
0.5848746268787264	0.6358436338345521	Wei2GO
0.5848746268787264	0.6358436338345521	Wei2GO
0.5857145168597384	0.6350611612210936	Wei2GO
0.5857145168597384	0.6350611612210936	Wei2GO
0.5857145168597384	0.6350611612210936	Wei2GO
0.5857145168597384	0.6350611612210936	Wei2GO
0.5857145168597384	0.6350611612210936	Wei2GO
0.5857145168597384	0.6350611612210936	Wei2GO
0.5857145168597384	0.6350611612210936	Wei2GO
0.5857145168597384	0.6350611612210936	Wei2GO
0.5857145168597384	0.6350611612210936	Wei2GO
0.5857145168597384	0.6350611612210936	Wei2GO
0.5857145168597384	0.6350611612210936	Wei2GO
0.5868759570455689	0.6350611612210936	Wei2GO
0.5868759570455689	0.6350611612210936	Wei2GO
0.5868759570455689	0.6350611612210936	Wei2GO
0.5868759570455689	0.6350611612210936	Wei2GO
0.5868759570455689	0.6350611612210936	Wei2GO
0.5868759570455689	0.6350611612210936	Wei2GO
0.5868759570455689	0.6350611612210936	Wei2GO
0.5868759570455689	0.6350611612210936	Wei2GO
0.5868759570455689	0.6350611612210936	Wei2GO
0.5868759570455689	0.6350611612210936	Wei2GO
0.5870561805226805	0.6350611612210936	Wei2GO
0.5870561805226805	0.6350611612210936	Wei2GO
0.5870561805226805	0.6350611612210936	Wei2GO
0.5870561805226805	0.6350611612210936	Wei2GO
0.5875539406023221	0.6350611612210936	Wei2GO
0.5875855014769371	0.6350611612210936	Wei2GO
0.5875855014769371	0.6350611612210936	Wei2GO
0.5875855014769371	0.6350611612210936	Wei2GO
0.5882619159646805	0.6349407808190229	Wei2GO
0.5889989705963203	0.6344191324100505	Wei2GO
0.5889989705963203	0.6344191324100505	Wei2GO
0.5889989705963203	0.6344191324100505	Wei2GO
0.5889989705963203	0.6338500614184445	Wei2GO
0.5894103239488502	0.6338500614184445	Wei2GO
0.5894103239488502	0.6332809904268382	Wei2GO
0.5894103239488502	0.6332809904268382	Wei2GO
0.5894103239488502	0.6332809904268382	Wei2GO
0.5894103239488502	0.6332809904268382	Wei2GO
0.5894103239488502	0.6332809904268382	Wei2GO
0.5894103239488502	0.6332809904268382	Wei2GO
0.5901506806165949	0.6327593420178659	Wei2GO
0.5901506806165949	0.6327593420178659	Wei2GO
0.5901506806165949	0.6327593420178659	Wei2GO
0.5901506806165949	0.6327593420178659	Wei2GO
0.5901506806165949	0.6327593420178659	Wei2GO
0.5902279444468205	0.6327593420178659	Wei2GO
0.5902279444468205	0.6327593420178659	Wei2GO
0.5902279444468205	0.6327593420178659	Wei2GO
0.5902279444468205	0.6327593420178659	Wei2GO
0.5902279444468205	0.6327593420178659	Wei2GO
0.5907283197282817	0.6327593420178659	Wei2GO
0.5900102992365769	0.6311943967909488	Wei2GO
0.5900102992365769	0.6311943967909488	Wei2GO
0.5899305544199899	0.6309335725864627	Wei2GO
0.5899305544199899	0.6309335725864627	Wei2GO
0.5899305544199899	0.6309335725864627	Wei2GO
0.5899305544199899	0.6309335725864627	Wei2GO
0.5899305544199899	0.6309335725864627	Wei2GO
0.5899305544199899	0.6309335725864627	Wei2GO
0.5899305544199899	0.6309335725864627	Wei2GO
0.5899305544199899	0.6309335725864627	Wei2GO
0.5899700048980369	0.6309335725864627	Wei2GO
0.5899700048980369	0.6309335725864627	Wei2GO
0.5899221580080847	0.6308709747773861	Wei2GO
0.5909692661116862	0.6306474111735407	Wei2GO
0.5909692661116862	0.6306474111735407	Wei2GO
0.5902491415801927	0.6297938046861314	Wei2GO
0.5902491415801927	0.6297938046861314	Wei2GO
0.5916725965333322	0.6291801006755756	Wei2GO
0.5917504054346704	0.6291801006755756	Wei2GO
0.5917504054346704	0.6291801006755756	Wei2GO
0.5921873417615082	0.6281769306583211	Wei2GO
0.5922577449370267	0.6281769306583211	Wei2GO
0.5926734589258024	0.6281769306583211	Wei2GO
0.5927167624662999	0.6281769306583211	Wei2GO
0.5927167624662999	0.6281769306583211	Wei2GO
0.5927409413346597	0.6281769306583211	Wei2GO
0.5927409413346597	0.6281769306583211	Wei2GO
0.5927409413346597	0.6281769306583211	Wei2GO
0.5927409413346597	0.6281769306583211	Wei2GO
0.5927409413346597	0.6281769306583211	Wei2GO
0.5927409413346597	0.6281769306583211	Wei2GO
0.5927409413346597	0.6281769306583211	Wei2GO
0.5934360580449866	0.6280565502562506	Wei2GO
0.5934360580449866	0.6280565502562506	Wei2GO
0.5934360580449866	0.6280565502562506	Wei2GO
0.5934360580449866	0.6280565502562506	Wei2GO
0.5935129152443104	0.6280565502562506	Wei2GO
0.5933638700649903	0.6277843858689608	Wei2GO
0.5933638700649903	0.6277843858689608	Wei2GO
0.5937067138062402	0.6274366202629792	Wei2GO
0.5931465287346867	0.6259920554381326	Wei2GO
0.594053669651771	0.6252095828246742	Wei2GO
0.594053669651771	0.6252095828246742	Wei2GO
0.594053669651771	0.6252095828246742	Wei2GO
0.594053669651771	0.6252095828246742	Wei2GO
0.5944208390580863	0.6252095828246742	Wei2GO
0.5944208390580863	0.6252095828246742	Wei2GO
0.5944208390580863	0.6252095828246742	Wei2GO
0.5944208390580863	0.6252095828246742	Wei2GO
0.5944208390580863	0.6252095828246742	Wei2GO
0.5934368125533294	0.624041001217908	Wei2GO
0.593604262038192	0.622736880195477	Wei2GO
0.593604262038192	0.622736880195477	Wei2GO
0.593604262038192	0.622736880195477	Wei2GO
0.593604262038192	0.622736880195477	Wei2GO
0.593604262038192	0.622736880195477	Wei2GO
0.5938176090257326	0.622736880195477	Wei2GO
0.5938176090257326	0.622736880195477	Wei2GO
0.5930883767259584	0.622361293341017	Wei2GO
0.5923565212884151	0.6207963481140999	Wei2GO
0.5923565212884151	0.6207963481140999	Wei2GO
0.5918769049814606	0.6197530512961551	Wei2GO
0.5921022788992876	0.619622639193912	Wei2GO
0.5921022788992876	0.619622639193912	Wei2GO
0.5921697059937417	0.6193381036981089	Wei2GO
0.5912341550581908	0.6185096032838588	Wei2GO
0.5918347556587913	0.6185096032838588	Wei2GO
0.5918347556587913	0.6185096032838588	Wei2GO
0.5918347556587913	0.6185096032838588	Wei2GO
0.5919142469147531	0.6185096032838588	Wei2GO
0.5919142469147531	0.6185096032838588	Wei2GO
0.5915247558303172	0.6166522187973664	Wei2GO
0.5923081619741312	0.6165318383952958	Wei2GO
0.5926095483514671	0.6164114579932253	Wei2GO
0.5918715221709443	0.6155578515058159	Wei2GO
0.5918715221709443	0.6155578515058159	Wei2GO
0.5919562200817291	0.6155578515058159	Wei2GO
0.5912156687570136	0.6139929062788989	Wei2GO
0.5912454610363108	0.6134712578699266	Wei2GO
0.5913007186794927	0.6129496094609543	Wei2GO
0.5913007186794927	0.6128073417130528	Wei2GO
0.5913007186794927	0.6128073417130528	Wei2GO
0.5906052481247108	0.6112423964861358	Wei2GO
0.5906052481247108	0.6112423964861358	Wei2GO
0.5898595381941548	0.6104599238726772	Wei2GO
0.5898595381941548	0.6104599238726772	Wei2GO
0.5905709607091075	0.610329511770434	Wei2GO
0.5905709607091075	0.610329511770434	Wei2GO
0.5905709607091075	0.6099382754637048	Wei2GO
0.5905709607091075	0.6099382754637048	Wei2GO
0.5902922218594462	0.6074604455210861	Wei2GO
0.589015722675106	0.605168918581672	Wei2GO
0.5890227589824519	0.605168918581672	Wei2GO
0.5889002099628441	0.6048843830858689	Wei2GO
0.5889002099628441	0.6048843830858689	Wei2GO
0.5889002099628441	0.6048843830858689	Wei2GO
0.5888797683605658	0.6047224922003257	Wei2GO
0.5893576885113274	0.6047224922003257	Wei2GO
0.5889510969445149	0.6039400195868672	Wei2GO
0.5892375712641383	0.6039400195868672	Wei2GO
0.5896981657080587	0.6028967227689224	Wei2GO
0.5896981657080587	0.6028967227689224	Wei2GO
0.5901711635537684	0.6016026334466641	Wei2GO
0.58987991975774	0.6005593366287193	Wei2GO
0.58987991975774	0.6005593366287193	Wei2GO
0.5903498955709435	0.6004912955318968	Wei2GO
0.5900039529375748	0.5991048089712072	Wei2GO
0.5900856522839801	0.5988640481670662	Wei2GO
0.5897564341769842	0.598382526558784	Wei2GO
0.5917643895796689	0.5983285629302696	Wei2GO
0.5917643895796689	0.5983285629302696	Wei2GO
0.5916813774332345	0.5978903782667327	Wei2GO
0.5916813774332345	0.5978903782667327	Wei2GO
0.5909224208857126	0.5959341967330863	Wei2GO
0.5909224208857126	0.5959341967330863	Wei2GO
0.5905526792407875	0.5953473422729925	Wei2GO
0.5898703927570592	0.5938637820422121	Wei2GO
0.5898703927570592	0.5938637820422121	Wei2GO
0.589083390482741	0.591869654512261	Wei2GO
0.5881502737903713	0.5897830608763716	Wei2GO
0.5893431946191571	0.5880877035472114	Wei2GO
0.5893431946191571	0.5880877035472114	Wei2GO
0.589155224694345	0.5873052309337529	Wei2GO
0.589155224694345	0.5873052309337529	Wei2GO
0.5897717097867259	0.5871313481307621	Wei2GO
0.5889991518013902	0.585566402903845	Wei2GO
0.5880490919281001	0.5847839302903864	Wei2GO
0.5872968714509963	0.5840014576769279	Wei2GO
0.588042792982601	0.5822800179273192	Wei2GO
0.58815637915033	0.5822800179273192	Wei2GO
0.5889747240791003	0.578850179638326	Wei2GO
0.5889747240791003	0.578850179638326	Wei2GO
0.5874148558592868	0.5756698070803977	Wei2GO
0.5870107015928596	0.5751756138508449	Wei2GO
0.5870107015928596	0.5751756138508449	Wei2GO
0.5862240553101793	0.573610668623928	Wei2GO
0.584535717628863	0.5689276847131747	Wei2GO
0.5854514869757484	0.5688407433116792	Wei2GO
0.5850665783915373	0.5677974464937345	Wei2GO
0.584811638939657	0.5668584793575843	Wei2GO
0.5853149226110045	0.5666628612042196	Wei2GO
0.5852545422145066	0.566520593456318	Wei2GO
0.5826255501201268	0.5620088363037159	Wei2GO
0.58193355568533	0.5608164970832077	Wei2GO
0.5822344428101983	0.5593819639585338	Wei2GO
0.5822344428101983	0.5593819639585338	Wei2GO
0.5825848936617564	0.5578170187316167	Wei2GO
0.5824994235762863	0.5576605242089251	Wei2GO
0.5825671929242412	0.5564393927061034	Wei2GO
0.5825671929242412	0.5564393927061034	Wei2GO
0.5819363011957716	0.5548744474791865	Wei2GO
0.5811292284181573	0.5536706434584809	Wei2GO
0.5812683127963721	0.5533641750182097	Wei2GO
0.5813095125326937	0.5533641750182097	Wei2GO
0.5806556734339834	0.5520544362436821	Wei2GO
0.5805973394524946	0.5518196944596445	Wei2GO
0.5806802539540137	0.5517516533628221	Wei2GO
0.5798660408548952	0.550186708135905	Wei2GO
0.5799616572126476	0.550186708135905	Wei2GO
0.5805341229159517	0.5497693894087271	Wei2GO
0.5797164506409342	0.54820444418181	Wei2GO
0.5788441863072765	0.5466252721801028	Wei2GO
0.5789557934501337	0.5466252721801028	Wei2GO
0.5801276684501336	0.5466252721801028	Wei2GO
0.5800357566854277	0.5463845113759618	Wei2GO
0.5801067794127004	0.5463845113759618	Wei2GO
0.5793937898529513	0.545704100407737	Wei2GO
0.5793937898529513	0.545443276203251	Wei2GO
0.5763649262335503	0.5383366579994041	Wei2GO
0.5773047046730712	0.5382162775973335	Wei2GO
0.5773047046730713	0.5381728068965858	Wei2GO
0.577580850467168	0.5372226615802432	Wei2GO
0.5766412715362923	0.5355865824793755	Wei2GO
0.576151256701197	0.5325252808592792	Wei2GO
0.576151256701197	0.5325252808592792	Wei2GO
0.5760663910717769	0.5323296627059145	Wei2GO
0.5758976241950893	0.5317277606955619	Wei2GO
0.5765274183594091	0.528989106548457	Wei2GO
0.5778805956731395	0.5277359737163768	Wei2GO
0.578287964739929	0.5277359737163768	Wei2GO
0.5777809162934213	0.5259102042849736	Wei2GO
0.5782457299823636	0.524843196175712	Wei2GO
0.5773863962501437	0.5242546697655892	Wei2GO
0.5773863962501437	0.5242546697655892	Wei2GO
0.5759708885976168	0.5220985230085036	Wei2GO
0.5760652367753414	0.5206917733316988	Wei2GO
0.5759410265632687	0.5190867013040915	Wei2GO
0.5750549023184087	0.5174939833258511	Wei2GO
0.5726695574094153	0.5123799658878899	Wei2GO
0.5730208369972589	0.511311915524065	Wei2GO
0.5717146123165123	0.5093217134420074	Wei2GO
0.5680131374287603	0.500706632643828	Wei2GO
0.568252913755493	0.5005501381211362	Wei2GO
0.5697070710552248	0.5002054775652082	Wei2GO
0.5697070710552248	0.5002054775652082	Wei2GO
0.5689492283069708	0.49572832977820125	Wei2GO
0.5691139886555547	0.49572832977820125	Wei2GO
0.5689535594127487	0.4948527056631406	Wei2GO
0.5682713345395008	0.4934399078888404	Wei2GO
0.5682713345395008	0.4934399078888404	Wei2GO
0.5688936245668013	0.49251516752748037	Wei2GO
0.5685657204911702	0.4922833237901593	Wei2GO
0.5684762483766459	0.4920877056367947	Wei2GO
0.5676315550934236	0.49000111200090524	Wei2GO
0.5678407601143441	0.49000111200090524	Wei2GO
0.568310225081824	0.48947946359193284	Wei2GO
0.5684148275922842	0.4889578151829605	Wei2GO
0.5685582549037984	0.4873928699560434	Wei2GO
0.5690359083660583	0.4871972518026788	Wei2GO
0.5697061518710291	0.4865498930560604	Wei2GO
0.5682407094362307	0.4841902108965266	Wei2GO
0.5655583095296078	0.4810911629494431	Wei2GO
0.5653813810087304	0.47963799952444874	Wei2GO
0.5658579542845108	0.47928402381836027	Wei2GO
0.5658850232792146	0.4756324849555538	Wei2GO
0.5659310128478279	0.4743083005327778	Wei2GO
0.5674461990399862	0.4720335799481981	Wei2GO
0.5675806076421367	0.47164234364146884	Wei2GO
0.5679588437900771	0.4692409621725788	Wei2GO
0.5675631278589504	0.46678176253028064	Wei2GO
0.5680396939537378	0.46622285352066745	Wei2GO
0.5675242841468368	0.46465790829375037	Wei2GO
0.5657854538376095	0.46249106105648063	Wei2GO
0.5661172655066158	0.46240869551822184	Wei2GO
0.5666085655403994	0.4618067935078691	Wei2GO
0.5659883094569752	0.4595963996176989	Wei2GO
0.5653116423779725	0.45646650916386483	Wei2GO
0.5656453836531481	0.45597591125542647	Wei2GO
0.566206812424019	0.4542370832255187	Wei2GO
0.5648154451213881	0.44998327756326234	Wei2GO
0.5638623543467549	0.44817464019124464	Wei2GO
0.5640555910617308	0.44791381598675845	Wei2GO
0.5649406443454614	0.4471313433732999	Wei2GO
0.5636983852490839	0.4458644829515098	Wei2GO
0.5632048226785922	0.4428389221794702	Wei2GO
0.5661772871049302	0.4416391308388337	Wei2GO
0.5665341994073397	0.43959610344369365	Wei2GO
0.5670995105673865	0.4390744550347213	Wei2GO
0.5669993656143003	0.4388788368813567	Wei2GO
0.5685376032616078	0.43705306744995354	Wei2GO
0.5667872970841107	0.4343050981526885	Wei2GO
0.5692104899122569	0.4328184001871173	Wei2GO
0.5715918479377661	0.4284094679612837	Wei2GO
0.5718914749570324	0.42791203894272783	Wei2GO
0.5738482297482438	0.4270383102180223	Wei2GO
0.5742199978318933	0.4270383102180223	Wei2GO
0.5734170140164617	0.42600647820027476	Wei2GO
0.5730051802350136	0.4255946505089808	Wei2GO
0.575061528569377	0.4239644992309422	Wei2GO
0.5755723043433106	0.4234829776226601	Wei2GO
0.578848261074045	0.422765711060323	Wei2GO
0.577929194335091	0.4190685279617315	Wei2GO
0.5773678232413328	0.4175022742521832	Wei2GO
0.577955538580233	0.4175022742521832	Wei2GO
0.5786281899895421	0.4160754124276411	Wei2GO
0.5793771001797096	0.41490170350745337	Wei2GO
0.5790274961604345	0.41018854906986535	Wei2GO
0.5789773227062728	0.40804704507513667	Wei2GO
0.5768471485379965	0.40585192668283526	Wei2GO
0.579213783451071	0.40501728922847957	Wei2GO
0.5797345073067779	0.40429500681605635	Wei2GO
0.5801244717975956	0.40312129789586854	Wei2GO
0.5797131509060643	0.4017310984138925	Wei2GO
0.582327020430659	0.39840558980669377	Wei2GO
0.5839598578109377	0.3952129503413456	Wei2GO
0.583649025467497	0.39303105555381707	Wei2GO
0.5840292546916731	0.39303105555381707	Wei2GO
0.5808874333619635	0.3865767755686969	Wei2GO
0.5778706786180855	0.38219865499339317	Wei2GO
0.578838500456526	0.3813785295624449	Wei2GO
0.5785021783965637	0.3796671215130087	Wei2GO
0.5769616705739568	0.3764691899623521	Wei2GO
0.576980042120106	0.37569513103290925	Wei2GO
0.5778111699316402	0.37418235064688943	Wei2GO
0.5775366089971808	0.3732549756976053	Wei2GO
0.5770809197727974	0.37189335479373087	Wei2GO
0.5770809197727974	0.37189335479373087	Wei2GO
0.5768939477722148	0.3703284095668138	Wei2GO
0.5811953811504561	0.3700023793112061	Wei2GO
0.5814221382641173	0.367339311844097	Wei2GO
0.580888257793299	0.3667374098337443	Wei2GO
0.5798389443081392	0.3650606828049046	Wei2GO
0.5784735279328931	0.362038592421096	Wei2GO
0.5773413860831368	0.36152625916228387	Wei2GO
0.5795808361256697	0.35996131393536684	Wei2GO
0.5789635520135578	0.35933358869681875	Wei2GO
0.5796550050050108	0.35933358869681875	Wei2GO
0.5816311116746832	0.35757302531653706	Wei2GO
0.582743655408158	0.35463875301606756	Wei2GO
0.5814178938182976	0.35185662816821506	Wei2GO
0.5802865908286173	0.3515668234965637	Wei2GO
0.5798348009262173	0.3494802298606743	Wei2GO
0.5786868085790211	0.3492905395301389	Wei2GO
0.5788287431471852	0.3492905395301389	Wei2GO
0.5793715638167555	0.34751769095181984	Wei2GO
0.578678500537754	0.34605944653582893	Wei2GO
0.5796956618866438	0.3455877166348922	Wei2GO
0.5801576808115981	0.3439065860805222	Wei2GO
0.5793862581932677	0.3419158836962821	Wei2GO
0.5799525741494911	0.34092000946097134	Wei2GO
0.5833371636201595	0.33928939242542466	Wei2GO
0.5837114951709617	0.33928939242542466	Wei2GO
0.5847559101180597	0.33870514620737563	Wei2GO
0.5840417404763535	0.3373358191338232	Wei2GO
0.5837611555150962	0.3364822126464139	Wei2GO
0.5814223622644231	0.3352282501248458	Wei2GO
0.5825184035352979	0.33515372892356404	Wei2GO
0.5845213384158031	0.33507136338530524	Wei2GO
0.5833308550833964	0.33350641815838816	Wei2GO
0.5882245874058823	0.3316493303551889	Wei2GO
0.5892746190340546	0.3294963867023688	Wei2GO
0.5854330129216375	0.32445244785561306	Wei2GO
0.5851816382162173	0.32412298570257786	Wei2GO
0.5852284891821948	0.32203639206668844	Wei2GO
0.5858777381937019	0.32053665289089295	Wei2GO
0.5862763136849344	0.3200001002416642	Wei2GO
0.5866187044781201	0.3188263913214764	Wei2GO
0.5872743512128477	0.3184351550147471	Wei2GO
0.589076991908956	0.31724959044890094	Wei2GO
0.5889741756472047	0.31546896366827415	Wei2GO
0.5889741756472047	0.31546896366827415	Wei2GO
0.5898580028623012	0.31546896366827415	Wei2GO
0.5898580028623012	0.31546896366827415	Wei2GO
0.5885842699519357	0.31390401844135707	Wei2GO
0.5895815273665508	0.31351147365199666	Wei2GO
0.5901593533285794	0.31137271517521	Wei2GO
0.5903895375089059	0.31137271517521	Wei2GO
0.5897705261414461	0.31014466787908757	Wei2GO
0.5909783605861306	0.3099753829386758	Wei2GO
0.5900421141835431	0.3076166249154966	Wei2GO
0.5887239216246477	0.3060516796885795	Wei2GO
0.584944488542582	0.3031140634880525	Wei2GO
0.584101631833477	0.300012118484699	Wei2GO
0.5878123617648247	0.29900142469231505	Wei2GO
0.5885322005209433	0.29885238228975153	Wei2GO
0.5870745907975154	0.2982299608926823	Wei2GO
0.5848184418802669	0.2945392983992029	Wei2GO
0.5850537016227012	0.293952443939109	Wei2GO
0.5847761557370472	0.2933655894790151	Wei2GO
0.5860804816886981	0.29310476527452894	Wei2GO
0.5868875841907158	0.2927135289677997	Wei2GO
0.5875699782312838	0.2919912465553764	Wei2GO
0.5872556100597729	0.2906084040457733	Wei2GO
0.5879298788474967	0.2887257275152094	Wei2GO
0.5879298788474967	0.2887257275152094	Wei2GO
0.5851094338054941	0.2866717369048808	Wei2GO
0.5843323658184336	0.2844534226841171	Wei2GO
0.5859584200235182	0.2836353831336832	Wei2GO
0.5859584200235182	0.2836353831336832	Wei2GO
0.5852615559120199	0.28246167421349544	Wei2GO
0.5857346620517361	0.28140906224539053	Wei2GO
0.5858892865969467	0.28080716023503777	Wei2GO
0.5857960711020692	0.28050634696487525	Wei2GO
0.5843376065636963	0.27931400774436704	Wei2GO
0.5804207578704514	0.27708852802348005	Wei2GO
0.5780715223874532	0.2761213262112078	Wei2GO
0.5774203585310896	0.27461129134312995	Wei2GO
0.5775064274392503	0.27330717032069907	Wei2GO
0.5759756536256243	0.2725848879082758	Wei2GO
0.574459845215146	0.27101994268135876	Wei2GO
0.5763484399297867	0.27046035620627934	Wei2GO
0.5739955775652642	0.26816036094853757	Wei2GO
0.5746400056303208	0.2680038664258459	Wei2GO
0.5757254178771662	0.2680038664258459	Wei2GO
0.576311339202218	0.2668301575056581	Wei2GO
0.5792513272471863	0.2662339878954039	Wei2GO
0.5776754895215203	0.2646690426684869	Wei2GO
0.5784869751644666	0.26360891848251083	Wei2GO
0.5796862699235914	0.2622395914089584	Wei2GO
0.5789278120897355	0.26037175355747677	Wei2GO
0.5804429132182435	0.25852127446459594	Wei2GO
0.5802850178767743	0.2582231896594689	Wei2GO
0.5777159287581023	0.2558881920193069	Wei2GO
0.5787620445983208	0.2540918388515675	Wei2GO
0.5816303732281104	0.25308166256752584	Wei2GO
0.5775791192421591	0.24669655054861092	Wei2GO
0.5778678799112917	0.24586248633426508	Wei2GO
0.5767231770233587	0.24322934743352054	Wei2GO
0.5751153310618845	0.2414035780021173	Wei2GO
0.5752220148209469	0.24128319760004674	Wei2GO
0.5735621955756025	0.23971825237312971	Wei2GO
0.5709965660543732	0.23570863913816434	Wei2GO
0.5711763265179456	0.23273300757098345	Wei2GO
0.5693820852063052	0.2311680623440664	Wei2GO
0.5654467876400169	0.2291598190620938	Wei2GO
0.566547269730402	0.22844255249975678	Wei2GO
0.5628583103238523	0.22609513465938114	Wei2GO
0.5620377394727769	0.2235434837848336	Wei2GO
0.56233888995297	0.2201155085258724	Wei2GO
0.5593533266992412	0.21801322895880407	Wei2GO
0.5568930112625803	0.2159266353229147	Wei2GO
0.5540053918479608	0.20807320187242065	Wei2GO
0.5525930094165076	0.20615671097858745	Wei2GO
0.5536034226703471	0.20567518937030527	Wei2GO
0.5570992773643764	0.2044735349996368	Wei2GO
0.5569491302061221	0.20386116512823446	Wei2GO
0.5566692798089043	0.20198062261388916	Wei2GO
0.5571107085244729	0.20198062261388916	Wei2GO
0.5569074417402288	0.20136825274248682	Wei2GO
0.5568024897084153	0.19955738755133998	Wei2GO
0.5532909162130273	0.19540420289877758	Wei2GO
0.5542777996355114	0.1940764834959408	Wei2GO
0.5558886620609439	0.1939199889732491	Wei2GO
0.5536900910810475	0.19336765536374897	Wei2GO
0.5584214364363025	0.19121585567673802	Wei2GO
0.560753750307171	0.1898247932528117	Wei2GO
0.5582654366133983	0.18832519738701867	Wei2GO
0.5580525051675482	0.1872417737683838	Wei2GO
0.558863030835074	0.18672012535941143	Wei2GO
0.5572231058062057	0.18147147258690582	Wei2GO
0.5576329275169022	0.18050269697024288	Wei2GO
0.5576329275169022	0.18050269697024288	Wei2GO
0.5576329275169022	0.18050269697024288	Wei2GO
0.5578789972366561	0.18050269697024288	Wei2GO
0.5578993312026517	0.1783168423010672	Wei2GO
0.560602520324906	0.17506657144516255	Wei2GO
0.5648671485671066	0.17420585157035814	Wei2GO
0.566873047077977	0.17255018488101112	Wei2GO
0.5692716223780561	0.17079302464325594	Wei2GO
0.5692716223780561	0.1700517347989268	Wei2GO
0.570939502405548	0.16883890224806608	Wei2GO
0.5715457398226346	0.16784302801275522	Wei2GO
0.5713348228298358	0.1665420822415094	Wei2GO
0.5720950457882541	0.16480325421160155	Wei2GO
0.5722703690405004	0.16480325421160155	Wei2GO
0.567519056589726	0.16307357790816693	Wei2GO
0.5622448987432593	0.16072616006779133	Wei2GO
0.5624904366360264	0.16011379019638902	Wei2GO
0.5622111450637931	0.15642940317249124	Wei2GO
0.5621087717653338	0.1527543614692805	Wei2GO
0.5500433390861635	0.14555553242415628	Wei2GO
0.5470234957243256	0.14492955433338947	Wei2GO
0.5484673481729134	0.14356022725983703	Wei2GO
0.5474189556821315	0.14187936016425945	Wei2GO
0.5448724197443071	0.1405551757414835	Wei2GO
0.5448815421672226	0.14051399297235412	Wei2GO
0.5447470981123553	0.13847956417736193	Wei2GO
0.5433077165781989	0.1359234869733974	Wei2GO
0.5362371105316146	0.13399338786019968	Wei2GO
0.5367337325967321	0.13064738592264846	Wei2GO
0.5367337325967321	0.13064738592264846	Wei2GO
0.5359929918559914	0.13038656171816226	Wei2GO
0.5359929918559914	0.13038656171816226	Wei2GO
0.5346779871798897	0.1285840024495609	Wei2GO
0.5352804874252612	0.12701905722264384	Wei2GO
0.5349753383972803	0.12426084126020255	Wei2GO
0.5317059164528346	0.12324362686270646	Wei2GO
0.5310906832794619	0.12285239055597719	Wei2GO
0.531326543461546	0.12285239055597719	Wei2GO
0.5313415026705746	0.12184635433867337	Wei2GO
0.5366008916018534	0.12156068973375994	Wei2GO
0.5292941250926194	0.11564909041964022	Wei2GO
0.5192848145527622	0.11290548338958036	Wei2GO
0.517154257168204	0.11081888975369092	Wei2GO
0.5214646019957901	0.11081888975369092	Wei2GO
0.5207816854914057	0.11023203529359703	Wei2GO
0.5212230061844426	0.11023203529359703	Wei2GO
0.5128629081358116	0.10769320614186467	Wei2GO
0.5169533529891813	0.10738021709648125	Wei2GO
0.5168299407783234	0.10363383306840707	Wei2GO
0.5197342535221114	0.09853171036065056	Wei2GO
0.5190567660983699	0.09527140780457335	Wei2GO
0.5233382428502628	0.0948801714978441	Wei2GO
0.518507098207119	0.09051136607270063	Wei2GO
0.522648448459108	0.08949415167520455	Wei2GO
0.5201634638218431	0.08735940587848694	Wei2GO
0.5210661997136404	0.08631610906054224	Wei2GO
0.522556081801666	0.0849467819869898	Wei2GO
0.522556081801666	0.0849467819869898	Wei2GO
0.5278124537073619	0.08338183676007274	Wei2GO
0.5314258458071484	0.08038307495849405	Wei2GO
0.5316592725111633	0.08038307495849405	Wei2GO
0.5397917135454344	0.07996215865608187	Wei2GO
0.5384477100520859	0.07839721342916482	Wei2GO
0.5347214028033881	0.07565855928205996	Wei2GO
0.5402017312504824	0.06899126732255495	Wei2GO
0.5440646278876489	0.06604429254459426	Wei2GO
0.5410800572773249	0.06579719592981789	Wei2GO
0.5343312345902268	0.06501472331635935	Wei2GO
0.53032106998185	0.0626071152749485	Wei2GO
0.5311430730032664	0.062411497121583864	Wei2GO
0.5406464302025376	0.06065102493857646	Wei2GO
0.5406464302025376	0.06065102493857646	Wei2GO
0.540334644542622	0.0591058059119987	Wei2GO
0.5346203588283364	0.05819292119629708	Wei2GO
0.5346203588283364	0.05819292119629708	Wei2GO
0.544882681994383	0.05770853338796562	Wei2GO
0.5432819360007992	0.0541573115268846	Wei2GO
0.5438545223291995	0.0541573115268846	Wei2GO
0.5453855899261139	0.051451260405340524	Wei2GO
0.5453855899261139	0.051451260405340524	Wei2GO
0.562974823046968	0.05118861225536843	Wei2GO
0.562974823046968	0.05118861225536843	Wei2GO
0.5662548063928705	0.05084084664938685	Wei2GO
0.5773797385153027	0.05052785760400343	Wei2GO
0.5773797385153027	0.05052785760400343	Wei2GO
0.5693578411490604	0.0485455936499085	Wei2GO
0.5693578411490604	0.0485455936499085	Wei2GO
0.567760030242363	0.04721127193011606	Wei2GO
0.567760030242363	0.04721127193011606	Wei2GO
0.5831925314294456	0.045058152282556094	Wei2GO
0.5845467395712495	0.044569106899144506	Wei2GO
0.5560075998801489	0.04039591962736568	Wei2GO
0.5460779753155914	0.03883097440044863	Wei2GO
0.5307034593799299	0.035778016127937746	Wei2GO
0.5204452221404837	0.03513781126238077	Wei2GO
0.5204452221404837	0.03513781126238077	Wei2GO
0.5263865142016403	0.034535909252028055	Wei2GO
0.5216105277523964	0.0335870284357073	Wei2GO
0.5184775134418629	0.032022083208790256	Wei2GO
0.5184775134418629	0.032022083208790256	Wei2GO
0.515929935736921	0.031552599640715134	Wei2GO
0.5011189155796999	0.028783850393092645	Wei2GO
0.5011189155796999	0.028783850393092645	Wei2GO
0.5082653010699228	0.027459665970316672	Wei2GO
0.5140180464254539	0.02589472074339961	Wei2GO
0.5140180464254539	0.02589472074339961	Wei2GO
0.5140180464254539	0.02589472074339961	Wei2GO
0.5140180464254539	0.02589472074339961	Wei2GO
0.5087879712879713	0.024329775516482553	Wei2GO
0.5087879712879713	0.024329775516482553	Wei2GO
0.5087879712879713	0.024329775516482553	Wei2GO
0.5087879712879713	0.024329775516482553	Wei2GO
0.5276580086580087	0.023938539209753286	Wei2GO
0.5320393374741201	0.021069472960405348	Wei2GO
0.5320393374741201	0.021069472960405348	Wei2GO
0.5416125541125542	0.020130505824255115	Wei2GO
0.5416125541125542	0.020130505824255115	Wei2GO
0.5416125541125542	0.020130505824255115	Wei2GO
0.5435941043083901	0.019757899817846293	Wei2GO
0.5620238095238095	0.018845015102144674	Wei2GO
0.5620238095238095	0.018845015102144674	Wei2GO
0.5620238095238095	0.018845015102144674	Wei2GO
0.5468671679197995	0.017280069875227618	Wei2GO
0.5468671679197995	0.017280069875227618	Wei2GO
0.5468671679197995	0.017280069875227618	Wei2GO
0.5322172619047619	0.013792477655241032	Wei2GO
0.5082482993197279	0.011647198573342232	Wei2GO
0.49926739926739927	0.011045296562989516	Wei2GO
0.5121212121212122	0.008769012596564705	Wei2GO
0.5518518518518518	0.006492728630139893	Wei2GO
0.5518518518518518	0.006492728630139893	Wei2GO
0.5583333333333333	0.0061666983745321735	Wei2GO
0.5583333333333333	0.0061666983745321735	Wei2GO
0.5428571428571428	0.005661877333591187	Wei2GO
0.5499999999999999	0.00507502287349729	Wei2GO
0.6266666666666667	0.004713881667285661	Wei2GO
0.6266666666666667	0.004713881667285661	Wei2GO
0.6266666666666667	0.004713881667285661	Wei2GO
0.6583333333333333	0.0031489364403686033	Wei2GO
0.6583333333333333	0.0031489364403686033	Wei2GO
0.6583333333333333	0.0031489364403686033	Wei2GO
0.6583333333333333	0.0031489364403686033	Wei2GO
0.7111111111111111	0.0015839912134515454	Wei2GO
0.7111111111111111	0.0015839912134515454	Wei2GO
0.7666666666666666	0.001169741006326442	Wei2GO
0.7666666666666666	0.001169741006326442	Wei2GO
0.9333333333333333	0.0007554907992013383	Wei2GO
0.9333333333333333	0.0007554907992013383	Wei2GO
0.9333333333333333	0.0007554907992013383	Wei2GO
0.9333333333333333	0.0007554907992013383	Wei2GO
0.9333333333333333	0.0007554907992013383	Wei2GO
0.9333333333333333	0.0007554907992013383	Wei2GO
0.9333333333333333	0.0007554907992013383	Wei2GO
0.9333333333333333	0.0007554907992013383	Wei2GO
0.9333333333333333	0.0007554907992013383	Wei2GO
0.9333333333333333	0.0007554907992013383	Wei2GO
0.9333333333333333	0.0007554907992013383	Wei2GO
0.9333333333333333	0.0007554907992013383	Wei2GO
0.9333333333333333	0.0007554907992013383	Wei2GO
0.9333333333333333	0.0007554907992013383	Wei2GO
0.9333333333333333	0.0007554907992013383	Wei2GO
0.9333333333333333	0.0007554907992013383	Wei2GO
0.9333333333333333	0.0007554907992013383	Wei2GO
0.9333333333333333	0.0007554907992013383	Wei2GO
0.9333333333333333	0.0007554907992013383	Wei2GO
0.9333333333333333	0.0007554907992013383	Wei2GO
0.9333333333333333	0.0007554907992013383	Wei2GO
0.9333333333333333	0.0007554907992013383	Wei2GO
0.9333333333333333	0.0007554907992013383	Wei2GO
0.9333333333333333	0.0007554907992013383	Wei2GO
0.9333333333333333	0.0007554907992013383	Wei2GO
0.9333333333333333	0.0007554907992013383	Wei2GO
0.9333333333333333	0.0007554907992013383	Wei2GO
0.9333333333333333	0.0007554907992013383	Wei2GO
0.9333333333333333	0.0007554907992013383	Wei2GO
0.9333333333333333	0.0007554907992013383	Wei2GO
0.0	0.0	Wei2GO
0.0	0.0	Wei2GO
0.0	0.0	Wei2GO
0.0	0.0	Wei2GO
0.0	0.0	Wei2GO
0.0	0.0	Wei2GO
0.0	0.0	Wei2GO
0.0	0.0	Wei2GO
0.0	0.0	Wei2GO
0.0	0.0	Wei2GO
0.0	0.0	Wei2GO
0.0	0.0	Wei2GO
0.0	0.0	Wei2GO
0.0	0.0	Wei2GO
0.0	0.0	Wei2GO
0.0	0.0	Wei2GO
0.0	0.0	Wei2GO
0.0	0.0	Wei2GO
0.0	0.0	Wei2GO
0.0	0.0	Wei2GO
0.0	0.0	Wei2GO
0.0	0.0	Wei2GO
0.0	0.0	Wei2GO
0.0	0.0	Wei2GO
0.0	0.0	Wei2GO
0.0	0.0	Wei2GO
0.0	0.0	Wei2GO
0.0	0.0	Wei2GO
0.0	0.0	Wei2GO
0.0	0.0	Wei2GO
0.0	0.0	Wei2GO
0.0	0.0	Wei2GO
0.0	0.0	Wei2GO
0.0	0.0	Wei2GO
0.0	0.0	Wei2GO
0.0	0.0	Wei2GO
0.0	0.0	Wei2GO
0.0	0.0	Wei2GO
0.0	0.0	Wei2GO
0.0	0.0	Wei2GO
0.0	0.0	Wei2GO
0.0	0.0	Wei2GO
0.0	0.0	Wei2GO
0.0	0.0	Wei2GO
0.0	0.0	Wei2GO
0.0	0.0	Wei2GO
0.0	0.0	Wei2GO
0.0	0.0	Wei2GO
0.0	0.0	Wei2GO
0.0	0.0	Wei2GO
0.0	0.0	Wei2GO
0.0	0.0	Wei2GO
0.0	0.0	Wei2GO
0.0	0.0	Wei2GO
0.0	0.0	Wei2GO
0.0	0.0	Wei2GO
0.0	0.0	Wei2GO
0.0	0.0	Wei2GO
0.0	0.0	Wei2GO
0.0	0.0	Wei2GO
0.0	0.0	Wei2GO
0.0	0.0	Wei2GO
0.0	0.0	Wei2GO
0.0	0.0	Wei2GO
