0.225937867167	0.611008272767	CrowdGO	0.0	220.327811136	44.0699924562	224.692030556	0.0
0.25545647956	0.558405367881	CrowdGO	0.01	146.311887356	49.2158876331	154.367651978	0.01
0.268943206749	0.533480145894	CrowdGO	0.02	125.585964664	51.1294951848	135.595205661	0.02
0.279124905387	0.511810884202	CrowdGO	0.03	111.035740294	52.6723876837	122.895549337	0.03
0.29467270529	0.494677954044	CrowdGO	0.04	99.6113560734	53.8835871317	113.251327679	0.04
0.303724760471	0.477457889334	CrowdGO	0.05	91.6702241518	55.1929290306	107.003221498	0.05
0.312093959857	0.466376359137	CrowdGO	0.06	84.8314356597	56.0463330449	101.673811396	0.06
0.320953980064	0.451940921703	CrowdGO	0.07	78.4900387044	56.9678829675	96.9846681987	0.07
0.330939624058	0.437028463545	CrowdGO	0.08	73.3775440007	57.8933090981	93.4660323428	0.08
0.338675453915	0.424932592378	CrowdGO	0.09	68.7381955927	58.5525411806	90.2958449323	0.09
0.343035384865	0.413343961759	CrowdGO	0.09	65.6314942217	59.3227750594	88.4685518957	0.1
0.345922959096	0.400106624027	CrowdGO	0.09	62.4986966626	60.0507018278	86.6727977773	0.11
0.350479824568	0.391538318487	CrowdGO	0.09	59.0928237579	60.5584639359	84.6125840165	0.12
0.354832720347	0.380883944466	CrowdGO	0.09	56.3390015044	61.0976291625	83.1083833304	0.13
0.360705546616	0.370414781137	CrowdGO	0.09	53.8519232103	61.6448979152	81.8542794998	0.14
0.36484439169	0.363675666765	CrowdGO	0.09	51.6564091277	61.9967718376	80.6968668676	0.15
0.368525991705	0.356103489469	CrowdGO	0.09	49.3621470003	62.5290329156	79.6649327737	0.16
0.368879478557	0.345895780718	CrowdGO	0.09	47.6090189362	62.9715248061	78.9432176977	0.17
0.370442300445	0.335762200332	CrowdGO	0.09	45.5894843802	63.4773111971	78.152224043	0.18
0.375224185292	0.329195139514	CrowdGO	0.09	43.9785186521	63.7936264561	77.4837846214	0.19
0.378463212144	0.322216971059	CrowdGO	0.09	42.6313227457	64.1627336757	77.0343174941	0.2
0.379180769179	0.313856748605	CrowdGO	0.09	41.2410646673	64.6044093934	76.6456465037	0.21
0.384648950781	0.308405838409	CrowdGO	0.09	39.7790378014	64.9083069974	76.1279197513	0.22
0.386769896108	0.299711510564	CrowdGO	0.09	38.0869583748	65.3233081312	75.6158117291	0.23
0.389982404133	0.29376050844	CrowdGO	0.09	36.8691596767	65.6397503555	75.2855348789	0.24
0.392121023759	0.285429292627	CrowdGO	0.09	35.6642939209	65.9953136552	75.0154869699	0.25
0.396664555341	0.278432546273	CrowdGO	0.09	34.3562233027	66.2629086716	74.6399567608	0.26
0.400706925894	0.272096554542	CrowdGO	0.09	33.3697550589	66.5436595574	74.4419181643	0.27
0.404096407856	0.267186878843	CrowdGO	0.09	32.6916592778	66.7472017234	74.3231694981	0.28
0.407157613721	0.264047785073	CrowdGO	0.09	31.5156642945	66.9404349539	73.988235063	0.29
0.40962305585	0.258845681189	CrowdGO	0.09	30.6838133657	67.2021407298	73.87573432	0.3
0.411800603171	0.253464042544	CrowdGO	0.09	29.979796221	67.5090223179	73.866475994	0.31
0.416990068895	0.249459593562	CrowdGO	0.09	29.0513193903	67.6859561064	73.6570961439	0.32
0.423281412672	0.246014247137	CrowdGO	0.09	28.3896939666	67.9155621264	73.6104496825	0.33
0.427508721899	0.241709243723	CrowdGO	0.09	27.8545464258	68.128980601	73.6032183693	0.34
0.430349462191	0.236283867939	CrowdGO	0.09	27.3325198166	68.3056942051	73.5712885599	0.35
0.434302597249	0.23142783502	CrowdGO	0.09	26.7587144525	68.6172011402	73.6501805257	0.36
0.433387128801	0.228390190721	CrowdGO	0.09	26.3781635655	68.7249912943	73.6133951227	0.37
0.439854281629	0.223130971834	CrowdGO	0.09	25.6447128231	68.9169772719	73.533672913	0.38
0.445519986899	0.218356666645	CrowdGO	0.09	24.869454564	69.1112125739	73.4496390308	0.39
0.449017722953	0.211106604505	CrowdGO	0.09	24.1110236547	69.4483220226	73.5146984856	0.4
0.453515224037	0.20640910249	CrowdGO	0.09	23.395331485	69.6571838416	73.4810505916	0.41
0.455346830499	0.200116404822	CrowdGO	0.09	22.8324773533	69.8921028115	73.5270566357	0.42
0.46116446848	0.196562722368	CrowdGO	0.09	22.1791231969	70.039138233	73.4669612152	0.43
0.468159179724	0.19298732268	CrowdGO	0.09	21.6923987821	70.1550075845	73.4321813247	0.44
0.474947759052	0.190518465552	CrowdGO	0.09	21.2340125831	70.2769622195	73.4148126006	0.45
0.478190385826	0.186569369374	CrowdGO	0.09	20.8097954539	70.4430983967	73.4525540642	0.46
0.480854380145	0.182302824029	CrowdGO	0.09	20.5105933113	70.6232315588	73.5413167804	0.47
0.485083754348	0.17827633173	CrowdGO	0.09	19.7951643654	70.8479230986	73.5613807622	0.48
0.491290709959	0.174314708659	CrowdGO	0.09	19.4040945088	70.990600044	73.5947292835	0.49
0.496519565772	0.170024181768	CrowdGO	0.09	18.8585948922	71.1244440833	73.5821523704	0.5
0.501521980841	0.16375406313	CrowdGO	0.09	18.3861090405	71.3773383668	73.707349959	0.51
0.512988453757	0.159288373567	CrowdGO	0.09	17.8350747193	71.6034013016	73.7911713432	0.52
0.522036945268	0.155601867603	CrowdGO	0.09	17.3531770822	71.7751066524	73.8430679875	0.53
0.536457201054	0.15250988026	CrowdGO	0.09	16.7726678422	71.8713376312	73.8025172975	0.54
0.546929426506	0.148743787676	CrowdGO	0.09	16.3549520824	72.0014005217	73.8355343632	0.55
0.565631255081	0.144577232665	CrowdGO	0.09	15.487315042	72.147070716	73.7906277255	0.56
0.570923671226	0.140601284213	CrowdGO	0.09	15.1431866351	72.2737657978	73.8431670776	0.57
0.578177674981	0.13789629131	CrowdGO	0.09	14.5491405108	72.3497294796	73.7981086843	0.58
0.591197776176	0.13300929097	CrowdGO	0.09	14.1132276385	72.5447725625	73.9048524829	0.59
0.59812731451	0.129073362126	CrowdGO	0.09	13.5987974854	72.6251249704	73.8873200896	0.6
0.607928173691	0.125665649323	CrowdGO	0.09	13.2631974669	72.7634428592	73.9623622106	0.61
0.607710951518	0.122595928655	CrowdGO	0.09	12.9640429847	72.8319794558	73.9767777208	0.62
0.613183997846	0.117740767715	CrowdGO	0.09	12.5919537693	73.072275511	74.1492734157	0.63
0.620826268864	0.113565632582	CrowdGO	0.09	12.2541553916	73.1685230405	74.1875804181	0.64
0.627516872488	0.108901101139	CrowdGO	0.09	11.8731220555	73.2842879293	74.2398672187	0.65
0.629567008319	0.105772871482	CrowdGO	0.09	11.6217080643	73.387814329	74.3023242592	0.66
0.633961957102	0.104530403444	CrowdGO	0.09	11.3402207802	73.4504229942	74.3206919059	0.67
0.640787313837	0.101523462207	CrowdGO	0.09	11.0128731291	73.5625376631	74.3823253333	0.68
0.640844150822	0.0989186730805	CrowdGO	0.09	10.8118522481	73.6672314342	74.4564109813	0.69
0.643372253467	0.0958650752226	CrowdGO	0.09	10.34720446	73.7841267049	74.5061205119	0.7
0.648617273855	0.0926139298434	CrowdGO	0.09	9.98966230738	73.902258613	74.5743734879	0.71
0.654040406779	0.0891698388524	CrowdGO	0.09	9.77484946916	74.0016061047	74.6443928786	0.72
0.653414298595	0.0867210803821	CrowdGO	0.09	9.66470775202	74.0932413053	74.7209139602	0.73
0.660727007766	0.0843575607716	CrowdGO	0.09	9.48177475429	74.1834297155	74.786932661	0.74
0.66591705531	0.0831553121642	CrowdGO	0.09	9.15426413891	74.2301750265	74.7925092264	0.75
0.666759646736	0.0810888277012	CrowdGO	0.09	8.93227160425	74.2963575526	74.8313719078	0.76
0.671226851108	0.0800197881756	CrowdGO	0.09	8.8255990585	74.347233835	74.8692351881	0.77
0.680441441829	0.0784298376467	CrowdGO	0.09	8.64045549914	74.3975083396	74.8975748497	0.78
0.690188813291	0.0767352415424	CrowdGO	0.09	8.34646887483	74.465971427	74.932265702	0.79
0.697741059763	0.0747062579341	CrowdGO	0.09	8.21570111445	74.5482223151	74.9995679664	0.8
0.707393776541	0.0733656735476	CrowdGO	0.09	7.92774930003	74.6183604057	75.0383163364	0.81
0.711619329038	0.0699370905428	CrowdGO	0.09	7.52013247457	74.8425750774	75.2194352322	0.82
0.722287763389	0.066991247562	CrowdGO	0.09	7.27329719739	75.0551540573	75.406743748	0.83
0.730254907766	0.0629325475428	CrowdGO	0.09	6.86464214444	75.2403211428	75.5528241527	0.84
0.739917867118	0.0611910146721	CrowdGO	0.09	6.67742137808	75.4413728672	75.73631029	0.85
0.756790428556	0.0593415349869	CrowdGO	0.09	6.40169415406	75.5530572723	75.823783546	0.86
0.782150057033	0.0550716598392	CrowdGO	0.09	5.71523381988	75.6894573911	75.9049264395	0.87
0.803486694475	0.0513648747473	CrowdGO	0.09	5.25818359227	75.9297267377	76.1115753165	0.88
0.81840146358	0.0491336173399	CrowdGO	0.09	4.98871271246	76.0448678316	76.208327485	0.89
0.826989549612	0.0458438095034	CrowdGO	0.09	4.77522907301	76.1848840652	76.3343918082	0.9
0.831511299053	0.0423974079398	CrowdGO	0.09	4.45706218803	76.415100642	76.5449737702	0.91
0.838772175423	0.0402854530787	CrowdGO	0.09	4.36508929603	76.4946708774	76.6191143071	0.92
0.84097453899	0.0381866517038	CrowdGO	0.09	4.04678667	76.5569047351	76.6637863986	0.93
0.830304393874	0.0338135490356	CrowdGO	0.09	3.70262373567	76.6743029155	76.7636512296	0.94
0.771377900198	0.0266066636918	CrowdGO	0.09	3.49858808876	76.9190680489	76.998591858	0.95
0.738782859788	0.0227809703282	CrowdGO	0.09	3.1590381361	76.9824310494	77.0472206651	0.96
0.61685594566	0.0202453928284	CrowdGO	0.09	2.78071826785	77.0286553822	77.078830713	0.97
0.60579336467	0.0179677327873	CrowdGO	0.09	2.40564801678	77.0882262643	77.1257529685	0.98
0.574778625112	0.0123338231657	CrowdGO	0.09	1.80180218194	77.3028438098	77.3238394817	0.99
