0.28493897228894033	0.2801098714273893	FunFams
0.28493897228894033	0.2801098714273893	FunFams
0.28549448412005984	0.2801098714273893	FunFams
0.28616739282951587	0.2801098714273893	FunFams
0.28558574182628377	0.27918027773099136	FunFams
0.2856730745911738	0.27918027773099136	FunFams
0.2860630999303255	0.2791515156509177	FunFams
0.28600942846117683	0.27872269918436543	FunFams
0.28615560137048973	0.27809178644190996	FunFams
0.28703472729430235	0.27708002659494013	FunFams
0.2871159604978836	0.275545081555047	FunFams
0.28718220493253394	0.2755199912298763	FunFams
0.2876197230072281	0.2735782566672691	FunFams
0.286942712406026	0.27281732474478054	FunFams
0.2860267904323556	0.26998122340254754	FunFams
0.28699775851055315	0.2696104758325075	FunFams
0.28807715012323487	0.2687915554970778	FunFams
0.2877509261655731	0.2655763080056284	FunFams
0.28791330666573056	0.2648155509876809	FunFams
0.2878118353313825	0.2643101601521014	FunFams
0.2889473909422573	0.2638859325685017	FunFams
0.2902248488484353	0.26217066670229244	FunFams
0.29024897501117314	0.2614346568895623	FunFams
0.29108193989825154	0.2591824132605498	FunFams
0.292633863427859	0.2581601565317714	FunFams
0.2948956507392213	0.2572805330106384	FunFams
0.2964193265328993	0.2564652827002111	FunFams
0.2957569161669849	0.25553618035601433	FunFams
0.2972477833885928	0.2541570572116242	FunFams
0.2976873537538683	0.25398798978753545	FunFams
0.2985197124429567	0.25246850324253073	FunFams
0.2996586700903603	0.2515751042576471	FunFams
0.29986002325888295	0.25035842261643715	FunFams
0.3001533530161208	0.25035842261643715	FunFams
0.2989202580509222	0.24902077125062475	FunFams
0.29934141214373056	0.24902077125062475	FunFams
0.3000522111909194	0.24874863772377426	FunFams
0.300053769733412	0.24874863772377426	FunFams
0.3006328972222836	0.24824869962675514	FunFams
0.3018105619678368	0.24801530733115762	FunFams
0.3037030060230429	0.24772099996137859	FunFams
0.30542563563936387	0.24718497937818817	FunFams
0.30720287603374197	0.24647743220837687	FunFams
0.30757311429610334	0.24637022809173878	FunFams
0.3096902641700507	0.24514751703707016	FunFams
0.3103658865438326	0.24471870057051787	FunFams
0.3108770704683174	0.243539455287499	FunFams
0.30995016336789805	0.2428292095414955	FunFams
0.30605791454439346	0.24060385405885945	FunFams
0.306552845068223	0.2397858190427112	FunFams
0.30667645432204715	0.2397858190427112	FunFams
0.3047215909044301	0.23761936666955963	FunFams
0.3040390151655272	0.23720873807983928	FunFams
0.3049723696584136	0.23447529161750466	FunFams
0.3049723696584136	0.23447529161750466	FunFams
0.30715088221725617	0.23447529161750466	FunFams
0.30811616457789215	0.23426983327418377	FunFams
0.30814114551541594	0.23426983327418377	FunFams
0.3106401291767601	0.23418756034746152	FunFams
0.3157400782949789	0.2338506800756961	FunFams
0.3157400782949789	0.2338506800756961	FunFams
0.3158150933681656	0.2338506800756961	FunFams
0.31593658228599253	0.23382044301715715	FunFams
0.3198761973653907	0.23201056526388317	FunFams
0.3201170451495911	0.23201056526388317	FunFams
0.32023303873127956	0.23201056526388317	FunFams
0.32023419862651353	0.23201056526388317	FunFams
0.3254574738002195	0.22970099805902805	FunFams
0.32559174104054595	0.22970099805902805	FunFams
0.3256958853999716	0.2295372139919421	FunFams
0.3256987410201712	0.2295372139919421	FunFams
0.3256987410201712	0.2295372139919421	FunFams
0.32876568008287305	0.22926705244717024	FunFams
0.32934116307527855	0.2289722411264155	FunFams
0.3300938649331167	0.22822665378618426	FunFams
0.3306188119310191	0.22822665378618426	FunFams
0.3306038511119933	0.22820015389218382	FunFams
0.33455995260743415	0.2250979167237902	FunFams
0.33455995260743415	0.2250979167237902	FunFams
0.3345817824558435	0.2250979167237902	FunFams
0.33458190624491346	0.2250979167237902	FunFams
0.33495728316056944	0.2249232137188985	FunFams
0.3329885320919723	0.22377014618529123	FunFams
0.3329885320919723	0.22377014618529123	FunFams
0.33649962355442603	0.2228587040828114	FunFams
0.33649962355442603	0.2228587040828114	FunFams
0.33661655119286804	0.2228587040828114	FunFams
0.33743924068512204	0.22259608713018852	FunFams
0.33743924068512204	0.22259608713018852	FunFams
0.33796589024089835	0.22259608713018852	FunFams
0.33804730136708555	0.22259608713018852	FunFams
0.33917223778088285	0.22147085716398823	FunFams
0.33917223778088285	0.22147085716398823	FunFams
0.33983137180178813	0.22101335618581242	FunFams
0.33955491546887534	0.21963757002229042	FunFams
0.3395796663125366	0.21961014571338303	FunFams
0.3406771278702578	0.21882398219137045	FunFams
0.34109563462742337	0.21882398219137045	FunFams
0.34111500884034596	0.21875846856453604	FunFams
0.34209520146664046	0.21867002516830963	FunFams
0.34209520146664046	0.21867002516830963	FunFams
0.3448724031670895	0.21682165489321645	FunFams
0.3451269025390822	0.2165325130209378	FunFams
0.3448289210411207	0.21595973674061433	FunFams
0.34519175463740465	0.2155338981661908	FunFams
0.3452658333210495	0.21549585799577087	FunFams
0.3447571123590835	0.2148364950418248	FunFams
0.3448855215812228	0.2148364950418248	FunFams
0.3446941401590545	0.21452262264429717	FunFams
0.34470242710031485	0.21452262264429717	FunFams
0.34470242710031485	0.21452262264429717	FunFams
0.34470242710031485	0.21452262264429717	FunFams
0.3491586649973286	0.21116709291498448	FunFams
0.3503810487739376	0.2109188307501384	FunFams
0.3503810487739376	0.2109188307501384	FunFams
0.3503810487739376	0.2109188307501384	FunFams
0.34919100639572187	0.2105766022239476	FunFams
0.34914964070015053	0.2104336634017635	FunFams
0.34875145672793384	0.20986437257547855	FunFams
0.34875145672793384	0.20986437257547855	FunFams
0.34670992524432237	0.20981310104143425	FunFams
0.34884024815553943	0.2093071593596108	FunFams
0.3522012316480004	0.20909275112633466	FunFams
0.3522282012370917	0.20906962866980486	FunFams
0.3523345699456604	0.20906962866980486	FunFams
0.3523345699456604	0.20906962866980486	FunFams
0.35639237175802063	0.20469159919903163	FunFams
0.35639237175802063	0.20469159919903163	FunFams
0.35639237175802063	0.20469159919903163	FunFams
0.3566053643032815	0.2046326369348807	FunFams
0.3566053643032815	0.2046326369348807	FunFams
0.35663286722274556	0.2046326369348807	FunFams
0.35663286722274556	0.2046326369348807	FunFams
0.35778393359685634	0.20367936361158462	FunFams
0.3573705450034639	0.20314680122570516	FunFams
0.3573705450034639	0.20314680122570516	FunFams
0.3578286794073638	0.20314680122570516	FunFams
0.35741429517569656	0.2026013252030253	FunFams
0.355839397706702	0.20189831359199478	FunFams
0.355839397706702	0.20189831359199478	FunFams
0.3558928491678827	0.20189831359199478	FunFams
0.35590504672145823	0.20189831359199478	FunFams
0.3551150954163497	0.20172142679954197	FunFams
0.3568168657651285	0.19861874869313992	FunFams
0.3568168657651285	0.19861874869313992	FunFams
0.3554728702544663	0.19777108082860223	FunFams
0.3556651040107139	0.19777108082860223	FunFams
0.3561438335142112	0.19770171345901288	FunFams
0.35616970682596183	0.19736478623529322	FunFams
0.3583260922485194	0.1964127809176778	FunFams
0.3583260922485194	0.1964127809176778	FunFams
0.35914622990724815	0.19569454193139005	FunFams
0.3589786358462763	0.19543248742405256	FunFams
0.3589786358462763	0.19543248742405256	FunFams
0.3585119619516848	0.19437958984992854	FunFams
0.3585119619516848	0.19437958984992854	FunFams
0.35852233363979735	0.19437958984992854	FunFams
0.35972778124037336	0.19419240805897317	FunFams
0.3608093761040906	0.1935799932817415	FunFams
0.3608093761040906	0.1935799932817415	FunFams
0.3607917861996069	0.19352639122342247	FunFams
0.36038923424712993	0.1931333094624162	FunFams
0.36038923424712993	0.1931333094624162	FunFams
0.3606406650502708	0.19293676858191303	FunFams
0.3606848128216913	0.19293676858191303	FunFams
0.3606932505807305	0.19293676858191303	FunFams
0.3606932505807305	0.19293676858191303	FunFams
0.35925041630393395	0.18617009966825832	FunFams
0.35925041630393395	0.18617009966825832	FunFams
0.35953061555673593	0.18617009966825832	FunFams
0.35979370267972527	0.1851022540745935	FunFams
0.36003785126012744	0.1851022540745935	FunFams
0.36032323938798133	0.1851022540745935	FunFams
0.36075183890019946	0.1846486981965093	FunFams
0.35854753489640706	0.18401371996719149	FunFams
0.35854753489640706	0.18401371996719149	FunFams
0.35871141603517775	0.18386868036877843	FunFams
0.3554664910840978	0.1809206669169229	FunFams
0.3554664910840978	0.1809206669169229	FunFams
0.3555251929383461	0.1809206669169229	FunFams
0.3555251929383461	0.1809206669169229	FunFams
0.35583325786568526	0.1809206669169229	FunFams
0.3601828396341957	0.18052816857968063	FunFams
0.3601828396341957	0.18052816857968063	FunFams
0.3603847270155702	0.18052816857968063	FunFams
0.3603847270155702	0.18052816857968063	FunFams
0.3602090717117098	0.18028663641327916	FunFams
0.3602394364837159	0.18028663641327916	FunFams
0.36086954154391343	0.1801922967906376	FunFams
0.3616971539703833	0.1796869059550581	FunFams
0.3616971539703833	0.1796869059550581	FunFams
0.3616971539703833	0.1796869059550581	FunFams
0.3616971539703833	0.1796869059550581	FunFams
0.3617849916213079	0.1796869059550581	FunFams
0.3617849916213079	0.1796869059550581	FunFams
0.3619144432172741	0.1796869059550581	FunFams
0.3619144432172741	0.1796869059550581	FunFams
0.36052707444719834	0.17871559067505427	FunFams
0.36052707444719834	0.17871559067505427	FunFams
0.36053084816156244	0.17871559067505427	FunFams
0.36053084816156244	0.17871559067505427	FunFams
0.36242858896362457	0.17530170110614615	FunFams
0.36242858896362457	0.17530170110614615	FunFams
0.3625756964016411	0.17527490007698665	FunFams
0.3625756964016411	0.17527490007698665	FunFams
0.3625661541708223	0.17498008875623194	FunFams
0.36375904420168553	0.1747835478757288	FunFams
0.3641577880969873	0.17360430259270995	FunFams
0.3641577880969873	0.17360430259270995	FunFams
0.3642316908024689	0.17360430259270995	FunFams
0.3651147363283716	0.17360430259270995	FunFams
0.3651367438604495	0.17360430259270995	FunFams
0.36586696485498765	0.17360430259270995	FunFams
0.36586696485498765	0.17360430259270995	FunFams
0.3658983239503405	0.17360430259270995	FunFams
0.36696491367016376	0.17165111881852316	FunFams
0.36696491367016376	0.17165111881852316	FunFams
0.36660085576253637	0.16929262825248542	FunFams
0.36660085576253637	0.16929262825248542	FunFams
0.36660085576253637	0.16929262825248542	FunFams
0.3676973469906066	0.16929262825248542	FunFams
0.3676636567907114	0.16915111881852318	FunFams
0.3676664389542609	0.16915111881852318	FunFams
0.3731188478455852	0.16844884882209543	FunFams
0.3731188478455852	0.16844884882209543	FunFams
0.37358313033568685	0.1683101140829167	FunFams
0.3736178887646059	0.16827642136054477	FunFams
0.3736178887646059	0.16827642136054477	FunFams
0.37366917712824765	0.16827642136054477	FunFams
0.37373837667578913	0.16827642136054477	FunFams
0.37399542956442094	0.1674398147321884	FunFams
0.3746113932353968	0.16730198086793946	FunFams
0.3746113932353968	0.16730198086793946	FunFams
0.3764642396371153	0.16730198086793946	FunFams
0.3766671828080776	0.16716324612876074	FunFams
0.3766671828080776	0.16716324612876074	FunFams
0.374895131512061	0.16524697254385506	FunFams
0.371819691464231	0.16495554796004375	FunFams
0.37279589683382414	0.16451333097891166	FunFams
0.37279589683382414	0.16451333097891166	FunFams
0.37279589683382414	0.16451333097891166	FunFams
0.37279589683382414	0.16451333097891166	FunFams
0.37279589683382414	0.16451333097891166	FunFams
0.37279589683382414	0.16451333097891166	FunFams
0.37279589683382414	0.16451333097891166	FunFams
0.37407346998431656	0.16394105017979954	FunFams
0.3742735038361992	0.16394105017979954	FunFams
0.3742735038361992	0.16394105017979954	FunFams
0.3742735038361992	0.16394105017979954	FunFams
0.3742735038361992	0.16394105017979954	FunFams
0.3742735038361992	0.16394105017979954	FunFams
0.3691482387492831	0.15479310900681717	FunFams
0.3691482387492831	0.15479310900681717	FunFams
0.3691482387492831	0.15479310900681717	FunFams
0.3691482387492831	0.15479310900681717	FunFams
0.37035551527979205	0.1547459391954964	FunFams
0.3721067149975781	0.1547459391954964	FunFams
0.3729968896402097	0.15465522801987955	FunFams
0.3720996441447164	0.15430145443497392	FunFams
0.3720996441447164	0.15430145443497392	FunFams
0.37117231650704235	0.15342530834116472	FunFams
0.3686570057730706	0.15234433349839743	FunFams
0.3686672228867359	0.15234433349839743	FunFams
0.36880770212580677	0.15234433349839743	FunFams
0.36976464817947974	0.15190687153856786	FunFams
0.36976464817947974	0.15173288452959788	FunFams
0.36976464817947974	0.15173288452959788	FunFams
0.3701301452555032	0.15173288452959788	FunFams
0.3701301452555032	0.15173288452959788	FunFams
0.36910657154166987	0.15140531639542598	FunFams
0.36983517419610334	0.1513316135652373	FunFams
0.36983517419610334	0.1513316135652373	FunFams
0.36983517419610334	0.1513316135652373	FunFams
0.3708232215300649	0.1499235852682628	FunFams
0.3708232215300649	0.1499235852682628	FunFams
0.3708232215300649	0.1499235852682628	FunFams
0.3730986228294472	0.14868718659212712	FunFams
0.3748446826645595	0.14848171203523744	FunFams
0.3748446826645595	0.14848171203523744	FunFams
0.3745286012366948	0.14769554851322486	FunFams
0.3745286012366948	0.14769554851322486	FunFams
0.37191156609542575	0.146516303230206	FunFams
0.3731007370080582	0.14644693586061666	FunFams
0.3731007370080582	0.14644693586061666	FunFams
0.3731007370080582	0.14644693586061666	FunFams
0.37310146596029137	0.14644693586061666	FunFams
0.37675114496942297	0.14609429074009667	FunFams
0.37675114496942297	0.14609429074009667	FunFams
0.37675114496942297	0.14609429074009667	FunFams
0.37671271564745956	0.14602690529535273	FunFams
0.37671271564745956	0.14602690529535273	FunFams
0.37671271564745956	0.14602690529535273	FunFams
0.37671271564745956	0.14602690529535273	FunFams
0.37671271564745956	0.14602690529535273	FunFams
0.37671271564745956	0.14602690529535273	FunFams
0.3757665830866437	0.1459109139560394	FunFams
0.3757665830866437	0.1459109139560394	FunFams
0.3757665830866437	0.1459109139560394	FunFams
0.3757665830866437	0.1459109139560394	FunFams
0.3757665830866437	0.1459109139560394	FunFams
0.3757665830866437	0.1459109139560394	FunFams
0.3766538682832346	0.14453133356702505	FunFams
0.3766538682832346	0.14453133356702505	FunFams
0.3766538682832346	0.14453133356702505	FunFams
0.3766538682832346	0.14453133356702505	FunFams
0.3766538682832346	0.14453133356702505	FunFams
0.3768016224203505	0.14453133356702505	FunFams
0.37589080144611375	0.144323231458257	FunFams
0.3760822952895867	0.144323231458257	FunFams
0.3761840453913368	0.144323231458257	FunFams
0.3761840453913368	0.144323231458257	FunFams
0.3761840453913368	0.144323231458257	FunFams
0.3761840453913368	0.144323231458257	FunFams
0.37765174289809883	0.14422496101800544	FunFams
0.37765174289809883	0.14422496101800544	FunFams
0.37765174289809883	0.14422496101800544	FunFams
0.38032860586873296	0.14350367986458795	FunFams
0.38032860586873296	0.14350367986458795	FunFams
0.3817845800444468	0.14341296868897113	FunFams
0.3817845800444468	0.14341296868897113	FunFams
0.3817845800444468	0.14341296868897113	FunFams
0.3817845800444468	0.14341296868897113	FunFams
0.38180858153787306	0.14341296868897113	FunFams
0.38273821540514996	0.14341296868897113	FunFams
0.382783981995539	0.14341296868897113	FunFams
0.382783981995539	0.14341296868897113	FunFams
0.382783981995539	0.14341296868897113	FunFams
0.382783981995539	0.14341296868897113	FunFams
0.382783981995539	0.14341296868897113	FunFams
0.382783981995539	0.14341296868897113	FunFams
0.382783981995539	0.14341296868897113	FunFams
0.382783981995539	0.14341296868897113	FunFams
0.382783981995539	0.14341296868897113	FunFams
0.382783981995539	0.14341296868897113	FunFams
0.40285667013972276	0.1328515918128775	FunFams
0.40285667013972276	0.1328515918128775	FunFams
0.40285667013972276	0.1328515918128775	FunFams
0.40285667013972276	0.1328515918128775	FunFams
0.40285667013972276	0.1328515918128775	FunFams
0.40285667013972276	0.1328515918128775	FunFams
0.40285667013972276	0.1328515918128775	FunFams
0.40300216552748375	0.13281355164245753	FunFams
0.40300216552748375	0.13281355164245753	FunFams
0.40690914227166985	0.13281355164245753	FunFams
0.40690914227166985	0.13281355164245753	FunFams
0.40690914227166985	0.13281355164245753	FunFams
0.40690914227166985	0.13281355164245753	FunFams
0.40744581490136567	0.13273984881226886	FunFams
0.40744581490136567	0.13273984881226886	FunFams
0.40744581490136567	0.13273984881226886	FunFams
0.40744581490136567	0.13273984881226886	FunFams
0.4074541168429822	0.13273984881226886	FunFams
0.4074541168429822	0.13273984881226886	FunFams
0.4069674807659879	0.13245354647700283	FunFams
0.4069674807659879	0.13245354647700283	FunFams
0.4069674807659879	0.13245354647700283	FunFams
0.40418329053484237	0.13216429763399817	FunFams
0.40418329053484237	0.13216429763399817	FunFams
0.4056559675028964	0.13200349145904106	FunFams
0.40555110370133673	0.1301840844509548	FunFams
0.40555110370133673	0.1301840844509548	FunFams
0.4056251565545337	0.13014604428053486	FunFams
0.4056251565545337	0.13014604428053486	FunFams
0.4056251565545337	0.13014604428053486	FunFams
0.4039770744844293	0.12986331469356	FunFams
0.4039770744844293	0.12986331469356	FunFams
0.4033241007093703	0.12935792385798045	FunFams
0.4033241007093703	0.12935792385798045	FunFams
0.4033241007093703	0.12935792385798045	FunFams
0.40519031506301384	0.12923999932967856	FunFams
0.40519031506301384	0.12923999932967856	FunFams
0.40519031506301384	0.12923999932967856	FunFams
0.40519031506301384	0.12923999932967856	FunFams
0.4046243380786734	0.12901322139063648	FunFams
0.4046243380786734	0.12901322139063648	FunFams
0.4046243380786734	0.12901322139063648	FunFams
0.4063771147932224	0.1288510408039276	FunFams
0.4063771147932224	0.1288510408039276	FunFams
0.4063771147932224	0.1288510408039276	FunFams
0.4063771147932224	0.1288510408039276	FunFams
0.4063771147932224	0.1288510408039276	FunFams
0.4063771147932224	0.1288510408039276	FunFams
0.40733248454446025	0.12842222433737527	FunFams
0.40914765830675154	0.12821713820119807	FunFams
0.40914765830675154	0.12821713820119807	FunFams
0.4095211278879014	0.128072364784756	FunFams
0.4095211278879014	0.128072364784756	FunFams
0.4095211278879014	0.128072364784756	FunFams
0.4095211278879014	0.128072364784756	FunFams
0.4095211278879014	0.128072364784756	FunFams
0.4095211278879014	0.128072364784756	FunFams
0.4095211278879014	0.128072364784756	FunFams
0.40625822529833466	0.12763014780362394	FunFams
0.40625822529833466	0.12763014780362394	FunFams
0.40625822529833466	0.12763014780362394	FunFams
0.40838436580209875	0.12763014780362394	FunFams
0.40838747093321776	0.12763014780362394	FunFams
0.40838747093321776	0.12763014780362394	FunFams
0.40838747093321776	0.12763014780362394	FunFams
0.40838747093321776	0.12763014780362394	FunFams
0.40838747093321776	0.12763014780362394	FunFams
0.40966678627458875	0.12364119703250741	FunFams
0.40966678627458875	0.12364119703250741	FunFams
0.40966678627458875	0.12364119703250741	FunFams
0.4109257614785392	0.12293645758956041	FunFams
0.4101778659293134	0.12250199880107976	FunFams
0.4101778659293134	0.12250199880107976	FunFams
0.4101778659293134	0.12250199880107976	FunFams
0.4101778659293134	0.12250199880107976	FunFams
0.4101778659293134	0.12250199880107976	FunFams
0.4101778659293134	0.12250199880107976	FunFams
0.4101778659293134	0.12250199880107976	FunFams
0.41201550810242216	0.12226614974447599	FunFams
0.41201550810242216	0.12226614974447599	FunFams
0.41201550810242216	0.12226614974447599	FunFams
0.41201550810242216	0.12226614974447599	FunFams
0.4139515734843798	0.12220408420326447	FunFams
0.4165837836954608	0.12100736861975644	FunFams
0.4165837836954608	0.12100736861975644	FunFams
0.4183878024717315	0.1207546732019667	FunFams
0.4183878024717315	0.1207546732019667	FunFams
0.4183878024717315	0.1207546732019667	FunFams
0.41835839766331584	0.1206405526907068	FunFams
0.41835839766331584	0.1206405526907068	FunFams
0.4185261572713092	0.12058527556806528	FunFams
0.4185492783454747	0.12058527556806528	FunFams
0.4185492783454747	0.12058527556806528	FunFams
0.41856170854987695	0.12058527556806528	FunFams
0.41856170854987695	0.12058527556806528	FunFams
0.4181948557724357	0.12022133213527314	FunFams
0.4181948557724357	0.12022133213527314	FunFams
0.4184768106596537	0.12017597654746473	FunFams
0.4184768106596537	0.12017597654746473	FunFams
0.4184768106596537	0.12017597654746473	FunFams
0.4184768106596537	0.12017597654746473	FunFams
0.4184768106596537	0.12017597654746473	FunFams
0.4153999683880116	0.11918292788808042	FunFams
0.4153999683880116	0.11918292788808042	FunFams
0.4171249550351428	0.11871614329688546	FunFams
0.4171249550351428	0.11871614329688546	FunFams
0.4171249550351428	0.11871614329688546	FunFams
0.4171249550351428	0.11871614329688546	FunFams
0.41710965835790564	0.11869078318327214	FunFams
0.41710965835790564	0.11869078318327214	FunFams
0.41710965835790564	0.11869078318327214	FunFams
0.41846540047975794	0.11770246332702776	FunFams
0.41892711721613163	0.11727364686047545	FunFams
0.41892711721613163	0.11727364686047545	FunFams
0.41892711721613163	0.11727364686047545	FunFams
0.41892711721613163	0.11727364686047545	FunFams
0.41892711721613163	0.11727364686047545	FunFams
0.419155326578085	0.11707149052624363	FunFams
0.419155326578085	0.11707149052624363	FunFams
0.419155326578085	0.11707149052624363	FunFams
0.419155326578085	0.11707149052624363	FunFams
0.42007259171415784	0.11678561288187543	FunFams
0.42041460114117574	0.11654976382527166	FunFams
0.42048459455356046	0.11650910019482275	FunFams
0.42048459455356046	0.11650910019482275	FunFams
0.42048459455356046	0.11650910019482275	FunFams
0.42048459455356046	0.11650910019482275	FunFams
0.42048459455356046	0.11650910019482275	FunFams
0.42336283389134893	0.11604720360085068	FunFams
0.42336283389134893	0.11604720360085068	FunFams
0.42336283389134893	0.11604720360085068	FunFams
0.4245402279258858	0.11604720360085068	FunFams
0.4245402279258858	0.11604720360085068	FunFams
0.4241034527195254	0.11583910149208262	FunFams
0.4241034527195254	0.11583910149208262	FunFams
0.4241034527195254	0.11583910149208262	FunFams
0.4241034527195254	0.11583910149208262	FunFams
0.4241034527195254	0.11583910149208262	FunFams
0.4241034527195254	0.11583910149208262	FunFams
0.4204534092433382	0.11492298133506734	FunFams
0.4208367833630471	0.11492298133506734	FunFams
0.4208367833630471	0.11492298133506734	FunFams
0.4208367833630471	0.11492298133506734	FunFams
0.4231345078438885	0.11481577721842927	FunFams
0.4249397285581001	0.11393134325616512	FunFams
0.42456064984786723	0.1137686887343694	FunFams
0.42456064984786723	0.1137686887343694	FunFams
0.42461745989859323	0.1137686887343694	FunFams
0.42363200189813716	0.1126052640795025	FunFams
0.423697738808907	0.11244148001241655	FunFams
0.423697738808907	0.11244148001241655	FunFams
0.423697738808907	0.11244148001241655	FunFams
0.423697738808907	0.11244148001241655	FunFams
0.42755339277647014	0.11184562457342818	FunFams
0.42755339277647014	0.11184562457342818	FunFams
0.42755339277647014	0.11184562457342818	FunFams
0.42759183120283617	0.11184562457342818	FunFams
0.42759183120283617	0.11184562457342818	FunFams
0.42759183120283617	0.11184562457342818	FunFams
0.42759183120283617	0.11184562457342818	FunFams
0.42759183120283617	0.11184562457342818	FunFams
0.42759183120283617	0.11184562457342818	FunFams
0.4273653819274738	0.11176429731253032	FunFams
0.4278811899007254	0.11162556257335163	FunFams
0.4278811899007254	0.11162556257335163	FunFams
0.4278811899007254	0.11162556257335163	FunFams
0.4278811899007254	0.11162556257335163	FunFams
0.41274103701080506	0.09858759759580189	FunFams
0.41274103701080506	0.09858759759580189	FunFams
0.41274103701080506	0.09858759759580189	FunFams
0.4127750006132636	0.09858759759580189	FunFams
0.4127750006132636	0.09858759759580189	FunFams
0.4127750006132636	0.09858759759580189	FunFams
0.4127750006132636	0.09858759759580189	FunFams
0.4127750006132636	0.09858759759580189	FunFams
0.4127750006132636	0.09858759759580189	FunFams
0.4127750006132636	0.09858759759580189	FunFams
0.41299288032714854	0.09858759759580189	FunFams
0.41299288032714854	0.09858759759580189	FunFams
0.41299288032714854	0.09858759759580189	FunFams
0.41299288032714854	0.09858759759580189	FunFams
0.41299288032714854	0.09858759759580189	FunFams
0.41299288032714854	0.09858759759580189	FunFams
0.41299288032714854	0.09858759759580189	FunFams
0.41299288032714854	0.09858759759580189	FunFams
0.4131690030577554	0.09848932715555031	FunFams
0.4133300020488283	0.09848932715555031	FunFams
0.4074028087265471	0.097765331847274	FunFams
0.4074028087265471	0.097765331847274	FunFams
0.4074028087265471	0.097765331847274	FunFams
0.4074028087265471	0.097765331847274	FunFams
0.4074028087265471	0.097765331847274	FunFams
0.4081796532753832	0.09771908693421442	FunFams
0.4081796532753832	0.09771908693421442	FunFams
0.4081796532753832	0.09771908693421442	FunFams
0.4081796532753832	0.09771908693421442	FunFams
0.4081796532753832	0.09771908693421442	FunFams
0.4081796532753832	0.09771908693421442	FunFams
0.4081796532753832	0.09771908693421442	FunFams
0.41052361033872803	0.09760347465156552	FunFams
0.41052361033872803	0.09760347465156552	FunFams
0.41052361033872803	0.09760347465156552	FunFams
0.4104933879376519	0.09737050180296912	FunFams
0.4104933879376519	0.09737050180296912	FunFams
0.4104933879376519	0.09737050180296912	FunFams
0.4101693784033711	0.0927832880471233	FunFams
0.4101693784033711	0.0927832880471233	FunFams
0.4101693784033711	0.0927832880471233	FunFams
0.4101693784033711	0.0927832880471233	FunFams
0.4061015810130495	0.09160404276410443	FunFams
0.40861979851404595	0.09156337913365549	FunFams
0.408725788203369	0.09156337913365549	FunFams
0.4101138897101948	0.0901212680290349	FunFams
0.4101138897101948	0.0901212680290349	FunFams
0.4101138897101948	0.0901212680290349	FunFams
0.4101138897101948	0.0901212680290349	FunFams
0.4101138897101948	0.0901212680290349	FunFams
0.4101138897101948	0.0901212680290349	FunFams
0.4119959794767656	0.09002299758878334	FunFams
0.4119959794767656	0.09002299758878334	FunFams
0.4119959794767656	0.09002299758878334	FunFams
0.41497915631557625	0.0899247271485318	FunFams
0.41426404810657275	0.08937441268312296	FunFams
0.41426404810657275	0.08937441268312296	FunFams
0.41426404810657275	0.08937441268312296	FunFams
0.41426404810657275	0.08937441268312296	FunFams
0.41426404810657275	0.08937441268312296	FunFams
0.4171033013797333	0.08913856362651919	FunFams
0.4171033013797333	0.08913856362651919	FunFams
0.417380003095284	0.08913856362651919	FunFams
0.4178804053417052	0.08913856362651919	FunFams
0.4178804053417052	0.08913856362651919	FunFams
0.4178820823217994	0.08913856362651919	FunFams
0.4178820823217994	0.08913856362651919	FunFams
0.4178820823217994	0.08913856362651919	FunFams
0.4178820823217994	0.08913856362651919	FunFams
0.41587225059575916	0.08853159914261241	FunFams
0.41587225059575916	0.08853159914261241	FunFams
0.41397958924197853	0.08602797069558776	FunFams
0.41397958924197853	0.08602797069558776	FunFams
0.41410457775406384	0.08602797069558776	FunFams
0.41410457775406384	0.08602797069558776	FunFams
0.41410457775406384	0.08602797069558776	FunFams
0.41410457775406384	0.08602797069558776	FunFams
0.41410457775406384	0.08602797069558776	FunFams
0.41410457775406384	0.08602797069558776	FunFams
0.41410457775406384	0.08602797069558776	FunFams
0.41410457775406384	0.08602797069558776	FunFams
0.41410457775406384	0.08602797069558776	FunFams
0.41410457775406384	0.08602797069558776	FunFams
0.4097322238567061	0.08484872541256887	FunFams
0.4097322238567061	0.08484872541256887	FunFams
0.4097322238567061	0.08484872541256887	FunFams
0.4087551538129028	0.08393749042114519	FunFams
0.40984142039203114	0.08323901436889555	FunFams
0.40984142039203114	0.08323901436889555	FunFams
0.40984142039203114	0.08323901436889555	FunFams
0.4156338525006265	0.0831179865635331	FunFams
0.4156338525006265	0.0831179865635331	FunFams
0.41606120292797694	0.0831179865635331	FunFams
0.41606120292797694	0.0831179865635331	FunFams
0.41606120292797694	0.0831179865635331	FunFams
0.42099965922372656	0.08267998117269754	FunFams
0.42099965922372656	0.08267998117269754	FunFams
0.42099965922372656	0.08267998117269754	FunFams
0.42099965922372656	0.08267998117269754	FunFams
0.42099965922372656	0.08267998117269754	FunFams
0.4283506604459585	0.08087121536141056	FunFams
0.4283506604459585	0.08087121536141056	FunFams
0.4283506604459585	0.08087121536141056	FunFams
0.4283506604459585	0.08087121536141056	FunFams
0.4283506604459585	0.08087121536141056	FunFams
0.4283506604459585	0.08087121536141056	FunFams
0.4277633707774827	0.08078050418579374	FunFams
0.42468703499878424	0.07960125890277488	FunFams
0.4301522442763102	0.07944964165210101	FunFams
0.4301522442763102	0.07944964165210101	FunFams
0.4301522442763102	0.07944964165210101	FunFams
0.4301522442763102	0.07944964165210101	FunFams
0.4301522442763102	0.07944964165210101	FunFams
0.4301522442763102	0.07944964165210101	FunFams
0.4301522442763102	0.07944964165210101	FunFams
0.4301522442763102	0.07944964165210101	FunFams
0.4301522442763102	0.07944964165210101	FunFams
0.4301522442763102	0.07944964165210101	FunFams
0.4301522442763102	0.07944964165210101	FunFams
0.4301522442763102	0.07944964165210101	FunFams
0.4301522442763102	0.07944964165210101	FunFams
0.4301522442763102	0.07944964165210101	FunFams
0.42873684631194614	0.07894425081652152	FunFams
0.42873684631194614	0.07894425081652152	FunFams
0.42873684631194614	0.07894425081652152	FunFams
0.43009352975606	0.07796651562545705	FunFams
0.43009352975606	0.07796651562545705	FunFams
0.43009352975606	0.07796651562545705	FunFams
0.43009352975606	0.07796651562545705	FunFams
0.43009352975606	0.07796651562545705	FunFams
0.43350298528129966	0.0777699747449539	FunFams
0.43350298528129966	0.0777699747449539	FunFams
0.43350298528129966	0.0777699747449539	FunFams
0.43350298528129966	0.0777699747449539	FunFams
0.43350298528129966	0.0777699747449539	FunFams
0.43350298528129966	0.0777699747449539	FunFams
0.43350298528129966	0.0777699747449539	FunFams
0.43350298528129966	0.0777699747449539	FunFams
0.43350298528129966	0.0777699747449539	FunFams
0.43350298528129966	0.0777699747449539	FunFams
0.43350298528129966	0.0777699747449539	FunFams
0.43350298528129966	0.0777699747449539	FunFams
0.431510133303647	0.07771512612713906	FunFams
0.431510133303647	0.07771512612713906	FunFams
0.431510133303647	0.07771512612713906	FunFams
0.4339521357456495	0.07771512612713906	FunFams
0.43669840747289973	0.07739351377722484	FunFams
0.43669840747289973	0.07739351377722484	FunFams
0.43669840747289973	0.07739351377722484	FunFams
0.43669840747289973	0.07739351377722484	FunFams
0.43856341777942737	0.07705658655350517	FunFams
0.43856341777942737	0.07705658655350517	FunFams
0.43856341777942737	0.07705658655350517	FunFams
0.4367713675594474	0.07676177523275045	FunFams
0.4367713675594474	0.07676177523275045	FunFams
0.4367713675594474	0.07676177523275045	FunFams
0.4367713675594474	0.07676177523275045	FunFams
0.4367713675594474	0.07676177523275045	FunFams
0.4367713675594474	0.07676177523275045	FunFams
0.4367713675594474	0.07676177523275045	FunFams
0.4367713675594474	0.07676177523275045	FunFams
0.4367713675594474	0.07676177523275045	FunFams
0.4367713675594474	0.07676177523275045	FunFams
0.4367713675594474	0.07676177523275045	FunFams
0.4367713675594474	0.07676177523275045	FunFams
0.4367713675594474	0.07676177523275045	FunFams
0.44421162207989684	0.0702855080346858	FunFams
0.44421162207989684	0.0702855080346858	FunFams
0.44421162207989684	0.0702855080346858	FunFams
0.44421162207989684	0.0702855080346858	FunFams
0.44421162207989684	0.0702855080346858	FunFams
0.44421162207989684	0.0702855080346858	FunFams
0.44421162207989684	0.0702855080346858	FunFams
0.44421162207989684	0.0702855080346858	FunFams
0.44421162207989684	0.0702855080346858	FunFams
0.44421162207989684	0.0702855080346858	FunFams
0.44709604974734685	0.0699906967139311	FunFams
0.44709604974734685	0.0699906967139311	FunFams
0.44709604974734685	0.0699906967139311	FunFams
0.44709604974734685	0.0699906967139311	FunFams
0.44709604974734685	0.0699906967139311	FunFams
0.44709604974734685	0.0699906967139311	FunFams
0.44709604974734685	0.0699906967139311	FunFams
0.44709604974734685	0.0699906967139311	FunFams
0.44709604974734685	0.0699906967139311	FunFams
0.44709604974734685	0.0699906967139311	FunFams
0.44709604974734685	0.0699906967139311	FunFams
0.4511267037052414	0.06979415583342795	FunFams
0.4511267037052414	0.06979415583342795	FunFams
0.4553153900971325	0.06968695171678987	FunFams
0.4553153900971325	0.06968695171678987	FunFams
0.4553153900971325	0.06968695171678987	FunFams
0.45925246325952224	0.0696522680319952	FunFams
0.45925246325952224	0.0696522680319952	FunFams
0.45925246325952224	0.0696522680319952	FunFams
0.45925246325952224	0.0696522680319952	FunFams
0.45925246325952224	0.0696522680319952	FunFams
0.45925246325952224	0.0696522680319952	FunFams
0.45925246325952224	0.0696522680319952	FunFams
0.45925246325952224	0.0696522680319952	FunFams
0.46266320268053773	0.06906264539048577	FunFams
0.46266320268053773	0.06906264539048577	FunFams
0.46266320268053773	0.06906264539048577	FunFams
0.4648556068318835	0.06862818660200513	FunFams
0.4648556068318835	0.06862818660200513	FunFams
0.4648556068318835	0.06862818660200513	FunFams
0.4648556068318835	0.06862818660200513	FunFams
0.4648556068318835	0.06862818660200513	FunFams
0.4648556068318835	0.06862818660200513	FunFams
0.4675974361804249	0.06862818660200513	FunFams
0.4772030912921527	0.06852098248536705	FunFams
0.4772030912921527	0.06852098248536705	FunFams
0.4772030912921527	0.06852098248536705	FunFams
0.4772030912921527	0.06852098248536705	FunFams
0.4706634187118842	0.06800548383307595	FunFams
0.4706634187118842	0.06800548383307595	FunFams
0.4706634187118842	0.06800548383307595	FunFams
0.4706634187118842	0.06800548383307595	FunFams
0.4706634187118842	0.06800548383307595	FunFams
0.4650321784854149	0.06728483393789775	FunFams
0.4650321784854149	0.06728483393789775	FunFams
0.4650321784854149	0.06728483393789775	FunFams
0.46524709359394695	0.06728483393789775	FunFams
0.46524709359394695	0.06728483393789775	FunFams
0.46524709359394695	0.06728483393789775	FunFams
0.46524709359394695	0.06728483393789775	FunFams
0.46524709359394695	0.06728483393789775	FunFams
0.47428589202878507	0.06711211619442528	FunFams
0.47428589202878507	0.06711211619442528	FunFams
0.47428589202878507	0.06711211619442528	FunFams
0.47440535640111964	0.06676202775102906	FunFams
0.47440535640111964	0.06676202775102906	FunFams
0.47440535640111964	0.06676202775102906	FunFams
0.47440535640111964	0.06676202775102906	FunFams
0.47440535640111964	0.06676202775102906	FunFams
0.47440535640111964	0.06676202775102906	FunFams
0.47440535640111964	0.06676202775102906	FunFams
0.47440535640111964	0.06676202775102906	FunFams
0.47331947064098134	0.06622243369728406	FunFams
0.47358318793604104	0.06622243369728406	FunFams
0.47358318793604104	0.06622243369728406	FunFams
0.47358318793604104	0.06622243369728406	FunFams
0.47389488500174776	0.0650431884142652	FunFams
0.47389488500174776	0.0650431884142652	FunFams
0.47389488500174776	0.0650431884142652	FunFams
0.47389488500174776	0.0650431884142652	FunFams
0.47389488500174776	0.0650431884142652	FunFams
0.47389488500174776	0.0650431884142652	FunFams
0.47389488500174776	0.0650431884142652	FunFams
0.47389488500174776	0.0650431884142652	FunFams
0.4606118110530488	0.05505149003261345	FunFams
0.4606118110530488	0.05505149003261345	FunFams
0.4606118110530488	0.05505149003261345	FunFams
0.46242165661289436	0.05505149003261345	FunFams
0.46242165661289436	0.05505149003261345	FunFams
0.46242165661289436	0.05505149003261345	FunFams
0.46242165661289436	0.05505149003261345	FunFams
0.46242165661289436	0.05505149003261345	FunFams
0.46242165661289436	0.05505149003261345	FunFams
0.46242165661289436	0.05505149003261345	FunFams
0.46242165661289436	0.05505149003261345	FunFams
0.46242165661289436	0.05505149003261345	FunFams
0.46242165661289436	0.05505149003261345	FunFams
0.46242165661289436	0.05505149003261345	FunFams
0.46466843279639736	0.05455120415496908	FunFams
0.46466843279639736	0.05455120415496908	FunFams
0.46466843279639736	0.05455120415496908	FunFams
0.46466843279639736	0.05455120415496908	FunFams
0.46466843279639736	0.05455120415496908	FunFams
0.47524076710191987	0.05320127863361853	FunFams
0.4722943116988936	0.0499646266866093	FunFams
0.4722943116988936	0.0499646266866093	FunFams
0.4722943116988936	0.0499646266866093	FunFams
0.4722943116988936	0.0499646266866093	FunFams
0.4722943116988936	0.0499646266866093	FunFams
0.4722943116988936	0.0499646266866093	FunFams
0.4722943116988936	0.0499646266866093	FunFams
0.4877561409250619	0.04978212444042781	FunFams
0.4877561409250619	0.04978212444042781	FunFams
0.4877561409250619	0.04978212444042781	FunFams
0.4877561409250619	0.04978212444042781	FunFams
0.49357912229152145	0.04978212444042781	FunFams
0.49357912229152145	0.04978212444042781	FunFams
0.49357912229152145	0.04978212444042781	FunFams
0.49357912229152145	0.04978212444042781	FunFams
0.49357912229152145	0.04978212444042781	FunFams
0.49357912229152145	0.04978212444042781	FunFams
0.49357912229152145	0.04978212444042781	FunFams
0.49357912229152145	0.04978212444042781	FunFams
0.49218858513660846	0.04939706475617675	FunFams
0.49207138048136045	0.04894945875090185	FunFams
0.49207138048136045	0.04894945875090185	FunFams
0.49207138048136045	0.04894945875090185	FunFams
0.49207138048136045	0.04894945875090185	FunFams
0.49207138048136045	0.04894945875090185	FunFams
0.49207138048136045	0.04894945875090185	FunFams
0.49207138048136045	0.04894945875090185	FunFams
0.49207138048136045	0.04894945875090185	FunFams
0.49207138048136045	0.04894945875090185	FunFams
0.49207138048136045	0.04894945875090185	FunFams
0.5020958993016995	0.047739180697277214	FunFams
0.5020958993016995	0.047739180697277214	FunFams
0.5020958993016995	0.047739180697277214	FunFams
0.5020958993016995	0.047739180697277214	FunFams
0.5020958993016995	0.047739180697277214	FunFams
0.5020958993016995	0.047739180697277214	FunFams
0.5020958993016995	0.047739180697277214	FunFams
0.5020958993016995	0.047739180697277214	FunFams
0.5020958993016995	0.047739180697277214	FunFams
0.5020958993016995	0.047739180697277214	FunFams
0.5020958993016995	0.047739180697277214	FunFams
0.5020958993016995	0.047739180697277214	FunFams
0.5020958993016995	0.047739180697277214	FunFams
0.5039659396243162	0.04758321599855537	FunFams
0.5039659396243162	0.04758321599855537	FunFams
0.5039659396243162	0.04758321599855537	FunFams
0.5039659396243162	0.04758321599855537	FunFams
0.5039659396243162	0.04758321599855537	FunFams
0.5070339587158663	0.04613768952259675	FunFams
0.5070339587158663	0.04613768952259675	FunFams
0.5070339587158663	0.04613768952259675	FunFams
0.5070339587158663	0.04613768952259675	FunFams
0.5070339587158663	0.04613768952259675	FunFams
0.5070339587158663	0.04613768952259675	FunFams
0.5070339587158663	0.04613768952259675	FunFams
0.5070339587158663	0.04613768952259675	FunFams
0.5070339587158663	0.04613768952259675	FunFams
0.5070339587158663	0.04613768952259675	FunFams
0.5070339587158663	0.04613768952259675	FunFams
0.5070339587158663	0.04613768952259675	FunFams
0.5070339587158663	0.04613768952259675	FunFams
0.5070339587158663	0.04613768952259675	FunFams
0.5070339587158663	0.04613768952259675	FunFams
0.5061234721444879	0.04490359562176305	FunFams
0.5061234721444879	0.04490359562176305	FunFams
0.5061234721444879	0.04490359562176305	FunFams
0.5061234721444879	0.04490359562176305	FunFams
0.5068095334545273	0.04486555545134308	FunFams
0.5068095334545273	0.04486555545134308	FunFams
0.5068095334545273	0.04486555545134308	FunFams
0.5068095334545273	0.04486555545134308	FunFams
0.5068095334545273	0.04486555545134308	FunFams
0.5063990732761144	0.04407136985257527	FunFams
0.5063990732761144	0.04407136985257527	FunFams
0.5063990732761144	0.04407136985257527	FunFams
0.5063990732761144	0.04407136985257527	FunFams
0.5063990732761144	0.04407136985257527	FunFams
0.5063990732761144	0.04407136985257527	FunFams
0.5063990732761144	0.04407136985257527	FunFams
0.5063990732761144	0.04407136985257527	FunFams
0.5137899506157957	0.04383552079597151	FunFams
0.5137899506157957	0.04383552079597151	FunFams
0.5137899506157957	0.04383552079597151	FunFams
0.5137899506157957	0.04383552079597151	FunFams
0.5056864497927255	0.04265627551295264	FunFams
0.5056864497927255	0.04265627551295264	FunFams
0.5056864497927255	0.04265627551295264	FunFams
0.5145421067795516	0.04202453696847826	FunFams
0.5145421067795516	0.04202453696847826	FunFams
0.5145421067795516	0.04202453696847826	FunFams
0.5145421067795516	0.04202453696847826	FunFams
0.5145421067795516	0.04202453696847826	FunFams
0.5145421067795516	0.04202453696847826	FunFams
0.5145421067795516	0.04202453696847826	FunFams
0.5145421067795516	0.04202453696847826	FunFams
0.5145421067795516	0.04202453696847826	FunFams
0.5145421067795516	0.04202453696847826	FunFams
0.5145421067795516	0.04202453696847826	FunFams
0.5145421067795516	0.04202453696847826	FunFams
0.5145421067795516	0.04202453696847826	FunFams
0.5145421067795516	0.04202453696847826	FunFams
0.5145421067795516	0.04202453696847826	FunFams
0.5145421067795516	0.04202453696847826	FunFams
0.5145421067795516	0.04202453696847826	FunFams
0.5145421067795516	0.04202453696847826	FunFams
0.5145421067795516	0.04202453696847826	FunFams
0.5145421067795516	0.04202453696847826	FunFams
0.5145421067795516	0.04202453696847826	FunFams
0.5145421067795516	0.04202453696847826	FunFams
0.5145421067795516	0.04202453696847826	FunFams
0.5145421067795516	0.04202453696847826	FunFams
0.5145421067795516	0.04202453696847826	FunFams
0.5145421067795516	0.04202453696847826	FunFams
0.5159344510954851	0.04184701617318509	FunFams
0.5159344510954851	0.04184701617318509	FunFams
0.5159344510954851	0.04184701617318509	FunFams
0.5159344510954851	0.04184701617318509	FunFams
0.5159344510954851	0.04184701617318509	FunFams
0.5075884933557521	0.040667770890166224	FunFams
0.5075884933557521	0.040667770890166224	FunFams
0.5075884933557521	0.040667770890166224	FunFams
0.5075884933557521	0.040667770890166224	FunFams
0.5075884933557521	0.040667770890166224	FunFams
0.5075884933557521	0.040667770890166224	FunFams
0.5075884933557521	0.040667770890166224	FunFams
0.5075884933557521	0.040667770890166224	FunFams
0.5075884933557521	0.040667770890166224	FunFams
0.5075884933557521	0.040667770890166224	FunFams
0.5075884933557521	0.040667770890166224	FunFams
0.5075884933557521	0.040667770890166224	FunFams
0.5162181735895821	0.03893821114173855	FunFams
0.5162181735895821	0.03893821114173855	FunFams
0.5162181735895821	0.03893821114173855	FunFams
0.5162181735895821	0.03893821114173855	FunFams
0.5162181735895821	0.03893821114173855	FunFams
0.5162181735895821	0.03893821114173855	FunFams
0.5195186489460198	0.038540057358009604	FunFams
0.5195186489460198	0.038540057358009604	FunFams
0.5195186489460198	0.038540057358009604	FunFams
0.5195186489460198	0.038540057358009604	FunFams
0.5195186489460198	0.038540057358009604	FunFams
0.5195186489460198	0.038540057358009604	FunFams
0.5195186489460198	0.038540057358009604	FunFams
0.5195186489460198	0.038540057358009604	FunFams
0.5195186489460198	0.038540057358009604	FunFams
0.5195186489460198	0.038540057358009604	FunFams
0.5106208461487239	0.037360812074990736	FunFams
0.5106208461487239	0.037360812074990736	FunFams
0.5106208461487239	0.037360812074990736	FunFams
0.5106208461487239	0.037360812074990736	FunFams
0.5106208461487239	0.037360812074990736	FunFams
0.5106208461487239	0.037360812074990736	FunFams
0.5106208461487239	0.037360812074990736	FunFams
0.5106208461487239	0.037360812074990736	FunFams
0.5106208461487239	0.037360812074990736	FunFams
0.5106208461487239	0.037360812074990736	FunFams
0.5106208461487239	0.037360812074990736	FunFams
0.5104283786929056	0.03610295043977061	FunFams
0.5171688044189102	0.035945717735368095	FunFams
0.5171688044189102	0.035945717735368095	FunFams
0.5171688044189102	0.035945717735368095	FunFams
0.5171688044189102	0.035945717735368095	FunFams
0.5171688044189102	0.035945717735368095	FunFams
0.5171688044189102	0.035945717735368095	FunFams
0.5171688044189102	0.035945717735368095	FunFams
0.5171688044189102	0.035945717735368095	FunFams
0.5171688044189102	0.035945717735368095	FunFams
0.5171688044189102	0.035945717735368095	FunFams
0.5171688044189102	0.035945717735368095	FunFams
0.5171688044189102	0.035945717735368095	FunFams
0.5171688044189102	0.035945717735368095	FunFams
0.5171688044189102	0.035945717735368095	FunFams
0.5171688044189102	0.035945717735368095	FunFams
0.5171688044189102	0.035945717735368095	FunFams
0.5171688044189102	0.035945717735368095	FunFams
0.5171688044189102	0.035945717735368095	FunFams
0.5171688044189102	0.035945717735368095	FunFams
0.5171688044189102	0.035945717735368095	FunFams
0.5171688044189102	0.035945717735368095	FunFams
0.5171688044189102	0.035945717735368095	FunFams
0.5171688044189102	0.035945717735368095	FunFams
0.5171688044189102	0.035945717735368095	FunFams
0.5171688044189102	0.035945717735368095	FunFams
0.5171688044189102	0.035945717735368095	FunFams
0.5171688044189102	0.035945717735368095	FunFams
0.5171688044189102	0.035945717735368095	FunFams
0.5171688044189102	0.035945717735368095	FunFams
0.5171688044189102	0.035945717735368095	FunFams
0.5171688044189102	0.035945717735368095	FunFams
0.5171688044189102	0.035945717735368095	FunFams
0.5171688044189102	0.035945717735368095	FunFams
0.5171688044189102	0.035945717735368095	FunFams
0.5171688044189102	0.035945717735368095	FunFams
0.5171688044189102	0.035945717735368095	FunFams
0.5171688044189102	0.035945717735368095	FunFams
0.5171688044189102	0.035945717735368095	FunFams
0.517928847173955	0.035192311026772706	FunFams
0.517928847173955	0.035192311026772706	FunFams
0.517928847173955	0.035192311026772706	FunFams
0.517928847173955	0.035192311026772706	FunFams
0.5188949821102783	0.03424891480035761	FunFams
0.5188949821102783	0.03424891480035761	FunFams
0.5188949821102783	0.03424891480035761	FunFams
0.5188949821102783	0.03424891480035761	FunFams
0.5188949821102783	0.03424891480035761	FunFams
0.5188949821102783	0.03424891480035761	FunFams
0.5188949821102783	0.03424891480035761	FunFams
0.5188949821102783	0.03424891480035761	FunFams
0.5188949821102783	0.03424891480035761	FunFams
0.5188949821102783	0.03424891480035761	FunFams
0.5188949821102783	0.03424891480035761	FunFams
0.5188949821102783	0.03424891480035761	FunFams
0.5188949821102783	0.03424891480035761	FunFams
0.5188949821102783	0.03424891480035761	FunFams
0.5188949821102783	0.03424891480035761	FunFams
0.5188949821102783	0.03424891480035761	FunFams
0.5188949821102783	0.03424891480035761	FunFams
0.5188949821102783	0.03424891480035761	FunFams
0.5188949821102783	0.03424891480035761	FunFams
0.5188949821102783	0.03424891480035761	FunFams
0.5188949821102783	0.03424891480035761	FunFams
0.5188949821102783	0.03424891480035761	FunFams
0.5188949821102783	0.03424891480035761	FunFams
0.5188949821102783	0.03424891480035761	FunFams
0.5188949821102783	0.03424891480035761	FunFams
0.5188949821102783	0.03424891480035761	FunFams
0.5188949821102783	0.03424891480035761	FunFams
0.5188949821102783	0.03424891480035761	FunFams
0.5188949821102783	0.03424891480035761	FunFams
