0.10571145845831811	0.9229405157491922	DeepGOPlus	0.0
0.10571145845831811	0.9229405157491922	DeepGOPlus	0.0
0.10571145845831811	0.9229405157491922	DeepGOPlus	0.0
0.10571145845831811	0.9229405157491922	DeepGOPlus	0.0
0.10572552023303679	0.9229405157491922	DeepGOPlus	0.004
0.10576269335971043	0.9229405157491922	DeepGOPlus	0.005
0.11018659021075772	0.9200549608453649	DeepGOPlus	0.006
0.11794383864289047	0.9157102045365839	DeepGOPlus	0.007
0.12573059582546198	0.9117051230843505	DeepGOPlus	0.008
0.13275958403684318	0.9089582321287735	DeepGOPlus	0.009
0.13976574477543152	0.9054281557337152	DeepGOPlus	0.01
0.14570136992490548	0.9010761732749466	DeepGOPlus	0.011
0.1520636443493411	0.8979405023787154	DeepGOPlus	0.012
0.1583173477976991	0.8946608304557594	DeepGOPlus	0.013
0.16380109573860666	0.8928557492120056	DeepGOPlus	0.014
0.16937712992610038	0.889473631913783	DeepGOPlus	0.015
0.17421621043679264	0.886808927357058	DeepGOPlus	0.016
0.17917546135951176	0.8846046588719298	DeepGOPlus	0.017
0.1840895753460333	0.8829229992568303	DeepGOPlus	0.018
0.18886939032898947	0.8794256242530549	DeepGOPlus	0.019
0.19410559389681203	0.8779521736576631	DeepGOPlus	0.02
0.19863063365993025	0.8762546580441763	DeepGOPlus	0.021
0.20313671165944155	0.8738874997236746	DeepGOPlus	0.022
0.20731015254259577	0.8709215020760973	DeepGOPlus	0.023
0.21159723384546342	0.8697470104708515	DeepGOPlus	0.024
0.21589683675912794	0.8681249400989508	DeepGOPlus	0.025
0.21973966863318542	0.8652606072353303	DeepGOPlus	0.026
0.22385420676824783	0.8629866446879308	DeepGOPlus	0.027
0.22783051457487957	0.8606716578757502	DeepGOPlus	0.028
0.23261371024219415	0.8589192390642015	DeepGOPlus	0.029
0.23630566355832797	0.857612285859752	DeepGOPlus	0.03
0.2401644753385841	0.8566369339063094	DeepGOPlus	0.031
0.24423961351002202	0.8556984734978712	DeepGOPlus	0.032
0.24731418199594243	0.854781928836905	DeepGOPlus	0.033
0.25118820161451527	0.851938621528875	DeepGOPlus	0.034
0.2547273975222669	0.850905070866999	DeepGOPlus	0.035
0.25840822477536435	0.8502341164772406	DeepGOPlus	0.036
0.2616491985999458	0.8486486397631283	DeepGOPlus	0.037
0.2651024931881356	0.847303604213508	DeepGOPlus	0.038
0.26807324178904945	0.8461167557330942	DeepGOPlus	0.039
0.27076143754842047	0.8451012583601418	DeepGOPlus	0.04
0.2735401029756371	0.8434854209300726	DeepGOPlus	0.041
0.276050959294895	0.8419668911664899	DeepGOPlus	0.042
0.279058569672738	0.8415577026352357	DeepGOPlus	0.043
0.28275852660511297	0.839632093059115	DeepGOPlus	0.044
0.28603025060512727	0.83810568211369	DeepGOPlus	0.045
0.28899899298132165	0.8359744722730656	DeepGOPlus	0.046
0.29182275534060553	0.834906127359038	DeepGOPlus	0.047
0.29481519754563823	0.8335007252494105	DeepGOPlus	0.048
0.29790541978560664	0.8330799151455018	DeepGOPlus	0.049
0.30060796531367023	0.8322386617220886	DeepGOPlus	0.05
0.30317312473808394	0.8295989057391158	DeepGOPlus	0.051
0.30544061041938086	0.8285759478990352	DeepGOPlus	0.052
0.3079931425743801	0.8257582802563036	DeepGOPlus	0.053
0.3106028962549502	0.8247580619222576	DeepGOPlus	0.054
0.3131244641851682	0.8237777068573958	DeepGOPlus	0.055
0.31596187095756584	0.8215790769299598	DeepGOPlus	0.056
0.3190344148492328	0.8190335125223479	DeepGOPlus	0.057
0.3214435847815495	0.8183500602348266	DeepGOPlus	0.058
0.32437176025482706	0.8166479752972172	DeepGOPlus	0.059
0.3275681273987056	0.814692044556075	DeepGOPlus	0.06
0.32958887886392235	0.8133026451704967	DeepGOPlus	0.061
0.3325167683764289	0.8125492928913229	DeepGOPlus	0.062
0.3345620074508986	0.8120196047226429	DeepGOPlus	0.063
0.3372045343287666	0.8102200415960382	DeepGOPlus	0.064
0.3392390363623725	0.809460590481705	DeepGOPlus	0.065
0.34261748382420665	0.8055551193989007	DeepGOPlus	0.066
0.3454736687550298	0.804698635130836	DeepGOPlus	0.067
0.34771079846304354	0.8038568068752496	DeepGOPlus	0.068
0.349109000754157	0.8023606391151645	DeepGOPlus	0.069
0.35228106984656476	0.8002941465927788	DeepGOPlus	0.07
0.35536409973916244	0.7999749002263682	DeepGOPlus	0.071
0.35738455106409595	0.798342396637683	DeepGOPlus	0.072
0.3591787121252641	0.7962504538094125	DeepGOPlus	0.073
0.36188771215263543	0.7955520848011841	DeepGOPlus	0.074
0.36382855056824115	0.7932848274457958	DeepGOPlus	0.075
0.3664326972629494	0.7923499448207721	DeepGOPlus	0.076
0.3694772679191986	0.7901353898913774	DeepGOPlus	0.077
0.37217924872150315	0.789092290597483	DeepGOPlus	0.078
0.374810963903858	0.7882279100320894	DeepGOPlus	0.079
0.37677072268911976	0.7875218857358969	DeepGOPlus	0.08
0.3803153303817504	0.7856059599133736	DeepGOPlus	0.081
0.38236642409162624	0.7845221558660217	DeepGOPlus	0.082
0.3850563403365501	0.7822514465901234	DeepGOPlus	0.083
0.3873791940366249	0.7816146162690707	DeepGOPlus	0.084
0.3894610788321852	0.7802548110439658	DeepGOPlus	0.085
0.390865643644405	0.7791318570258629	DeepGOPlus	0.086
0.3941274657333517	0.7775139252170343	DeepGOPlus	0.087
0.3953309057583968	0.776729500590209	DeepGOPlus	0.088
0.3968115928245925	0.7754278050235772	DeepGOPlus	0.089
0.3986889603304165	0.7746310702773792	DeepGOPlus	0.09
0.4006151431633356	0.7733733794960761	DeepGOPlus	0.091
0.4019747966442297	0.772260565179887	DeepGOPlus	0.092
0.4038627886458307	0.7716037951720971	DeepGOPlus	0.093
0.40579018626043517	0.7707083360544982	DeepGOPlus	0.094
0.40780668497260447	0.7694484022828273	DeepGOPlus	0.095
0.4094394935265293	0.767583158215093	DeepGOPlus	0.096
0.4125875165303565	0.7656141642643842	DeepGOPlus	0.097
0.4155924684245479	0.7654097832424893	DeepGOPlus	0.098
0.4170895873707079	0.7644486125077754	DeepGOPlus	0.099
0.41949350351003184	0.7631109569447677	DeepGOPlus	0.1
0.4214398403968948	0.7621589297799081	DeepGOPlus	0.101
0.424134670494309	0.7607322347227602	DeepGOPlus	0.102
0.42621062330316944	0.7602085882638531	DeepGOPlus	0.103
0.42777416733414886	0.7597481283278699	DeepGOPlus	0.104
0.4296395550456202	0.7595093724791255	DeepGOPlus	0.105
0.43223320811659494	0.7577394939486837	DeepGOPlus	0.106
0.43416281263401924	0.7568319833580744	DeepGOPlus	0.107
0.43601876858164085	0.7556576833554243	DeepGOPlus	0.108
0.4385503686968169	0.7542927988919482	DeepGOPlus	0.109
0.44033413162974505	0.7528738975982069	DeepGOPlus	0.11
0.44240682692738825	0.7519231368665384	DeepGOPlus	0.111
0.44574395153792007	0.7494891651034339	DeepGOPlus	0.112
0.4472814594757092	0.748734312940131	DeepGOPlus	0.113
0.44856354698384726	0.7473502432832666	DeepGOPlus	0.114
0.45045941466420264	0.746640467925604	DeepGOPlus	0.115
0.45264863382781323	0.7445600981732605	DeepGOPlus	0.116
0.4551216663158673	0.7441426364881932	DeepGOPlus	0.117
0.457074683295012	0.7423551803287385	DeepGOPlus	0.118
0.4590282678581828	0.7407117648429222	DeepGOPlus	0.119
0.46094508500242815	0.7395099030230892	DeepGOPlus	0.12
0.4631286302350438	0.737805361291331	DeepGOPlus	0.121
0.4659687741321807	0.7366484746807802	DeepGOPlus	0.122
0.46839926203061627	0.7349209218494451	DeepGOPlus	0.123
0.47107647210647224	0.7334524242541869	DeepGOPlus	0.124
0.47351648000573604	0.731988580067338	DeepGOPlus	0.125
0.47763138065168875	0.7297527761100944	DeepGOPlus	0.126
0.4801647811075322	0.7295921633104897	DeepGOPlus	0.127
0.48219918339788875	0.7284327853905485	DeepGOPlus	0.128
0.48489343347188063	0.7265232751477049	DeepGOPlus	0.129
0.48613876151198343	0.7253710259985499	DeepGOPlus	0.13
0.4888092343836694	0.7246043358323044	DeepGOPlus	0.131
0.4908926513286362	0.7229850361419699	DeepGOPlus	0.132
0.4918672815288902	0.7213222423821495	DeepGOPlus	0.133
0.4934240539895519	0.7206125438221915	DeepGOPlus	0.134
0.49639139916836167	0.7194284019338243	DeepGOPlus	0.135
0.49878551149241207	0.7183240718096083	DeepGOPlus	0.136
0.5016715589167003	0.7172106638614721	DeepGOPlus	0.137
0.5038475526653187	0.7170611246509001	DeepGOPlus	0.138
0.5049586328757527	0.7166434715337165	DeepGOPlus	0.139
0.5068704459879246	0.7154606091203131	DeepGOPlus	0.14
0.5084871803214221	0.713150388187244	DeepGOPlus	0.141
0.5104232761909753	0.7123936891890492	DeepGOPlus	0.142
0.511919532651544	0.7116322492041103	DeepGOPlus	0.143
0.514904924521078	0.7091679838647684	DeepGOPlus	0.144
0.516781543866628	0.7081118059013807	DeepGOPlus	0.145
0.5182235964661471	0.707732989794865	DeepGOPlus	0.146
0.521395137933229	0.7055286742612985	DeepGOPlus	0.147
0.5229483985439334	0.704819750833453	DeepGOPlus	0.148
0.5243573118817973	0.7031928082147936	DeepGOPlus	0.149
0.525398085911069	0.7023251457665363	DeepGOPlus	0.15
0.5270609211423949	0.7018574080567932	DeepGOPlus	0.151
0.5287431282569667	0.7010938878718422	DeepGOPlus	0.152
0.532133650709722	0.7003081064358985	DeepGOPlus	0.153
0.5343563416460944	0.6986689331417956	DeepGOPlus	0.154
0.5359787688735402	0.6977262324181871	DeepGOPlus	0.155
0.5378568905976372	0.6968618542298652	DeepGOPlus	0.156
0.5402549901758905	0.6951946103461648	DeepGOPlus	0.157
0.5414151489025728	0.6942873820328334	DeepGOPlus	0.158
0.543119076664271	0.6938811586845129	DeepGOPlus	0.159
0.5444421514519358	0.693671768371342	DeepGOPlus	0.16
0.5460381614217457	0.6917844624934256	DeepGOPlus	0.161
0.5477066573743387	0.6911202517863491	DeepGOPlus	0.162
0.548763772735702	0.6904640949975633	DeepGOPlus	0.163
0.5496889065261507	0.6895501405995466	DeepGOPlus	0.164
0.5516330880918314	0.6888509682702679	DeepGOPlus	0.165
0.5526386101013675	0.6866640446044708	DeepGOPlus	0.165
0.5551035771608455	0.6851419932508211	DeepGOPlus	0.167
0.5558869851508448	0.6847014061905159	DeepGOPlus	0.168
0.5562507753897934	0.6830072221529964	DeepGOPlus	0.168
0.5578355696993731	0.6822763760435838	DeepGOPlus	0.17
0.5593688757877485	0.6815885257449106	DeepGOPlus	0.171
0.561663651714058	0.6811285189839401	DeepGOPlus	0.172
0.5629729466321103	0.6797727441910516	DeepGOPlus	0.173
0.5645064835439435	0.6792943232900954	DeepGOPlus	0.174
0.5656565352440509	0.6784561157710132	DeepGOPlus	0.175
0.5680779135914804	0.6784561157710132	DeepGOPlus	0.176
0.5694322547147304	0.67800457169967	DeepGOPlus	0.177
0.5704708515637943	0.6776509542685878	DeepGOPlus	0.178
0.5730151957089945	0.6756485981150087	DeepGOPlus	0.179
0.5739769266131748	0.6753266717367442	DeepGOPlus	0.18
0.5766546402450538	0.6740003465779506	DeepGOPlus	0.181
0.5773189929841794	0.6727385541951632	DeepGOPlus	0.181
0.5786488550095317	0.6716457485483669	DeepGOPlus	0.183
0.5797503026918253	0.6704694928497246	DeepGOPlus	0.184
0.582360290498267	0.6693562506937346	DeepGOPlus	0.185
0.5841138013891871	0.6685018388142479	DeepGOPlus	0.186
0.5851706793259542	0.6679428567446334	DeepGOPlus	0.187
0.5862313291373599	0.6672850439642607	DeepGOPlus	0.188
0.5879991514137874	0.666534959411359	DeepGOPlus	0.189
0.5891100664573207	0.6658996857566298	DeepGOPlus	0.19
0.5905512534964596	0.6653204527830306	DeepGOPlus	0.191
0.5924184198376076	0.6646057445442305	DeepGOPlus	0.192
0.5931422601198031	0.6629716366462233	DeepGOPlus	0.192
0.594902390405211	0.6605109517911725	DeepGOPlus	0.192
0.5962241165409746	0.6594497397753438	DeepGOPlus	0.192
0.5976427476307182	0.6588749634238245	DeepGOPlus	0.196
0.5983177285467188	0.6582085509539827	DeepGOPlus	0.197
0.6008216083114405	0.656781846736089	DeepGOPlus	0.198
0.6027440020614889	0.6550049219210082	DeepGOPlus	0.199
0.6039988851326521	0.6541300740684609	DeepGOPlus	0.2
0.6053256645486015	0.6538496454303042	DeepGOPlus	0.201
0.6077942583125484	0.6516300991966734	DeepGOPlus	0.202
0.6083530633698804	0.6497838755194639	DeepGOPlus	0.202
0.6102668808656193	0.6492942229541998	DeepGOPlus	0.204
0.6112781454943051	0.6488728666057476	DeepGOPlus	0.205
0.6126250556373449	0.6478177141421445	DeepGOPlus	0.206
0.6133818399995938	0.6473263837603603	DeepGOPlus	0.207
0.6152323495796859	0.6463737828077594	DeepGOPlus	0.208
0.6166413113178199	0.6457470036598534	DeepGOPlus	0.209
0.617438899734844	0.6454883668185628	DeepGOPlus	0.21
0.6200218836824885	0.6441121399065123	DeepGOPlus	0.211
0.6220626682095873	0.6423893085413533	DeepGOPlus	0.212
0.6230902061957396	0.6416431245128668	DeepGOPlus	0.213
0.6241303940957389	0.6410515385528086	DeepGOPlus	0.214
0.6250095145017788	0.6409975749242942	DeepGOPlus	0.215
0.6262811840569955	0.6407317744685382	DeepGOPlus	0.216
0.6276629185211703	0.6395573793916282	DeepGOPlus	0.217
0.6281765109853453	0.6384946835530725	DeepGOPlus	0.217
0.6293913932934615	0.6374559359258696	DeepGOPlus	0.217
0.6304789882181661	0.6368746705558719	DeepGOPlus	0.22
0.6316247760472956	0.6360487272416657	DeepGOPlus	0.221
0.6323610865827938	0.6338276032266201	DeepGOPlus	0.221
0.6350964937339657	0.6329376394258582	DeepGOPlus	0.223
0.6381416559689621	0.632058673296398	DeepGOPlus	0.224
0.640329880508062	0.6312274242831585	DeepGOPlus	0.225
0.6414689826049446	0.6309363993813107	DeepGOPlus	0.226
0.6435858498679263	0.6290135234579407	DeepGOPlus	0.227
0.6447982203960902	0.6275748633708991	DeepGOPlus	0.227
0.6452290899028975	0.6263142896982429	DeepGOPlus	0.227
0.6464508836461065	0.6254105940503699	DeepGOPlus	0.227
0.6479213978362721	0.6249521757515761	DeepGOPlus	0.231
0.6496370909416743	0.6247103108294915	DeepGOPlus	0.232
0.6508584424455738	0.6244811016800946	DeepGOPlus	0.233
0.6519689624243563	0.6239159825703745	DeepGOPlus	0.234
0.6535447698375219	0.6228889748917447	DeepGOPlus	0.235
0.6538004325938755	0.6209849581989956	DeepGOPlus	0.235
0.6555590786351677	0.6198919075201951	DeepGOPlus	0.235
0.6562725119593451	0.6194426618168158	DeepGOPlus	0.235
0.6579215888349351	0.6180524347964925	DeepGOPlus	0.235
0.6594304340908019	0.616795647091016	DeepGOPlus	0.235
0.6606599429109945	0.6157647235347293	DeepGOPlus	0.235
0.6605740927995952	0.614383597270974	DeepGOPlus	0.235
0.6616866574406821	0.6140116122745759	DeepGOPlus	0.235
0.6632638597746953	0.61282347400414	DeepGOPlus	0.235
0.6639650228984972	0.6123847389423408	DeepGOPlus	0.235
0.6653803122452893	0.6118045085890275	DeepGOPlus	0.235
0.6667098293474658	0.6104916934264472	DeepGOPlus	0.235
0.667426570705747	0.6098222446349326	DeepGOPlus	0.235
0.6690276570544831	0.6084249983286034	DeepGOPlus	0.235
0.6713284034792901	0.6069781229085446	DeepGOPlus	0.235
0.6739144469765875	0.6052891103040392	DeepGOPlus	0.235
0.6745209592213138	0.6041233139944182	DeepGOPlus	0.235
0.6758865321243704	0.6031108418551855	DeepGOPlus	0.235
0.6767327449760916	0.6023217074979759	DeepGOPlus	0.235
0.6800328673896975	0.5995927181220518	DeepGOPlus	0.235
0.6812738776820707	0.5972463990768468	DeepGOPlus	0.235
0.6833056237527723	0.5966523767146151	DeepGOPlus	0.235
0.6845660092292133	0.5949395623767753	DeepGOPlus	0.235
0.6870915460377078	0.592539151682155	DeepGOPlus	0.235
0.6891391998988613	0.5916875624120831	DeepGOPlus	0.235
0.6894984296760669	0.590815181622032	DeepGOPlus	0.235
0.6905460468856757	0.5903713960445159	DeepGOPlus	0.235
0.692889142622691	0.589138422000406	DeepGOPlus	0.235
0.6942046267714824	0.5878853039664124	DeepGOPlus	0.235
0.695829336029092	0.587374156272166	DeepGOPlus	0.235
0.6966478061126365	0.5863560632723583	DeepGOPlus	0.235
0.697844133363404	0.5860067799146379	DeepGOPlus	0.235
0.6983447377437888	0.5854025453254331	DeepGOPlus	0.235
0.6990624060629475	0.5847108545320209	DeepGOPlus	0.235
0.7003292703626474	0.584139525322194	DeepGOPlus	0.235
0.7020287916441438	0.5829042926941601	DeepGOPlus	0.235
0.703238345820803	0.5818980525574852	DeepGOPlus	0.235
0.7038816044419515	0.5810183636496271	DeepGOPlus	0.235
0.7042574728022302	0.5800869283354249	DeepGOPlus	0.235
0.7060549631098415	0.5788313634236537	DeepGOPlus	0.235
0.7068420623401389	0.5785051528748172	DeepGOPlus	0.235
0.7072687389363231	0.5772447283749559	DeepGOPlus	0.235
0.7083173981680007	0.5764778552205079	DeepGOPlus	0.235
0.7092337478528198	0.5751870042014631	DeepGOPlus	0.235
0.7101641582477354	0.5735375548507397	DeepGOPlus	0.235
0.7098638334269229	0.5724963170754018	DeepGOPlus	0.235
0.7104213073406822	0.5714368321683836	DeepGOPlus	0.235
0.7109485221422659	0.5709336797872968	DeepGOPlus	0.235
0.7124557158571551	0.5698902165743253	DeepGOPlus	0.235
0.7122742300473708	0.5692059296225669	DeepGOPlus	0.235
0.7122791739366566	0.5686987714471772	DeepGOPlus	0.235
0.7132231155611304	0.5671631570007647	DeepGOPlus	0.235
0.7141606002686552	0.5665957796728239	DeepGOPlus	0.235
0.7157102885332361	0.5659806191757916	DeepGOPlus	0.235
0.7163063748834145	0.565223815807553	DeepGOPlus	0.235
0.7179343642441168	0.5640550749674507	DeepGOPlus	0.235
0.7183193171713562	0.5632841945408582	DeepGOPlus	0.235
0.7197056110760099	0.5626377033194198	DeepGOPlus	0.235
0.7201624933457836	0.5617034803942519	DeepGOPlus	0.235
0.7212624788508255	0.5607325044623996	DeepGOPlus	0.235
0.7234589941161311	0.5601872794628464	DeepGOPlus	0.235
0.7242096822902921	0.5594037971967488	DeepGOPlus	0.235
0.7252787346030953	0.5579437085692109	DeepGOPlus	0.235
0.7276656738999707	0.5574881684334513	DeepGOPlus	0.235
0.7297801269420809	0.5570182926485273	DeepGOPlus	0.235
0.7306874486007443	0.5561212408780979	DeepGOPlus	0.235
0.7307526188922508	0.5555223802244642	DeepGOPlus	0.235
0.7317247221007432	0.5539721266033596	DeepGOPlus	0.235
0.7324107557928272	0.5534359923886835	DeepGOPlus	0.235
0.7337667718194132	0.5518257134309867	DeepGOPlus	0.235
0.7339661222994063	0.5504275890937571	DeepGOPlus	0.235
0.7354408912946847	0.5498276934234388	DeepGOPlus	0.235
0.7373484454034132	0.5496173845787149	DeepGOPlus	0.235
0.7380919508695869	0.5486809014826074	DeepGOPlus	0.235
0.7392175875150105	0.5480332510424822	DeepGOPlus	0.235
0.7398721766056703	0.5474291325040913	DeepGOPlus	0.235
0.7407929099793419	0.5465682382815567	DeepGOPlus	0.235
0.742563248319205	0.5459338360549929	DeepGOPlus	0.235
0.7431450911528735	0.5454152362406185	DeepGOPlus	0.235
0.745803759018305	0.5439223370306983	DeepGOPlus	0.235
0.7481336156220179	0.5426632007228946	DeepGOPlus	0.235
0.7486677136345848	0.5422164112661032	DeepGOPlus	0.235
0.7497822954907934	0.5417049690216543	DeepGOPlus	0.235
0.7506689658614213	0.5394194801003875	DeepGOPlus	0.235
0.7519016290999248	0.5385613096351006	DeepGOPlus	0.235
0.7522226017871353	0.5375169058892124	DeepGOPlus	0.235
0.7536805602750478	0.5365076662718536	DeepGOPlus	0.235
0.7540753324915124	0.5361685948060215	DeepGOPlus	0.235
0.7553855798507763	0.5354817490487532	DeepGOPlus	0.235
0.7560424590087501	0.5344203864850432	DeepGOPlus	0.235
0.7569236828733679	0.5339994655821511	DeepGOPlus	0.235
0.7580558994162848	0.5328910649432339	DeepGOPlus	0.235
0.7592234162443572	0.5323296718935779	DeepGOPlus	0.235
0.7604608795464491	0.5314649763370385	DeepGOPlus	0.235
0.7605220265410394	0.5304520242563898	DeepGOPlus	0.235
0.762397516553396	0.5298692246263655	DeepGOPlus	0.235
0.7635644841121665	0.5290137571817687	DeepGOPlus	0.235
0.7642832933460452	0.5284241697747856	DeepGOPlus	0.235
0.7648194019814053	0.5277469721862957	DeepGOPlus	0.235
0.764901646222196	0.5250416377313846	DeepGOPlus	0.235
0.765844367303437	0.524510591053265	DeepGOPlus	0.235
0.7668227461809931	0.5236704035933593	DeepGOPlus	0.235
0.7668074796121412	0.5223321747903416	DeepGOPlus	0.235
0.7679860663157716	0.5212928115848785	DeepGOPlus	0.235
0.7685680618481286	0.5204223439943202	DeepGOPlus	0.235
0.7693380303214946	0.5193525725390779	DeepGOPlus	0.235
0.7697091680312262	0.5190578750612818	DeepGOPlus	0.235
0.7696728186931633	0.5184702733421438	DeepGOPlus	0.235
0.7711941903223359	0.5180436566956271	DeepGOPlus	0.235
0.7718635056989382	0.5172398062830131	DeepGOPlus	0.235
0.7724912520893966	0.5170659234800222	DeepGOPlus	0.235
0.7730265450712483	0.5163613059110608	DeepGOPlus	0.235
0.773653506012546	0.5154237451799347	DeepGOPlus	0.235
0.773424767429274	0.5144223539885656	DeepGOPlus	0.235
0.775639607129838	0.5129945709727032	DeepGOPlus	0.235
0.7768432245554013	0.5127785347629268	DeepGOPlus	0.235
0.7768416815316089	0.5120562557970852	DeepGOPlus	0.235
0.7779780055250756	0.5109141619319866	DeepGOPlus	0.235
0.7779427895564586	0.5089707471182465	DeepGOPlus	0.235
0.7791067431851489	0.5071634400683729	DeepGOPlus	0.235
0.7796381948424604	0.5059087831150503	DeepGOPlus	0.235
0.7801340811559354	0.5051830512057257	DeepGOPlus	0.235
0.7813513532244893	0.5039961376516264	DeepGOPlus	0.235
0.7806426462174192	0.5024005826409572	DeepGOPlus	0.235
0.7815264907581074	0.5020372624917836	DeepGOPlus	0.235
0.7820672967957791	0.5014370280887323	DeepGOPlus	0.235
0.7818021261940095	0.4999612427141664	DeepGOPlus	0.235
0.7836333692051176	0.4994576513655046	DeepGOPlus	0.235
0.7842814927239514	0.4979080679651676	DeepGOPlus	0.235
0.7842894762130449	0.4963088279308727	DeepGOPlus	0.235
0.7837696635535294	0.49534362356881667	DeepGOPlus	0.235
0.7848325510286926	0.49451299338660526	DeepGOPlus	0.235
0.7864505519304057	0.4938118166290904	DeepGOPlus	0.235
0.7864366114143329	0.4933622337851414	DeepGOPlus	0.235
0.7874525446346483	0.49190700032677803	DeepGOPlus	0.235
0.7881166706430712	0.4911755460741971	DeepGOPlus	0.235
0.7893474621126513	0.49042163992122995	DeepGOPlus	0.235
0.7896942638657914	0.4895288303940053	DeepGOPlus	0.235
0.7901982047583879	0.48901086234794067	DeepGOPlus	0.235
0.7908223601444478	0.4884926012662994	DeepGOPlus	0.235
0.7911355059933081	0.4877548556360408	DeepGOPlus	0.235
0.7918174852597345	0.4865730171302586	DeepGOPlus	0.235
0.7923907361879147	0.48551216860832785	DeepGOPlus	0.235
0.7927943749613348	0.48551216860832785	DeepGOPlus	0.235
0.7932701952262444	0.48416392189968344	DeepGOPlus	0.235
0.7938978188333901	0.4830693716658529	DeepGOPlus	0.235
0.7948493422471004	0.482716969185125	DeepGOPlus	0.235
0.7941030497398329	0.48238645166322386	DeepGOPlus	0.235
0.7942575382994493	0.4805982202270693	DeepGOPlus	0.235
0.7953924300996903	0.47974932692697747	DeepGOPlus	0.235
0.7956457789556856	0.478001327056912	DeepGOPlus	0.235
0.7970773753684782	0.4768283346867365	DeepGOPlus	0.235
0.7974574268626842	0.4758519043744874	DeepGOPlus	0.235
0.7970954656644812	0.4752377226639234	DeepGOPlus	0.235
0.7980638851155893	0.4741655726222439	DeepGOPlus	0.235
0.7989347211137168	0.4724831329116349	DeepGOPlus	0.235
0.7998855453240901	0.4720887350993968	DeepGOPlus	0.235
0.8006160489902686	0.47007004942097114	DeepGOPlus	0.235
0.7996459275476381	0.4693800913757706	DeepGOPlus	0.235
0.7997564654929173	0.4685452946880787	DeepGOPlus	0.235
0.8010528383617397	0.4674610112094292	DeepGOPlus	0.235
0.801495622386604	0.46706738640265877	DeepGOPlus	0.235
0.8026275012549897	0.46624629825762703	DeepGOPlus	0.235
0.8031572595500603	0.4654986022047666	DeepGOPlus	0.235
0.8030579311128139	0.46502911863669144	DeepGOPlus	0.235
0.8027834486570752	0.46321981682738983	DeepGOPlus	0.235
0.8026978727740738	0.4624001994955412	DeepGOPlus	0.235
0.802714350181107	0.46175172228346795	DeepGOPlus	0.235
0.804073716284732	0.4608002220361929	DeepGOPlus	0.235
0.8045078217292758	0.460422026939688	DeepGOPlus	0.235
0.8047160954127118	0.4601428012280432	DeepGOPlus	0.235
0.8047140100495842	0.4580246688799783	DeepGOPlus	0.235
0.8044995728170207	0.45714701831119847	DeepGOPlus	0.235
0.804548202070718	0.45516850663487146	DeepGOPlus	0.235
0.8048590078389102	0.45288602148235907	DeepGOPlus	0.235
0.805443596788279	0.45219091082262997	DeepGOPlus	0.235
0.8064708878962294	0.45133663918925615	DeepGOPlus	0.235
0.8064642028432022	0.4503275255782152	DeepGOPlus	0.235
0.8060030186034023	0.4494469411700284	DeepGOPlus	0.235
0.8067231558287298	0.44866446855656994	DeepGOPlus	0.235
0.8071917406985752	0.44813103224848566	DeepGOPlus	0.235
0.8078134565452044	0.4472274626829443	DeepGOPlus	0.235
0.8088470518014885	0.4466804770655362	DeepGOPlus	0.235
0.8098179404677406	0.4455865274310681	DeepGOPlus	0.235
0.8094108064211658	0.4440215822041511	DeepGOPlus	0.235
0.8109325271070777	0.44303380932670683	DeepGOPlus	0.235
0.8123647189476543	0.4407758169278694	DeepGOPlus	0.235
0.8122158412791063	0.43948222917105795	DeepGOPlus	0.235
0.8116940232659334	0.43801881908088736	DeepGOPlus	0.235
0.8129299020711588	0.4366578351418262	DeepGOPlus	0.235
0.8130590464310723	0.43622132934673213	DeepGOPlus	0.235
0.8143735061681703	0.434744221817211	DeepGOPlus	0.235
0.8142511445897058	0.4332441527701936	DeepGOPlus	0.235
0.8143660305529578	0.4325335830455394	DeepGOPlus	0.235
0.8148330243788575	0.43122273611448003	DeepGOPlus	0.235
0.8155140279630869	0.43046370142908	DeepGOPlus	0.235
0.8157677830389305	0.42938712539297674	DeepGOPlus	0.235
0.816124281889978	0.42859961756321535	DeepGOPlus	0.235
0.8169946221605211	0.4270759695020087	DeepGOPlus	0.235
0.8168137845722343	0.42642136836711947	DeepGOPlus	0.235
0.8168343377835668	0.4253340375916986	DeepGOPlus	0.235
0.816913389166966	0.4249316231047771	DeepGOPlus	0.235
0.8193746470192705	0.42411188989067783	DeepGOPlus	0.235
0.8194302971825985	0.4231242708496295	DeepGOPlus	0.235
0.8204597685626994	0.4226204683072799	DeepGOPlus	0.235
0.8211869574339931	0.4219420619168235	DeepGOPlus	0.235
0.8206224991337764	0.42109843364547084	DeepGOPlus	0.235
0.8209583541060878	0.4203910731071618	DeepGOPlus	0.235
0.8218119667960007	0.4194241996050769	DeepGOPlus	0.235
0.8219356861821854	0.4187622247235155	DeepGOPlus	0.235
0.8221014589952694	0.41843335942220683	DeepGOPlus	0.235
0.8226076479845194	0.4175355878729161	DeepGOPlus	0.235
0.8231069720035803	0.4161007184494298	DeepGOPlus	0.235
0.8243695228207418	0.4148752631228974	DeepGOPlus	0.235
0.8248522984938546	0.41363407925260565	DeepGOPlus	0.235
0.8246392651100519	0.41141420352077707	DeepGOPlus	0.235
0.8243845849670329	0.4106352137746512	DeepGOPlus	0.235
0.8240970997806174	0.4103222247292678	DeepGOPlus	0.235
0.824537803565123	0.4094692580703543	DeepGOPlus	0.235
0.8247514594455678	0.40799306081950903	DeepGOPlus	0.235
0.8244982151557633	0.4072662440520038	DeepGOPlus	0.235
0.8242320342506106	0.4063717984133809	DeepGOPlus	0.235
0.8253459660337427	0.405294374448633	DeepGOPlus	0.235
0.8255412091809853	0.40467025938789825	DeepGOPlus	0.235
0.8259601189026936	0.4041573051190754	DeepGOPlus	0.235
0.8268715287870155	0.4028295857162387	DeepGOPlus	0.235
0.8270411573260504	0.4023998381033926	DeepGOPlus	0.235
0.8260764979599244	0.4006003662334981	DeepGOPlus	0.235
0.82601661340004	0.40024726212040723	DeepGOPlus	0.235
0.8271683131150137	0.3999929277502669	DeepGOPlus	0.235
0.8270072866708027	0.39866730459850286	DeepGOPlus	0.235
0.8274483514794141	0.397887316025087	DeepGOPlus	0.235
0.8276693747055962	0.3961079073794812	DeepGOPlus	0.235
0.8286981717321927	0.39565871013842163	DeepGOPlus	0.235
0.8287988381212663	0.39496558125465775	DeepGOPlus	0.235
0.8287988381212663	0.39441412436517265	DeepGOPlus	0.235
0.8292163016661607	0.3942036662139666	DeepGOPlus	0.235
0.8292163016661607	0.3928037293566618	DeepGOPlus	0.235
0.8286363437756274	0.39232490258675523	DeepGOPlus	0.235
0.8284963876797711	0.3918384211884874	DeepGOPlus	0.235
0.8284265650293032	0.39110016448778934	DeepGOPlus	0.235
0.8287370756437462	0.39054132322472274	DeepGOPlus	0.235
0.8290908276141263	0.38957136265382325	DeepGOPlus	0.235
0.8290330908935721	0.38906579336891123	DeepGOPlus	0.235
0.8301015463876306	0.38810074381231235	DeepGOPlus	0.235
0.8301575284755378	0.3874667403614075	DeepGOPlus	0.235
0.8307263662530915	0.3868265687515186	DeepGOPlus	0.235
0.8317055044132041	0.38616981016457014	DeepGOPlus	0.235
0.8315139970291212	0.38519673524783327	DeepGOPlus	0.235
0.8311596079276322	0.38427805443869856	DeepGOPlus	0.235
0.8312006069292912	0.3836809106950944	DeepGOPlus	0.235
0.8310527794153547	0.383141348535814	DeepGOPlus	0.235
0.83185685749216	0.3829674657328232	DeepGOPlus	0.235
0.8323541859247111	0.38179375681263544	DeepGOPlus	0.235
0.8321293792830133	0.38096743554401113	DeepGOPlus	0.235
0.8321161075964189	0.3798588762194893	DeepGOPlus	0.235
0.8311909655558901	0.3777938029689701	DeepGOPlus	0.235
0.8311673355910837	0.3767256925622192	DeepGOPlus	0.235
0.8311168654921708	0.3762299195703585	DeepGOPlus	0.235
0.8325835893427956	0.37590557205155395	DeepGOPlus	0.235
0.8332865008104129	0.375149181858544	DeepGOPlus	0.235
0.8333425448936358	0.3744752057037258	DeepGOPlus	0.235
0.8335891928997178	0.37359422129173075	DeepGOPlus	0.235
0.8337236682390095	0.37337804267179625	DeepGOPlus	0.235
0.8330491435326062	0.3724310501755079	DeepGOPlus	0.235
0.8393745160434825	0.3693334323251701	DeepGOPlus	0.235
0.8396891829458271	0.36886394875709494	DeepGOPlus	0.235
0.8397678856955579	0.36844188777165365	DeepGOPlus	0.235
0.8397379656419414	0.36807799769521937	DeepGOPlus	0.235
0.8402542988971121	0.3673625941629144	DeepGOPlus	0.235
0.8390843745600831	0.36568889118282244	DeepGOPlus	0.235
0.8399416651094892	0.3642296616976558	DeepGOPlus	0.235
0.8400948589452344	0.3633796980347031	DeepGOPlus	0.235
0.8402955481266065	0.3628497314256815	DeepGOPlus	0.235
0.8406459300100854	0.36180257602444466	DeepGOPlus	0.235
0.8408696281821899	0.36026070370792446	DeepGOPlus	0.235
0.8414089570179858	0.35995011699074025	DeepGOPlus	0.235
0.8418099249525248	0.3592622098709083	DeepGOPlus	0.235
0.841749078365443	0.3585543869435613	DeepGOPlus	0.235
0.8421471245895825	0.35821683977502816	DeepGOPlus	0.235
0.842083173384407	0.3572114354245534	DeepGOPlus	0.235
0.8426199871935318	0.35685236942588316	DeepGOPlus	0.235
0.843334034521297	0.35653680097651197	DeepGOPlus	0.235
0.8443774030806539	0.3558325756243993	DeepGOPlus	0.235
0.8452505163561791	0.3547272930764753	DeepGOPlus	0.235
0.8455948595989878	0.3536514402791827	DeepGOPlus	0.235
0.8456397781840526	0.35358030640523197	DeepGOPlus	0.235
0.8462174490721653	0.35282323874675586	DeepGOPlus	0.235
0.8473742354753961	0.35189976756794766	DeepGOPlus	0.235
0.8477118897378991	0.3507455387512528	DeepGOPlus	0.235
0.8490416613798422	0.3501655154012764	DeepGOPlus	0.235
0.8509441271411208	0.3492913711398581	DeepGOPlus	0.235
0.8514969608551799	0.3490966552085844	DeepGOPlus	0.235
0.8530741252020863	0.34761129480303626	DeepGOPlus	0.235
0.8531428374873292	0.34712403073781317	DeepGOPlus	0.235
0.8537749156194075	0.3469501479348224	DeepGOPlus	0.235
0.8537281155726074	0.34556197487215795	DeepGOPlus	0.235
0.8545550936723131	0.34495720666175594	DeepGOPlus	0.235
0.855684574948853	0.3442628503335969	DeepGOPlus	0.235
0.8558017963363574	0.3430744360401154	DeepGOPlus	0.235
0.8558604404836715	0.3424136813887504	DeepGOPlus	0.235
0.8571630864664446	0.3421590672843711	DeepGOPlus	0.235
0.8570245182650776	0.3418460782389877	DeepGOPlus	0.235
0.8570870021079326	0.34093657617746476	DeepGOPlus	0.235
0.8580444371185193	0.3403462728885537	DeepGOPlus	0.235
0.8594867054054983	0.339741296227239	DeepGOPlus	0.235
0.8597208165670991	0.33914512661698487	DeepGOPlus	0.235
0.8597688802386433	0.3373688222976446	DeepGOPlus	0.235
0.8601568642711601	0.33555331800849336	DeepGOPlus	0.235
0.86218602619362	0.33481416997578	DeepGOPlus	0.235
0.8622037065330825	0.33427942390112786	DeepGOPlus	0.235
0.8619869626314101	0.3331598861618718	DeepGOPlus	0.235
0.8628153554356819	0.3319683399015144	DeepGOPlus	0.235
0.8630630699030589	0.3312446189811419	DeepGOPlus	0.235
0.863186888089456	0.33042288456971136	DeepGOPlus	0.235
0.8641176549148208	0.3289553380317422	DeepGOPlus	0.235
0.8672341808465226	0.32806108361636105	DeepGOPlus	0.235
0.8679331665577998	0.3271929116214285	DeepGOPlus	0.235
0.869837557624353	0.3259440188880791	DeepGOPlus	0.235
0.8695105163118513	0.325166202433594	DeepGOPlus	0.235
0.8702400804530228	0.32482346915011284	DeepGOPlus	0.235
0.8706855048536436	0.3238975238579703	DeepGOPlus	0.235
0.8708592745488237	0.3229673789785706	DeepGOPlus	0.235
0.8715615110193221	0.3228041895030365	DeepGOPlus	0.235
0.8734277527296531	0.3219136361069932	DeepGOPlus	0.235
0.8730572164649104	0.32058872855006987	DeepGOPlus	0.235
0.8747733902919621	0.31749321946864534	DeepGOPlus	0.235
0.8771376037081213	0.3165741246528369	DeepGOPlus	0.235
0.8777294411335402	0.3157204696015949	DeepGOPlus	0.235
0.877526112633586	0.31504011051655945	DeepGOPlus	0.235
0.8786254618741743	0.31457487566855735	DeepGOPlus	0.235
0.8788665709760429	0.3137359302286729	DeepGOPlus	0.235
0.8793750102970385	0.31289109387914177	DeepGOPlus	0.235
0.8796982350990421	0.3123211022293379	DeepGOPlus	0.235
0.8810535605050004	0.311143667249086	DeepGOPlus	0.235
0.8812332965556194	0.3101508416083731	DeepGOPlus	0.235
0.8805407869397862	0.307951535475188	DeepGOPlus	0.235
0.8811264956473224	0.3070965722598556	DeepGOPlus	0.235
0.8820591278917368	0.3062104441718411	DeepGOPlus	0.235
0.8829157812853723	0.30520274548993936	DeepGOPlus	0.235
0.8827450879547754	0.3038945596747114	DeepGOPlus	0.235
0.8835240780965453	0.3027580548997089	DeepGOPlus	0.235
0.8857984654155756	0.30182472462365567	DeepGOPlus	0.235
0.8865350222410153	0.300754336386367	DeepGOPlus	0.235
0.8869755575554789	0.30041114664362195	DeepGOPlus	0.235
0.8873325736716818	0.29984963008363463	DeepGOPlus	0.235
0.8878468502557572	0.29899256913267697	DeepGOPlus	0.235
0.888380872891844	0.29842372396289274	DeepGOPlus	0.235
0.8883384575132091	0.29771063727562763	DeepGOPlus	0.235
0.8890325060659552	0.2965741889560808	DeepGOPlus	0.235
0.8907436848541506	0.2963341121314969	DeepGOPlus	0.235
0.8909295885838686	0.29528526166673175	DeepGOPlus	0.235
0.8908105234632875	0.29483015984024374	DeepGOPlus	0.235
0.8916821389611918	0.29336154733876746	DeepGOPlus	0.235
0.8930193217568341	0.2927872847332379	DeepGOPlus	0.235
0.8942544757931276	0.292012497848689	DeepGOPlus	0.235
0.8953027023795592	0.29176170534437534	DeepGOPlus	0.235
0.8957472152188595	0.29087926465789304	DeepGOPlus	0.235
0.897088423536812	0.28989754981505444	DeepGOPlus	0.235
0.8966259680169454	0.2883760752888851	DeepGOPlus	0.235
0.8969368692369375	0.2869357413661568	DeepGOPlus	0.235
0.8972307091088868	0.28564069123595737	DeepGOPlus	0.235
0.8982931801452483	0.28464915338995944	DeepGOPlus	0.235
0.898877539215247	0.28435067636798356	DeepGOPlus	0.235
0.8999936554749662	0.28305826978252835	DeepGOPlus	0.235
0.9006569463471344	0.2825709474933344	DeepGOPlus	0.235
0.9009932071272595	0.28166386700878915	DeepGOPlus	0.235
0.9018037542824541	0.28115225029998936	DeepGOPlus	0.235
0.9029537130893656	0.27989998361345036	DeepGOPlus	0.235
0.9039743678966579	0.27860710851775833	DeepGOPlus	0.235
0.9034649480977011	0.2770237053282271	DeepGOPlus	0.235
0.903520208928824	0.2770237053282271	DeepGOPlus	0.235
0.9035018923573076	0.27647628500381155	DeepGOPlus	0.235
0.9032445640702603	0.2761819940052952	DeepGOPlus	0.235
0.9029615524525582	0.27496915276897976	DeepGOPlus	0.235
0.9030449624127772	0.2741273954893261	DeepGOPlus	0.235
0.9040560192036794	0.27340462699619283	DeepGOPlus	0.235
0.9049174384525924	0.2720435641327826	DeepGOPlus	0.235
0.9053324468313105	0.2717150976071329	DeepGOPlus	0.235
0.9074751704821362	0.2693006591855367	DeepGOPlus	0.235
0.9073850803920462	0.2687584364449061	DeepGOPlus	0.235
0.9073719628789286	0.2677323744956966	DeepGOPlus	0.235
0.9088584493654152	0.2663347024407475	DeepGOPlus	0.235
0.9087110866425094	0.26561730360128294	DeepGOPlus	0.235
0.9091656264912042	0.2643603729421934	DeepGOPlus	0.235
0.9091906009503085	0.2638607203071477	DeepGOPlus	0.235
0.9101193611093137	0.2633028732704274	DeepGOPlus	0.235
0.9108038038237293	0.2630900956299255	DeepGOPlus	0.235
0.9112595243066977	0.26294782788202403	DeepGOPlus	0.235
0.9114136050125494	0.2619992546329813	DeepGOPlus	0.235
0.9112957584291262	0.2612181195795458	DeepGOPlus	0.235
0.9118055855782978	0.2607371190985453	DeepGOPlus	0.235
0.9119448247544221	0.2603583029920297	DeepGOPlus	0.235
0.9120536538024557	0.259861189630146	DeepGOPlus	0.235
0.9121366758032858	0.25864890724323414	DeepGOPlus	0.235
0.9123954277058736	0.25792933977429844	DeepGOPlus	0.235
0.9121214551031337	0.25770577617045315	DeepGOPlus	0.235
0.9117783464989859	0.2564264699232783	DeepGOPlus	0.235
0.9123323266646822	0.2553317534764491	DeepGOPlus	0.235
0.9127929930930282	0.25430329691894954	DeepGOPlus	0.235
0.912847308447979	0.25370607636867737	DeepGOPlus	0.235
0.9140366719862332	0.25103530121697204	DeepGOPlus	0.235
0.915141140522316	0.2504694845281012	DeepGOPlus	0.235
0.915141140522316	0.25015649548271773	DeepGOPlus	0.235
0.9158417398301577	0.24928986732735725	DeepGOPlus	0.235
0.9165377595875976	0.2487699285815722	DeepGOPlus	0.235
0.9171598697140491	0.24674071941096806	DeepGOPlus	0.235
0.917033573808411	0.24501104310753333	DeepGOPlus	0.235
0.9183646975320545	0.24393792234430908	DeepGOPlus	0.235
0.9191817208842893	0.24200203871828463	DeepGOPlus	0.235
0.9190207550895207	0.24100775447026337	DeepGOPlus	0.235
0.918966583908589	0.23987174686749824	DeepGOPlus	0.235
0.9195299641902791	0.23899363871239476	DeepGOPlus	0.235
0.9195092337470134	0.2376578775938011	DeepGOPlus	0.235
0.9204332508357932	0.23696138557389698	DeepGOPlus	0.235
0.9203967066927407	0.2351759253377325	DeepGOPlus	0.235
0.9210748241935574	0.23371372903985546	DeepGOPlus	0.235
0.9236684439613045	0.23118590637527017	DeepGOPlus	0.235
0.9240953570013397	0.22993406581486125	DeepGOPlus	0.235
0.9243866384520415	0.22882063395025565	DeepGOPlus	0.235
0.9243396768666183	0.22662765370357313	DeepGOPlus	0.235
0.9239225424195439	0.22446403542321236	DeepGOPlus	0.235
0.9238763662298632	0.22249412580463301	DeepGOPlus	0.235
0.9239486581767291	0.22179889315517498	DeepGOPlus	0.235
0.923967425746369	0.22068343080031327	DeepGOPlus	0.235
0.9245961090785405	0.22040604481125578	DeepGOPlus	0.235
0.924886806752959	0.2196583031597582	DeepGOPlus	0.235
0.9249958183808661	0.21945807447752644	DeepGOPlus	0.235
0.9262752579024899	0.21833428376062144	DeepGOPlus	0.235
0.9265147046277162	0.21773615123760628	DeepGOPlus	0.235
0.9265060131807586	0.2170849252852985	DeepGOPlus	0.235
0.9273702003695055	0.2163982921815822	DeepGOPlus	0.235
0.9267792468460004	0.2149734535481116	DeepGOPlus	0.235
0.9283482934156395	0.2137878889822653	DeepGOPlus	0.235
0.9286969831874063	0.21318320047368286	DeepGOPlus	0.235
0.9291900798343492	0.21288850299588677	DeepGOPlus	0.235
0.9299021882387654	0.21173330872233317	DeepGOPlus	0.235
0.930025462400501	0.21085762815181694	DeepGOPlus	0.235
0.9314363823051154	0.20973259103358835	DeepGOPlus	0.235
0.9316245608245138	0.2085225904319518	DeepGOPlus	0.235
0.9315973971812788	0.20646644156231966	DeepGOPlus	0.235
0.9316917177698797	0.2058972041756867	DeepGOPlus	0.235
0.9315307266932653	0.20465785927436994	DeepGOPlus	0.235
0.9317582269207657	0.20414275433912715	DeepGOPlus	0.235
0.9331271591486212	0.2034231481316866	DeepGOPlus	0.235
0.9339694895090238	0.20163893164697846	DeepGOPlus	0.235
0.9341705551982079	0.20054086373559743	DeepGOPlus	0.235
0.9351352849129376	0.19893922318638252	DeepGOPlus	0.235
0.9362641586014311	0.19765715764388786	DeepGOPlus	0.235
0.9359322380141624	0.19639856714224288	DeepGOPlus	0.235
0.9357344980080332	0.19610131689602345	DeepGOPlus	0.235
0.9348257188585133	0.19495486368792497	DeepGOPlus	0.235
0.9358545254428755	0.193953803337666	DeepGOPlus	0.235
0.9363011151682177	0.19328928796060632	DeepGOPlus	0.235
0.9370721856402972	0.19217142961678352	DeepGOPlus	0.235
0.9368202923715347	0.19027191977652574	DeepGOPlus	0.235
0.9366424330877458	0.18932177446018325	DeepGOPlus	0.235
0.9366759507089698	0.1890814249497651	DeepGOPlus	0.235
0.9377010432609801	0.1875779987984516	DeepGOPlus	0.235
0.938672911483421	0.18587409136907646	DeepGOPlus	0.235
0.9400744223827292	0.18548147802242304	DeepGOPlus	0.235
0.9401409825531233	0.18470200051944666	DeepGOPlus	0.235
0.9397354515142978	0.18373067372652363	DeepGOPlus	0.235
0.9399115574596345	0.18229864245313263	DeepGOPlus	0.235
0.9402542527140599	0.18180159769590312	DeepGOPlus	0.235
0.940379217556637	0.18085564608279067	DeepGOPlus	0.235
0.9410492689618906	0.17909015056654473	DeepGOPlus	0.235
0.9419401215667449	0.17864089759381757	DeepGOPlus	0.235
0.9415606452371158	0.17723741496967768	DeepGOPlus	0.235
0.9415139598963127	0.17699837388556616	DeepGOPlus	0.235
0.9411291833166834	0.17531014594332292	DeepGOPlus	0.235
0.9412649231956164	0.1740350605719934	DeepGOPlus	0.235
0.9411470542658663	0.17328482077906837	DeepGOPlus	0.235
0.9407560047925498	0.1723591801017598	DeepGOPlus	0.235
0.9411687703215944	0.1715326984507022	DeepGOPlus	0.235
0.9422761900336653	0.1709166311174861	DeepGOPlus	0.235
0.9419439171939171	0.16994430177846534	DeepGOPlus	0.235
0.9417497496928935	0.16919068748807484	DeepGOPlus	0.235
0.9416581174156932	0.16778723108163873	DeepGOPlus	0.235
0.9412625792286812	0.16655653703232434	DeepGOPlus	0.235
0.9412625792286812	0.16579676240713498	DeepGOPlus	0.235
0.9410067257006035	0.1650477485125812	DeepGOPlus	0.235
0.9410067257006035	0.16387576445512644	DeepGOPlus	0.235
0.942140512548676	0.16348839787057673	DeepGOPlus	0.235
0.942140512548676	0.16268700199875832	DeepGOPlus	0.235
0.942140512548676	0.16177043609919098	DeepGOPlus	0.235
0.9419171840673547	0.16115312045428287	DeepGOPlus	0.235
0.9427589211094367	0.1596708274803103	DeepGOPlus	0.235
0.9427589211094367	0.15917083129376156	DeepGOPlus	0.235
0.9424988421540147	0.15833303233389687	DeepGOPlus	0.235
0.9424899975072987	0.1577495290117394	DeepGOPlus	0.235
0.9440264211097544	0.15664180757246962	DeepGOPlus	0.235
0.944153368892045	0.15583300934583103	DeepGOPlus	0.235
0.944501800947794	0.15532338892022343	DeepGOPlus	0.235
0.9441123399018136	0.154809131689958	DeepGOPlus	0.235
0.9447582756093396	0.1530983276153766	DeepGOPlus	0.235
0.9449885417970524	0.15255729978561638	DeepGOPlus	0.235
0.9449909035015418	0.15116256737285655	DeepGOPlus	0.235
0.9447278515135659	0.14997124160777242	DeepGOPlus	0.235
0.94555452569893	0.14839683437794146	DeepGOPlus	0.235
0.9470964454718968	0.1477614029697154	DeepGOPlus	0.235
0.9470964454718968	0.1462352817252843	DeepGOPlus	0.235
0.9472341466906685	0.14553105637317162	DeepGOPlus	0.235
0.9476267894746156	0.14395471915603927	DeepGOPlus	0.235
0.9477064199890286	0.14369207100606718	DeepGOPlus	0.235
0.9479077082337953	0.14330704479944473	DeepGOPlus	0.235
0.9482031302031303	0.1425686989906764	DeepGOPlus	0.235
0.9509629463673581	0.13987350685886454	DeepGOPlus	0.235
0.9511920019300094	0.13911742717085998	DeepGOPlus	0.235
0.9514233613864611	0.13820193408493808	DeepGOPlus	0.235
0.9508854218891395	0.13759842787110318	DeepGOPlus	0.235
0.951864470521187	0.13600941822056645	DeepGOPlus	0.235
0.9521161857010915	0.1352240693502163	DeepGOPlus	0.235
0.9518446200264383	0.1333654984006627	DeepGOPlus	0.235
0.9543970499293692	0.13181915542239483	DeepGOPlus	0.235
0.953956973899722	0.13086050146312853	DeepGOPlus	0.235
0.9537979408208416	0.12994697836650682	DeepGOPlus	0.235
0.9536209214370134	0.12876810496201965	DeepGOPlus	0.235
0.9537273497043612	0.12703376731218904	DeepGOPlus	0.235
0.9557707724374391	0.12491787331903971	DeepGOPlus	0.235
0.955600660023737	0.12441189816517721	DeepGOPlus	0.235
0.9551819412284529	0.12380185933135121	DeepGOPlus	0.235
0.9553228855554438	0.12320630098045582	DeepGOPlus	0.235
0.9555812834882603	0.1223738023955069	DeepGOPlus	0.235
0.9557543191784437	0.12170932168407778	DeepGOPlus	0.235
0.9557543191784437	0.12143607727937797	DeepGOPlus	0.235
0.9561345809400285	0.12069659766665891	DeepGOPlus	0.235
0.9573431648334372	0.11993342054606193	DeepGOPlus	0.235
0.9577407726821789	0.11851628952984514	DeepGOPlus	0.235
0.9593819049873736	0.11802941768147093	DeepGOPlus	0.235
0.959707425820707	0.11692168637029673	DeepGOPlus	0.235
0.9593901614570906	0.11589236227759234	DeepGOPlus	0.235
0.9593901614570906	0.11589236227759234	DeepGOPlus	0.235
0.9599496953663619	0.11385880712605395	DeepGOPlus	0.235
0.9599292929292927	0.11290261177438585	DeepGOPlus	0.235
0.959715007215007	0.1111050165866251	DeepGOPlus	0.235
0.9593901282409345	0.11026052982664536	DeepGOPlus	0.235
0.959614142577852	0.10997834501920559	DeepGOPlus	0.235
0.9615005742556761	0.1081615509400322	DeepGOPlus	0.235
0.9615005742556761	0.10772353187916493	DeepGOPlus	0.235
0.961342789723937	0.10668576769586086	DeepGOPlus	0.235
0.961342789723937	0.1058791712319874	DeepGOPlus	0.235
0.9623673798878717	0.10571444015546981	DeepGOPlus	0.235
0.96173240339907	0.10501922008313525	DeepGOPlus	0.235
0.962400719115595	0.10405827440387969	DeepGOPlus	0.235
0.962400719115595	0.10384092090014121	DeepGOPlus	0.235
0.9621383552168675	0.10341194629276285	DeepGOPlus	0.235
0.9613929473304472	0.1023021509381885	DeepGOPlus	0.235
0.9609042504612124	0.10056283652281775	DeepGOPlus	0.235
0.9614448051948051	0.09851803193580957	DeepGOPlus	0.235
0.9642696639518673	0.09802047932558089	DeepGOPlus	0.235
0.9650041447913789	0.09688842376604159	DeepGOPlus	0.235
0.9645955895955896	0.09604219915575388	DeepGOPlus	0.235
0.96490083990084	0.09516542856067343	DeepGOPlus	0.235
0.9653166517390656	0.09411276013711298	DeepGOPlus	0.235
0.9650222072299994	0.09259343091825326	DeepGOPlus	0.235
0.9648298070375992	0.09178777979755398	DeepGOPlus	0.235
0.9656403397669772	0.09131278675605077	DeepGOPlus	0.235
0.965184238082468	0.09022850327740109	DeepGOPlus	0.235
0.9650295013628345	0.08956553318748922	DeepGOPlus	0.235
0.9650295013628345	0.08878238310856451	DeepGOPlus	0.235
0.9650419958715922	0.08748402614706198	DeepGOPlus	0.235
0.9647256338432808	0.0866186813438208	DeepGOPlus	0.235
0.9638327172573747	0.0856880227449306	DeepGOPlus	0.235
0.9637760302897916	0.08450129586088254	DeepGOPlus	0.235
0.9644333702473238	0.08330550417213309	DeepGOPlus	0.235
0.9640994112825099	0.0819576157721073	DeepGOPlus	0.235
0.9637591213420598	0.08110337831195986	DeepGOPlus	0.235
0.962872260015117	0.08048609436134257	DeepGOPlus	0.235
0.9628844839371156	0.07960932376626212	DeepGOPlus	0.235
0.9643086080586081	0.0794267468231218	DeepGOPlus	0.235
0.9636530940878766	0.0790528987966916	DeepGOPlus	0.235
0.9657234874626178	0.07876412914172476	DeepGOPlus	0.235
0.9655570966250577	0.07777734423475208	DeepGOPlus	0.235
0.9657142857142856	0.07694450466951815	DeepGOPlus	0.235
0.9651377217553688	0.07603839460847851	DeepGOPlus	0.235
0.9657049026507154	0.07478271236688079	DeepGOPlus	0.235
0.9655351249410654	0.07374979267198928	DeepGOPlus	0.235
0.9644800777453838	0.07192165355903014	DeepGOPlus	0.235
0.9641138929798723	0.07079038923692485	DeepGOPlus	0.235
0.9639279546015297	0.07043199666718379	DeepGOPlus	0.235
0.963219246031746	0.06978431405632733	DeepGOPlus	0.235
0.963219246031746	0.06926142362733362	DeepGOPlus	0.235
0.9628320802005013	0.06855545749529852	DeepGOPlus	0.235
0.9622150455927052	0.06770793408322112	DeepGOPlus	0.235
0.9614247311827958	0.06671722054072629	DeepGOPlus	0.235
0.9612162162162163	0.06618990204035206	DeepGOPlus	0.235
0.9610054347826088	0.06480342452012168	DeepGOPlus	0.235
0.9617300724637682	0.0641426698687567	DeepGOPlus	0.235
0.9615209471766849	0.06321357175655999	DeepGOPlus	0.235
0.9622495446265938	0.06311548402153955	DeepGOPlus	0.235
0.9633424408014571	0.062275551639724286	DeepGOPlus	0.235
0.9651639344262295	0.06163777435875451	DeepGOPlus	0.235
0.9649725274725275	0.060406131214344454	DeepGOPlus	0.235
0.9647790055248618	0.05977502581015609	DeepGOPlus	0.235
0.966620626151013	0.05970389193620533	DeepGOPlus	0.235
0.9677374301675977	0.05841431439772062	DeepGOPlus	0.235
0.9695996275605214	0.0580569499481945	DeepGOPlus	0.235
0.9736423220973783	0.05671579414694482	DeepGOPlus	0.235
0.9734934086629002	0.055535073823410615	DeepGOPlus	0.235
0.9743333333333335	0.054973906595576716	DeepGOPlus	0.235
0.9741858237547893	0.05441748162600621	DeepGOPlus	0.235
0.9740366088631985	0.0537542429345985	DeepGOPlus	0.235
0.974467054263566	0.05338544767143705	DeepGOPlus	0.235
0.9743177387914231	0.05295134071559096	DeepGOPlus	0.235
0.9740138067061145	0.05241181322808528	DeepGOPlus	0.235
0.973859126984127	0.052188249624239985	DeepGOPlus	0.235
0.9735441767068274	0.05187652941049896	DeepGOPlus	0.235
0.9735441767068274	0.051016090747774884	DeepGOPlus	0.235
0.9732215447154472	0.050373226761693694	DeepGOPlus	0.235
0.9725520833333334	0.04986992066164926	DeepGOPlus	0.235
0.973110119047619	0.04964635705780396	DeepGOPlus	0.235
0.9741517857142856	0.049507182087030706	DeepGOPlus	0.235
0.9738245931283905	0.048384836704500556	DeepGOPlus	0.235
0.9734890109890109	0.04795661636029307	DeepGOPlus	0.235
0.9734890109890109	0.046753480976360756	DeepGOPlus	0.235
0.9731447124304267	0.045764833039356016	DeepGOPlus	0.235
0.9724285714285715	0.04478487924250082	DeepGOPlus	0.235
0.9746507936507937	0.04424268104772046	DeepGOPlus	0.235
0.9746507936507937	0.043694950218299486	DeepGOPlus	0.235
0.9743082368082367	0.043131929092933716	DeepGOPlus	0.235
0.9749261083743843	0.04225876079018794	DeepGOPlus	0.235
0.9743963782696178	0.041194763638553865	DeepGOPlus	0.235
0.9740306122448981	0.040549933844560085	DeepGOPlus	0.235
0.9756423432682426	0.04023601328416065	DeepGOPlus	0.235
0.9749206349206351	0.03869841930933459	DeepGOPlus	0.235
0.975796634443251	0.0380102693714378	DeepGOPlus	0.235
0.9773355143584151	0.03723048476611936	DeepGOPlus	0.235
0.9779069767441863	0.036427044948765135	DeepGOPlus	0.235
0.9773809523809526	0.03590953504930565	DeepGOPlus	0.235
0.9773809523809526	0.03554723074742184	DeepGOPlus	0.235
0.9762500000000002	0.03427872740330693	DeepGOPlus	0.235
0.9755649717514127	0.03312172929795202	DeepGOPlus	0.235
0.9753561253561256	0.03283719380214891	DeepGOPlus	0.235
0.9747076023391815	0.032049145761008285	DeepGOPlus	0.235
0.9782738095238097	0.03157281171659912	DeepGOPlus	0.235
0.9780780780780783	0.030984742892800125	DeepGOPlus	0.235
0.9778787878787881	0.030541920127886927	DeepGOPlus	0.235
0.9774691358024694	0.030125617598908343	DeepGOPlus	0.235
0.9772585669781932	0.029821322693674462	DeepGOPlus	0.235
0.9766025641025642	0.029398199911396753	DeepGOPlus	0.235
0.9788025889967639	0.029031396543981014	DeepGOPlus	0.235
0.9785947712418301	0.028889128796079463	DeepGOPlus	0.235
0.9785947712418301	0.02836370374704215	DeepGOPlus	0.235
0.977946127946128	0.027147115569820128	DeepGOPlus	0.235
0.977946127946128	0.02621492308833187	DeepGOPlus	0.235
0.9811224489795919	0.024939933080947486	DeepGOPlus	0.235
0.9807291666666668	0.024484207273109	DeepGOPlus	0.235
0.9785460992907802	0.024027095442927842	DeepGOPlus	0.235
0.9780797101449276	0.023701470508539216	DeepGOPlus	0.235
0.9773408239700374	0.022980678451572218	DeepGOPlus	0.235
0.9765503875968993	0.02200279523716642	DeepGOPlus	0.235
0.9769076305220883	0.02134299371593498	DeepGOPlus	0.235
0.9766260162601625	0.021212581613691894	DeepGOPlus	0.235
0.9763374485596708	0.02082385113683029	DeepGOPlus	0.235
0.9818376068376068	0.02052910017491847	DeepGOPlus	0.235
0.9816017316017316	0.020018629946138386	DeepGOPlus	0.235
0.9808558558558558	0.019349409947785695	DeepGOPlus	0.235
0.980324074074074	0.019218085872799644	DeepGOPlus	0.235
0.9797619047619047	0.018367923168176845	DeepGOPlus	0.235
0.9797619047619047	0.018299882071354367	DeepGOPlus	0.235
0.9788557213930348	0.017611850749520225	DeepGOPlus	0.235
0.9804687499999999	0.016898402977248927	DeepGOPlus	0.235
0.98015873015873	0.016701883609440485	DeepGOPlus	0.235
0.9798387096774193	0.016520077430360335	DeepGOPlus	0.235
0.9798387096774193	0.016296513826515042	DeepGOPlus	0.235
0.9798387096774193	0.016254218009571338	DeepGOPlus	0.235
0.9791666666666665	0.016049847745975687	DeepGOPlus	0.235
0.9788135593220337	0.016009720945285504	DeepGOPlus	0.235
0.9780701754385963	0.015488595196322142	DeepGOPlus	0.235
0.9780701754385963	0.015488595196322142	DeepGOPlus	0.235
0.9768518518518517	0.015200522725151079	DeepGOPlus	0.235
0.9768518518518517	0.015170995456718683	DeepGOPlus	0.235
0.9793209876543209	0.015141468188286286	DeepGOPlus	0.235
0.9793209876543209	0.015141468188286286	DeepGOPlus	0.235
0.9789308176100627	0.014867026226961006	DeepGOPlus	0.235
0.9789308176100627	0.013510740363632883	DeepGOPlus	0.235
0.9827044025157232	0.013398958561710233	DeepGOPlus	0.235
0.988562091503268	0.013055768818965266	DeepGOPlus	0.235
0.9880952380952381	0.01226923141270955	DeepGOPlus	0.235
0.9880952380952381	0.011801085404657439	DeepGOPlus	0.235
0.9875886524822696	0.011424456661337318	DeepGOPlus	0.235
0.9873188405797102	0.011254713925084408	DeepGOPlus	0.235
0.9873188405797102	0.010821917717640314	DeepGOPlus	0.235
0.9864341085271319	0.009959373897350016	DeepGOPlus	0.235
0.9857723577235773	0.009620760017841647	DeepGOPlus	0.235
0.9857723577235773	0.009620760017841647	DeepGOPlus	0.235
0.9857723577235773	0.009499177147825893	DeepGOPlus	0.235
0.9854166666666668	0.009285775525973566	DeepGOPlus	0.235
0.9850427350427352	0.008982797914701747	DeepGOPlus	0.235
0.9837962962962964	0.008610241751138194	DeepGOPlus	0.235
0.9828431372549021	0.008098185055488715	DeepGOPlus	0.235
0.9919354838709677	0.007681742111659229	DeepGOPlus	0.235
0.9913793103448276	0.007383020373187882	DeepGOPlus	0.235
0.9910714285714286	0.007311886499237107	DeepGOPlus	0.235
0.9907407407407407	0.006998897453853695	DeepGOPlus	0.235
0.9907407407407407	0.006998897453853695	DeepGOPlus	0.235
0.9871794871794871	0.006172954139647471	DeepGOPlus	0.235
1.0	0.006172954139647471	DeepGOPlus	0.235
1.0	0.00533929524652066	DeepGOPlus	0.235
1.0	0.0051970274986191094	DeepGOPlus	0.235
1.0	0.004615188888611486	DeepGOPlus	0.235
1.0	0.004069321089222559	DeepGOPlus	0.235
1.0	0.003977265487639203	DeepGOPlus	0.235
1.0	0.0034640477600239796	DeepGOPlus	0.235
1.0	0.0031456984177062656	DeepGOPlus	0.235
1.0	0.0030711772164245007	DeepGOPlus	0.235
1.0	0.0028432756750045945	DeepGOPlus	0.235
1.0	0.002550564994969971	DeepGOPlus	0.235
1.0	0.0024386721882787804	DeepGOPlus	0.235
1.0	0.0023268903863561336	DeepGOPlus	0.235
1.0	0.0022151085844334868	DeepGOPlus	0.235
1.0	0.001931538706828812	DeepGOPlus	0.235
1.0	0.001931538706828812	DeepGOPlus	0.235
1.0	0.0015544379776154067	DeepGOPlus	0.235
1.0	0.0014674965761200148	DeepGOPlus	0.235
1.0	0.0014674965761200148	DeepGOPlus	0.235
1.0	0.0013068102358562096	DeepGOPlus	0.235
1.0	0.0011864298337856667	DeepGOPlus	0.235
1.0	0.0011864298337856667	DeepGOPlus	0.235
1.0	0.0009356373294720357	DeepGOPlus	0.235
1.0	0.0007182838257335554	DeepGOPlus	0.235
1.0	0.0006065020238109085	DeepGOPlus	0.235
1.0	0.0004326192208201243	DeepGOPlus	0.235
1.0	0.0004326192208201243	DeepGOPlus	0.235
1.0	0.00023107324462626083	DeepGOPlus	0.235
1.0	0.00023107324462626083	DeepGOPlus	0.235
1.0	2.952726843239732e-05	DeepGOPlus	0.235
1.0	2.952726843239732e-05	DeepGOPlus	0.235
1.0	2.952726843239732e-05	DeepGOPlus	0.235
1.0	2.952726843239732e-05	DeepGOPlus	0.235
1.0	2.952726843239732e-05	DeepGOPlus	0.235
0.0	0.0	DeepGOPlus	0.235
0.0	0.0	DeepGOPlus	0.235
0.0	0.0	DeepGOPlus	0.235
0.0	0.0	DeepGOPlus	0.235
0.0	0.0	DeepGOPlus	0.235
0.0	0.0	DeepGOPlus	0.235
0.0	0.0	DeepGOPlus	0.235
0.0	0.0	DeepGOPlus	0.235
0.0	0.0	DeepGOPlus	0.235
0.0	0.0	DeepGOPlus	0.235
0.0	0.0	DeepGOPlus	0.235
0.0	0.0	DeepGOPlus	0.235
0.0	0.0	DeepGOPlus	0.235
0.0	0.0	DeepGOPlus	0.235
0.0	0.0	DeepGOPlus	0.235
0.0	0.0	DeepGOPlus	0.235
0.0	0.0	DeepGOPlus	0.235
0.0	0.0	DeepGOPlus	0.235
0.0	0.0	DeepGOPlus	0.235
0.0	0.0	DeepGOPlus	0.235
0.0	0.0	DeepGOPlus	0.235
0.0	0.0	DeepGOPlus	0.235
0.0	0.0	DeepGOPlus	0.235
0.0	0.0	DeepGOPlus	0.235
0.0	0.0	DeepGOPlus	0.235
0.0	0.0	DeepGOPlus	0.235
0.0	0.0	DeepGOPlus	0.235
0.0	0.0	DeepGOPlus	0.235
0.0	0.0	DeepGOPlus	0.235
0.0	0.0	DeepGOPlus	0.235
0.0	0.0	DeepGOPlus	0.235
0.0	0.0	DeepGOPlus	0.235
