0.483001805480603	0.34125066349427047	FunFams
0.483001805480603	0.34125066349427047	FunFams
0.483001805480603	0.34125066349427047	FunFams
0.483001805480603	0.34125066349427047	FunFams
0.48420106068333413	0.34125066349427047	FunFams
0.48518921133927995	0.34120836767732676	FunFams
0.48508356545337633	0.3404258950638682	FunFams
0.48491515672870367	0.33997876785617764	FunFams
0.4849822922699906	0.33997876785617764	FunFams
0.4850580095866613	0.33997876785617764	FunFams
0.48515339167715815	0.33997876785617764	FunFams
0.48526790680662757	0.33997876785617764	FunFams
0.48556414040798174	0.33997876785617764	FunFams
0.48730314084989534	0.33997876785617764	FunFams
0.48900421196279376	0.3383094929474661	FunFams
0.49056536239218557	0.3383094929474661	FunFams
0.49056536239218557	0.3383094929474661	FunFams
0.494658927336791	0.33710224948670153	FunFams
0.4948044666314138	0.33710224948670153	FunFams
0.49514921014643715	0.3365806010777292	FunFams
0.49651968430143817	0.3365806010777292	FunFams
0.49746106828497016	0.3365806010777292	FunFams
0.4977156137395156	0.3365806010777292	FunFams
0.49844089007071857	0.3364067182747384	FunFams
0.49731111003763806	0.3352143790542302	FunFams
0.4997528992032506	0.3338059283500048	FunFams
0.5004754100802417	0.3338059283500048	FunFams
0.5016700656574867	0.3326433976100093	FunFams
0.5037397810812393	0.33195577016181843	FunFams
0.5037397810812393	0.33195577016181843	FunFams
0.503718120462389	0.33115094118797533	FunFams
0.508805104248617	0.3270522751174783	FunFams
0.5090494101399518	0.3270522751174783	FunFams
0.5097874175200255	0.32700756239670925	FunFams
0.510501323307732	0.32700756239670925	FunFams
0.5109899914879243	0.32679416077485696	FunFams
0.5111013810729981	0.32679416077485696	FunFams
0.5111013810729981	0.32679416077485696	FunFams
0.5111160783099176	0.32679416077485696	FunFams
0.5113653660592052	0.32679416077485696	FunFams
0.5118627768294207	0.32671591351351104	FunFams
0.5121486253231545	0.32671591351351104	FunFams
0.5126983842062467	0.32606385300229557	FunFams
0.5127423016414684	0.32606385300229557	FunFams
0.517658389452293	0.32606385300229557	FunFams
0.5175804367890339	0.3249460349830691	FunFams
0.5175804367890339	0.3249460349830691	FunFams
0.518448508259727	0.3249460349830691	FunFams
0.5175191402299874	0.32361399966450594	FunFams
0.5175978121233266	0.32344926858798834	FunFams
0.5175978121233266	0.32344926858798834	FunFams
0.5190380136273506	0.3221688588568744	FunFams
0.5193396170760075	0.3221688588568744	FunFams
0.520872411197627	0.3215950456070048	FunFams
0.520872411197627	0.3215950456070048	FunFams
0.5200584947802269	0.3204569036237924	FunFams
0.520263667796882	0.3204569036237924	FunFams
0.5209892067686896	0.3204569036237924	FunFams
0.5210674866977159	0.3204569036237924	FunFams
0.5225891332907264	0.3180804155934432	FunFams
0.5225891332907264	0.3180804155934432	FunFams
0.5256916938649502	0.31787175622985425	FunFams
0.5256916938649502	0.31787175622985425	FunFams
0.5252354370108483	0.3162617060653193	FunFams
0.5260978872541036	0.3162617060653193	FunFams
0.5260978872541036	0.3162617060653193	FunFams
0.5262067119474159	0.3162617060653193	FunFams
0.526578925250989	0.3162617060653193	FunFams
0.526578925250989	0.3162617060653193	FunFams
0.5268720123805705	0.3162617060653193	FunFams
0.5268720123805705	0.3162617060653193	FunFams
0.5272549731781501	0.3162617060653193	FunFams
0.528357922982963	0.3162617060653193	FunFams
0.528357922982963	0.3162617060653193	FunFams
0.5281843708229933	0.31578320150972056	FunFams
0.5292341231657216	0.31421825628280353	FunFams
0.5292341231657216	0.31421825628280353	FunFams
0.5291726821722033	0.31287687465973174	FunFams
0.5291726821722033	0.31287687465973174	FunFams
0.5294567730812941	0.31287687465973174	FunFams
0.5294567730812941	0.31287687465973174	FunFams
0.5303090458085669	0.31287687465973174	FunFams
0.5304242893287515	0.31261605045524554	FunFams
0.5304242893287515	0.31261605045524554	FunFams
0.5341210756895653	0.31261605045524554	FunFams
0.5351238751714523	0.31261605045524554	FunFams
0.5353794907256587	0.31261605045524554	FunFams
0.535383804147518	0.31261605045524554	FunFams
0.535383804147518	0.31261605045524554	FunFams
0.5357438139103433	0.31174166836020617	FunFams
0.5357438139103433	0.31174166836020617	FunFams
0.5380460559606656	0.310018647857843	FunFams
0.5380460559606656	0.310018647857843	FunFams
0.5382282211237468	0.310018647857843	FunFams
0.5390132590080013	0.3098230297044784	FunFams
0.5390132590080013	0.3098230297044784	FunFams
0.5399711134141315	0.3098230297044784	FunFams
0.5408492019358982	0.3098230297044784	FunFams
0.5414622287558216	0.3067794269573916	FunFams
0.5384729685255852	0.3056839652985496	FunFams
0.5384729685255852	0.3056839652985496	FunFams
0.5397316786092381	0.3056839652985496	FunFams
0.5397316786092381	0.3056839652985496	FunFams
0.5422027210802807	0.3056839652985496	FunFams
0.5440383714699323	0.3056839652985496	FunFams
0.5440383714699323	0.3056839652985496	FunFams
0.5443286207740636	0.3056839652985496	FunFams
0.544060562958836	0.305236838090859	FunFams
0.544114188012461	0.305236838090859	FunFams
0.544114188012461	0.305236838090859	FunFams
0.544114188012461	0.305236838090859	FunFams
0.544114188012461	0.305236838090859	FunFams
0.5496563281040169	0.30334811109285564	FunFams
0.5499885540176381	0.30334811109285564	FunFams
0.5499885540176381	0.30334811109285564	FunFams
0.5499885540176381	0.30334811109285564	FunFams
0.5504422782835117	0.3031133693088181	FunFams
0.5508000600366423	0.3031133693088181	FunFams
0.551852049848654	0.30293279870571227	FunFams
0.5520765335361727	0.30293279870571227	FunFams
0.5520765335361727	0.30293279870571227	FunFams
0.5520765335361727	0.30293279870571227	FunFams
0.5520765335361727	0.30293279870571227	FunFams
0.5522927030130426	0.30293279870571227	FunFams
0.5522927030130426	0.30293279870571227	FunFams
0.5530032426848409	0.30293279870571227	FunFams
0.5569257638624053	0.3005853808653367	FunFams
0.5569257638624053	0.3005853808653367	FunFams
0.5567598120650197	0.30036181726149136	FunFams
0.5567598120650197	0.30036181726149136	FunFams
0.5569768259539086	0.30036181726149136	FunFams
0.5570100631908097	0.30036181726149136	FunFams
0.5570100631908097	0.30036181726149136	FunFams
0.5570100631908097	0.30036181726149136	FunFams
0.5561257092221333	0.29943030224546935	FunFams
0.5561257092221333	0.29943030224546935	FunFams
0.5571061013789961	0.29943030224546935	FunFams
0.5571061013789961	0.29943030224546935	FunFams
0.5571061013789961	0.29943030224546935	FunFams
0.5572181461969232	0.29943030224546935	FunFams
0.5583027235210315	0.2988043241547026	FunFams
0.5583027235210315	0.2988043241547026	FunFams
0.5583027235210315	0.2988043241547026	FunFams
0.5600893612525581	0.293752980411252	FunFams
0.5600893612525581	0.293752980411252	FunFams
0.5607281900163869	0.293752980411252	FunFams
0.5607281900163869	0.293752980411252	FunFams
0.5607281900163869	0.293752980411252	FunFams
0.562615726543388	0.2935688692080852	FunFams
0.562615726543388	0.2935688692080852	FunFams
0.562615726543388	0.2935688692080852	FunFams
0.5652878883788964	0.29350082811126277	FunFams
0.5652878883788964	0.29350082811126277	FunFams
0.565429613966664	0.29350082811126277	FunFams
0.5635950285351221	0.29148875567665516	FunFams
0.5635950285351221	0.29148875567665516	FunFams
0.5636545523446458	0.29148875567665516	FunFams
0.5639818250719186	0.29148875567665516	FunFams
0.5639170477439833	0.2909671072676828	FunFams
0.5639170477439833	0.2909671072676828	FunFams
0.5639170477439833	0.2909671072676828	FunFams
0.5639228504519136	0.2909671072676828	FunFams
0.5639228504519136	0.2909671072676828	FunFams
0.5635014457696395	0.2902964164561469	FunFams
0.5635014457696395	0.2902964164561469	FunFams
0.5635759138547457	0.2902964164561469	FunFams
0.5635759138547457	0.2902964164561469	FunFams
0.568468313057936	0.2864583514900717	FunFams
0.568468313057936	0.2864583514900717	FunFams
0.568468313057936	0.2864583514900717	FunFams
0.568468313057936	0.2864583514900717	FunFams
0.568468313057936	0.2864583514900717	FunFams
0.568468313057936	0.2864583514900717	FunFams
0.5685345119193156	0.2864583514900717	FunFams
0.5668028612779913	0.28489340626315457	FunFams
0.5668028612779913	0.28489340626315457	FunFams
0.5668028612779913	0.28489340626315457	FunFams
0.5668028612779913	0.28489340626315457	FunFams
0.5668028612779913	0.28489340626315457	FunFams
0.5668838521073373	0.28476299416091155	FunFams
0.5668838521073373	0.28476299416091155	FunFams
0.5657016673566041	0.28330237861578894	FunFams
0.5649142846933305	0.2822590817978442	FunFams
0.5649409201077775	0.2822590817978442	FunFams
0.5651208571298199	0.2822590817978442	FunFams
0.5651208571298199	0.2822590817978442	FunFams
0.5651208571298199	0.2822590817978442	FunFams
0.5651208571298199	0.2822590817978442	FunFams
0.5747207404139139	0.2822590817978442	FunFams
0.5751842145615984	0.2822590817978442	FunFams
0.5746781416871044	0.2816331037070774	FunFams
0.5744210887984726	0.2814289804166099	FunFams
0.5744210887984726	0.2814289804166099	FunFams
0.5744210887984726	0.2814289804166099	FunFams
0.5744210887984726	0.2814289804166099	FunFams
0.5744210887984726	0.2814289804166099	FunFams
0.5744210887984726	0.2814289804166099	FunFams
0.5744210887984726	0.2814289804166099	FunFams
0.5744210887984726	0.2814289804166099	FunFams
0.5744210887984726	0.2814289804166099	FunFams
0.5744210887984726	0.2814289804166099	FunFams
0.5751953758205367	0.27642292316573364	FunFams
0.5751953758205367	0.27642292316573364	FunFams
0.5751953758205367	0.27642292316573364	FunFams
0.573454373262424	0.2748579779388166	FunFams
0.573454373262424	0.2748579779388166	FunFams
0.5734580150046333	0.27481326521804755	FunFams
0.5735263210155623	0.27481326521804755	FunFams
0.5735263210155623	0.27481326521804755	FunFams
0.5729470642531338	0.2741612047068321	FunFams
0.5730733627596539	0.2741612047068321	FunFams
0.5731687072338675	0.2736246520576034	FunFams
0.5732805100316207	0.2736246520576034	FunFams
0.5732805100316207	0.2736246520576034	FunFams
0.5732805100316207	0.2736246520576034	FunFams
0.5722500592296965	0.27321282436630945	FunFams
0.5723985108439208	0.27258684627554264	FunFams
0.5727428634610007	0.27258684627554264	FunFams
0.5734807619261718	0.27258684627554264	FunFams
0.5734807619261718	0.27258684627554264	FunFams
0.5734807619261718	0.27258684627554264	FunFams
0.5741891444527362	0.27258684627554264	FunFams
0.5741891444527362	0.27258684627554264	FunFams
0.5745883938638433	0.27258684627554264	FunFams
0.5747488065736633	0.27258684627554264	FunFams
0.575368641284407	0.27258684627554264	FunFams
0.5762869149299533	0.27258684627554264	FunFams
0.5762869149299533	0.27258684627554264	FunFams
0.5763585850681422	0.27258684627554264	FunFams
0.5763585850681422	0.27258684627554264	FunFams
0.5766081159500841	0.27258684627554264	FunFams
0.5792055185474868	0.27258684627554264	FunFams
0.5792055185474868	0.27258684627554264	FunFams
0.5793551015847704	0.27258684627554264	FunFams
0.5793551015847704	0.27258684627554264	FunFams
0.5793551015847704	0.27258684627554264	FunFams
0.5793551015847704	0.27258684627554264	FunFams
0.5793551015847704	0.27258684627554264	FunFams
0.5816411236966996	0.27174848276112273	FunFams
0.5816411236966996	0.27174848276112273	FunFams
0.5836016654158063	0.27161807065887966	FunFams
0.5836525988634516	0.27099209256811285	FunFams
0.5838515710300879	0.27099209256811285	FunFams
0.5838515710300879	0.27099209256811285	FunFams
0.5838515710300879	0.27099209256811285	FunFams
0.585943621239293	0.27099209256811285	FunFams
0.585943621239293	0.27099209256811285	FunFams
0.585943621239293	0.27099209256811285	FunFams
0.585943621239293	0.27099209256811285	FunFams
0.585943621239293	0.27099209256811285	FunFams
0.585943621239293	0.27099209256811285	FunFams
0.5891619650422352	0.2670350167800511	FunFams
0.5891619650422352	0.2670350167800511	FunFams
0.5891619650422352	0.2670350167800511	FunFams
0.5891619650422352	0.2670350167800511	FunFams
0.5891619650422352	0.2670350167800511	FunFams
0.5901216484524728	0.26614076236466994	FunFams
0.5901216484524728	0.26614076236466994	FunFams
0.5901216484524728	0.26614076236466994	FunFams
0.5901659746936074	0.26614076236466994	FunFams
0.5901659746936074	0.26614076236466994	FunFams
0.5909314818420934	0.26614076236466994	FunFams
0.5909314818420934	0.26614076236466994	FunFams
0.5909314818420934	0.26614076236466994	FunFams
0.5910102840485552	0.26614076236466994	FunFams
0.5910102840485552	0.26614076236466994	FunFams
0.5910102840485552	0.26614076236466994	FunFams
0.5902672918162012	0.2654551673128777	FunFams
0.5902672918162012	0.2654551673128777	FunFams
0.5902672918162012	0.2654551673128777	FunFams
0.5885162973367835	0.2646125044983839	FunFams
0.5885162973367835	0.2646125044983839	FunFams
0.5885162973367835	0.2646125044983839	FunFams
0.5893908950737294	0.2646125044983839	FunFams
0.5893908950737294	0.2646125044983839	FunFams
0.5893908950737294	0.2646125044983839	FunFams
0.5896322689262145	0.2646125044983839	FunFams
0.5899610000241763	0.2646125044983839	FunFams
0.5899697329816271	0.2646125044983839	FunFams
0.5899697329816271	0.2646125044983839	FunFams
0.5899697329816271	0.2646125044983839	FunFams
0.5899697329816271	0.2646125044983839	FunFams
0.588812994982784	0.26343879557819616	FunFams
0.5902671280084612	0.2633605483168503	FunFams
0.5902671280084612	0.2633605483168503	FunFams
0.5902671280084612	0.2633605483168503	FunFams
0.596335565847643	0.26051187012895144	FunFams
0.596335565847643	0.26051187012895144	FunFams
0.596335565847643	0.26051187012895144	FunFams
0.596335565847643	0.26051187012895144	FunFams
0.596335565847643	0.26051187012895144	FunFams
0.5966414885103939	0.26051187012895144	FunFams
0.5966414885103939	0.26051187012895144	FunFams
0.5966414885103939	0.26051187012895144	FunFams
0.5972970370734314	0.26051187012895144	FunFams
0.598144207524126	0.2603696023810499	FunFams
0.598144207524126	0.2603696023810499	FunFams
0.598144207524126	0.2603696023810499	FunFams
0.598144207524126	0.2603696023810499	FunFams
0.598144207524126	0.2603696023810499	FunFams
0.598144207524126	0.2603696023810499	FunFams
0.5996443870200002	0.25871929650539194	FunFams
0.5996443870200002	0.25871929650539194	FunFams
0.5996443870200002	0.25871929650539194	FunFams
0.5997923935569557	0.25871929650539194	FunFams
0.6001611251203776	0.25871929650539194	FunFams
0.6001611251203776	0.25871929650539194	FunFams
0.6001611251203776	0.25871929650539194	FunFams
0.6001611251203776	0.25871929650539194	FunFams
0.6001611251203776	0.25871929650539194	FunFams
0.6055077327899939	0.258447132118102	FunFams
0.6055077327899939	0.258447132118102	FunFams
0.6055077327899939	0.258447132118102	FunFams
0.6056060612069065	0.258447132118102	FunFams
0.6060083138215484	0.258447132118102	FunFams
0.6060083138215484	0.258447132118102	FunFams
0.6066720306357077	0.258447132118102	FunFams
0.6066720306357077	0.258447132118102	FunFams
0.6066720306357077	0.258447132118102	FunFams
0.6073260227295384	0.25829808971553847	FunFams
0.6073260227295384	0.25829808971553847	FunFams
0.6073260227295384	0.25829808971553847	FunFams
0.6076502375218383	0.25829808971553847	FunFams
0.6075727832250608	0.2567331444886214	FunFams
0.6075727832250608	0.2567331444886214	FunFams
0.6075727832250608	0.2567331444886214	FunFams
0.6076603182390664	0.2567331444886214	FunFams
0.6076603182390664	0.2567331444886214	FunFams
0.6085460892141231	0.2567331444886214	FunFams
0.6085460892141231	0.2567331444886214	FunFams
0.6085460892141231	0.2567331444886214	FunFams
0.6085460892141231	0.2567331444886214	FunFams
0.6089181130236471	0.2567331444886214	FunFams
0.6089181130236471	0.2567331444886214	FunFams
0.6143501243304099	0.24978140573693766	FunFams
0.6143501243304099	0.24978140573693766	FunFams
0.6143501243304099	0.24978140573693766	FunFams
0.6146545383334542	0.24978140573693766	FunFams
0.6146545383334542	0.24978140573693766	FunFams
0.6146545383334542	0.24978140573693766	FunFams
0.6146545383334542	0.24978140573693766	FunFams
0.6146621318091399	0.24978140573693766	FunFams
0.6162074728826782	0.2482164605100206	FunFams
0.6162074728826782	0.2482164605100206	FunFams
0.6162074728826782	0.2482164605100206	FunFams
0.6174816828724845	0.2482164605100206	FunFams
0.6174816828724845	0.2482164605100206	FunFams
0.6174816828724845	0.2482164605100206	FunFams
0.617233079699415	0.24689495120729063	FunFams
0.617233079699415	0.24689495120729063	FunFams
0.617233079699415	0.24689495120729063	FunFams
0.617233079699415	0.24689495120729063	FunFams
0.617233079699415	0.24689495120729063	FunFams
0.6183211493358717	0.24689495120729063	FunFams
0.6183211493358717	0.24689495120729063	FunFams
0.6197482342176913	0.24689495120729063	FunFams
0.6197482342176913	0.24689495120729063	FunFams
0.6197482342176913	0.24689495120729063	FunFams
0.6197482342176913	0.24689495120729063	FunFams
0.6197482342176913	0.24689495120729063	FunFams
0.6197482342176913	0.24689495120729063	FunFams
0.6195752427383997	0.2465110967176694	FunFams
0.6195752427383997	0.2465110967176694	FunFams
0.6195752427383997	0.2465110967176694	FunFams
0.6229479735729303	0.2465110967176694	FunFams
0.6229479735729303	0.2465110967176694	FunFams
0.6229479735729303	0.2465110967176694	FunFams
0.6229479735729303	0.2465110967176694	FunFams
0.6229479735729303	0.2465110967176694	FunFams
0.6229829891200984	0.24546779989972473	FunFams
0.6229829891200984	0.24546779989972473	FunFams
0.6229829891200984	0.24546779989972473	FunFams
0.6229829891200984	0.24546779989972473	FunFams
0.6229829891200984	0.24546779989972473	FunFams
0.6229829891200984	0.24546779989972473	FunFams
0.6229829891200984	0.24546779989972473	FunFams
0.6311536951878652	0.23815944233191563	FunFams
0.6311536951878652	0.23815944233191563	FunFams
0.6311536951878652	0.23815944233191563	FunFams
0.629405608435201	0.23659449710499858	FunFams
0.629405608435201	0.23659449710499858	FunFams
0.6276408732372735	0.23557388065266133	FunFams
0.6276408732372735	0.23557388065266133	FunFams
0.6276408732372735	0.23557388065266133	FunFams
0.6276408732372735	0.23557388065266133	FunFams
0.6222726151354772	0.23087904497191017	FunFams
0.6222726151354772	0.23087904497191017	FunFams
0.6222726151354772	0.23087904497191017	FunFams
0.6222726151354772	0.23087904497191017	FunFams
0.6223878427532324	0.23087904497191017	FunFams
0.6223878427532324	0.23087904497191017	FunFams
0.6223878427532324	0.23087904497191017	FunFams
0.6223878427532324	0.23087904497191017	FunFams
0.6223878427532324	0.23087904497191017	FunFams
0.6223878427532324	0.23087904497191017	FunFams
0.6223878427532324	0.23087904497191017	FunFams
0.6223878427532324	0.23087904497191017	FunFams
0.6223878427532324	0.23087904497191017	FunFams
0.6223878427532324	0.23087904497191017	FunFams
0.6223878427532324	0.23087904497191017	FunFams
0.6223878427532324	0.23087904497191017	FunFams
0.631657563420844	0.22295186816352158	FunFams
0.631657563420844	0.22295186816352158	FunFams
0.631607563420844	0.22287362090217575	FunFams
0.631607563420844	0.22287362090217575	FunFams
0.631607563420844	0.22287362090217575	FunFams
0.6316407672571296	0.2213086756752587	FunFams
0.6316407672571296	0.2213086756752587	FunFams
0.6316407672571296	0.2213086756752587	FunFams
0.6316407672571296	0.2213086756752587	FunFams
0.631119643117915	0.22102414017945554	FunFams
0.631119643117915	0.22102414017945554	FunFams
0.6347987529528037	0.22030390970570393	FunFams
0.6347987529528037	0.22030390970570393	FunFams
0.6347987529528037	0.22030390970570393	FunFams
0.6347987529528037	0.22030390970570393	FunFams
0.6347987529528037	0.22030390970570393	FunFams
0.6362272605742239	0.21773165801373395	FunFams
0.6362272605742239	0.21773165801373395	FunFams
0.6373582361975852	0.21773165801373395	FunFams
0.6373582361975852	0.21773165801373395	FunFams
0.6373582361975852	0.21773165801373395	FunFams
0.6393345537292056	0.21741866896835055	FunFams
0.6393345537292056	0.21741866896835055	FunFams
0.6393345537292056	0.21741866896835055	FunFams
0.6393345537292056	0.21741866896835055	FunFams
0.6374849873380732	0.2160102182641252	FunFams
0.6374849873380732	0.2160102182641252	FunFams
0.6374849873380732	0.2160102182641252	FunFams
0.6376775247985358	0.21198254344327022	FunFams
0.6376775247985358	0.21198254344327022	FunFams
0.6372663405880095	0.21159130713654098	FunFams
0.6372663405880095	0.21159130713654098	FunFams
0.6378104924584528	0.21089577592457787	FunFams
0.6378104924584528	0.21089577592457787	FunFams
0.6390621266292867	0.2105827868791944	FunFams
0.6393789722550568	0.2105827868791944	FunFams
0.6393789722550568	0.2105827868791944	FunFams
0.6393789722550568	0.2105827868791944	FunFams
0.6393789722550568	0.2105827868791944	FunFams
0.6393789722550568	0.2105827868791944	FunFams
0.6393789722550568	0.2105827868791944	FunFams
0.6396218872348138	0.2105827868791944	FunFams
0.6396218872348138	0.2105827868791944	FunFams
0.6396218872348138	0.2105827868791944	FunFams
0.6360705964240861	0.20829747003988697	FunFams
0.6360705964240861	0.20829747003988697	FunFams
0.6360705964240861	0.20829747003988697	FunFams
0.6360705964240861	0.20829747003988697	FunFams
0.6363628573546449	0.20829747003988697	FunFams
0.6363628573546449	0.20829747003988697	FunFams
0.6363628573546449	0.20829747003988697	FunFams
0.6363628573546449	0.20829747003988697	FunFams
0.6363628573546449	0.20829747003988697	FunFams
0.6363628573546449	0.20829747003988697	FunFams
0.6401751985344205	0.20606860865609594	FunFams
0.6402161485753705	0.20606860865609594	FunFams
0.6402161485753705	0.20606860865609594	FunFams
0.6402161485753705	0.20606860865609594	FunFams
0.6398835082427302	0.20554696024712357	FunFams
0.6402300085892305	0.20554696024712357	FunFams
0.6402300085892305	0.20554696024712357	FunFams
0.6408739807531133	0.20455857378801806	FunFams
0.6408739807531133	0.20455857378801806	FunFams
0.6408739807531133	0.20455857378801806	FunFams
0.6392100235372259	0.20338486486783028	FunFams
0.6392100235372259	0.20338486486783028	FunFams
0.6393344519442312	0.20338486486783028	FunFams
0.6393344519442312	0.20338486486783028	FunFams
0.6393344519442312	0.20338486486783028	FunFams
0.6393344519442312	0.20338486486783028	FunFams
0.6301065577064988	0.19549031993931687	FunFams
0.6301065577064988	0.19549031993931687	FunFams
0.6301065577064988	0.19549031993931687	FunFams
0.6324373253378375	0.19392537471239982	FunFams
0.6324373253378375	0.19392537471239982	FunFams
0.6324373253378375	0.19392537471239982	FunFams
0.6324373253378375	0.19392537471239982	FunFams
0.6324373253378375	0.19392537471239982	FunFams
0.6324373253378375	0.19392537471239982	FunFams
0.6324373253378375	0.19392537471239982	FunFams
0.6341635158140279	0.19392537471239982	FunFams
0.6341635158140279	0.19392537471239982	FunFams
0.6344356246575653	0.19353413840567055	FunFams
0.6344356246575653	0.19353413840567055	FunFams
0.6344356246575653	0.19353413840567055	FunFams
0.6344356246575653	0.19353413840567055	FunFams
0.6344356246575653	0.19353413840567055	FunFams
0.6344356246575653	0.19353413840567055	FunFams
0.6344356246575653	0.19353413840567055	FunFams
0.634766887597524	0.19353413840567055	FunFams
0.634766887597524	0.19353413840567055	FunFams
0.634766887597524	0.19353413840567055	FunFams
0.634766887597524	0.19353413840567055	FunFams
0.634766887597524	0.19353413840567055	FunFams
0.634766887597524	0.19353413840567055	FunFams
0.634766887597524	0.19353413840567055	FunFams
0.6360123088429452	0.19353413840567055	FunFams
0.6360123088429452	0.19353413840567055	FunFams
0.6360123088429452	0.19353413840567055	FunFams
0.6360123088429452	0.19353413840567055	FunFams
0.6555848392579248	0.1782065393525813	FunFams
0.6555848392579248	0.1782065393525813	FunFams
0.6555848392579248	0.1782065393525813	FunFams
0.6555848392579248	0.1782065393525813	FunFams
0.6555848392579248	0.1782065393525813	FunFams
0.6555848392579248	0.1782065393525813	FunFams
0.6555848392579248	0.1782065393525813	FunFams
0.6555848392579248	0.1782065393525813	FunFams
0.6555848392579248	0.1782065393525813	FunFams
0.6555848392579248	0.1782065393525813	FunFams
0.6555848392579248	0.1782065393525813	FunFams
0.6558477958461826	0.1782065393525813	FunFams
0.6567923279422201	0.17625035781893497	FunFams
0.6576929463498501	0.17559829730771953	FunFams
0.6576929463498501	0.17559829730771953	FunFams
0.6576929463498501	0.17559829730771953	FunFams
0.6576929463498501	0.17559829730771953	FunFams
0.6587092065124517	0.17559829730771953	FunFams
0.6587092065124517	0.17559829730771953	FunFams
0.6587092065124517	0.17559829730771953	FunFams
0.6587092065124517	0.17559829730771953	FunFams
0.6587092065124517	0.17559829730771953	FunFams
0.6587092065124517	0.17559829730771953	FunFams
0.6587092065124517	0.17559829730771953	FunFams
0.6587092065124517	0.17559829730771953	FunFams
0.6566153979634483	0.17403335208080248	FunFams
0.658926936675263	0.1723527369892872	FunFams
0.658926936675263	0.1723527369892872	FunFams
0.6602758831672808	0.17110078080775357	FunFams
0.6606034513014527	0.17110078080775357	FunFams
0.6606034513014527	0.17110078080775357	FunFams
0.6606034513014527	0.17110078080775357	FunFams
0.6608050316917123	0.17110078080775357	FunFams
0.6608050316917123	0.17110078080775357	FunFams
0.6608050316917123	0.17110078080775357	FunFams
0.6608050316917123	0.17110078080775357	FunFams
0.6608050316917123	0.17110078080775357	FunFams
0.6608050316917123	0.17110078080775357	FunFams
0.6595623872268317	0.17057913239878122	FunFams
0.6583039128961563	0.17005748398980886	FunFams
0.6583039128961563	0.17005748398980886	FunFams
0.6583039128961563	0.17005748398980886	FunFams
0.6561135533634394	0.16969122021329636	FunFams
0.6561135533634394	0.16969122021329636	FunFams
0.6561135533634394	0.16969122021329636	FunFams
0.6532579023353069	0.16304020299889888	FunFams
0.6532579023353069	0.16304020299889888	FunFams
0.6509462883508755	0.16147525777198182	FunFams
0.6509462883508755	0.16147525777198182	FunFams
0.6509462883508755	0.16147525777198182	FunFams
0.6509462883508755	0.16147525777198182	FunFams
0.6509462883508755	0.16147525777198182	FunFams
0.6509462883508755	0.16147525777198182	FunFams
0.6509462883508755	0.16147525777198182	FunFams
0.6509462883508755	0.16147525777198182	FunFams
0.6528167436090416	0.1600953306999712	FunFams
0.6528167436090416	0.1600953306999712	FunFams
0.6528167436090416	0.1600953306999712	FunFams
0.6528167436090416	0.1600953306999712	FunFams
0.6528167436090416	0.1600953306999712	FunFams
0.6528167436090416	0.1600953306999712	FunFams
0.6528167436090416	0.1600953306999712	FunFams
0.6528167436090416	0.1600953306999712	FunFams
0.6528167436090416	0.1600953306999712	FunFams
0.6528167436090416	0.1600953306999712	FunFams
0.6504549527492391	0.15909945646466034	FunFams
0.6504549527492391	0.15909945646466034	FunFams
0.6504549527492391	0.15909945646466034	FunFams
0.6521703976310832	0.1587082201579311	FunFams
0.6521703976310832	0.1587082201579311	FunFams
0.6521703976310832	0.1587082201579311	FunFams
0.6467770770927972	0.15612666562019503	FunFams
0.6467770770927972	0.15612666562019503	FunFams
0.6467770770927972	0.15612666562019503	FunFams
0.6467770770927972	0.15612666562019503	FunFams
0.6467770770927972	0.15612666562019503	FunFams
0.6467770770927972	0.15612666562019503	FunFams
0.6467770770927972	0.15612666562019503	FunFams
0.6467770770927972	0.15612666562019503	FunFams
0.6467770770927972	0.15612666562019503	FunFams
0.6467770770927972	0.15612666562019503	FunFams
0.6467770770927972	0.15612666562019503	FunFams
0.6467770770927972	0.15612666562019503	FunFams
0.6529697309464387	0.15178150634545828	FunFams
0.6529697309464387	0.15178150634545828	FunFams
0.6529697309464387	0.15178150634545828	FunFams
0.6529697309464387	0.15178150634545828	FunFams
0.6529697309464387	0.15178150634545828	FunFams
0.6477901746919079	0.14865161589162418	FunFams
0.6477901746919079	0.14865161589162418	FunFams
0.646774101213148	0.14844749260115672	FunFams
0.646774101213148	0.14844749260115672	FunFams
0.6479297649009784	0.14844749260115672	FunFams
0.6479297649009784	0.14831708049891362	FunFams
0.6479297649009784	0.14831708049891362	FunFams
0.6491454061517381	0.14831708049891362	FunFams
0.6491454061517381	0.14831708049891362	FunFams
0.6491454061517381	0.14831708049891362	FunFams
0.6491454061517381	0.14831708049891362	FunFams
0.6491454061517381	0.14831708049891362	FunFams
0.6575884471364165	0.14497853068149058	FunFams
0.6575884471364165	0.14497853068149058	FunFams
0.6575884471364165	0.14497853068149058	FunFams
0.6575884471364165	0.14497853068149058	FunFams
0.6575884471364165	0.14497853068149058	FunFams
0.6575884471364165	0.14497853068149058	FunFams
0.6575884471364165	0.14497853068149058	FunFams
0.6575884471364165	0.14497853068149058	FunFams
0.6575884471364165	0.14497853068149058	FunFams
0.655380516084268	0.1443431393863513	FunFams
0.655380516084268	0.1443431393863513	FunFams
0.655380516084268	0.1443431393863513	FunFams
0.655380516084268	0.1443431393863513	FunFams
0.655380516084268	0.1443431393863513	FunFams
0.655380516084268	0.1443431393863513	FunFams
0.655380516084268	0.1443431393863513	FunFams
0.655380516084268	0.1443431393863513	FunFams
0.6581632630530615	0.14420705719270635	FunFams
0.6581632630530615	0.14420705719270635	FunFams
0.6581632630530615	0.14420705719270635	FunFams
0.6581632630530615	0.14420705719270635	FunFams
0.6583478330050734	0.14385929158672478	FunFams
0.6583478330050734	0.14385929158672478	FunFams
0.6583478330050734	0.14385929158672478	FunFams
0.6583478330050734	0.14385929158672478	FunFams
0.6583478330050734	0.14385929158672478	FunFams
0.6583478330050734	0.14385929158672478	FunFams
0.6583478330050734	0.14385929158672478	FunFams
0.6583478330050734	0.14385929158672478	FunFams
0.6651927414390136	0.14104239017827408	FunFams
0.6651927414390136	0.14104239017827408	FunFams
0.6651927414390136	0.14093060837635144	FunFams
0.6651927414390136	0.14093060837635144	FunFams
0.6651927414390136	0.14093060837635144	FunFams
0.6654994081056802	0.14093060837635144	FunFams
0.6654994081056802	0.14093060837635144	FunFams
0.6627543027980292	0.1378007179225173	FunFams
0.6627543027980292	0.1378007179225173	FunFams
0.6599899938045702	0.13623577269560025	FunFams
0.6599899938045702	0.13623577269560025	FunFams
0.6599899938045702	0.13623577269560025	FunFams
0.6599899938045702	0.13623577269560025	FunFams
0.6571799937533683	0.13580106568812328	FunFams
0.6571799937533683	0.13580106568812328	FunFams
0.6571799937533683	0.13580106568812328	FunFams
0.6571799937533683	0.13580106568812328	FunFams
0.6571799937533683	0.13580106568812328	FunFams
0.6568955285479546	0.13548807664273987	FunFams
0.6568955285479546	0.13548807664273987	FunFams
0.6568955285479546	0.13548807664273987	FunFams
0.6568955285479546	0.13548807664273987	FunFams
0.6568955285479546	0.13548807664273987	FunFams
0.6540363246191875	0.1347838512906272	FunFams
0.6540363246191875	0.1347838512906272	FunFams
0.6572414528243157	0.1347838512906272	FunFams
0.6572414528243157	0.1347838512906272	FunFams
0.6568621292986296	0.13321890606371012	FunFams
0.6568621292986296	0.13321890606371012	FunFams
0.6568621292986296	0.13321890606371012	FunFams
0.6568621292986296	0.13321890606371012	FunFams
0.6568621292986296	0.13321890606371012	FunFams
0.6568621292986296	0.13321890606371012	FunFams
0.655164834994865	0.13269725765473778	FunFams
0.655164834994865	0.13269725765473778	FunFams
0.655164834994865	0.13269725765473778	FunFams
0.655164834994865	0.13269725765473778	FunFams
0.6637972727948974	0.1141232002331475	FunFams
0.6637972727948974	0.1141232002331475	FunFams
0.6637972727948974	0.1141232002331475	FunFams
0.6637972727948974	0.1141232002331475	FunFams
0.6637972727948974	0.1141232002331475	FunFams
0.6637972727948974	0.1141232002331475	FunFams
0.6637972727948974	0.1141232002331475	FunFams
0.6637972727948974	0.1141232002331475	FunFams
0.6637972727948974	0.1141232002331475	FunFams
0.6637972727948974	0.1141232002331475	FunFams
0.6637685788561798	0.1137149536522126	FunFams
0.6637685788561798	0.1137149536522126	FunFams
0.6632583047609321	0.11215000842529553	FunFams
0.6632583047609321	0.11215000842529553	FunFams
0.6632583047609321	0.11215000842529553	FunFams
0.6632583047609321	0.11215000842529553	FunFams
0.6636791801818074	0.11215000842529553	FunFams
0.6636791801818074	0.11215000842529553	FunFams
0.6627950068838411	0.11156315396520164	FunFams
0.6627950068838411	0.11156315396520164	FunFams
0.6627950068838411	0.11156315396520164	FunFams
0.6623527074553375	0.10955108153059398	FunFams
0.6623527074553375	0.10955108153059398	FunFams
0.6623527074553375	0.10955108153059398	FunFams
0.6623527074553375	0.10955108153059398	FunFams
0.660017282904476	0.10858803831402965	FunFams
0.6604263812517189	0.10858803831402965	FunFams
0.6604263812517189	0.10858803831402965	FunFams
0.6604263812517189	0.10858803831402965	FunFams
0.6604263812517189	0.10858803831402965	FunFams
0.6604263812517189	0.10858803831402965	FunFams
0.6604263812517189	0.10858803831402965	FunFams
0.6604263812517189	0.10858803831402965	FunFams
0.6604263812517189	0.10858803831402965	FunFams
0.6626675287192221	0.10858803831402965	FunFams
0.6626675287192221	0.10858803831402965	FunFams
0.6626675287192221	0.10858803831402965	FunFams
0.662494885301869	0.10827504926864623	FunFams
0.662494885301869	0.10827504926864623	FunFams
0.666532117676498	0.10813896707500127	FunFams
0.666532117676498	0.10813896707500127	FunFams
0.666532117676498	0.10813896707500127	FunFams
0.6660346843784852	0.10773841561811176	FunFams
0.6667291288229297	0.10739065001213019	FunFams
0.6667291288229297	0.1071008453404789	FunFams
0.6667291288229297	0.1071008453404789	FunFams
0.6667291288229297	0.1071008453404789	FunFams
0.6667291288229297	0.1071008453404789	FunFams
0.6699342570280579	0.1071008453404789	FunFams
0.6699342570280579	0.1071008453404789	FunFams
0.6699342570280579	0.1071008453404789	FunFams
0.6699342570280579	0.1071008453404789	FunFams
0.6699342570280579	0.1071008453404789	FunFams
0.6699342570280579	0.1071008453404789	FunFams
0.666459880786248	0.10657919693150653	FunFams
0.666459880786248	0.10657919693150653	FunFams
0.6682242742565848	0.10397095488664478	FunFams
0.6682242742565848	0.10397095488664478	FunFams
0.6692764014612371	0.10357971857991553	FunFams
0.6692764014612371	0.10357971857991553	FunFams
0.6692764014612371	0.10357971857991553	FunFams
0.6745027557529041	0.10201477335299848	FunFams
0.6745027557529041	0.10201477335299848	FunFams
0.6745027557529041	0.10201477335299848	FunFams
0.6745027557529041	0.10201477335299848	FunFams
0.6745027557529041	0.10201477335299848	FunFams
0.6745027557529041	0.10201477335299848	FunFams
0.6798808287004232	0.10112051893761728	FunFams
0.6798808287004232	0.10112051893761728	FunFams
0.6798808287004232	0.10112051893761728	FunFams
0.6826158714354659	0.10112051893761728	FunFams
0.6826158714354659	0.10112051893761728	FunFams
0.6826158714354659	0.10112051893761728	FunFams
0.6826158714354659	0.10112051893761728	FunFams
0.6843738876523007	0.0983036175291666	FunFams
0.6843738876523007	0.0983036175291666	FunFams
0.6843738876523007	0.0983036175291666	FunFams
0.6843738876523007	0.0983036175291666	FunFams
0.6843738876523007	0.0983036175291666	FunFams
0.6843738876523007	0.0983036175291666	FunFams
0.6843738876523007	0.0983036175291666	FunFams
0.6843738876523007	0.0983036175291666	FunFams
0.6843738876523007	0.0983036175291666	FunFams
0.6843738876523007	0.0983036175291666	FunFams
0.6904488427040408	0.09419817680400758	FunFams
0.6904488427040408	0.09419817680400758	FunFams
0.6904488427040408	0.09419817680400758	FunFams
0.6907319638473428	0.09334457031659828	FunFams
0.6907319638473428	0.09334457031659828	FunFams
0.6907319638473428	0.09334457031659828	FunFams
0.6907319638473428	0.09334457031659828	FunFams
0.6907319638473428	0.09334457031659828	FunFams
0.6907319638473428	0.09334457031659828	FunFams
0.6907319638473428	0.09334457031659828	FunFams
0.6907319638473428	0.09334457031659828	FunFams
0.6907319638473428	0.09334457031659828	FunFams
0.6907319638473428	0.09334457031659828	FunFams
0.6907319638473428	0.09334457031659828	FunFams
0.6950407838138251	0.0918204497477747	FunFams
0.6950407838138251	0.0918204497477747	FunFams
0.6950407838138251	0.0918204497477747	FunFams
0.6950407838138251	0.0918204497477747	FunFams
0.6950407838138251	0.0918204497477747	FunFams
0.7001293570581671	0.09025550452085764	FunFams
0.7001293570581671	0.09025550452085764	FunFams
0.7001293570581671	0.09025550452085764	FunFams
0.7040245912858558	0.0886905592939406	FunFams
0.7040245912858558	0.0886905592939406	FunFams
0.7040245912858558	0.0886905592939406	FunFams
0.6886492453786276	0.08321325099973087	FunFams
0.6886492453786276	0.08321325099973087	FunFams
0.6880233262654919	0.08184392392617845	FunFams
0.6880233262654919	0.08184392392617845	FunFams
0.6880233262654919	0.08184392392617845	FunFams
0.6880233262654919	0.08184392392617845	FunFams
0.6880233262654919	0.08119186341496301	FunFams
0.6880233262654919	0.08119186341496301	FunFams
0.6880233262654919	0.08119186341496301	FunFams
0.6880233262654919	0.08119186341496301	FunFams
0.6886336800953344	0.08001815449477521	FunFams
0.6886336800953344	0.08001815449477521	FunFams
0.6886336800953344	0.08001815449477521	FunFams
0.6886336800953344	0.08001815449477521	FunFams
0.6892342806959351	0.08001815449477521	FunFams
0.6906106570723114	0.08001815449477521	FunFams
0.6906106570723114	0.08001815449477521	FunFams
0.6906106570723114	0.08001815449477521	FunFams
0.6922432883824996	0.07962691818804596	FunFams
0.6922432883824996	0.07962691818804596	FunFams
0.6922432883824996	0.07962691818804596	FunFams
0.6922432883824996	0.07962691818804596	FunFams
0.6922432883824996	0.07962691818804596	FunFams
0.6879688896100343	0.07806197296112889	FunFams
0.6879688896100343	0.07806197296112889	FunFams
0.6552031297422148	0.06922692333660559	FunFams
0.6552031297422148	0.06922692333660559	FunFams
0.6552031297422148	0.06922692333660559	FunFams
0.6552031297422148	0.06922692333660559	FunFams
0.6552031297422148	0.06922692333660559	FunFams
0.6552031297422148	0.06922692333660559	FunFams
0.6640740974841504	0.06922692333660559	FunFams
0.6640740974841504	0.06922692333660559	FunFams
0.6640740974841504	0.06922692333660559	FunFams
0.6640740974841504	0.06922692333660559	FunFams
0.6640740974841504	0.06922692333660559	FunFams
0.6640740974841504	0.06922692333660559	FunFams
0.6715093070201286	0.0683326689212244	FunFams
0.6702949779369471	0.0677635979296182	FunFams
0.6702949779369471	0.0677635979296182	FunFams
0.6702949779369471	0.0677635979296182	FunFams
0.6702949779369471	0.0677635979296182	FunFams
0.6702949779369471	0.0677635979296182	FunFams
0.6642757526578237	0.0635502838571492	FunFams
0.6642757526578237	0.0635502838571492	FunFams
0.6642757526578237	0.0635502838571492	FunFams
0.6642757526578237	0.0635502838571492	FunFams
0.6642757526578237	0.0635502838571492	FunFams
0.6700817600143937	0.06198533863023214	FunFams
0.6700817600143937	0.06198533863023214	FunFams
0.6700817600143937	0.06198533863023214	FunFams
0.6700817600143937	0.06198533863023214	FunFams
0.6700817600143937	0.06198533863023214	FunFams
0.6700817600143937	0.06198533863023214	FunFams
0.6700817600143937	0.06198533863023214	FunFams
0.6700817600143937	0.06198533863023214	FunFams
0.6700817600143937	0.06198533863023214	FunFams
0.6700817600143937	0.06198533863023214	FunFams
0.703476128029992	0.056304595273432456	FunFams
0.703476128029992	0.056304595273432456	FunFams
0.703476128029992	0.056304595273432456	FunFams
0.7002081541737831	0.05608103166958716	FunFams
0.7002081541737831	0.05608103166958716	FunFams
0.6942123172572587	0.054672580965361796	FunFams
0.6942123172572587	0.054672580965361796	FunFams
0.6942123172572587	0.054672580965361796	FunFams
0.6942123172572587	0.054672580965361796	FunFams
0.6930452378837186	0.0523251631249862	FunFams
0.6865142854982659	0.05141227840928459	FunFams
0.6865142854982659	0.05141227840928459	FunFams
0.6865142854982659	0.05141227840928459	FunFams
0.6865142854982659	0.05141227840928459	FunFams
0.6865142854982659	0.05141227840928459	FunFams
0.6865142854982659	0.05141227840928459	FunFams
0.6865142854982659	0.05141227840928459	FunFams
0.6865142854982659	0.05141227840928459	FunFams
0.6865142854982659	0.05141227840928459	FunFams
0.6865142854982659	0.05141227840928459	FunFams
0.6865142854982659	0.05141227840928459	FunFams
0.6651402595095113	0.04671744272853342	FunFams
0.6651402595095113	0.04671744272853342	FunFams
0.6651402595095113	0.04671744272853342	FunFams
0.657352823684151	0.04515249750161636	FunFams
0.657352823684151	0.04515249750161636	FunFams
0.657352823684151	0.04515249750161636	FunFams
0.657352823684151	0.04515249750161636	FunFams
0.657352823684151	0.04515249750161636	FunFams
0.657352823684151	0.04515249750161636	FunFams
0.657352823684151	0.04515249750161636	FunFams
0.657352823684151	0.04515249750161636	FunFams
0.657352823684151	0.04515249750161636	FunFams
0.663480271867107	0.044705370293925774	FunFams
0.663480271867107	0.044705370293925774	FunFams
0.663480271867107	0.044705370293925774	FunFams
0.663480271867107	0.044705370293925774	FunFams
0.663480271867107	0.044705370293925774	FunFams
0.663480271867107	0.044705370293925774	FunFams
0.6752281277219588	0.044357604687944203	FunFams
0.6752281277219588	0.044357604687944203	FunFams
0.6752281277219588	0.044357604687944203	FunFams
0.6636366086927856	0.041540703279493496	FunFams
0.6636366086927856	0.041540703279493496	FunFams
0.6636366086927856	0.041540703279493496	FunFams
0.6636366086927856	0.041540703279493496	FunFams
0.6636366086927856	0.041540703279493496	FunFams
0.6636366086927856	0.041540703279493496	FunFams
0.6636366086927856	0.041540703279493496	FunFams
0.6636366086927856	0.041540703279493496	FunFams
0.6608588309150079	0.04111390003578884	FunFams
0.6608588309150079	0.04111390003578884	FunFams
0.6608588309150079	0.04111390003578884	FunFams
0.6608588309150079	0.04111390003578884	FunFams
0.6608588309150079	0.04111390003578884	FunFams
0.6654078126863506	0.03767660962666745	FunFams
0.6654078126863506	0.03767660962666745	FunFams
0.6654078126863506	0.03767660962666745	FunFams
0.6654078126863506	0.03767660962666745	FunFams
0.6654078126863506	0.03767660962666745	FunFams
0.6654078126863506	0.03767660962666745	FunFams
0.6654078126863506	0.03767660962666745	FunFams
0.6654078126863506	0.03767660962666745	FunFams
0.6654078126863506	0.03767660962666745	FunFams
0.6654078126863506	0.03767660962666745	FunFams
0.6654078126863506	0.03767660962666745	FunFams
0.6654078126863506	0.03767660962666745	FunFams
0.6654078126863506	0.03767660962666745	FunFams
0.6654078126863506	0.03767660962666745	FunFams
0.6654078126863506	0.03767660962666745	FunFams
0.6654078126863506	0.03767660962666745	FunFams
0.6746321037794899	0.037375658621491094	FunFams
0.6746321037794899	0.037375658621491094	FunFams
0.6758666716807245	0.037375658621491094	FunFams
0.6758666716807245	0.037375658621491094	FunFams
0.6758666716807245	0.037375658621491094	FunFams
0.6758666716807245	0.037375658621491094	FunFams
0.6758666716807245	0.037375658621491094	FunFams
0.6758666716807245	0.037375658621491094	FunFams
0.6758666716807245	0.037375658621491094	FunFams
0.6880342908716023	0.03633236180354638	FunFams
0.6880342908716023	0.03633236180354638	FunFams
0.6880342908716023	0.03633236180354638	FunFams
0.7050026196880873	0.03601937275816297	FunFams
0.7050026196880873	0.03601937275816297	FunFams
0.7050026196880873	0.03601937275816297	FunFams
0.706164315234191	0.035870330355599445	FunFams
0.706164315234191	0.035870330355599445	FunFams
0.706164315234191	0.035870330355599445	FunFams
0.706164315234191	0.035870330355599445	FunFams
0.706164315234191	0.035870330355599445	FunFams
0.706164315234191	0.035870330355599445	FunFams
0.706164315234191	0.035870330355599445	FunFams
0.706164315234191	0.035870330355599445	FunFams
0.706164315234191	0.035870330355599445	FunFams
0.706164315234191	0.035870330355599445	FunFams
0.706164315234191	0.035870330355599445	FunFams
0.706164315234191	0.035870330355599445	FunFams
0.706164315234191	0.035870330355599445	FunFams
0.706164315234191	0.035870330355599445	FunFams
0.7302179269697302	0.03482703353765474	FunFams
0.7302179269697302	0.03482703353765474	FunFams
0.7302179269697302	0.03482703353765474	FunFams
0.7302179269697302	0.03482703353765474	FunFams
0.7302179269697302	0.03482703353765474	FunFams
0.7302179269697302	0.03482703353765474	FunFams
0.7302179269697302	0.03482703353765474	FunFams
0.7302179269697302	0.03482703353765474	FunFams
0.7329898970844074	0.03407858147260745	FunFams
0.7329898970844074	0.03407858147260745	FunFams
0.7329898970844074	0.03407858147260745	FunFams
0.7352769050298469	0.033035284654662746	FunFams
0.7352769050298469	0.033035284654662746	FunFams
0.7352769050298469	0.033035284654662746	FunFams
0.7352769050298469	0.033035284654662746	FunFams
0.7352769050298469	0.033035284654662746	FunFams
0.7352769050298469	0.033035284654662746	FunFams
0.7352769050298469	0.033035284654662746	FunFams
0.7352769050298469	0.033035284654662746	FunFams
0.7352769050298469	0.033035284654662746	FunFams
0.7352769050298469	0.033035284654662746	FunFams
0.7352769050298469	0.033035284654662746	FunFams
0.7352769050298469	0.033035284654662746	FunFams
0.7352769050298469	0.033035284654662746	FunFams
0.7352769050298469	0.033035284654662746	FunFams
0.7352769050298469	0.033035284654662746	FunFams
0.7352769050298469	0.033035284654662746	FunFams
0.7352769050298469	0.033035284654662746	FunFams
0.7258225087809128	0.03286140185167196	FunFams
0.7258225087809128	0.03286140185167196	FunFams
0.7258225087809128	0.03286140185167196	FunFams
0.7258225087809128	0.03286140185167196	FunFams
0.7258225087809128	0.03286140185167196	FunFams
0.7258225087809128	0.03286140185167196	FunFams
0.7258225087809128	0.03286140185167196	FunFams
0.7258225087809128	0.03286140185167196	FunFams
0.7258225087809128	0.03286140185167196	FunFams
0.7258225087809128	0.03286140185167196	FunFams
0.7258225087809128	0.03286140185167196	FunFams
0.7258225087809128	0.03286140185167196	FunFams
0.7258225087809128	0.03286140185167196	FunFams
0.7258225087809128	0.03286140185167196	FunFams
0.7258225087809128	0.03286140185167196	FunFams
0.7258225087809128	0.03286140185167196	FunFams
0.7258225087809128	0.03286140185167196	FunFams
0.7258225087809128	0.03286140185167196	FunFams
0.7258225087809128	0.03286140185167196	FunFams
0.7258225087809128	0.03286140185167196	FunFams
0.7258225087809128	0.03286140185167196	FunFams
0.7258225087809128	0.03286140185167196	FunFams
0.7258225087809128	0.03286140185167196	FunFams
0.7258225087809128	0.03286140185167196	FunFams
0.7258225087809128	0.03286140185167196	FunFams
0.7258225087809128	0.03286140185167196	FunFams
0.7258225087809128	0.03286140185167196	FunFams
0.7258225087809128	0.03286140185167196	FunFams
0.7258225087809128	0.03286140185167196	FunFams
0.7258225087809128	0.03286140185167196	FunFams
0.7258225087809128	0.03286140185167196	FunFams
0.7258225087809128	0.03286140185167196	FunFams
0.7258225087809128	0.03286140185167196	FunFams
0.7258225087809128	0.03286140185167196	FunFams
0.7258225087809128	0.03286140185167196	FunFams
0.7258225087809128	0.03286140185167196	FunFams
0.7258225087809128	0.03286140185167196	FunFams
0.7258225087809128	0.03286140185167196	FunFams
